<?xml version="1.0" encoding="UTF-8" standalone="no"?>
<!DOCTYPE svg PUBLIC "-//W3C//DTD SVG 1.1//EN"
 "http://www.w3.org/Graphics/SVG/1.1/DTD/svg11.dtd">
<!-- Generated by graphviz version 2.38.0 (20140413.2041)
 -->
<!-- Title: ViennaRNA/boltzmann_sampling.h Pages: 1 -->
<!--zoomable 285 -->
<svg id="main" version="1.1" xmlns="http://www.w3.org/2000/svg" xmlns:xlink="http://www.w3.org/1999/xlink" xml:space="preserve" onload="init(evt)">
<style type="text/css"><![CDATA[
.edge:hover path { stroke: red; }
.edge:hover polygon { stroke: red; fill: red; }
]]></style>
<script type="text/javascript"><![CDATA[
var edges = document.getElementsByTagName('g');
if (edges && edges.length) {
  for (var i=0;i<edges.length;i++) {
    if (edges[i].id.substr(0,4)=='edge') {
      edges[i].setAttribute('class','edge');
    }
  }
}
]]></script>
        <defs>
                <circle id="rim" cx="0" cy="0" r="7"/>
                <circle id="rim2" cx="0" cy="0" r="3.5"/>
                <g id="zoomPlus">
                        <use xlink:href="#rim" fill="#404040">
                                <set attributeName="fill" to="#808080" begin="zoomplus.mouseover" end="zoomplus.mouseout"/>
                        </use>
                        <path d="M-4,0h8M0,-4v8" fill="none" stroke="white" stroke-width="1.5" pointer-events="none"/>
                </g>
                <g id="zoomMin">
                        <use xlink:href="#rim" fill="#404040">
                                <set attributeName="fill" to="#808080" begin="zoomminus.mouseover" end="zoomminus.mouseout"/>
                        </use>
                        <path d="M-4,0h8" fill="none" stroke="white" stroke-width="1.5" pointer-events="none"/>
                </g>
                <g id="dirArrow">
                        <path fill="none" stroke="white" stroke-width="1.5" d="M0,-3.0v7 M-2.5,-0.5L0,-3.0L2.5,-0.5"/>
                </g>
               <g id="resetDef">
                       <use xlink:href="#rim2" fill="#404040">
                               <set attributeName="fill" to="#808080" begin="reset.mouseover" end="reset.mouseout"/>
                       </use>
               </g>
        </defs>

<script type="text/javascript">
var viewWidth = 1224;
var viewHeight = 285;
var sectionId = 'dynsection-0';
</script>
<script xlink:href="svgpan.js"/>
<svg id="graph" class="graph">
<g id="viewport">
<title>ViennaRNA/boltzmann_sampling.h</title>
<!-- Node0 -->
<g id="node1" class="node"><title>Node0</title>
<polygon fill="#bfbfbf" stroke="black" points="530.5,-246.5 530.5,-276.5 652.5,-276.5 652.5,-246.5 530.5,-246.5"/>
<text text-anchor="start" x="538.5" y="-264.5" font-family="Helvetica,sans-Serif" font-size="10.00">ViennaRNA/boltzmann</text>
<text text-anchor="middle" x="591.5" y="-253.5" font-family="Helvetica,sans-Serif" font-size="10.00">_sampling.h</text>
</g>
<!-- Node1 -->
<g id="node2" class="node"><title>Node1</title>
<g id="a_node2"><a xlink:href="data__structures_8h.html" target="_top" xlink:title="Various data structures and pre&#45;processor macros. ">
<polygon fill="none" stroke="black" points="514,-190.5 514,-209.5 669,-209.5 669,-190.5 514,-190.5"/>
<text text-anchor="middle" x="591.5" y="-197.5" font-family="Helvetica,sans-Serif" font-size="10.00">ViennaRNA/data_structures.h</text>
</a>
</g>
</g>
<!-- Node0&#45;&gt;Node1 -->
<g id="edge1" class="edge"><title>Node0&#45;&gt;Node1</title>
<path fill="none" stroke="midnightblue" d="M591.5,-246.399C591.5,-238.466 591.5,-228.458 591.5,-219.858"/>
<polygon fill="midnightblue" stroke="midnightblue" points="595,-219.658 591.5,-209.658 588,-219.658 595,-219.658"/>
</g>
<!-- Node2 -->
<g id="node3" class="node"><title>Node2</title>
<g id="a_node3"><a xlink:href="energy__const_8h.html" target="_top" xlink:title="Energy parameter constants. ">
<polygon fill="none" stroke="black" points="0,-62 0,-81 147,-81 147,-62 0,-62"/>
<text text-anchor="middle" x="73.5" y="-69" font-family="Helvetica,sans-Serif" font-size="10.00">ViennaRNA/energy_const.h</text>
</a>
</g>
</g>
<!-- Node1&#45;&gt;Node2 -->
<g id="edge2" class="edge"><title>Node1&#45;&gt;Node2</title>
<path fill="none" stroke="midnightblue" d="M513.779,-195.607C387.784,-189.518 149.714,-175.346 117.5,-154 95.5484,-139.454 83.6758,-110.165 77.9704,-90.9492"/>
<polygon fill="midnightblue" stroke="midnightblue" points="81.3321,-89.9726 75.352,-81.2268 74.573,-91.793 81.3321,-89.9726"/>
</g>
<!-- Node4 -->
<g id="node5" class="node"><title>Node4</title>
<g id="a_node5"><a xlink:href="model_8h.html" target="_top" xlink:title="The model details data structure and its corresponding modifiers. ">
<polygon fill="none" stroke="black" points="165,-62 165,-81 276,-81 276,-62 165,-62"/>
<text text-anchor="middle" x="220.5" y="-69" font-family="Helvetica,sans-Serif" font-size="10.00">ViennaRNA/model.h</text>
</a>
</g>
</g>
<!-- Node1&#45;&gt;Node4 -->
<g id="edge4" class="edge"><title>Node1&#45;&gt;Node4</title>
<path fill="none" stroke="midnightblue" d="M513.934,-193.459C438.087,-186.965 328.733,-174.414 291.5,-154 264.051,-138.95 242.227,-108.908 230.353,-89.8025"/>
<polygon fill="midnightblue" stroke="midnightblue" points="233.337,-87.9738 225.207,-81.1804 227.327,-91.5611 233.337,-87.9738"/>
</g>
<!-- Node5 -->
<g id="node6" class="node"><title>Node5</title>
<g id="a_node6"><a xlink:href="params_8h.html" target="_top" xlink:title="Functions to deal with sets of energy parameters. ">
<polygon fill="none" stroke="black" points="126.5,-129 126.5,-148 244.5,-148 244.5,-129 126.5,-129"/>
<text text-anchor="middle" x="185.5" y="-136" font-family="Helvetica,sans-Serif" font-size="10.00">ViennaRNA/params.h</text>
</a>
</g>
</g>
<!-- Node1&#45;&gt;Node5 -->
<g id="edge5" class="edge"><title>Node1&#45;&gt;Node5</title>
<path fill="none" stroke="midnightblue" d="M513.892,-190.734C444.287,-182.532 339.7,-169.038 249.5,-154 242.396,-152.816 234.926,-151.46 227.678,-150.063"/>
<polygon fill="midnightblue" stroke="midnightblue" points="228.129,-146.585 217.64,-148.075 226.769,-153.451 228.129,-146.585"/>
</g>
<!-- Node6 -->
<g id="node7" class="node"><title>Node6</title>
<g id="a_node7"><a xlink:href="dp__matrices_8h.html" target="_top" xlink:title="Functions to deal with standard dynamic programming (DP) matrices. ">
<polygon fill="none" stroke="black" points="300.5,-129 300.5,-148 440.5,-148 440.5,-129 300.5,-129"/>
<text text-anchor="middle" x="370.5" y="-136" font-family="Helvetica,sans-Serif" font-size="10.00">ViennaRNA/dp_matrices.h</text>
</a>
</g>
</g>
<!-- Node1&#45;&gt;Node6 -->
<g id="edge9" class="edge"><title>Node1&#45;&gt;Node6</title>
<path fill="none" stroke="midnightblue" d="M554.935,-190.475C513.931,-180.048 448.064,-162.362 407.065,-150.807"/>
<polygon fill="midnightblue" stroke="midnightblue" points="407.784,-147.372 397.208,-148.009 405.873,-154.106 407.784,-147.372"/>
</g>
<!-- Node7 -->
<g id="node8" class="node"><title>Node7</title>
<g id="a_node8"><a xlink:href="constraints_8h.html" target="_top" xlink:title="Functions and data structures for constraining secondary structure predictions and evaluation...">
<polygon fill="none" stroke="black" points="572.5,-129 572.5,-148 706.5,-148 706.5,-129 572.5,-129"/>
<text text-anchor="middle" x="639.5" y="-136" font-family="Helvetica,sans-Serif" font-size="10.00">ViennaRNA/constraints.h</text>
</a>
</g>
</g>
<!-- Node1&#45;&gt;Node7 -->
<g id="edge11" class="edge"><title>Node1&#45;&gt;Node7</title>
<path fill="none" stroke="midnightblue" d="M593.477,-190.475C598.834,-181.373 610.251,-166.741 620.545,-155.483"/>
<polygon fill="midnightblue" stroke="midnightblue" points="623.325,-157.641 627.738,-148.009 618.282,-152.787 623.325,-157.641"/>
</g>
<!-- Node13 -->
<g id="node14" class="node"><title>Node13</title>
<g id="a_node14"><a xlink:href="grammar_8h.html" target="_top" xlink:title="Implementations for the RNA folding grammar. ">
<polygon fill="none" stroke="black" points="801,-129 801,-148 926,-148 926,-129 801,-129"/>
<text text-anchor="middle" x="863.5" y="-136" font-family="Helvetica,sans-Serif" font-size="10.00">ViennaRNA/grammar.h</text>
</a>
</g>
</g>
<!-- Node1&#45;&gt;Node13 -->
<g id="edge23" class="edge"><title>Node1&#45;&gt;Node13</title>
<path fill="none" stroke="midnightblue" d="M625.57,-190.475C671.925,-179.827 755.071,-161.609 809.826,-150.081"/>
<polygon fill="midnightblue" stroke="midnightblue" points="810.635,-153.487 819.704,-148.009 809.199,-146.636 810.635,-153.487"/>
</g>
<!-- Node14 -->
<g id="node15" class="node"><title>Node14</title>
<g id="a_node15"><a xlink:href="structured__domains_8h.html" target="_top" xlink:title="This module provides interfaces that deal with additional structured domains in the folding grammar...">
<polygon fill="none" stroke="black" points="944,-123.5 944,-153.5 1065,-153.5 1065,-123.5 944,-123.5"/>
<text text-anchor="start" x="952" y="-141.5" font-family="Helvetica,sans-Serif" font-size="10.00">ViennaRNA/structured</text>
<text text-anchor="middle" x="1004.5" y="-130.5" font-family="Helvetica,sans-Serif" font-size="10.00">_domains.h</text>
</a>
</g>
</g>
<!-- Node1&#45;&gt;Node14 -->
<g id="edge25" class="edge"><title>Node1&#45;&gt;Node14</title>
<path fill="none" stroke="midnightblue" d="M669.289,-190.557C736.858,-182.825 837.55,-170.352 934.043,-154.176"/>
<polygon fill="midnightblue" stroke="midnightblue" points="934.692,-157.615 943.968,-152.496 933.524,-150.714 934.692,-157.615"/>
</g>
<!-- Node15 -->
<g id="node16" class="node"><title>Node15</title>
<g id="a_node16"><a xlink:href="unstructured__domains_8h.html" target="_top" xlink:title="Functions to modify unstructured domains, e.g. to incorporate ligands binding to unpaired stretches...">
<polygon fill="none" stroke="black" points="1083.5,-123.5 1083.5,-153.5 1215.5,-153.5 1215.5,-123.5 1083.5,-123.5"/>
<text text-anchor="start" x="1091.5" y="-141.5" font-family="Helvetica,sans-Serif" font-size="10.00">ViennaRNA/unstructured</text>
<text text-anchor="middle" x="1149.5" y="-130.5" font-family="Helvetica,sans-Serif" font-size="10.00">_domains.h</text>
</a>
</g>
</g>
<!-- Node1&#45;&gt;Node15 -->
<g id="edge26" class="edge"><title>Node1&#45;&gt;Node15</title>
<path fill="none" stroke="midnightblue" d="M669.057,-193.679C763.151,-186.984 926.271,-173.896 1065.5,-154 1068.03,-153.639 1070.6,-153.25 1073.2,-152.84"/>
<polygon fill="midnightblue" stroke="midnightblue" points="1074.02,-156.251 1083.32,-151.164 1072.88,-149.345 1074.02,-156.251"/>
</g>
<!-- Node3 -->
<g id="node4" class="node"><title>Node3</title>
<polygon fill="none" stroke="#bfbfbf" points="49.5,-0.5 49.5,-19.5 97.5,-19.5 97.5,-0.5 49.5,-0.5"/>
<text text-anchor="middle" x="73.5" y="-7.5" font-family="Helvetica,sans-Serif" font-size="10.00">limits.h</text>
</g>
<!-- Node2&#45;&gt;Node3 -->
<g id="edge3" class="edge"><title>Node2&#45;&gt;Node3</title>
<path fill="none" stroke="midnightblue" d="M73.5,-61.9751C73.5,-53.5803 73.5,-40.4806 73.5,-29.6631"/>
<polygon fill="midnightblue" stroke="midnightblue" points="77.0001,-29.5091 73.5,-19.5091 70.0001,-29.5091 77.0001,-29.5091"/>
</g>
<!-- Node5&#45;&gt;Node1 -->
<g id="edge7" class="edge"><title>Node5&#45;&gt;Node1</title>
<path fill="none" stroke="midnightblue" d="M235.048,-148.075C245.803,-150.144 257.049,-152.258 267.5,-154 352.3,-168.138 449.817,-180.911 515.592,-189.205"/>
<polygon fill="midnightblue" stroke="midnightblue" points="515.511,-192.722 525.87,-190.497 516.384,-185.777 515.511,-192.722"/>
</g>
<!-- Node5&#45;&gt;Node2 -->
<g id="edge6" class="edge"><title>Node5&#45;&gt;Node2</title>
<path fill="none" stroke="midnightblue" d="M170.395,-128.734C151.587,-117.818 119.245,-99.0487 97.1422,-86.2209"/>
<polygon fill="midnightblue" stroke="midnightblue" points="98.7713,-83.1197 88.3655,-81.1273 95.2576,-89.174 98.7713,-83.1197"/>
</g>
<!-- Node5&#45;&gt;Node4 -->
<g id="edge8" class="edge"><title>Node5&#45;&gt;Node4</title>
<path fill="none" stroke="midnightblue" d="M190.22,-128.734C195.521,-118.89 204.26,-102.66 210.991,-90.1594"/>
<polygon fill="midnightblue" stroke="midnightblue" points="214.195,-91.5914 215.855,-81.1273 208.032,-88.2727 214.195,-91.5914"/>
</g>
<!-- Node6&#45;&gt;Node1 -->
<g id="edge10" class="edge"><title>Node6&#45;&gt;Node1</title>
<path fill="none" stroke="midnightblue" d="M407.002,-148.009C447.981,-158.429 513.849,-176.114 554.872,-187.676"/>
<polygon fill="midnightblue" stroke="midnightblue" points="554.161,-191.112 564.737,-190.475 556.072,-184.378 554.161,-191.112"/>
</g>
<!-- Node7&#45;&gt;Node1 -->
<g id="edge12" class="edge"><title>Node7&#45;&gt;Node1</title>
<path fill="none" stroke="midnightblue" d="M637.533,-148.009C632.182,-157.104 620.768,-171.736 610.473,-182.997"/>
<polygon fill="midnightblue" stroke="midnightblue" points="607.69,-180.843 603.278,-190.475 612.734,-185.696 607.69,-180.843"/>
</g>
<!-- Node8 -->
<g id="node9" class="node"><title>Node8</title>
<g id="a_node9"><a xlink:href="constraints__hard_8h.html" target="_top" xlink:title="Functions and data structures for handling of secondary structure hard constraints. ">
<polygon fill="none" stroke="black" points="294.5,-56.5 294.5,-86.5 420.5,-86.5 420.5,-56.5 294.5,-56.5"/>
<text text-anchor="start" x="302.5" y="-74.5" font-family="Helvetica,sans-Serif" font-size="10.00">ViennaRNA/constraints</text>
<text text-anchor="middle" x="357.5" y="-63.5" font-family="Helvetica,sans-Serif" font-size="10.00">_hard.h</text>
</a>
</g>
</g>
<!-- Node7&#45;&gt;Node8 -->
<g id="edge13" class="edge"><title>Node7&#45;&gt;Node8</title>
<path fill="none" stroke="midnightblue" d="M602.343,-128.936C558.274,-118.778 483.835,-101.62 428.578,-88.8832"/>
<polygon fill="midnightblue" stroke="midnightblue" points="429.026,-85.3947 418.495,-86.5592 427.453,-92.2159 429.026,-85.3947"/>
</g>
<!-- Node9 -->
<g id="node10" class="node"><title>Node9</title>
<g id="a_node10"><a xlink:href="constraints__soft_8h.html" target="_top" xlink:title="Functions and data structures for secondary structure soft constraints. ">
<polygon fill="none" stroke="black" points="438.5,-56.5 438.5,-86.5 564.5,-86.5 564.5,-56.5 438.5,-56.5"/>
<text text-anchor="start" x="446.5" y="-74.5" font-family="Helvetica,sans-Serif" font-size="10.00">ViennaRNA/constraints</text>
<text text-anchor="middle" x="501.5" y="-63.5" font-family="Helvetica,sans-Serif" font-size="10.00">_soft.h</text>
</a>
</g>
</g>
<!-- Node7&#45;&gt;Node9 -->
<g id="edge15" class="edge"><title>Node7&#45;&gt;Node9</title>
<path fill="none" stroke="midnightblue" d="M621.175,-128.869C600.736,-119.242 567.077,-103.388 540.653,-90.9415"/>
<polygon fill="midnightblue" stroke="midnightblue" points="541.821,-87.6229 531.283,-86.5281 538.838,-93.9556 541.821,-87.6229"/>
</g>
<!-- Node10 -->
<g id="node11" class="node"><title>Node10</title>
<g id="a_node11"><a xlink:href="constraints__SHAPE_8h.html" target="_top" xlink:title="This module provides function to incorporate SHAPE reactivity data into the folding recursions by mea...">
<polygon fill="none" stroke="black" points="582.5,-56.5 582.5,-86.5 708.5,-86.5 708.5,-56.5 582.5,-56.5"/>
<text text-anchor="start" x="590.5" y="-74.5" font-family="Helvetica,sans-Serif" font-size="10.00">ViennaRNA/constraints</text>
<text text-anchor="middle" x="645.5" y="-63.5" font-family="Helvetica,sans-Serif" font-size="10.00">_SHAPE.h</text>
</a>
</g>
</g>
<!-- Node7&#45;&gt;Node10 -->
<g id="edge17" class="edge"><title>Node7&#45;&gt;Node10</title>
<path fill="none" stroke="midnightblue" d="M640.309,-128.734C641.065,-120.541 642.23,-107.923 643.265,-96.7136"/>
<polygon fill="midnightblue" stroke="midnightblue" points="646.765,-96.8684 644.199,-86.589 639.795,-96.2249 646.765,-96.8684"/>
</g>
<!-- Node11 -->
<g id="node12" class="node"><title>Node11</title>
<g id="a_node12"><a xlink:href="perturbation__fold_8h.html" target="_top" xlink:title="Find a vector of perturbation energies that minimizes the discripancies between predicted and observe...">
<polygon fill="none" stroke="black" points="727,-56.5 727,-86.5 858,-86.5 858,-56.5 727,-56.5"/>
<text text-anchor="start" x="735" y="-74.5" font-family="Helvetica,sans-Serif" font-size="10.00">ViennaRNA/perturbation</text>
<text text-anchor="middle" x="792.5" y="-63.5" font-family="Helvetica,sans-Serif" font-size="10.00">_fold.h</text>
</a>
</g>
</g>
<!-- Node7&#45;&gt;Node11 -->
<g id="edge19" class="edge"><title>Node7&#45;&gt;Node11</title>
<path fill="none" stroke="midnightblue" d="M659.817,-128.869C682.775,-119.115 720.779,-102.97 750.244,-90.452"/>
<polygon fill="midnightblue" stroke="midnightblue" points="751.645,-93.6596 759.48,-86.5281 748.908,-87.2169 751.645,-93.6596"/>
</g>
<!-- Node12 -->
<g id="node13" class="node"><title>Node12</title>
<g id="a_node13"><a xlink:href="constraints__ligand_8h.html" target="_top" xlink:title="Functions for incorporation of ligands binding to hairpin and interior loop motifs using the soft con...">
<polygon fill="none" stroke="black" points="876.5,-56.5 876.5,-86.5 1002.5,-86.5 1002.5,-56.5 876.5,-56.5"/>
<text text-anchor="start" x="884.5" y="-74.5" font-family="Helvetica,sans-Serif" font-size="10.00">ViennaRNA/constraints</text>
<text text-anchor="middle" x="939.5" y="-63.5" font-family="Helvetica,sans-Serif" font-size="10.00">_ligand.h</text>
</a>
</g>
</g>
<!-- Node7&#45;&gt;Node12 -->
<g id="edge21" class="edge"><title>Node7&#45;&gt;Node12</title>
<path fill="none" stroke="midnightblue" d="M679.028,-128.936C726.557,-118.638 807.289,-101.146 866.303,-88.3595"/>
<polygon fill="midnightblue" stroke="midnightblue" points="867.284,-91.7282 876.316,-86.1899 865.801,-84.8869 867.284,-91.7282"/>
</g>
<!-- Node8&#45;&gt;Node1 -->
<g id="edge14" class="edge"><title>Node8&#45;&gt;Node1</title>
<path fill="none" stroke="midnightblue" d="M383.734,-86.6821C429.145,-111.231 521.81,-161.325 566.412,-185.437"/>
<polygon fill="midnightblue" stroke="midnightblue" points="564.955,-188.628 575.416,-190.305 568.284,-182.471 564.955,-188.628"/>
</g>
<!-- Node9&#45;&gt;Node1 -->
<g id="edge16" class="edge"><title>Node9&#45;&gt;Node1</title>
<path fill="none" stroke="midnightblue" d="M510.301,-86.6021C520.695,-103.06 538.702,-130.958 555.5,-154 562.499,-163.6 570.751,-173.977 577.588,-182.344"/>
<polygon fill="midnightblue" stroke="midnightblue" points="575.023,-184.735 584.088,-190.219 580.421,-180.279 575.023,-184.735"/>
</g>
<!-- Node10&#45;&gt;Node1 -->
<g id="edge18" class="edge"><title>Node10&#45;&gt;Node1</title>
<path fill="none" stroke="midnightblue" d="M606.38,-86.5167C590.072,-94.5256 572.795,-106.36 563.5,-123 552.838,-142.087 565.456,-166.024 577.009,-181.879"/>
<polygon fill="midnightblue" stroke="midnightblue" points="574.586,-184.462 583.504,-190.182 580.099,-180.149 574.586,-184.462"/>
</g>
<!-- Node11&#45;&gt;Node1 -->
<g id="edge20" class="edge"><title>Node11&#45;&gt;Node1</title>
<path fill="none" stroke="midnightblue" d="M782.575,-86.5073C769.21,-104.441 743.813,-135.411 715.5,-154 691.944,-169.466 662.385,-180.46 638.036,-187.709"/>
<polygon fill="midnightblue" stroke="midnightblue" points="636.95,-184.379 628.298,-190.494 638.875,-191.109 636.95,-184.379"/>
</g>
<!-- Node12&#45;&gt;Node1 -->
<g id="edge22" class="edge"><title>Node12&#45;&gt;Node1</title>
<path fill="none" stroke="midnightblue" d="M887.42,-86.6019C858.658,-95.3167 822.739,-107.751 792.5,-123 770.815,-133.935 769.452,-143.611 747.5,-154 714.881,-169.438 675.871,-180.689 645.021,-188.08"/>
<polygon fill="midnightblue" stroke="midnightblue" points="643.838,-184.762 634.893,-190.44 645.426,-191.58 643.838,-184.762"/>
</g>
<!-- Node13&#45;&gt;Node1 -->
<g id="edge24" class="edge"><title>Node13&#45;&gt;Node1</title>
<path fill="none" stroke="midnightblue" d="M829.498,-148.009C783.18,-158.65 700.038,-176.867 645.255,-188.402"/>
<polygon fill="midnightblue" stroke="midnightblue" points="644.44,-184.997 635.372,-190.475 645.877,-191.848 644.44,-184.997"/>
</g>
<!-- Node15&#45;&gt;Node1 -->
<g id="edge27" class="edge"><title>Node15&#45;&gt;Node1</title>
<path fill="none" stroke="midnightblue" d="M1086.67,-153.536C1085.61,-153.695 1084.55,-153.85 1083.5,-154 942.991,-174.079 778.149,-187.224 679.343,-193.862"/>
<polygon fill="midnightblue" stroke="midnightblue" points="678.851,-190.387 669.105,-194.542 679.315,-197.372 678.851,-190.387"/>
</g>
</g>
</svg>
        <g id="navigator" transform="translate(0 0)" fill="#404254">
                <rect fill="#f2f5e9" fill-opacity="0.5" stroke="#606060" stroke-width=".5" x="0" y="0" width="60" height="60"/>
                <use id="zoomplus" xlink:href="#zoomPlus" x="17" y="9" onmousedown="handleZoom(evt,'in')"/>
                <use id="zoomminus" xlink:href="#zoomMin" x="42" y="9" onmousedown="handleZoom(evt,'out')"/>
                <use id="reset" xlink:href="#resetDef" x="30" y="36" onmousedown="handleReset()"/>
                <g id="arrowUp" xlink:href="#dirArrow" transform="translate(30 24)" onmousedown="handlePan(0,-1)">
                  <use xlink:href="#rim" fill="#404040">
                        <set attributeName="fill" to="#808080" begin="arrowUp.mouseover" end="arrowUp.mouseout"/>
                  </use>
                  <path fill="none" stroke="white" stroke-width="1.5" d="M0,-3.0v7 M-2.5,-0.5L0,-3.0L2.5,-0.5"/>
                </g>
                <g id="arrowRight" xlink:href="#dirArrow" transform="rotate(90) translate(36 -43)" onmousedown="handlePan(1,0)">
                  <use xlink:href="#rim" fill="#404040">
                        <set attributeName="fill" to="#808080" begin="arrowRight.mouseover" end="arrowRight.mouseout"/>
                  </use>
                  <path fill="none" stroke="white" stroke-width="1.5" d="M0,-3.0v7 M-2.5,-0.5L0,-3.0L2.5,-0.5"/>
                </g>
                <g id="arrowDown" xlink:href="#dirArrow" transform="rotate(180) translate(-30 -48)" onmousedown="handlePan(0,1)">
                  <use xlink:href="#rim" fill="#404040">
                        <set attributeName="fill" to="#808080" begin="arrowDown.mouseover" end="arrowDown.mouseout"/>
                  </use>
                  <path fill="none" stroke="white" stroke-width="1.5" d="M0,-3.0v7 M-2.5,-0.5L0,-3.0L2.5,-0.5"/>
                </g>
                <g id="arrowLeft" xlink:href="#dirArrow" transform="rotate(270) translate(-36 17)" onmousedown="handlePan(-1,0)">
                  <use xlink:href="#rim" fill="#404040">
                        <set attributeName="fill" to="#808080" begin="arrowLeft.mouseover" end="arrowLeft.mouseout"/>
                  </use>
                  <path fill="none" stroke="white" stroke-width="1.5" d="M0,-3.0v7 M-2.5,-0.5L0,-3.0L2.5,-0.5"/>
                </g>
        </g>
        <svg viewBox="0 0 15 15" width="100%" height="30px" preserveAspectRatio="xMaxYMin meet">
         <g id="arrow_out" transform="scale(0.3 0.3)">
          <a xlink:href="boltzmann__sampling_8h__incl_org.svg" target="_base">
           <rect id="button" ry="5" rx="5" y="6" x="6" height="38" width="38"
                fill="#f2f5e9" fill-opacity="0.5" stroke="#606060" stroke-width="1.0"/>
           <path id="arrow"
             d="M 11.500037,31.436501 C 11.940474,20.09759 22.043105,11.32322 32.158766,21.979434 L 37.068811,17.246167 C 37.068811,17.246167 37.088388,32 37.088388,32 L 22.160133,31.978069 C 22.160133,31.978069 26.997745,27.140456 26.997745,27.140456 C 18.528582,18.264221 13.291696,25.230495 11.500037,31.436501 z"
             style="fill:#404040;"/>
          </a>
         </g>
        </svg>
</svg>
