<?xml version="1.0" encoding="UTF-8" standalone="no"?>
<!DOCTYPE svg PUBLIC "-//W3C//DTD SVG 1.1//EN"
 "http://www.w3.org/Graphics/SVG/1.1/DTD/svg11.dtd">
<!-- Generated by graphviz version 2.38.0 (20140413.2041)
 -->
<!-- Title: ViennaRNA/constraints_SHAPE.h Pages: 1 -->
<svg width="1217pt" height="285pt"
 viewBox="0.00 0.00 1217.00 285.00" xmlns="http://www.w3.org/2000/svg" xmlns:xlink="http://www.w3.org/1999/xlink">
<g id="graph0" class="graph" transform="scale(1 1) rotate(0) translate(4 281)">
<title>ViennaRNA/constraints_SHAPE.h</title>
<!-- Node0 -->
<g id="node1" class="node"><title>Node0</title>
<polygon fill="#bfbfbf" stroke="black" points="370.5,-246.5 370.5,-276.5 496.5,-276.5 496.5,-246.5 370.5,-246.5"/>
<text text-anchor="start" x="378.5" y="-264.5" font-family="Helvetica,sans-Serif" font-size="10.00">ViennaRNA/constraints</text>
<text text-anchor="middle" x="433.5" y="-253.5" font-family="Helvetica,sans-Serif" font-size="10.00">_SHAPE.h</text>
</g>
<!-- Node1 -->
<g id="node2" class="node"><title>Node1</title>
<g id="a_node2"><a xlink:href="data__structures_8h.html" target="_top" xlink:title="Various data structures and pre&#45;processor macros. ">
<polygon fill="none" stroke="black" points="465,-190.5 465,-209.5 620,-209.5 620,-190.5 465,-190.5"/>
<text text-anchor="middle" x="542.5" y="-197.5" font-family="Helvetica,sans-Serif" font-size="10.00">ViennaRNA/data_structures.h</text>
</a>
</g>
</g>
<!-- Node0&#45;&gt;Node1 -->
<g id="edge1" class="edge"><title>Node0&#45;&gt;Node1</title>
<path fill="none" stroke="midnightblue" d="M459.331,-246.399C476.967,-236.773 500.2,-224.09 517.628,-214.577"/>
<polygon fill="midnightblue" stroke="midnightblue" points="519.539,-217.521 526.64,-209.658 516.185,-211.377 519.539,-217.521"/>
</g>
<!-- Node2 -->
<g id="node3" class="node"><title>Node2</title>
<g id="a_node3"><a xlink:href="energy__const_8h.html" target="_top" xlink:title="Energy parameter constants. ">
<polygon fill="none" stroke="black" points="1062,-62 1062,-81 1209,-81 1209,-62 1062,-62"/>
<text text-anchor="middle" x="1135.5" y="-69" font-family="Helvetica,sans-Serif" font-size="10.00">ViennaRNA/energy_const.h</text>
</a>
</g>
</g>
<!-- Node1&#45;&gt;Node2 -->
<g id="edge2" class="edge"><title>Node1&#45;&gt;Node2</title>
<path fill="none" stroke="midnightblue" d="M620.178,-198.277C770.028,-196.126 1087.49,-187.61 1123.5,-154 1140.38,-138.248 1140.74,-109.959 1138.71,-91.2049"/>
<polygon fill="midnightblue" stroke="midnightblue" points="1142.16,-90.6088 1137.3,-81.1943 1135.23,-91.5845 1142.16,-90.6088"/>
</g>
<!-- Node4 -->
<g id="node5" class="node"><title>Node4</title>
<g id="a_node5"><a xlink:href="model_8h.html" target="_top" xlink:title="The model details data structure and its corresponding modifiers. ">
<polygon fill="none" stroke="black" points="920,-62 920,-81 1031,-81 1031,-62 920,-62"/>
<text text-anchor="middle" x="975.5" y="-69" font-family="Helvetica,sans-Serif" font-size="10.00">ViennaRNA/model.h</text>
</a>
</g>
</g>
<!-- Node1&#45;&gt;Node4 -->
<g id="edge4" class="edge"><title>Node1&#45;&gt;Node4</title>
<path fill="none" stroke="midnightblue" d="M620.422,-194.923C731.459,-188.436 924.61,-174.378 949.5,-154 968.145,-138.735 973.6,-110.083 975.095,-91.1443"/>
<polygon fill="midnightblue" stroke="midnightblue" points="978.596,-91.212 975.592,-81.0519 971.604,-90.8676 978.596,-91.212"/>
</g>
<!-- Node5 -->
<g id="node6" class="node"><title>Node5</title>
<g id="a_node6"><a xlink:href="params_8h.html" target="_top" xlink:title="Functions to deal with sets of energy parameters. ">
<polygon fill="none" stroke="black" points="996.5,-129 996.5,-148 1114.5,-148 1114.5,-129 996.5,-129"/>
<text text-anchor="middle" x="1055.5" y="-136" font-family="Helvetica,sans-Serif" font-size="10.00">ViennaRNA/params.h</text>
</a>
</g>
</g>
<!-- Node1&#45;&gt;Node5 -->
<g id="edge5" class="edge"><title>Node1&#45;&gt;Node5</title>
<path fill="none" stroke="midnightblue" d="M620.028,-192.756C706.517,-185.622 850.293,-172.495 973.5,-154 981.313,-152.827 989.557,-151.388 997.705,-149.875"/>
<polygon fill="midnightblue" stroke="midnightblue" points="998.386,-153.309 1007.56,-148.008 997.082,-146.431 998.386,-153.309"/>
</g>
<!-- Node6 -->
<g id="node7" class="node"><title>Node6</title>
<g id="a_node7"><a xlink:href="dp__matrices_8h.html" target="_top" xlink:title="Functions to deal with standard dynamic programming (DP) matrices. ">
<polygon fill="none" stroke="black" points="291.5,-129 291.5,-148 431.5,-148 431.5,-129 291.5,-129"/>
<text text-anchor="middle" x="361.5" y="-136" font-family="Helvetica,sans-Serif" font-size="10.00">ViennaRNA/dp_matrices.h</text>
</a>
</g>
</g>
<!-- Node1&#45;&gt;Node6 -->
<g id="edge9" class="edge"><title>Node1&#45;&gt;Node6</title>
<path fill="none" stroke="midnightblue" d="M511.667,-190.475C478.248,-180.225 425.518,-162.959 392.172,-151.399"/>
<polygon fill="midnightblue" stroke="midnightblue" points="393.082,-148.01 382.488,-148.009 390.769,-154.617 393.082,-148.01"/>
</g>
<!-- Node7 -->
<g id="node8" class="node"><title>Node7</title>
<g id="a_node8"><a xlink:href="constraints_8h.html" target="_top" xlink:title="Functions and data structures for constraining secondary structure predictions and evaluation...">
<polygon fill="none" stroke="black" points="101.5,-129 101.5,-148 235.5,-148 235.5,-129 101.5,-129"/>
<text text-anchor="middle" x="168.5" y="-136" font-family="Helvetica,sans-Serif" font-size="10.00">ViennaRNA/constraints.h</text>
</a>
</g>
</g>
<!-- Node1&#45;&gt;Node7 -->
<g id="edge11" class="edge"><title>Node1&#45;&gt;Node7</title>
<path fill="none" stroke="midnightblue" d="M477.258,-190.46C415.874,-181.708 321.728,-167.506 240.5,-154 232.672,-152.698 224.428,-151.279 216.408,-149.854"/>
<polygon fill="midnightblue" stroke="midnightblue" points="216.88,-146.383 206.418,-148.055 215.639,-153.272 216.88,-146.383"/>
</g>
<!-- Node12 -->
<g id="node13" class="node"><title>Node12</title>
<g id="a_node13"><a xlink:href="grammar_8h.html" target="_top" xlink:title="Implementations for the RNA folding grammar. ">
<polygon fill="none" stroke="black" points="526,-129 526,-148 651,-148 651,-129 526,-129"/>
<text text-anchor="middle" x="588.5" y="-136" font-family="Helvetica,sans-Serif" font-size="10.00">ViennaRNA/grammar.h</text>
</a>
</g>
</g>
<!-- Node1&#45;&gt;Node12 -->
<g id="edge22" class="edge"><title>Node1&#45;&gt;Node12</title>
<path fill="none" stroke="midnightblue" d="M544.19,-190.475C549.242,-181.373 560.167,-166.741 570.082,-155.483"/>
<polygon fill="midnightblue" stroke="midnightblue" points="572.783,-157.718 577.024,-148.009 567.654,-152.954 572.783,-157.718"/>
</g>
<!-- Node13 -->
<g id="node14" class="node"><title>Node13</title>
<g id="a_node14"><a xlink:href="structured__domains_8h.html" target="_top" xlink:title="This module provides interfaces that deal with additional structured domains in the folding grammar...">
<polygon fill="none" stroke="black" points="669,-123.5 669,-153.5 790,-153.5 790,-123.5 669,-123.5"/>
<text text-anchor="start" x="677" y="-141.5" font-family="Helvetica,sans-Serif" font-size="10.00">ViennaRNA/structured</text>
<text text-anchor="middle" x="729.5" y="-130.5" font-family="Helvetica,sans-Serif" font-size="10.00">_domains.h</text>
</a>
</g>
</g>
<!-- Node1&#45;&gt;Node13 -->
<g id="edge24" class="edge"><title>Node1&#45;&gt;Node13</title>
<path fill="none" stroke="midnightblue" d="M569.293,-190.475C596.986,-181.664 640.971,-167.668 675.852,-156.57"/>
<polygon fill="midnightblue" stroke="midnightblue" points="676.96,-159.89 685.428,-153.523 674.837,-153.22 676.96,-159.89"/>
</g>
<!-- Node14 -->
<g id="node15" class="node"><title>Node14</title>
<g id="a_node15"><a xlink:href="unstructured__domains_8h.html" target="_top" xlink:title="Functions to modify unstructured domains, e.g. to incorporate ligands binding to unpaired stretches...">
<polygon fill="none" stroke="black" points="808.5,-123.5 808.5,-153.5 940.5,-153.5 940.5,-123.5 808.5,-123.5"/>
<text text-anchor="start" x="816.5" y="-141.5" font-family="Helvetica,sans-Serif" font-size="10.00">ViennaRNA/unstructured</text>
<text text-anchor="middle" x="874.5" y="-130.5" font-family="Helvetica,sans-Serif" font-size="10.00">_domains.h</text>
</a>
</g>
</g>
<!-- Node1&#45;&gt;Node14 -->
<g id="edge25" class="edge"><title>Node1&#45;&gt;Node14</title>
<path fill="none" stroke="midnightblue" d="M585.812,-190.419C635.208,-181.519 718.038,-167.097 789.5,-154 792.349,-153.478 795.257,-152.941 798.2,-152.395"/>
<polygon fill="midnightblue" stroke="midnightblue" points="799.11,-155.786 808.301,-150.515 797.83,-148.904 799.11,-155.786"/>
</g>
<!-- Node3 -->
<g id="node4" class="node"><title>Node3</title>
<polygon fill="none" stroke="#bfbfbf" points="1111.5,-0.5 1111.5,-19.5 1159.5,-19.5 1159.5,-0.5 1111.5,-0.5"/>
<text text-anchor="middle" x="1135.5" y="-7.5" font-family="Helvetica,sans-Serif" font-size="10.00">limits.h</text>
</g>
<!-- Node2&#45;&gt;Node3 -->
<g id="edge3" class="edge"><title>Node2&#45;&gt;Node3</title>
<path fill="none" stroke="midnightblue" d="M1135.5,-61.9751C1135.5,-53.5803 1135.5,-40.4806 1135.5,-29.6631"/>
<polygon fill="midnightblue" stroke="midnightblue" points="1139,-29.5091 1135.5,-19.5091 1132,-29.5091 1139,-29.5091"/>
</g>
<!-- Node5&#45;&gt;Node1 -->
<g id="edge7" class="edge"><title>Node5&#45;&gt;Node1</title>
<path fill="none" stroke="midnightblue" d="M1024.88,-148.008C1014.33,-150.173 1002.49,-152.35 991.5,-154 866.889,-172.705 721.239,-185.92 630.353,-192.998"/>
<polygon fill="midnightblue" stroke="midnightblue" points="630.068,-189.509 620.367,-193.768 630.607,-196.488 630.068,-189.509"/>
</g>
<!-- Node5&#45;&gt;Node2 -->
<g id="edge6" class="edge"><title>Node5&#45;&gt;Node2</title>
<path fill="none" stroke="midnightblue" d="M1066.29,-128.734C1079.24,-118.208 1101.19,-100.379 1116.89,-87.6174"/>
<polygon fill="midnightblue" stroke="midnightblue" points="1119.33,-90.1497 1124.88,-81.1273 1114.91,-84.7169 1119.33,-90.1497"/>
</g>
<!-- Node5&#45;&gt;Node4 -->
<g id="edge8" class="edge"><title>Node5&#45;&gt;Node4</title>
<path fill="none" stroke="midnightblue" d="M1044.71,-128.734C1031.76,-118.208 1009.81,-100.379 994.106,-87.6174"/>
<polygon fill="midnightblue" stroke="midnightblue" points="996.086,-84.7169 986.118,-81.1273 991.672,-90.1497 996.086,-84.7169"/>
</g>
<!-- Node6&#45;&gt;Node1 -->
<g id="edge10" class="edge"><title>Node6&#45;&gt;Node1</title>
<path fill="none" stroke="midnightblue" d="M392.282,-148.009C425.68,-158.252 478.41,-175.517 511.777,-187.083"/>
<polygon fill="midnightblue" stroke="midnightblue" points="510.873,-190.474 521.468,-190.475 513.186,-183.868 510.873,-190.474"/>
</g>
<!-- Node7&#45;&gt;Node0 -->
<g id="edge17" class="edge"><title>Node7&#45;&gt;Node0</title>
<path fill="none" stroke="midnightblue" d="M187.318,-148.092C230.06,-167.608 335.246,-215.637 393.337,-242.162"/>
<polygon fill="midnightblue" stroke="midnightblue" points="392.032,-245.413 402.582,-246.383 394.94,-239.046 392.032,-245.413"/>
</g>
<!-- Node7&#45;&gt;Node1 -->
<g id="edge12" class="edge"><title>Node7&#45;&gt;Node1</title>
<path fill="none" stroke="midnightblue" d="M223.889,-148.055C235.391,-150.059 247.367,-152.149 258.5,-154 335.127,-166.741 423.251,-180.101 480.831,-188.921"/>
<polygon fill="midnightblue" stroke="midnightblue" points="480.449,-192.403 490.864,-190.46 481.51,-185.484 480.449,-192.403"/>
</g>
<!-- Node8 -->
<g id="node9" class="node"><title>Node8</title>
<g id="a_node9"><a xlink:href="constraints__hard_8h.html" target="_top" xlink:title="Functions and data structures for handling of secondary structure hard constraints. ">
<polygon fill="none" stroke="black" points="293.5,-56.5 293.5,-86.5 419.5,-86.5 419.5,-56.5 293.5,-56.5"/>
<text text-anchor="start" x="301.5" y="-74.5" font-family="Helvetica,sans-Serif" font-size="10.00">ViennaRNA/constraints</text>
<text text-anchor="middle" x="356.5" y="-63.5" font-family="Helvetica,sans-Serif" font-size="10.00">_hard.h</text>
</a>
</g>
</g>
<!-- Node7&#45;&gt;Node8 -->
<g id="edge13" class="edge"><title>Node7&#45;&gt;Node8</title>
<path fill="none" stroke="midnightblue" d="M193.465,-128.869C222.164,-118.946 269.995,-102.408 306.448,-89.8051"/>
<polygon fill="midnightblue" stroke="midnightblue" points="307.619,-93.1037 315.927,-86.5281 305.332,-86.4879 307.619,-93.1037"/>
</g>
<!-- Node9 -->
<g id="node10" class="node"><title>Node9</title>
<g id="a_node10"><a xlink:href="constraints__soft_8h.html" target="_top" xlink:title="Functions and data structures for secondary structure soft constraints. ">
<polygon fill="none" stroke="black" points="437.5,-56.5 437.5,-86.5 563.5,-86.5 563.5,-56.5 437.5,-56.5"/>
<text text-anchor="start" x="445.5" y="-74.5" font-family="Helvetica,sans-Serif" font-size="10.00">ViennaRNA/constraints</text>
<text text-anchor="middle" x="500.5" y="-63.5" font-family="Helvetica,sans-Serif" font-size="10.00">_soft.h</text>
</a>
</g>
</g>
<!-- Node7&#45;&gt;Node9 -->
<g id="edge15" class="edge"><title>Node7&#45;&gt;Node9</title>
<path fill="none" stroke="midnightblue" d="M213.145,-128.925C262.929,-119.342 346.124,-103.264 427.39,-87.2125"/>
<polygon fill="midnightblue" stroke="midnightblue" points="428.158,-90.6287 437.289,-85.2556 426.8,-83.7616 428.158,-90.6287"/>
</g>
<!-- Node10 -->
<g id="node11" class="node"><title>Node10</title>
<g id="a_node11"><a xlink:href="perturbation__fold_8h.html" target="_top" xlink:title="Find a vector of perturbation energies that minimizes the discripancies between predicted and observe...">
<polygon fill="none" stroke="black" points="0,-56.5 0,-86.5 131,-86.5 131,-56.5 0,-56.5"/>
<text text-anchor="start" x="8" y="-74.5" font-family="Helvetica,sans-Serif" font-size="10.00">ViennaRNA/perturbation</text>
<text text-anchor="middle" x="65.5" y="-63.5" font-family="Helvetica,sans-Serif" font-size="10.00">_fold.h</text>
</a>
</g>
</g>
<!-- Node7&#45;&gt;Node10 -->
<g id="edge18" class="edge"><title>Node7&#45;&gt;Node10</title>
<path fill="none" stroke="midnightblue" d="M154.609,-128.734C139.752,-119.358 115.713,-104.188 96.3458,-91.9658"/>
<polygon fill="midnightblue" stroke="midnightblue" points="98.1504,-88.966 87.8257,-86.589 94.4146,-94.8858 98.1504,-88.966"/>
</g>
<!-- Node11 -->
<g id="node12" class="node"><title>Node11</title>
<g id="a_node12"><a xlink:href="constraints__ligand_8h.html" target="_top" xlink:title="Functions for incorporation of ligands binding to hairpin and interior loop motifs using the soft con...">
<polygon fill="none" stroke="black" points="149.5,-56.5 149.5,-86.5 275.5,-86.5 275.5,-56.5 149.5,-56.5"/>
<text text-anchor="start" x="157.5" y="-74.5" font-family="Helvetica,sans-Serif" font-size="10.00">ViennaRNA/constraints</text>
<text text-anchor="middle" x="212.5" y="-63.5" font-family="Helvetica,sans-Serif" font-size="10.00">_ligand.h</text>
</a>
</g>
</g>
<!-- Node7&#45;&gt;Node11 -->
<g id="edge20" class="edge"><title>Node7&#45;&gt;Node11</title>
<path fill="none" stroke="midnightblue" d="M174.434,-128.734C180.266,-120.118 189.41,-106.61 197.274,-94.9923"/>
<polygon fill="midnightblue" stroke="midnightblue" points="200.256,-96.8321 202.963,-86.589 194.459,-92.9081 200.256,-96.8321"/>
</g>
<!-- Node8&#45;&gt;Node1 -->
<g id="edge14" class="edge"><title>Node8&#45;&gt;Node1</title>
<path fill="none" stroke="midnightblue" d="M381.528,-86.6734C398.444,-96.4645 421.14,-110.014 440.5,-123 470.375,-143.038 503.529,-168.347 523.693,-184.106"/>
<polygon fill="midnightblue" stroke="midnightblue" points="521.713,-187.001 531.739,-190.426 526.037,-181.496 521.713,-187.001"/>
</g>
<!-- Node9&#45;&gt;Node1 -->
<g id="edge16" class="edge"><title>Node9&#45;&gt;Node1</title>
<path fill="none" stroke="midnightblue" d="M501.856,-86.7299C503.76,-103.308 507.992,-131.319 516.5,-154 520.144,-163.715 525.761,-173.783 530.843,-181.926"/>
<polygon fill="midnightblue" stroke="midnightblue" points="528.018,-184.001 536.413,-190.464 533.881,-180.176 528.018,-184.001"/>
</g>
<!-- Node10&#45;&gt;Node1 -->
<g id="edge19" class="edge"><title>Node10&#45;&gt;Node1</title>
<path fill="none" stroke="midnightblue" d="M65.7633,-86.5982C66.9406,-105.229 72.0237,-137.601 92.5,-154 120.106,-176.109 331.781,-189.388 454.736,-195.315"/>
<polygon fill="midnightblue" stroke="midnightblue" points="454.735,-198.818 464.89,-195.797 455.067,-191.826 454.735,-198.818"/>
</g>
<!-- Node11&#45;&gt;Node1 -->
<g id="edge21" class="edge"><title>Node11&#45;&gt;Node1</title>
<path fill="none" stroke="midnightblue" d="M220.371,-86.6551C231.571,-105.35 253.951,-137.795 282.5,-154 311.429,-170.421 391.213,-182.693 454.84,-190.239"/>
<polygon fill="midnightblue" stroke="midnightblue" points="454.565,-193.73 464.903,-191.409 455.374,-186.777 454.565,-193.73"/>
</g>
<!-- Node12&#45;&gt;Node1 -->
<g id="edge23" class="edge"><title>Node12&#45;&gt;Node1</title>
<path fill="none" stroke="midnightblue" d="M586.819,-148.009C581.774,-157.104 570.851,-171.736 560.935,-182.997"/>
<polygon fill="midnightblue" stroke="midnightblue" points="558.231,-180.766 553.991,-190.475 563.361,-185.529 558.231,-180.766"/>
</g>
<!-- Node14&#45;&gt;Node1 -->
<g id="edge26" class="edge"><title>Node14&#45;&gt;Node1</title>
<path fill="none" stroke="midnightblue" d="M809.891,-153.561C809.09,-153.708 808.293,-153.855 807.5,-154 740.26,-166.323 662.956,-179.819 609.179,-188.785"/>
<polygon fill="midnightblue" stroke="midnightblue" points="608.376,-185.371 599.084,-190.461 609.522,-192.276 608.376,-185.371"/>
</g>
</g>
</svg>
