<?xml version="1.0" encoding="UTF-8" standalone="no"?>
<!DOCTYPE svg PUBLIC "-//W3C//DTD SVG 1.1//EN"
 "http://www.w3.org/Graphics/SVG/1.1/DTD/svg11.dtd">
<!-- Generated by graphviz version 2.38.0 (20140413.2041)
 -->
<!-- Title: ViennaRNA/constraints.h Pages: 1 -->
<svg width="844pt" height="330pt"
 viewBox="0.00 0.00 843.50 330.00" xmlns="http://www.w3.org/2000/svg" xmlns:xlink="http://www.w3.org/1999/xlink">
<g id="graph0" class="graph" transform="scale(1 1) rotate(0) translate(4 326)">
<title>ViennaRNA/constraints.h</title>
<!-- Node0 -->
<g id="node1" class="node"><title>Node0</title>
<polygon fill="#bfbfbf" stroke="black" points="265.5,-302.5 265.5,-321.5 399.5,-321.5 399.5,-302.5 265.5,-302.5"/>
<text text-anchor="middle" x="332.5" y="-309.5" font-family="Helvetica,sans-Serif" font-size="10.00">ViennaRNA/constraints.h</text>
</g>
<!-- Node1 -->
<g id="node2" class="node"><title>Node1</title>
<g id="a_node2"><a xlink:href="data__structures_8h.html" target="_top" xlink:title="Various data structures and pre&#45;processor macros. ">
<polygon fill="none" stroke="black" points="255,-179.5 255,-198.5 410,-198.5 410,-179.5 255,-179.5"/>
<text text-anchor="middle" x="332.5" y="-186.5" font-family="Helvetica,sans-Serif" font-size="10.00">ViennaRNA/data_structures.h</text>
</a>
</g>
</g>
<!-- Node0&#45;&gt;Node1 -->
<g id="edge1" class="edge"><title>Node0&#45;&gt;Node1</title>
<path fill="none" stroke="midnightblue" d="M265.232,-306.767C206.126,-301.374 126.803,-289.739 107.5,-266 66.6125,-215.716 165.4,-198.655 244.871,-192.895"/>
<polygon fill="midnightblue" stroke="midnightblue" points="245.207,-196.38 254.949,-192.216 244.736,-189.396 245.207,-196.38"/>
</g>
<!-- Node10 -->
<g id="node11" class="node"><title>Node10</title>
<g id="a_node11"><a xlink:href="constraints__hard_8h.html" target="_top" xlink:title="Functions and data structures for handling of secondary structure hard constraints. ">
<polygon fill="none" stroke="black" points="125.5,-235.5 125.5,-265.5 251.5,-265.5 251.5,-235.5 125.5,-235.5"/>
<text text-anchor="start" x="133.5" y="-253.5" font-family="Helvetica,sans-Serif" font-size="10.00">ViennaRNA/constraints</text>
<text text-anchor="middle" x="188.5" y="-242.5" font-family="Helvetica,sans-Serif" font-size="10.00">_hard.h</text>
</a>
</g>
</g>
<!-- Node0&#45;&gt;Node10 -->
<g id="edge17" class="edge"><title>Node0&#45;&gt;Node10</title>
<path fill="none" stroke="midnightblue" d="M311.868,-302.475C291.09,-293.889 258.401,-280.383 231.892,-269.429"/>
<polygon fill="midnightblue" stroke="midnightblue" points="233.017,-266.107 222.438,-265.523 230.343,-272.577 233.017,-266.107"/>
</g>
<!-- Node11 -->
<g id="node12" class="node"><title>Node11</title>
<g id="a_node12"><a xlink:href="constraints__soft_8h.html" target="_top" xlink:title="Functions and data structures for secondary structure soft constraints. ">
<polygon fill="none" stroke="black" points="269.5,-235.5 269.5,-265.5 395.5,-265.5 395.5,-235.5 269.5,-235.5"/>
<text text-anchor="start" x="277.5" y="-253.5" font-family="Helvetica,sans-Serif" font-size="10.00">ViennaRNA/constraints</text>
<text text-anchor="middle" x="332.5" y="-242.5" font-family="Helvetica,sans-Serif" font-size="10.00">_soft.h</text>
</a>
</g>
</g>
<!-- Node0&#45;&gt;Node11 -->
<g id="edge19" class="edge"><title>Node0&#45;&gt;Node11</title>
<path fill="none" stroke="midnightblue" d="M332.5,-302.475C332.5,-295.471 332.5,-285.192 332.5,-275.696"/>
<polygon fill="midnightblue" stroke="midnightblue" points="336,-275.523 332.5,-265.523 329,-275.523 336,-275.523"/>
</g>
<!-- Node12 -->
<g id="node13" class="node"><title>Node12</title>
<g id="a_node13"><a xlink:href="constraints__SHAPE_8h.html" target="_top" xlink:title="This module provides function to incorporate SHAPE reactivity data into the folding recursions by mea...">
<polygon fill="none" stroke="black" points="413.5,-235.5 413.5,-265.5 539.5,-265.5 539.5,-235.5 413.5,-235.5"/>
<text text-anchor="start" x="421.5" y="-253.5" font-family="Helvetica,sans-Serif" font-size="10.00">ViennaRNA/constraints</text>
<text text-anchor="middle" x="476.5" y="-242.5" font-family="Helvetica,sans-Serif" font-size="10.00">_SHAPE.h</text>
</a>
</g>
</g>
<!-- Node0&#45;&gt;Node12 -->
<g id="edge21" class="edge"><title>Node0&#45;&gt;Node12</title>
<path fill="none" stroke="midnightblue" d="M353.132,-302.475C373.91,-293.889 406.599,-280.383 433.108,-269.429"/>
<polygon fill="midnightblue" stroke="midnightblue" points="434.657,-272.577 442.562,-265.523 431.983,-266.107 434.657,-272.577"/>
</g>
<!-- Node13 -->
<g id="node14" class="node"><title>Node13</title>
<g id="a_node14"><a xlink:href="perturbation__fold_8h.html" target="_top" xlink:title="Find a vector of perturbation energies that minimizes the discripancies between predicted and observe...">
<polygon fill="none" stroke="black" points="558,-235.5 558,-265.5 689,-265.5 689,-235.5 558,-235.5"/>
<text text-anchor="start" x="566" y="-253.5" font-family="Helvetica,sans-Serif" font-size="10.00">ViennaRNA/perturbation</text>
<text text-anchor="middle" x="623.5" y="-242.5" font-family="Helvetica,sans-Serif" font-size="10.00">_fold.h</text>
</a>
</g>
</g>
<!-- Node0&#45;&gt;Node13 -->
<g id="edge23" class="edge"><title>Node0&#45;&gt;Node13</title>
<path fill="none" stroke="midnightblue" d="M374.193,-302.475C419.391,-293.234 492.475,-278.29 547.856,-266.967"/>
<polygon fill="midnightblue" stroke="midnightblue" points="548.884,-270.329 557.98,-264.897 547.482,-263.471 548.884,-270.329"/>
</g>
<!-- Node14 -->
<g id="node15" class="node"><title>Node14</title>
<g id="a_node15"><a xlink:href="constraints__ligand_8h.html" target="_top" xlink:title="Functions for incorporation of ligands binding to hairpin and interior loop motifs using the soft con...">
<polygon fill="none" stroke="black" points="707.5,-235.5 707.5,-265.5 833.5,-265.5 833.5,-235.5 707.5,-235.5"/>
<text text-anchor="start" x="715.5" y="-253.5" font-family="Helvetica,sans-Serif" font-size="10.00">ViennaRNA/constraints</text>
<text text-anchor="middle" x="770.5" y="-242.5" font-family="Helvetica,sans-Serif" font-size="10.00">_ligand.h</text>
</a>
</g>
</g>
<!-- Node0&#45;&gt;Node14 -->
<g id="edge25" class="edge"><title>Node0&#45;&gt;Node14</title>
<path fill="none" stroke="midnightblue" d="M399.504,-304.315C470.907,-296.84 587.464,-283.636 697.399,-266.104"/>
<polygon fill="midnightblue" stroke="midnightblue" points="698.017,-269.55 707.334,-264.505 696.904,-262.639 698.017,-269.55"/>
</g>
<!-- Node1&#45;&gt;Node0 -->
<g id="edge11" class="edge"><title>Node1&#45;&gt;Node0</title>
<path fill="none" stroke="midnightblue" d="M254.725,-193.171C180.37,-199.192 85.2464,-216.496 125.5,-266 142.152,-286.479 203.472,-297.95 255.138,-304.177"/>
<polygon fill="midnightblue" stroke="midnightblue" points="254.991,-307.683 265.327,-305.353 255.794,-300.729 254.991,-307.683"/>
</g>
<!-- Node2 -->
<g id="node3" class="node"><title>Node2</title>
<g id="a_node3"><a xlink:href="energy__const_8h.html" target="_top" xlink:title="Energy parameter constants. ">
<polygon fill="none" stroke="black" points="0,-56.5 0,-75.5 147,-75.5 147,-56.5 0,-56.5"/>
<text text-anchor="middle" x="73.5" y="-63.5" font-family="Helvetica,sans-Serif" font-size="10.00">ViennaRNA/energy_const.h</text>
</a>
</g>
</g>
<!-- Node1&#45;&gt;Node2 -->
<g id="edge2" class="edge"><title>Node1&#45;&gt;Node2</title>
<path fill="none" stroke="midnightblue" d="M254.686,-184.355C189.166,-179.523 102.544,-168.401 79.5,-143 65.5665,-127.641 66.4409,-102.614 69.2168,-85.5068"/>
<polygon fill="midnightblue" stroke="midnightblue" points="72.6714,-86.0787 71.1789,-75.5896 65.8045,-84.7201 72.6714,-86.0787"/>
</g>
<!-- Node4 -->
<g id="node5" class="node"><title>Node4</title>
<g id="a_node5"><a xlink:href="model_8h.html" target="_top" xlink:title="The model details data structure and its corresponding modifiers. ">
<polygon fill="none" stroke="black" points="172,-56.5 172,-75.5 283,-75.5 283,-56.5 172,-56.5"/>
<text text-anchor="middle" x="227.5" y="-63.5" font-family="Helvetica,sans-Serif" font-size="10.00">ViennaRNA/model.h</text>
</a>
</g>
</g>
<!-- Node1&#45;&gt;Node4 -->
<g id="edge4" class="edge"><title>Node1&#45;&gt;Node4</title>
<path fill="none" stroke="midnightblue" d="M307.956,-179.449C290.534,-172.225 267.79,-160.268 253.5,-143 239.919,-126.589 233.289,-102.704 230.149,-86.1075"/>
<polygon fill="midnightblue" stroke="midnightblue" points="233.558,-85.2673 228.491,-75.9629 226.65,-86.3966 233.558,-85.2673"/>
</g>
<!-- Node5 -->
<g id="node6" class="node"><title>Node5</title>
<g id="a_node6"><a xlink:href="params_8h.html" target="_top" xlink:title="Functions to deal with sets of energy parameters. ">
<polygon fill="none" stroke="black" points="88.5,-118 88.5,-137 206.5,-137 206.5,-118 88.5,-118"/>
<text text-anchor="middle" x="147.5" y="-125" font-family="Helvetica,sans-Serif" font-size="10.00">ViennaRNA/params.h</text>
</a>
</g>
</g>
<!-- Node1&#45;&gt;Node5 -->
<g id="edge5" class="edge"><title>Node1&#45;&gt;Node5</title>
<path fill="none" stroke="midnightblue" d="M301.093,-179.475C266.839,-169.18 212.631,-151.81 178.531,-140.25"/>
<polygon fill="midnightblue" stroke="midnightblue" points="179.654,-136.935 169.06,-137.009 177.388,-143.558 179.654,-136.935"/>
</g>
<!-- Node6 -->
<g id="node7" class="node"><title>Node6</title>
<g id="a_node7"><a xlink:href="dp__matrices_8h.html" target="_top" xlink:title="Functions to deal with standard dynamic programming (DP) matrices. ">
<polygon fill="none" stroke="black" points="262.5,-118 262.5,-137 402.5,-137 402.5,-118 262.5,-118"/>
<text text-anchor="middle" x="332.5" y="-125" font-family="Helvetica,sans-Serif" font-size="10.00">ViennaRNA/dp_matrices.h</text>
</a>
</g>
</g>
<!-- Node1&#45;&gt;Node6 -->
<g id="edge9" class="edge"><title>Node1&#45;&gt;Node6</title>
<path fill="none" stroke="midnightblue" d="M327.599,-179.475C325.768,-171.08 325.297,-157.981 326.185,-147.163"/>
<polygon fill="midnightblue" stroke="midnightblue" points="329.686,-147.397 327.603,-137.009 322.754,-146.429 329.686,-147.397"/>
</g>
<!-- Node7 -->
<g id="node8" class="node"><title>Node7</title>
<g id="a_node8"><a xlink:href="grammar_8h.html" target="_top" xlink:title="Implementations for the RNA folding grammar. ">
<polygon fill="none" stroke="black" points="421,-118 421,-137 546,-137 546,-118 421,-118"/>
<text text-anchor="middle" x="483.5" y="-125" font-family="Helvetica,sans-Serif" font-size="10.00">ViennaRNA/grammar.h</text>
</a>
</g>
</g>
<!-- Node1&#45;&gt;Node7 -->
<g id="edge12" class="edge"><title>Node1&#45;&gt;Node7</title>
<path fill="none" stroke="midnightblue" d="M349.234,-179.475C372.91,-169.269 416.244,-152.108 447.371,-140.549"/>
<polygon fill="midnightblue" stroke="midnightblue" points="448.829,-143.743 457.008,-137.009 446.415,-137.172 448.829,-143.743"/>
</g>
<!-- Node8 -->
<g id="node9" class="node"><title>Node8</title>
<g id="a_node9"><a xlink:href="structured__domains_8h.html" target="_top" xlink:title="This module provides interfaces that deal with additional structured domains in the folding grammar...">
<polygon fill="none" stroke="black" points="564,-112.5 564,-142.5 685,-142.5 685,-112.5 564,-112.5"/>
<text text-anchor="start" x="572" y="-130.5" font-family="Helvetica,sans-Serif" font-size="10.00">ViennaRNA/structured</text>
<text text-anchor="middle" x="624.5" y="-119.5" font-family="Helvetica,sans-Serif" font-size="10.00">_domains.h</text>
</a>
</g>
</g>
<!-- Node1&#45;&gt;Node8 -->
<g id="edge14" class="edge"><title>Node1&#45;&gt;Node8</title>
<path fill="none" stroke="midnightblue" d="M375.271,-179.475C418.073,-170.92 486.082,-157.263 553.919,-143.318"/>
<polygon fill="midnightblue" stroke="midnightblue" points="554.835,-146.703 563.924,-141.258 553.423,-139.846 554.835,-146.703"/>
</g>
<!-- Node9 -->
<g id="node10" class="node"><title>Node9</title>
<g id="a_node10"><a xlink:href="unstructured__domains_8h.html" target="_top" xlink:title="Functions to modify unstructured domains, e.g. to incorporate ligands binding to unpaired stretches...">
<polygon fill="none" stroke="black" points="703.5,-112.5 703.5,-142.5 835.5,-142.5 835.5,-112.5 703.5,-112.5"/>
<text text-anchor="start" x="711.5" y="-130.5" font-family="Helvetica,sans-Serif" font-size="10.00">ViennaRNA/unstructured</text>
<text text-anchor="middle" x="769.5" y="-119.5" font-family="Helvetica,sans-Serif" font-size="10.00">_domains.h</text>
</a>
</g>
</g>
<!-- Node1&#45;&gt;Node9 -->
<g id="edge15" class="edge"><title>Node1&#45;&gt;Node9</title>
<path fill="none" stroke="midnightblue" d="M406.542,-179.499C478.103,-171.419 589.331,-158.256 685.5,-143 688.021,-142.6 690.588,-142.178 693.182,-141.74"/>
<polygon fill="midnightblue" stroke="midnightblue" points="694.036,-145.144 703.288,-139.981 692.836,-138.248 694.036,-145.144"/>
</g>
<!-- Node3 -->
<g id="node4" class="node"><title>Node3</title>
<polygon fill="none" stroke="#bfbfbf" points="49.5,-0.5 49.5,-19.5 97.5,-19.5 97.5,-0.5 49.5,-0.5"/>
<text text-anchor="middle" x="73.5" y="-7.5" font-family="Helvetica,sans-Serif" font-size="10.00">limits.h</text>
</g>
<!-- Node2&#45;&gt;Node3 -->
<g id="edge3" class="edge"><title>Node2&#45;&gt;Node3</title>
<path fill="none" stroke="midnightblue" d="M73.5,-56.083C73.5,-49.0059 73.5,-38.8611 73.5,-29.9865"/>
<polygon fill="midnightblue" stroke="midnightblue" points="77.0001,-29.751 73.5,-19.7511 70.0001,-29.7511 77.0001,-29.751"/>
</g>
<!-- Node5&#45;&gt;Node1 -->
<g id="edge7" class="edge"><title>Node5&#45;&gt;Node1</title>
<path fill="none" stroke="midnightblue" d="M178.854,-137.009C213.088,-147.297 267.296,-164.666 301.416,-176.232"/>
<polygon fill="midnightblue" stroke="midnightblue" points="300.3,-179.549 310.895,-179.475 302.566,-172.926 300.3,-179.549"/>
</g>
<!-- Node5&#45;&gt;Node2 -->
<g id="edge6" class="edge"><title>Node5&#45;&gt;Node2</title>
<path fill="none" stroke="midnightblue" d="M136.898,-117.975C125.248,-108.608 106.314,-93.3839 92.1655,-82.0081"/>
<polygon fill="midnightblue" stroke="midnightblue" points="94.0692,-79.0477 84.0827,-75.5091 89.6828,-84.503 94.0692,-79.0477"/>
</g>
<!-- Node5&#45;&gt;Node4 -->
<g id="edge8" class="edge"><title>Node5&#45;&gt;Node4</title>
<path fill="none" stroke="midnightblue" d="M158.962,-117.975C171.675,-108.52 192.413,-93.0961 207.753,-81.6871"/>
<polygon fill="midnightblue" stroke="midnightblue" points="210.124,-84.2854 216.059,-75.5091 205.946,-78.6686 210.124,-84.2854"/>
</g>
<!-- Node6&#45;&gt;Node1 -->
<g id="edge10" class="edge"><title>Node6&#45;&gt;Node1</title>
<path fill="none" stroke="midnightblue" d="M337.397,-137.009C339.23,-145.398 339.703,-158.496 338.817,-169.317"/>
<polygon fill="midnightblue" stroke="midnightblue" points="335.315,-169.088 337.401,-179.475 342.248,-170.054 335.315,-169.088"/>
</g>
<!-- Node7&#45;&gt;Node1 -->
<g id="edge13" class="edge"><title>Node7&#45;&gt;Node1</title>
<path fill="none" stroke="midnightblue" d="M466.803,-137.009C443.147,-147.208 399.817,-164.368 368.677,-175.933"/>
<polygon fill="midnightblue" stroke="midnightblue" points="367.215,-172.741 359.035,-179.475 369.629,-179.312 367.215,-172.741"/>
</g>
<!-- Node9&#45;&gt;Node1 -->
<g id="edge16" class="edge"><title>Node9&#45;&gt;Node1</title>
<path fill="none" stroke="midnightblue" d="M706.267,-142.555C705.34,-142.706 704.417,-142.855 703.5,-143 607.32,-158.258 496.078,-171.422 420.617,-179.502"/>
<polygon fill="midnightblue" stroke="midnightblue" points="419.786,-176.071 410.212,-180.608 420.526,-183.031 419.786,-176.071"/>
</g>
<!-- Node10&#45;&gt;Node1 -->
<g id="edge18" class="edge"><title>Node10&#45;&gt;Node1</title>
<path fill="none" stroke="midnightblue" d="M222.626,-235.399C246.787,-225.416 278.902,-212.147 302.167,-202.534"/>
<polygon fill="midnightblue" stroke="midnightblue" points="303.641,-205.711 311.547,-198.658 300.968,-199.242 303.641,-205.711"/>
</g>
<!-- Node11&#45;&gt;Node1 -->
<g id="edge20" class="edge"><title>Node11&#45;&gt;Node1</title>
<path fill="none" stroke="midnightblue" d="M332.5,-235.399C332.5,-227.466 332.5,-217.458 332.5,-208.858"/>
<polygon fill="midnightblue" stroke="midnightblue" points="336,-208.658 332.5,-198.658 329,-208.658 336,-208.658"/>
</g>
<!-- Node12&#45;&gt;Node1 -->
<g id="edge22" class="edge"><title>Node12&#45;&gt;Node1</title>
<path fill="none" stroke="midnightblue" d="M442.374,-235.399C418.213,-225.416 386.098,-212.147 362.833,-202.534"/>
<polygon fill="midnightblue" stroke="midnightblue" points="364.032,-199.242 353.453,-198.658 361.359,-205.711 364.032,-199.242"/>
</g>
<!-- Node13&#45;&gt;Node1 -->
<g id="edge24" class="edge"><title>Node13&#45;&gt;Node1</title>
<path fill="none" stroke="midnightblue" d="M557.831,-236.073C505.247,-225.321 432.515,-210.45 384.061,-200.543"/>
<polygon fill="midnightblue" stroke="midnightblue" points="384.605,-197.081 374.106,-198.507 383.202,-203.939 384.605,-197.081"/>
</g>
<!-- Node14&#45;&gt;Node1 -->
<g id="edge26" class="edge"><title>Node14&#45;&gt;Node1</title>
<path fill="none" stroke="midnightblue" d="M707.334,-236.495C704.351,-235.97 701.395,-235.469 698.5,-235 603.889,-219.68 494.766,-206.889 420.461,-198.908"/>
<polygon fill="midnightblue" stroke="midnightblue" points="420.528,-195.395 410.213,-197.814 419.785,-202.356 420.528,-195.395"/>
</g>
</g>
</svg>
