<?xml version="1.0" encoding="UTF-8" standalone="no"?>
<!DOCTYPE svg PUBLIC "-//W3C//DTD SVG 1.1//EN"
 "http://www.w3.org/Graphics/SVG/1.1/DTD/svg11.dtd">
<!-- Generated by graphviz version 2.38.0 (20140413.2041)
 -->
<!-- Title: ViennaRNA/constraints_hard.h Pages: 1 -->
<svg width="4637pt" height="408pt"
 viewBox="0.00 0.00 4637.02 408.00" xmlns="http://www.w3.org/2000/svg" xmlns:xlink="http://www.w3.org/1999/xlink">
<g id="graph0" class="graph" transform="scale(1 1) rotate(0) translate(4 404)">
<title>ViennaRNA/constraints_hard.h</title>
<!-- Node15 -->
<g id="node1" class="node"><title>Node15</title>
<polygon fill="#bfbfbf" stroke="black" points="3581,-369.5 3581,-399.5 3707,-399.5 3707,-369.5 3581,-369.5"/>
<text text-anchor="start" x="3589" y="-387.5" font-family="Helvetica,sans-Serif" font-size="10.00">ViennaRNA/constraints</text>
<text text-anchor="middle" x="3644" y="-376.5" font-family="Helvetica,sans-Serif" font-size="10.00">_hard.h</text>
</g>
<!-- Node16 -->
<g id="node2" class="node"><title>Node16</title>
<g id="a_node2"><a xlink:href="constraints_8h.html" target="_top" xlink:title="Functions and data structures for constraining secondary structure predictions and evaluation...">
<polygon fill="none" stroke="black" points="4120,-313.5 4120,-332.5 4254,-332.5 4254,-313.5 4120,-313.5"/>
<text text-anchor="middle" x="4187" y="-320.5" font-family="Helvetica,sans-Serif" font-size="10.00">ViennaRNA/constraints.h</text>
</a>
</g>
</g>
<!-- Node15&#45;&gt;Node16 -->
<g id="edge1" class="edge"><title>Node15&#45;&gt;Node16</title>
<path fill="none" stroke="midnightblue" d="M3717.04,-375.496C3822.85,-363.903 4017.27,-342.599 4119.73,-331.371"/>
<polygon fill="midnightblue" stroke="midnightblue" points="3716.64,-372.019 3707.09,-376.587 3717.41,-378.977 3716.64,-372.019"/>
</g>
<!-- Node17 -->
<g id="node3" class="node"><title>Node17</title>
<g id="a_node3"><a xlink:href="data__structures_8h.html" target="_top" xlink:title="Various data structures and pre&#45;processor macros. ">
<polygon fill="none" stroke="black" points="1925.5,-257.5 1925.5,-276.5 2080.5,-276.5 2080.5,-257.5 1925.5,-257.5"/>
<text text-anchor="middle" x="2003" y="-264.5" font-family="Helvetica,sans-Serif" font-size="10.00">ViennaRNA/data_structures.h</text>
</a>
</g>
</g>
<!-- Node16&#45;&gt;Node17 -->
<g id="edge2" class="edge"><title>Node16&#45;&gt;Node17</title>
<path fill="none" stroke="midnightblue" d="M4109.52,-320.15C3770.48,-311.901 2419.61,-278.501 2080.51,-269.984"/>
<polygon fill="midnightblue" stroke="midnightblue" points="4109.65,-323.654 4119.73,-320.399 4109.82,-316.656 4109.65,-323.654"/>
</g>
<!-- Node44 -->
<g id="node30" class="node"><title>Node44</title>
<g id="a_node30"><a xlink:href="interior__loops_8h.html" target="_top" xlink:title="Energy evaluation of interior loops for MFE and partition function calculations. ">
<polygon fill="none" stroke="black" points="2992.5,-56.5 2992.5,-86.5 3099.5,-86.5 3099.5,-56.5 2992.5,-56.5"/>
<text text-anchor="start" x="3000.5" y="-74.5" font-family="Helvetica,sans-Serif" font-size="10.00">ViennaRNA/interior</text>
<text text-anchor="middle" x="3046" y="-63.5" font-family="Helvetica,sans-Serif" font-size="10.00">_loops.h</text>
</a>
</g>
</g>
<!-- Node16&#45;&gt;Node44 -->
<g id="edge93" class="edge"><title>Node16&#45;&gt;Node44</title>
<path fill="none" stroke="midnightblue" d="M4264.47,-321.268C4412.34,-317.462 4711.2,-296.77 4607,-190 4549.63,-131.219 3204.64,-186.009 3129,-154 3095.89,-139.991 3068.7,-106.061 3055.2,-86.6859"/>
<polygon fill="midnightblue" stroke="midnightblue" points="4264.01,-317.777 4254.1,-321.513 4264.18,-324.776 4264.01,-317.777"/>
</g>
<!-- Node17&#45;&gt;Node15 -->
<g id="edge16" class="edge"><title>Node17&#45;&gt;Node15</title>
<path fill="none" stroke="midnightblue" d="M2090.68,-274.171C2384.13,-294.826 3327.65,-361.234 3580.93,-379.061"/>
<polygon fill="midnightblue" stroke="midnightblue" points="2090.74,-270.667 2080.51,-273.456 2090.24,-277.649 2090.74,-270.667"/>
</g>
<!-- Node17&#45;&gt;Node16 -->
<g id="edge15" class="edge"><title>Node17&#45;&gt;Node16</title>
<path fill="none" stroke="midnightblue" d="M2090.75,-270.1C2449.78,-278.846 3802.44,-312.292 4120,-320.28"/>
<polygon fill="midnightblue" stroke="midnightblue" points="2090.76,-266.599 2080.68,-269.855 2090.59,-273.597 2090.76,-266.599"/>
</g>
<!-- Node18 -->
<g id="node4" class="node"><title>Node18</title>
<g id="a_node4"><a xlink:href="2Dfold_8h.html" target="_top" xlink:title="MFE structures for base pair distance classes. ">
<polygon fill="none" stroke="black" points="2323.5,-129 2323.5,-148 2436.5,-148 2436.5,-129 2323.5,-129"/>
<text text-anchor="middle" x="2380" y="-136" font-family="Helvetica,sans-Serif" font-size="10.00">ViennaRNA/2Dfold.h</text>
</a>
</g>
</g>
<!-- Node17&#45;&gt;Node18 -->
<g id="edge3" class="edge"><title>Node17&#45;&gt;Node18</title>
<path fill="none" stroke="midnightblue" d="M2090.73,-265.224C2425.99,-262.055 3608.85,-248.909 3636,-221 3645.61,-211.124 3645.54,-199.936 3636,-190 3614.94,-168.077 2678.56,-146.05 2436.59,-140.717"/>
<polygon fill="midnightblue" stroke="midnightblue" points="2090.55,-261.726 2080.58,-265.32 2090.61,-268.725 2090.55,-261.726"/>
</g>
<!-- Node19 -->
<g id="node5" class="node"><title>Node19</title>
<g id="a_node5"><a xlink:href="2Dpfold_8h.html" target="_top" xlink:title="Partition function implementations for base pair distance classes. ">
<polygon fill="none" stroke="black" points="3683.5,-196 3683.5,-215 3802.5,-215 3802.5,-196 3683.5,-196"/>
<text text-anchor="middle" x="3743" y="-203" font-family="Helvetica,sans-Serif" font-size="10.00">ViennaRNA/2Dpfold.h</text>
</a>
</g>
</g>
<!-- Node17&#45;&gt;Node19 -->
<g id="edge4" class="edge"><title>Node17&#45;&gt;Node19</title>
<path fill="none" stroke="midnightblue" d="M2090.83,-265.558C2388.66,-263.757 3358.85,-255.333 3669,-221 3681.1,-219.66 3694.18,-217.381 3705.92,-215.02"/>
<polygon fill="midnightblue" stroke="midnightblue" points="2090.5,-262.06 2080.52,-265.619 2090.54,-269.06 2090.5,-262.06"/>
</g>
<!-- Node20 -->
<g id="node6" class="node"><title>Node20</title>
<g id="a_node6"><a xlink:href="ali__plex_8h_source.html" target="_top" xlink:title="ViennaRNA/ali_plex.h">
<polygon fill="none" stroke="black" points="3820.5,-196 3820.5,-215 3939.5,-215 3939.5,-196 3820.5,-196"/>
<text text-anchor="middle" x="3880" y="-203" font-family="Helvetica,sans-Serif" font-size="10.00">ViennaRNA/ali_plex.h</text>
</a>
</g>
</g>
<!-- Node17&#45;&gt;Node20 -->
<g id="edge5" class="edge"><title>Node17&#45;&gt;Node20</title>
<path fill="none" stroke="midnightblue" d="M2091.04,-265.933C2405.44,-265.363 3472.08,-260.495 3811,-221 3822.31,-219.682 3834.51,-217.408 3845.45,-215.047"/>
<polygon fill="midnightblue" stroke="midnightblue" points="2090.61,-262.434 2080.62,-265.951 2090.63,-269.434 2090.61,-262.434"/>
</g>
<!-- Node21 -->
<g id="node7" class="node"><title>Node21</title>
<g id="a_node7"><a xlink:href="alifold_8h.html" target="_top" xlink:title="Functions for comparative structure prediction using RNA sequence alignments. ">
<polygon fill="none" stroke="black" points="414,-62 414,-81 524,-81 524,-62 414,-62"/>
<text text-anchor="middle" x="469" y="-69" font-family="Helvetica,sans-Serif" font-size="10.00">ViennaRNA/alifold.h</text>
</a>
</g>
</g>
<!-- Node17&#45;&gt;Node21 -->
<g id="edge6" class="edge"><title>Node17&#45;&gt;Node21</title>
<path fill="none" stroke="midnightblue" d="M1915.04,-266.51C1599.61,-267.936 541.045,-269.107 488,-221 447.376,-184.158 460.811,-107.166 466.789,-81.2372"/>
<polygon fill="midnightblue" stroke="midnightblue" points="1915.52,-270.007 1925.5,-266.461 1915.48,-263.008 1915.52,-270.007"/>
</g>
<!-- Node22 -->
<g id="node8" class="node"><title>Node22</title>
<g id="a_node8"><a xlink:href="boltzmann__sampling_8h.html" target="_top" xlink:title="Boltzmann Sampling of secondary structures from the ensemble. ">
<polygon fill="none" stroke="black" points="0,-190.5 0,-220.5 122,-220.5 122,-190.5 0,-190.5"/>
<text text-anchor="start" x="8" y="-208.5" font-family="Helvetica,sans-Serif" font-size="10.00">ViennaRNA/boltzmann</text>
<text text-anchor="middle" x="61" y="-197.5" font-family="Helvetica,sans-Serif" font-size="10.00">_sampling.h</text>
</a>
</g>
</g>
<!-- Node17&#45;&gt;Node22 -->
<g id="edge7" class="edge"><title>Node17&#45;&gt;Node22</title>
<path fill="none" stroke="midnightblue" d="M1915.08,-265.988C1593.72,-265.617 483.159,-261.372 131,-221 128.164,-220.675 125.273,-220.291 122.359,-219.862"/>
<polygon fill="midnightblue" stroke="midnightblue" points="1915.27,-269.488 1925.27,-265.999 1915.27,-262.488 1915.27,-269.488"/>
</g>
<!-- Node23 -->
<g id="node9" class="node"><title>Node23</title>
<g id="a_node9"><a xlink:href="part__func_8h.html" target="_top" xlink:title="Partition function implementations. ">
<polygon fill="none" stroke="black" points="296.5,-129 296.5,-148 423.5,-148 423.5,-129 296.5,-129"/>
<text text-anchor="middle" x="360" y="-136" font-family="Helvetica,sans-Serif" font-size="10.00">ViennaRNA/part_func.h</text>
</a>
</g>
</g>
<!-- Node17&#45;&gt;Node23 -->
<g id="edge69" class="edge"><title>Node17&#45;&gt;Node23</title>
<path fill="none" stroke="midnightblue" d="M1915.35,-265.067C1597.91,-261.479 523.335,-247.431 455,-221 434.631,-213.122 387.683,-167.372 368.45,-148.078"/>
<polygon fill="midnightblue" stroke="midnightblue" points="1915.38,-268.568 1925.42,-265.18 1915.46,-261.568 1915.38,-268.568"/>
</g>
<!-- Node24 -->
<g id="node10" class="node"><title>Node24</title>
<g id="a_node10"><a xlink:href="centroid_8h.html" target="_top" xlink:title="Centroid structure computation. ">
<polygon fill="none" stroke="black" points="281.5,-196 281.5,-215 402.5,-215 402.5,-196 281.5,-196"/>
<text text-anchor="middle" x="342" y="-203" font-family="Helvetica,sans-Serif" font-size="10.00">ViennaRNA/centroid.h</text>
</a>
</g>
</g>
<!-- Node17&#45;&gt;Node24 -->
<g id="edge11" class="edge"><title>Node17&#45;&gt;Node24</title>
<path fill="none" stroke="midnightblue" d="M1915.02,-265.388C1626.51,-263.085 710.788,-253.35 417,-221 404.74,-219.65 391.49,-217.367 379.587,-215.008"/>
<polygon fill="midnightblue" stroke="midnightblue" points="1915.4,-268.891 1925.43,-265.47 1915.46,-261.891 1915.4,-268.891"/>
</g>
<!-- Node25 -->
<g id="node11" class="node"><title>Node25</title>
<g id="a_node11"><a xlink:href="cofold_8h.html" target="_top" xlink:title="MFE implementations for RNA&#45;RNA interaction. ">
<polygon fill="none" stroke="black" points="1582.5,-129 1582.5,-148 1693.5,-148 1693.5,-129 1582.5,-129"/>
<text text-anchor="middle" x="1638" y="-136" font-family="Helvetica,sans-Serif" font-size="10.00">ViennaRNA/cofold.h</text>
</a>
</g>
</g>
<!-- Node17&#45;&gt;Node25 -->
<g id="edge13" class="edge"><title>Node17&#45;&gt;Node25</title>
<path fill="none" stroke="midnightblue" d="M1914.9,-258.523C1843.32,-251.302 1748.88,-238.829 1715,-221 1697.77,-211.936 1660.47,-167.291 1644.97,-148.192"/>
<polygon fill="midnightblue" stroke="midnightblue" points="1914.99,-262.049 1925.28,-259.55 1915.68,-255.083 1914.99,-262.049"/>
</g>
<!-- Node26 -->
<g id="node12" class="node"><title>Node26</title>
<g id="a_node12"><a xlink:href="commands_8h.html" target="_top" xlink:title="Parse and apply different commands that alter the behavior of secondary structure prediction and eval...">
<polygon fill="none" stroke="black" points="497,-196 497,-215 631,-215 631,-196 497,-196"/>
<text text-anchor="middle" x="564" y="-203" font-family="Helvetica,sans-Serif" font-size="10.00">ViennaRNA/commands.h</text>
</a>
</g>
</g>
<!-- Node17&#45;&gt;Node26 -->
<g id="edge14" class="edge"><title>Node17&#45;&gt;Node26</title>
<path fill="none" stroke="midnightblue" d="M1915.14,-264.886C1654.51,-261.298 888.462,-248.634 640,-221 627.718,-219.634 614.448,-217.377 602.487,-215.046"/>
<polygon fill="midnightblue" stroke="midnightblue" points="1915.26,-268.388 1925.31,-265.025 1915.36,-261.389 1915.26,-268.388"/>
</g>
<!-- Node27 -->
<g id="node13" class="node"><title>Node27</title>
<g id="a_node13"><a xlink:href="constraints__ligand_8h.html" target="_top" xlink:title="Functions for incorporation of ligands binding to hairpin and interior loop motifs using the soft con...">
<polygon fill="none" stroke="black" points="4472,-190.5 4472,-220.5 4598,-220.5 4598,-190.5 4472,-190.5"/>
<text text-anchor="start" x="4480" y="-208.5" font-family="Helvetica,sans-Serif" font-size="10.00">ViennaRNA/constraints</text>
<text text-anchor="middle" x="4535" y="-197.5" font-family="Helvetica,sans-Serif" font-size="10.00">_ligand.h</text>
</a>
</g>
</g>
<!-- Node17&#45;&gt;Node27 -->
<g id="edge17" class="edge"><title>Node17&#45;&gt;Node27</title>
<path fill="none" stroke="midnightblue" d="M2090.66,-265.335C2501.19,-262.095 4223.88,-247.049 4463,-221 4465.92,-220.682 4468.89,-220.305 4471.88,-219.881"/>
<polygon fill="midnightblue" stroke="midnightblue" points="2090.6,-261.836 2080.63,-265.414 2090.65,-268.835 2090.6,-261.836"/>
</g>
<!-- Node28 -->
<g id="node14" class="node"><title>Node28</title>
<g id="a_node14"><a xlink:href="constraints__SHAPE_8h.html" target="_top" xlink:title="This module provides function to incorporate SHAPE reactivity data into the folding recursions by mea...">
<polygon fill="none" stroke="black" points="4034,-190.5 4034,-220.5 4160,-220.5 4160,-190.5 4034,-190.5"/>
<text text-anchor="start" x="4042" y="-208.5" font-family="Helvetica,sans-Serif" font-size="10.00">ViennaRNA/constraints</text>
<text text-anchor="middle" x="4097" y="-197.5" font-family="Helvetica,sans-Serif" font-size="10.00">_SHAPE.h</text>
</a>
</g>
</g>
<!-- Node17&#45;&gt;Node28 -->
<g id="edge19" class="edge"><title>Node17&#45;&gt;Node28</title>
<path fill="none" stroke="midnightblue" d="M2090.82,-265.956C2427.72,-265.488 3637.61,-260.998 4020,-221 4024.46,-220.533 4029.06,-219.945 4033.67,-219.276"/>
<polygon fill="midnightblue" stroke="midnightblue" points="2090.63,-262.456 2080.64,-265.969 2090.64,-269.456 2090.63,-262.456"/>
</g>
<!-- Node29 -->
<g id="node15" class="node"><title>Node29</title>
<g id="a_node15"><a xlink:href="constraints__soft_8h.html" target="_top" xlink:title="Functions and data structures for secondary structure soft constraints. ">
<polygon fill="none" stroke="black" points="4178,-190.5 4178,-220.5 4304,-220.5 4304,-190.5 4178,-190.5"/>
<text text-anchor="start" x="4186" y="-208.5" font-family="Helvetica,sans-Serif" font-size="10.00">ViennaRNA/constraints</text>
<text text-anchor="middle" x="4241" y="-197.5" font-family="Helvetica,sans-Serif" font-size="10.00">_soft.h</text>
</a>
</g>
</g>
<!-- Node17&#45;&gt;Node29 -->
<g id="edge21" class="edge"><title>Node17&#45;&gt;Node29</title>
<path fill="none" stroke="midnightblue" d="M2090.78,-266.26C2443.19,-266.984 3756.1,-266.499 4169,-221 4171.92,-220.679 4174.89,-220.298 4177.88,-219.872"/>
<polygon fill="midnightblue" stroke="midnightblue" points="2090.64,-262.76 2080.63,-266.239 2090.63,-269.76 2090.64,-262.76"/>
</g>
<!-- Node30 -->
<g id="node16" class="node"><title>Node30</title>
<g id="a_node16"><a xlink:href="dp__matrices_8h.html" target="_top" xlink:title="Functions to deal with standard dynamic programming (DP) matrices. ">
<polygon fill="none" stroke="black" points="649,-196 649,-215 789,-215 789,-196 649,-196"/>
<text text-anchor="middle" x="719" y="-203" font-family="Helvetica,sans-Serif" font-size="10.00">ViennaRNA/dp_matrices.h</text>
</a>
</g>
</g>
<!-- Node17&#45;&gt;Node30 -->
<g id="edge23" class="edge"><title>Node17&#45;&gt;Node30</title>
<path fill="none" stroke="midnightblue" d="M1915.22,-264.447C1674.35,-259.818 1006.84,-244.933 789,-221 776.248,-219.599 762.458,-217.332 750.442,-215.003"/>
<polygon fill="midnightblue" stroke="midnightblue" points="1915.27,-267.948 1925.34,-264.64 1915.41,-260.95 1915.27,-267.948"/>
</g>
<!-- Node31 -->
<g id="node17" class="node"><title>Node31</title>
<g id="a_node17"><a xlink:href="duplex_8h.html" target="_top" xlink:title="Functions for simple RNA&#45;RNA duplex interactions. ">
<polygon fill="none" stroke="black" points="807.5,-196 807.5,-215 920.5,-215 920.5,-196 807.5,-196"/>
<text text-anchor="middle" x="864" y="-203" font-family="Helvetica,sans-Serif" font-size="10.00">ViennaRNA/duplex.h</text>
</a>
</g>
</g>
<!-- Node17&#45;&gt;Node31 -->
<g id="edge25" class="edge"><title>Node17&#45;&gt;Node31</title>
<path fill="none" stroke="midnightblue" d="M1915.2,-264.105C1695.06,-259.063 1123.81,-244.108 935,-221 923.636,-219.609 911.38,-217.375 900.302,-215.073"/>
<polygon fill="midnightblue" stroke="midnightblue" points="1915.33,-267.609 1925.41,-264.337 1915.49,-260.611 1915.33,-267.609"/>
</g>
<!-- Node32 -->
<g id="node18" class="node"><title>Node32</title>
<g id="a_node18"><a xlink:href="equilibrium__probs_8h.html" target="_top" xlink:title="Equilibrium Probability implementations. ">
<polygon fill="none" stroke="black" points="140.5,-190.5 140.5,-220.5 263.5,-220.5 263.5,-190.5 140.5,-190.5"/>
<text text-anchor="start" x="148.5" y="-208.5" font-family="Helvetica,sans-Serif" font-size="10.00">ViennaRNA/equilibrium</text>
<text text-anchor="middle" x="202" y="-197.5" font-family="Helvetica,sans-Serif" font-size="10.00">_probs.h</text>
</a>
</g>
</g>
<!-- Node17&#45;&gt;Node32 -->
<g id="edge26" class="edge"><title>Node17&#45;&gt;Node32</title>
<path fill="none" stroke="midnightblue" d="M1915.35,-265.787C1610.17,-264.722 595.33,-258.388 272,-221 269.288,-220.686 266.525,-220.32 263.739,-219.911"/>
<polygon fill="midnightblue" stroke="midnightblue" points="1915.45,-269.287 1925.47,-265.821 1915.48,-262.287 1915.45,-269.287"/>
</g>
<!-- Node33 -->
<g id="node19" class="node"><title>Node33</title>
<g id="a_node19"><a xlink:href="eval_8h.html" target="_top" xlink:title="Functions and variables related to energy evaluation of sequence/structure pairs. ...">
<polygon fill="none" stroke="black" points="1462,-129 1462,-148 1564,-148 1564,-129 1462,-129"/>
<text text-anchor="middle" x="1513" y="-136" font-family="Helvetica,sans-Serif" font-size="10.00">ViennaRNA/eval.h</text>
</a>
</g>
</g>
<!-- Node17&#45;&gt;Node33 -->
<g id="edge28" class="edge"><title>Node17&#45;&gt;Node33</title>
<path fill="none" stroke="midnightblue" d="M1915.39,-265.71C1759.76,-264.275 1448.25,-256.897 1415,-221 1387.25,-191.05 1450.4,-161.938 1487.84,-148.012"/>
<polygon fill="midnightblue" stroke="midnightblue" points="1915.38,-269.21 1925.41,-265.796 1915.44,-262.21 1915.38,-269.21"/>
</g>
<!-- Node34 -->
<g id="node20" class="node"><title>Node34</title>
<g id="a_node20"><a xlink:href="fold_8h.html" target="_top" xlink:title="MFE calculations for single RNA sequences. ">
<polygon fill="none" stroke="black" points="1423,-62 1423,-81 1523,-81 1523,-62 1423,-62"/>
<text text-anchor="middle" x="1473" y="-69" font-family="Helvetica,sans-Serif" font-size="10.00">ViennaRNA/fold.h</text>
</a>
</g>
</g>
<!-- Node17&#45;&gt;Node34 -->
<g id="edge34" class="edge"><title>Node17&#45;&gt;Node34</title>
<path fill="none" stroke="midnightblue" d="M1915.11,-265.832C1757.26,-264.608 1438.93,-257.575 1405,-221 1364.7,-177.551 1435.52,-106.068 1462.89,-81.2848"/>
<polygon fill="midnightblue" stroke="midnightblue" points="1915.25,-269.333 1925.27,-265.905 1915.3,-262.333 1915.25,-269.333"/>
</g>
<!-- Node35 -->
<g id="node21" class="node"><title>Node35</title>
<g id="a_node21"><a xlink:href="exterior__loops_8h.html" target="_top" xlink:title="Energy evaluation of exterior loops for MFE and partition function calculations. ">
<polygon fill="none" stroke="black" points="1788,-123.5 1788,-153.5 1898,-153.5 1898,-123.5 1788,-123.5"/>
<text text-anchor="start" x="1796" y="-141.5" font-family="Helvetica,sans-Serif" font-size="10.00">ViennaRNA/exterior</text>
<text text-anchor="middle" x="1843" y="-130.5" font-family="Helvetica,sans-Serif" font-size="10.00">_loops.h</text>
</a>
</g>
</g>
<!-- Node17&#45;&gt;Node35 -->
<g id="edge30" class="edge"><title>Node17&#45;&gt;Node35</title>
<path fill="none" stroke="midnightblue" d="M1974.97,-252.711C1959.05,-244.569 1939.13,-233.356 1923,-221 1896.08,-200.386 1869.43,-170.947 1854.7,-153.671"/>
<polygon fill="midnightblue" stroke="midnightblue" points="1973.79,-256.033 1984.3,-257.367 1976.91,-249.77 1973.79,-256.033"/>
</g>
<!-- Node37 -->
<g id="node23" class="node"><title>Node37</title>
<g id="a_node23"><a xlink:href="file__formats_8h.html" target="_top" xlink:title="Read and write different file formats for RNA sequences, structures. ">
<polygon fill="none" stroke="black" points="1053.5,-196 1053.5,-215 1190.5,-215 1190.5,-196 1053.5,-196"/>
<text text-anchor="middle" x="1122" y="-203" font-family="Helvetica,sans-Serif" font-size="10.00">ViennaRNA/file_formats.h</text>
</a>
</g>
</g>
<!-- Node17&#45;&gt;Node37 -->
<g id="edge32" class="edge"><title>Node17&#45;&gt;Node37</title>
<path fill="none" stroke="midnightblue" d="M1914.98,-264.817C1766.73,-261.989 1458.03,-252.502 1199,-221 1186.85,-219.522 1173.72,-217.291 1161.81,-215.019"/>
<polygon fill="midnightblue" stroke="midnightblue" points="1915.31,-268.324 1925.37,-265.01 1915.44,-261.325 1915.31,-268.324"/>
</g>
<!-- Node38 -->
<g id="node24" class="node"><title>Node38</title>
<g id="a_node24"><a xlink:href="findpath_8h.html" target="_top" xlink:title="A breadth&#45;first search heuristic for optimal direct folding paths. ">
<polygon fill="none" stroke="black" points="1208.5,-196 1208.5,-215 1329.5,-215 1329.5,-196 1208.5,-196"/>
<text text-anchor="middle" x="1269" y="-203" font-family="Helvetica,sans-Serif" font-size="10.00">ViennaRNA/findpath.h</text>
</a>
</g>
</g>
<!-- Node17&#45;&gt;Node38 -->
<g id="edge33" class="edge"><title>Node17&#45;&gt;Node38</title>
<path fill="none" stroke="midnightblue" d="M1915.31,-263.437C1788.71,-258.96 1547.58,-247.528 1344,-221 1332.3,-219.475 1319.66,-217.258 1308.17,-215.014"/>
<polygon fill="midnightblue" stroke="midnightblue" points="1915.22,-266.936 1925.34,-263.785 1915.47,-259.94 1915.22,-266.936"/>
</g>
<!-- Node39 -->
<g id="node25" class="node"><title>Node39</title>
<g id="a_node25"><a xlink:href="fold__vars_8h.html" target="_top" xlink:title="Here all all declarations of the global variables used throughout RNAlib. ">
<polygon fill="none" stroke="black" points="3138,-129 3138,-148 3264,-148 3264,-129 3138,-129"/>
<text text-anchor="middle" x="3201" y="-136" font-family="Helvetica,sans-Serif" font-size="10.00">ViennaRNA/fold_vars.h</text>
</a>
</g>
</g>
<!-- Node17&#45;&gt;Node39 -->
<g id="edge35" class="edge"><title>Node17&#45;&gt;Node39</title>
<path fill="none" stroke="midnightblue" d="M2006.76,-247.032C2011.43,-228.989 2021.32,-202.762 2041,-190 2087.27,-159.992 2902.37,-144.381 3137.81,-140.485"/>
<polygon fill="midnightblue" stroke="midnightblue" points="2003.29,-246.487 2004.48,-257.015 2010.12,-248.042 2003.29,-246.487"/>
</g>
<!-- Node41 -->
<g id="node27" class="node"><title>Node41</title>
<g id="a_node27"><a xlink:href="gquad_8h.html" target="_top" xlink:title="G&#45;quadruplexes. ">
<polygon fill="none" stroke="black" points="902,-129 902,-148 1014,-148 1014,-129 902,-129"/>
<text text-anchor="middle" x="958" y="-136" font-family="Helvetica,sans-Serif" font-size="10.00">ViennaRNA/gquad.h</text>
</a>
</g>
</g>
<!-- Node17&#45;&gt;Node41 -->
<g id="edge37" class="edge"><title>Node17&#45;&gt;Node41</title>
<path fill="none" stroke="midnightblue" d="M1915.18,-266.046C1689.64,-265.59 1102.28,-260.568 1024,-221 992.152,-204.902 970.383,-165.68 961.929,-148.179"/>
<polygon fill="midnightblue" stroke="midnightblue" points="1915.31,-269.546 1925.32,-266.064 1915.32,-262.546 1915.31,-269.546"/>
</g>
<!-- Node42 -->
<g id="node28" class="node"><title>Node42</title>
<g id="a_node28"><a xlink:href="grammar_8h.html" target="_top" xlink:title="Implementations for the RNA folding grammar. ">
<polygon fill="none" stroke="black" points="1424.5,-196 1424.5,-215 1549.5,-215 1549.5,-196 1424.5,-196"/>
<text text-anchor="middle" x="1487" y="-203" font-family="Helvetica,sans-Serif" font-size="10.00">ViennaRNA/grammar.h</text>
</a>
</g>
</g>
<!-- Node17&#45;&gt;Node42 -->
<g id="edge38" class="edge"><title>Node17&#45;&gt;Node42</title>
<path fill="none" stroke="midnightblue" d="M1915.2,-260.166C1823.56,-253.197 1676.08,-240.039 1550,-221 1539.16,-219.363 1527.47,-217.189 1517.08,-215.024"/>
<polygon fill="midnightblue" stroke="midnightblue" points="1915.04,-263.664 1925.27,-260.924 1915.56,-256.683 1915.04,-263.664"/>
</g>
<!-- Node43 -->
<g id="node29" class="node"><title>Node43</title>
<g id="a_node29"><a xlink:href="hairpin__loops_8h.html" target="_top" xlink:title="Energy evaluation of hairpin loops for MFE and partition function calculations. ">
<polygon fill="none" stroke="black" points="3260,-62 3260,-81 3406,-81 3406,-62 3260,-62"/>
<text text-anchor="middle" x="3333" y="-69" font-family="Helvetica,sans-Serif" font-size="10.00">ViennaRNA/hairpin_loops.h</text>
</a>
</g>
</g>
<!-- Node17&#45;&gt;Node43 -->
<g id="edge40" class="edge"><title>Node17&#45;&gt;Node43</title>
<path fill="none" stroke="midnightblue" d="M2091.05,-265.623C2466.39,-263.809 3915.13,-254.639 3948,-221 3957.63,-211.146 3956.78,-200.617 3948,-190 3943.4,-184.437 3522.68,-107.149 3379.84,-81.0431"/>
<polygon fill="midnightblue" stroke="midnightblue" points="2090.77,-262.124 2080.79,-265.672 2090.81,-269.124 2090.77,-262.124"/>
</g>
<!-- Node17&#45;&gt;Node44 -->
<g id="edge42" class="edge"><title>Node17&#45;&gt;Node44</title>
<path fill="none" stroke="midnightblue" d="M1999.56,-247.328C1997.54,-229.897 1997.83,-204.464 2013,-190 2047.86,-156.763 2397.12,-159.238 2445,-154 2647.54,-131.843 2887.26,-96.6183 2992.24,-80.7394"/>
<polygon fill="midnightblue" stroke="midnightblue" points="1996.14,-248.068 2001.09,-257.431 2003.06,-247.02 1996.14,-248.068"/>
</g>
<!-- Node45 -->
<g id="node31" class="node"><title>Node45</title>
<g id="a_node31"><a xlink:href="LPfold_8h.html" target="_top" xlink:title="Partition function implementation for the Lfold algorithm. ">
<polygon fill="none" stroke="black" points="1067.5,-129 1067.5,-148 1180.5,-148 1180.5,-129 1067.5,-129"/>
<text text-anchor="middle" x="1124" y="-136" font-family="Helvetica,sans-Serif" font-size="10.00">ViennaRNA/LPfold.h</text>
</a>
</g>
</g>
<!-- Node17&#45;&gt;Node45 -->
<g id="edge44" class="edge"><title>Node17&#45;&gt;Node45</title>
<path fill="none" stroke="midnightblue" d="M1915.22,-265.17C1682.28,-262.54 1064.17,-252.602 1034,-221 1006.93,-192.64 1066.7,-162.467 1101.42,-148.087"/>
<polygon fill="midnightblue" stroke="midnightblue" points="1915.31,-268.671 1925.35,-265.283 1915.39,-261.672 1915.31,-268.671"/>
</g>
<!-- Node46 -->
<g id="node32" class="node"><title>Node46</title>
<g id="a_node32"><a xlink:href="MEA_8h.html" target="_top" xlink:title="Computes a MEA (maximum expected accuracy) structure. ">
<polygon fill="none" stroke="black" points="1207.5,-129 1207.5,-148 1312.5,-148 1312.5,-129 1207.5,-129"/>
<text text-anchor="middle" x="1260" y="-136" font-family="Helvetica,sans-Serif" font-size="10.00">ViennaRNA/MEA.h</text>
</a>
</g>
</g>
<!-- Node17&#45;&gt;Node46 -->
<g id="edge45" class="edge"><title>Node17&#45;&gt;Node46</title>
<path fill="none" stroke="midnightblue" d="M1915.3,-265.126C1684.14,-262.395 1073.81,-252.246 1044,-221 1034.49,-211.032 1035.44,-200.795 1044,-190 1046.77,-186.502 1158.94,-161.558 1220.51,-148.084"/>
<polygon fill="midnightblue" stroke="midnightblue" points="1915.32,-268.627 1925.36,-265.243 1915.4,-261.627 1915.32,-268.627"/>
</g>
<!-- Node47 -->
<g id="node33" class="node"><title>Node47</title>
<g id="a_node33"><a xlink:href="mfe_8h.html" target="_top" xlink:title="MFE calculations for single RNA sequences. ">
<polygon fill="none" stroke="red" points="1568,-196 1568,-215 1668,-215 1668,-196 1568,-196"/>
<text text-anchor="middle" x="1618" y="-203" font-family="Helvetica,sans-Serif" font-size="10.00">ViennaRNA/mfe.h</text>
</a>
</g>
</g>
<!-- Node17&#45;&gt;Node47 -->
<g id="edge46" class="edge"><title>Node17&#45;&gt;Node47</title>
<path fill="none" stroke="midnightblue" d="M1919.55,-256.241C1854.58,-248.176 1762.26,-235.691 1682,-221 1672.59,-219.277 1662.46,-217.123 1653.1,-215.008"/>
<polygon fill="midnightblue" stroke="midnightblue" points="1919.38,-259.747 1929.73,-257.497 1920.24,-252.8 1919.38,-259.747"/>
</g>
<!-- Node49 -->
<g id="node34" class="node"><title>Node49</title>
<g id="a_node34"><a xlink:href="multibranch__loops_8h.html" target="_top" xlink:title="Energy evaluation of multibranch loops for MFE and partition function calculations. ">
<polygon fill="none" stroke="black" points="3424,-56.5 3424,-86.5 3552,-86.5 3552,-56.5 3424,-56.5"/>
<text text-anchor="start" x="3432" y="-74.5" font-family="Helvetica,sans-Serif" font-size="10.00">ViennaRNA/multibranch</text>
<text text-anchor="middle" x="3488" y="-63.5" font-family="Helvetica,sans-Serif" font-size="10.00">_loops.h</text>
</a>
</g>
</g>
<!-- Node17&#45;&gt;Node49 -->
<g id="edge50" class="edge"><title>Node17&#45;&gt;Node49</title>
<path fill="none" stroke="midnightblue" d="M2090.64,-265.644C2467.52,-263.909 3932.79,-254.983 3966,-221 4090.51,-93.5992 3709.09,-75.013 3552.18,-72.6639"/>
<polygon fill="midnightblue" stroke="midnightblue" points="2090.59,-262.144 2080.61,-265.69 2090.62,-269.144 2090.59,-262.144"/>
</g>
<!-- Node50 -->
<g id="node35" class="node"><title>Node50</title>
<g id="a_node35"><a xlink:href="params_8h.html" target="_top" xlink:title="Functions to deal with sets of energy parameters. ">
<polygon fill="none" stroke="black" points="1724,-196 1724,-215 1842,-215 1842,-196 1724,-196"/>
<text text-anchor="middle" x="1783" y="-203" font-family="Helvetica,sans-Serif" font-size="10.00">ViennaRNA/params.h</text>
</a>
</g>
</g>
<!-- Node17&#45;&gt;Node50 -->
<g id="edge52" class="edge"><title>Node17&#45;&gt;Node50</title>
<path fill="none" stroke="midnightblue" d="M1956.83,-254.968C1912.14,-243.415 1846.12,-225.517 1809.57,-215.009"/>
<polygon fill="midnightblue" stroke="midnightblue" points="1956.02,-258.375 1966.58,-257.475 1957.76,-251.596 1956.02,-258.375"/>
</g>
<!-- Node51 -->
<g id="node36" class="node"><title>Node51</title>
<g id="a_node36"><a xlink:href="part__func__co_8h.html" target="_top" xlink:title="Partition function for two RNA sequences. ">
<polygon fill="none" stroke="black" points="2030,-129 2030,-148 2174,-148 2174,-129 2030,-129"/>
<text text-anchor="middle" x="2102" y="-136" font-family="Helvetica,sans-Serif" font-size="10.00">ViennaRNA/part_func_co.h</text>
</a>
</g>
</g>
<!-- Node17&#45;&gt;Node51 -->
<g id="edge70" class="edge"><title>Node17&#45;&gt;Node51</title>
<path fill="none" stroke="midnightblue" d="M1968.4,-252.921C1954.49,-245.747 1939.89,-235.337 1932,-221 1925.36,-208.928 1923.76,-201.043 1932,-190 1946.22,-170.937 2005.2,-156.49 2049.73,-148.031"/>
<polygon fill="midnightblue" stroke="midnightblue" points="1967.3,-256.272 1977.84,-257.378 1970.29,-249.942 1967.3,-256.272"/>
</g>
<!-- Node52 -->
<g id="node37" class="node"><title>Node52</title>
<g id="a_node37"><a xlink:href="subopt_8h.html" target="_top" xlink:title="RNAsubopt and density of states declarations. ">
<polygon fill="none" stroke="black" points="2192.5,-129 2192.5,-148 2305.5,-148 2305.5,-129 2192.5,-129"/>
<text text-anchor="middle" x="2249" y="-136" font-family="Helvetica,sans-Serif" font-size="10.00">ViennaRNA/subopt.h</text>
</a>
</g>
</g>
<!-- Node17&#45;&gt;Node52 -->
<g id="edge89" class="edge"><title>Node17&#45;&gt;Node52</title>
<path fill="none" stroke="midnightblue" d="M1986.32,-249.398C1971.77,-232.901 1955.13,-207.588 1970,-190 2000.99,-153.336 2135.88,-163.153 2183,-154 2192.33,-152.188 2202.36,-150.071 2211.72,-148.024"/>
<polygon fill="midnightblue" stroke="midnightblue" points="1984.17,-252.224 1993.56,-257.134 1989.28,-247.441 1984.17,-252.224"/>
</g>
<!-- Node53 -->
<g id="node38" class="node"><title>Node53</title>
<g id="a_node38"><a xlink:href="part__func__up_8h.html" target="_top" xlink:title="Implementations for accessibility and RNA&#45;RNA interaction as a stepwise process. ">
<polygon fill="none" stroke="black" points="2050,-196 2050,-215 2194,-215 2194,-196 2050,-196"/>
<text text-anchor="middle" x="2122" y="-203" font-family="Helvetica,sans-Serif" font-size="10.00">ViennaRNA/part_func_up.h</text>
</a>
</g>
</g>
<!-- Node17&#45;&gt;Node53 -->
<g id="edge71" class="edge"><title>Node17&#45;&gt;Node53</title>
<path fill="none" stroke="midnightblue" d="M2029.27,-252.867C2052.33,-241.335 2085.2,-224.899 2104.98,-215.009"/>
<polygon fill="midnightblue" stroke="midnightblue" points="2027.43,-249.872 2020.05,-257.475 2030.56,-256.133 2027.43,-249.872"/>
</g>
<!-- Node54 -->
<g id="node39" class="node"><title>Node54</title>
<g id="a_node39"><a xlink:href="perturbation__fold_8h.html" target="_top" xlink:title="Find a vector of perturbation energies that minimizes the discripancies between predicted and observe...">
<polygon fill="none" stroke="black" points="4322.5,-190.5 4322.5,-220.5 4453.5,-220.5 4453.5,-190.5 4322.5,-190.5"/>
<text text-anchor="start" x="4330.5" y="-208.5" font-family="Helvetica,sans-Serif" font-size="10.00">ViennaRNA/perturbation</text>
<text text-anchor="middle" x="4388" y="-197.5" font-family="Helvetica,sans-Serif" font-size="10.00">_fold.h</text>
</a>
</g>
</g>
<!-- Node17&#45;&gt;Node54 -->
<g id="edge72" class="edge"><title>Node17&#45;&gt;Node54</title>
<path fill="none" stroke="midnightblue" d="M2090.76,-266.304C2457.65,-267.262 3870.13,-267.775 4313,-221 4316.03,-220.68 4319.13,-220.3 4322.25,-219.874"/>
<polygon fill="midnightblue" stroke="midnightblue" points="2090.74,-262.804 2080.73,-266.277 2090.72,-269.804 2090.74,-262.804"/>
</g>
<!-- Node55 -->
<g id="node40" class="node"><title>Node55</title>
<g id="a_node40"><a xlink:href="PKplex_8h_source.html" target="_top" xlink:title="ViennaRNA/PKplex.h">
<polygon fill="none" stroke="black" points="2212,-196 2212,-215 2328,-215 2328,-196 2212,-196"/>
<text text-anchor="middle" x="2270" y="-203" font-family="Helvetica,sans-Serif" font-size="10.00">ViennaRNA/PKplex.h</text>
</a>
</g>
</g>
<!-- Node17&#45;&gt;Node55 -->
<g id="edge74" class="edge"><title>Node17&#45;&gt;Node55</title>
<path fill="none" stroke="midnightblue" d="M2051.2,-255.258C2103,-243.716 2184.27,-225.606 2231.82,-215.009"/>
<polygon fill="midnightblue" stroke="midnightblue" points="2050.25,-251.884 2041.25,-257.475 2051.78,-258.716 2050.25,-251.884"/>
</g>
<!-- Node56 -->
<g id="node41" class="node"><title>Node56</title>
<g id="a_node41"><a xlink:href="plex_8h_source.html" target="_top" xlink:title="ViennaRNA/plex.h">
<polygon fill="none" stroke="black" points="2346,-196 2346,-215 2448,-215 2448,-196 2346,-196"/>
<text text-anchor="middle" x="2397" y="-203" font-family="Helvetica,sans-Serif" font-size="10.00">ViennaRNA/plex.h</text>
</a>
</g>
</g>
<!-- Node17&#45;&gt;Node56 -->
<g id="edge75" class="edge"><title>Node17&#45;&gt;Node56</title>
<path fill="none" stroke="midnightblue" d="M2090.82,-256.676C2158.41,-248.895 2254,-236.578 2337,-221 2345.95,-219.32 2355.57,-217.157 2364.44,-215.017"/>
<polygon fill="midnightblue" stroke="midnightblue" points="2090.18,-253.227 2080.64,-257.838 2090.97,-260.182 2090.18,-253.227"/>
</g>
<!-- Node57 -->
<g id="node42" class="node"><title>Node57</title>
<g id="a_node42"><a xlink:href="plot__layouts_8h.html" target="_top" xlink:title="Secondary structure plot layout algorithms. ">
<polygon fill="none" stroke="red" points="2466.5,-196 2466.5,-215 2605.5,-215 2605.5,-196 2466.5,-196"/>
<text text-anchor="middle" x="2536" y="-203" font-family="Helvetica,sans-Serif" font-size="10.00">ViennaRNA/plot_layouts.h</text>
</a>
</g>
</g>
<!-- Node17&#45;&gt;Node57 -->
<g id="edge76" class="edge"><title>Node17&#45;&gt;Node57</title>
<path fill="none" stroke="midnightblue" d="M2090.82,-259.462C2182.46,-252.133 2330.19,-238.891 2457,-221 2468.74,-219.344 2481.39,-217.189 2493.05,-215.049"/>
<polygon fill="midnightblue" stroke="midnightblue" points="2090.45,-255.981 2080.75,-260.261 2091,-262.959 2090.45,-255.981"/>
</g>
<!-- Node60 -->
<g id="node43" class="node"><title>Node60</title>
<g id="a_node43"><a xlink:href="profiledist_8h.html" target="_top" xlink:title="ViennaRNA/profiledist.h">
<polygon fill="none" stroke="black" points="2624,-196 2624,-215 2752,-215 2752,-196 2624,-196"/>
<text text-anchor="middle" x="2688" y="-203" font-family="Helvetica,sans-Serif" font-size="10.00">ViennaRNA/profiledist.h</text>
</a>
</g>
</g>
<!-- Node17&#45;&gt;Node60 -->
<g id="edge77" class="edge"><title>Node17&#45;&gt;Node60</title>
<path fill="none" stroke="midnightblue" d="M2091.1,-262.832C2210.17,-257.793 2428.85,-245.866 2614,-221 2625.42,-219.467 2637.73,-217.274 2648.97,-215.057"/>
<polygon fill="midnightblue" stroke="midnightblue" points="2090.8,-259.341 2080.95,-263.255 2091.09,-266.335 2090.8,-259.341"/>
</g>
<!-- Node59 -->
<g id="node44" class="node"><title>Node59</title>
<g id="a_node44"><a xlink:href="PS__dot_8h.html" target="_top" xlink:title="Various functions for plotting RNA secondary structures, dot&#45;plots and other visualizations. ">
<polygon fill="none" stroke="black" points="2770.5,-196 2770.5,-215 2887.5,-215 2887.5,-196 2770.5,-196"/>
<text text-anchor="middle" x="2829" y="-203" font-family="Helvetica,sans-Serif" font-size="10.00">ViennaRNA/PS_dot.h</text>
</a>
</g>
</g>
<!-- Node17&#45;&gt;Node59 -->
<g id="edge78" class="edge"><title>Node17&#45;&gt;Node59</title>
<path fill="none" stroke="midnightblue" d="M2090.94,-265.074C2232.63,-262.619 2519.97,-253.663 2761,-221 2771.77,-219.541 2783.37,-217.316 2793.88,-215.043"/>
<polygon fill="midnightblue" stroke="midnightblue" points="2090.52,-261.58 2080.58,-265.246 2090.63,-268.579 2090.52,-261.58"/>
</g>
<!-- Node61 -->
<g id="node45" class="node"><title>Node61</title>
<g id="a_node45"><a xlink:href="snofold_8h_source.html" target="_top" xlink:title="ViennaRNA/snofold.h">
<polygon fill="none" stroke="black" points="2905.5,-196 2905.5,-215 3022.5,-215 3022.5,-196 2905.5,-196"/>
<text text-anchor="middle" x="2964" y="-203" font-family="Helvetica,sans-Serif" font-size="10.00">ViennaRNA/snofold.h</text>
</a>
</g>
</g>
<!-- Node17&#45;&gt;Node61 -->
<g id="edge79" class="edge"><title>Node17&#45;&gt;Node61</title>
<path fill="none" stroke="midnightblue" d="M2091.02,-266.211C2251.67,-265.564 2602.87,-259.388 2896,-221 2906.89,-219.574 2918.63,-217.329 2929.24,-215.028"/>
<polygon fill="midnightblue" stroke="midnightblue" points="2090.71,-262.711 2080.72,-266.245 2090.73,-269.711 2090.71,-262.711"/>
</g>
<!-- Node62 -->
<g id="node46" class="node"><title>Node62</title>
<g id="a_node46"><a xlink:href="snoop_8h_source.html" target="_top" xlink:title="ViennaRNA/snoop.h">
<polygon fill="none" stroke="black" points="3041,-196 3041,-215 3153,-215 3153,-196 3041,-196"/>
<text text-anchor="middle" x="3097" y="-203" font-family="Helvetica,sans-Serif" font-size="10.00">ViennaRNA/snoop.h</text>
</a>
</g>
</g>
<!-- Node17&#45;&gt;Node62 -->
<g id="edge80" class="edge"><title>Node17&#45;&gt;Node62</title>
<path fill="none" stroke="midnightblue" d="M2090.93,-264.102C2305.29,-259.159 2850.4,-244.612 3031,-221 3041.7,-219.601 3053.24,-217.335 3063.62,-215.005"/>
<polygon fill="midnightblue" stroke="midnightblue" points="2090.59,-260.609 2080.67,-264.337 2090.75,-267.607 2090.59,-260.609"/>
</g>
<!-- Node63 -->
<g id="node47" class="node"><title>Node63</title>
<g id="a_node47"><a xlink:href="string__utils_8h.html" target="_top" xlink:title="General utility&#45; and helper&#45;functions for RNA sequence and structure strings used throughout the Vien...">
<polygon fill="none" stroke="black" points="3171.5,-196 3171.5,-215 3304.5,-215 3304.5,-196 3171.5,-196"/>
<text text-anchor="middle" x="3238" y="-203" font-family="Helvetica,sans-Serif" font-size="10.00">ViennaRNA/string_utils.h</text>
</a>
</g>
</g>
<!-- Node17&#45;&gt;Node63 -->
<g id="edge81" class="edge"><title>Node17&#45;&gt;Node63</title>
<path fill="none" stroke="midnightblue" d="M2090.8,-264.295C2323.91,-259.496 2954.76,-244.658 3162,-221 3174.28,-219.598 3187.55,-217.331 3199.51,-215.002"/>
<polygon fill="midnightblue" stroke="midnightblue" points="2090.59,-260.798 2080.67,-264.503 2090.73,-267.797 2090.59,-260.798"/>
</g>
<!-- Node64 -->
<g id="node48" class="node"><title>Node64</title>
<g id="a_node48"><a xlink:href="utils_8h.html" target="_top" xlink:title="General utility&#45; and helper&#45;functions used throughout the ViennaRNA Package. ">
<polygon fill="none" stroke="black" points="3282.5,-129 3282.5,-148 3383.5,-148 3383.5,-129 3282.5,-129"/>
<text text-anchor="middle" x="3333" y="-136" font-family="Helvetica,sans-Serif" font-size="10.00">ViennaRNA/utils.h</text>
</a>
</g>
</g>
<!-- Node17&#45;&gt;Node64 -->
<g id="edge92" class="edge"><title>Node17&#45;&gt;Node64</title>
<path fill="none" stroke="midnightblue" d="M2090.99,-265.87C2377.13,-265.071 3265.62,-259.49 3313,-221 3335.05,-203.087 3335.11,-165.176 3333.89,-148.126"/>
<polygon fill="midnightblue" stroke="midnightblue" points="2090.65,-262.371 2080.66,-265.897 2090.67,-269.371 2090.65,-262.371"/>
</g>
<!-- Node65 -->
<g id="node49" class="node"><title>Node65</title>
<g id="a_node49"><a xlink:href="structure__utils_8h.html" target="_top" xlink:title="Various utility&#45; and helper&#45;functions for secondary structure parsing, converting, etc. ">
<polygon fill="none" stroke="black" points="3361.5,-190.5 3361.5,-220.5 3476.5,-220.5 3476.5,-190.5 3361.5,-190.5"/>
<text text-anchor="start" x="3369.5" y="-208.5" font-family="Helvetica,sans-Serif" font-size="10.00">ViennaRNA/structure</text>
<text text-anchor="middle" x="3419" y="-197.5" font-family="Helvetica,sans-Serif" font-size="10.00">_utils.h</text>
</a>
</g>
</g>
<!-- Node17&#45;&gt;Node65 -->
<g id="edge87" class="edge"><title>Node17&#45;&gt;Node65</title>
<path fill="none" stroke="midnightblue" d="M2091.01,-264.953C2349.33,-261.579 3102.58,-249.506 3347,-221 3351.69,-220.453 3356.52,-219.762 3361.37,-218.979"/>
<polygon fill="midnightblue" stroke="midnightblue" points="2090.88,-261.454 2080.92,-265.084 2090.97,-268.454 2090.88,-261.454"/>
</g>
<!-- Node66 -->
<g id="node50" class="node"><title>Node66</title>
<g id="a_node50"><a xlink:href="unstructured__domains_8h.html" target="_top" xlink:title="Functions to modify unstructured domains, e.g. to incorporate ligands binding to unpaired stretches...">
<polygon fill="none" stroke="black" points="3495,-190.5 3495,-220.5 3627,-220.5 3627,-190.5 3495,-190.5"/>
<text text-anchor="start" x="3503" y="-208.5" font-family="Helvetica,sans-Serif" font-size="10.00">ViennaRNA/unstructured</text>
<text text-anchor="middle" x="3561" y="-197.5" font-family="Helvetica,sans-Serif" font-size="10.00">_domains.h</text>
</a>
</g>
</g>
<!-- Node17&#45;&gt;Node66 -->
<g id="edge90" class="edge"><title>Node17&#45;&gt;Node66</title>
<path fill="none" stroke="midnightblue" d="M2091.27,-265.111C2366.24,-262.107 3204.75,-250.805 3476,-221 3482.14,-220.325 3488.53,-219.425 3494.93,-218.401"/>
<polygon fill="midnightblue" stroke="midnightblue" points="2090.91,-261.615 2080.95,-265.223 2090.98,-268.614 2090.91,-261.615"/>
</g>
<!-- Node22&#45;&gt;Node21 -->
<g id="edge8" class="edge"><title>Node22&#45;&gt;Node21</title>
<path fill="none" stroke="midnightblue" d="M107.069,-186.731C152.494,-169.486 224.057,-143.05 287,-123 338.24,-106.678 398.522,-90.543 435.232,-81.0544"/>
<polygon fill="midnightblue" stroke="midnightblue" points="105.605,-183.544 97.5052,-190.373 108.096,-190.085 105.605,-183.544"/>
</g>
<!-- Node22&#45;&gt;Node23 -->
<g id="edge9" class="edge"><title>Node22&#45;&gt;Node23</title>
<path fill="none" stroke="midnightblue" d="M132.233,-189.015C191.249,-176.185 272.929,-158.429 320.743,-148.034"/>
<polygon fill="midnightblue" stroke="midnightblue" points="131.257,-185.645 122.229,-191.189 132.744,-192.485 131.257,-185.645"/>
</g>
<!-- Node23&#45;&gt;Node21 -->
<g id="edge10" class="edge"><title>Node23&#45;&gt;Node21</title>
<path fill="none" stroke="midnightblue" d="M383.574,-123.442C405.16,-110.57 436.422,-91.9274 454.533,-81.1273"/>
<polygon fill="midnightblue" stroke="midnightblue" points="381.496,-120.606 374.7,-128.734 385.082,-126.618 381.496,-120.606"/>
</g>
<!-- Node24&#45;&gt;Node23 -->
<g id="edge12" class="edge"><title>Node24&#45;&gt;Node23</title>
<path fill="none" stroke="midnightblue" d="M347.147,-185.915C350.588,-173.488 354.955,-157.717 357.611,-148.127"/>
<polygon fill="midnightblue" stroke="midnightblue" points="343.723,-185.162 344.428,-195.734 350.469,-187.031 343.723,-185.162"/>
</g>
<!-- Node27&#45;&gt;Node16 -->
<g id="edge18" class="edge"><title>Node27&#45;&gt;Node16</title>
<path fill="none" stroke="midnightblue" d="M4482.79,-223.83C4407.13,-248.94 4269.86,-294.5 4212.87,-313.413"/>
<polygon fill="midnightblue" stroke="midnightblue" points="4484.2,-227.047 4492.59,-220.575 4482,-220.404 4484.2,-227.047"/>
</g>
<!-- Node28&#45;&gt;Node16 -->
<g id="edge20" class="edge"><title>Node28&#45;&gt;Node16</title>
<path fill="none" stroke="midnightblue" d="M4114.23,-228.615C4134.27,-254.324 4166.35,-295.502 4180.24,-313.319"/>
<polygon fill="midnightblue" stroke="midnightblue" points="4116.85,-226.282 4107.94,-220.545 4111.33,-230.585 4116.85,-226.282"/>
</g>
<!-- Node29&#45;&gt;Node16 -->
<g id="edge22" class="edge"><title>Node29&#45;&gt;Node16</title>
<path fill="none" stroke="midnightblue" d="M4230.19,-229.629C4218.14,-255.394 4199.28,-295.734 4191.06,-313.319"/>
<polygon fill="midnightblue" stroke="midnightblue" points="4233.37,-231.087 4234.43,-220.545 4227.03,-228.122 4233.37,-231.087"/>
</g>
<!-- Node30&#45;&gt;Node17 -->
<g id="edge24" class="edge"><title>Node30&#45;&gt;Node17</title>
<path fill="none" stroke="midnightblue" d="M777.7,-216.778C787.5,-218.444 797.536,-219.96 807,-221 1025.5,-245.005 1696.38,-259.908 1925.46,-264.489"/>
<polygon fill="midnightblue" stroke="midnightblue" points="778.062,-213.288 767.607,-215.003 776.849,-220.183 778.062,-213.288"/>
</g>
<!-- Node32&#45;&gt;Node23 -->
<g id="edge27" class="edge"><title>Node32&#45;&gt;Node23</title>
<path fill="none" stroke="midnightblue" d="M245.855,-186.458C276.381,-173.9 315.702,-157.724 339.321,-148.007"/>
<polygon fill="midnightblue" stroke="midnightblue" points="244.2,-183.355 236.284,-190.396 246.863,-189.828 244.2,-183.355"/>
</g>
<!-- Node33&#45;&gt;Node34 -->
<g id="edge29" class="edge"><title>Node33&#45;&gt;Node34</title>
<path fill="none" stroke="midnightblue" d="M1502.25,-120.035C1494.51,-107.45 1484.39,-91.0072 1478.31,-81.1273"/>
<polygon fill="midnightblue" stroke="midnightblue" points="1499.38,-122.052 1507.61,-128.734 1505.35,-118.383 1499.38,-122.052"/>
</g>
<!-- Node36 -->
<g id="node22" class="node"><title>Node36</title>
<g id="a_node22"><a xlink:href="loop__energies_8h.html" target="_top" xlink:title="Energy evaluation for MFE and partition function calculations. ">
<polygon fill="none" stroke="black" points="3114,-0.5 3114,-19.5 3264,-19.5 3264,-0.5 3114,-0.5"/>
<text text-anchor="middle" x="3189" y="-7.5" font-family="Helvetica,sans-Serif" font-size="10.00">ViennaRNA/loop_energies.h</text>
</a>
</g>
</g>
<!-- Node35&#45;&gt;Node36 -->
<g id="edge31" class="edge"><title>Node35&#45;&gt;Node36</title>
<path fill="none" stroke="midnightblue" d="M1908.33,-122.184C2367.3,-48.052 2916.49,-21.2687 3113.86,-13.5988"/>
<polygon fill="midnightblue" stroke="midnightblue" points="1907.5,-118.774 1898.19,-123.833 1908.62,-125.683 1907.5,-118.774"/>
</g>
<!-- Node40 -->
<g id="node26" class="node"><title>Node40</title>
<g id="a_node26"><a xlink:href="pair__mat_8h_source.html" target="_top" xlink:title="ViennaRNA/pair_mat.h">
<polygon fill="none" stroke="black" points="3118,-62 3118,-81 3242,-81 3242,-62 3118,-62"/>
<text text-anchor="middle" x="3180" y="-69" font-family="Helvetica,sans-Serif" font-size="10.00">ViennaRNA/pair_mat.h</text>
</a>
</g>
</g>
<!-- Node39&#45;&gt;Node40 -->
<g id="edge36" class="edge"><title>Node39&#45;&gt;Node40</title>
<path fill="none" stroke="midnightblue" d="M3195,-118.915C3190.98,-106.488 3185.89,-90.7166 3182.79,-81.1273"/>
<polygon fill="midnightblue" stroke="midnightblue" points="3191.76,-120.294 3198.17,-128.734 3198.42,-118.142 3191.76,-120.294"/>
</g>
<!-- Node42&#45;&gt;Node17 -->
<g id="edge39" class="edge"><title>Node42&#45;&gt;Node17</title>
<path fill="none" stroke="midnightblue" d="M1544.38,-216.94C1552.34,-218.432 1560.38,-219.849 1568,-221 1692.49,-239.798 1837.84,-252.863 1925.1,-259.899"/>
<polygon fill="midnightblue" stroke="midnightblue" points="1544.88,-213.471 1534.4,-215.024 1543.56,-220.346 1544.88,-213.471"/>
</g>
<!-- Node43&#45;&gt;Node36 -->
<g id="edge41" class="edge"><title>Node43&#45;&gt;Node36</title>
<path fill="none" stroke="midnightblue" d="M3303.07,-58.1313C3275.09,-46.5717 3234.06,-29.62 3209.59,-19.5091"/>
<polygon fill="midnightblue" stroke="midnightblue" points="3301.79,-61.391 3312.37,-61.9751 3304.46,-54.9215 3301.79,-61.391"/>
</g>
<!-- Node44&#45;&gt;Node36 -->
<g id="edge43" class="edge"><title>Node44&#45;&gt;Node36</title>
<path fill="none" stroke="midnightblue" d="M3089.22,-52.5152C3115.39,-41.6279 3147.58,-28.2348 3168.19,-19.6578"/>
<polygon fill="midnightblue" stroke="midnightblue" points="3087.78,-49.3263 3079.89,-56.3993 3090.47,-55.7891 3087.78,-49.3263"/>
</g>
<!-- Node47&#45;&gt;Node21 -->
<g id="edge47" class="edge"><title>Node47&#45;&gt;Node21</title>
<path fill="none" stroke="midnightblue" d="M1578.26,-193.099C1503.37,-171.684 1346.54,-127.214 1321,-123 1023.3,-73.8845 660.146,-70.9527 524.012,-71.8089"/>
<polygon fill="midnightblue" stroke="midnightblue" points="1577.69,-196.574 1588.27,-195.961 1579.61,-189.845 1577.69,-196.574"/>
</g>
<!-- Node47&#45;&gt;Node25 -->
<g id="edge48" class="edge"><title>Node47&#45;&gt;Node25</title>
<path fill="none" stroke="midnightblue" d="M1623.72,-185.915C1627.54,-173.488 1632.39,-157.717 1635.35,-148.127"/>
<polygon fill="midnightblue" stroke="midnightblue" points="1620.29,-185.147 1620.7,-195.734 1626.98,-187.205 1620.29,-185.147"/>
</g>
<!-- Node47&#45;&gt;Node34 -->
<g id="edge49" class="edge"><title>Node47&#45;&gt;Node34</title>
<path fill="none" stroke="midnightblue" d="M1572.58,-193.54C1526.31,-181.918 1460.32,-163.901 1453,-154 1436.36,-131.511 1455.93,-96.912 1466.76,-81.0178"/>
<polygon fill="midnightblue" stroke="midnightblue" points="1571.87,-196.969 1582.42,-195.989 1573.56,-190.176 1571.87,-196.969"/>
</g>
<!-- Node49&#45;&gt;Node36 -->
<g id="edge51" class="edge"><title>Node49&#45;&gt;Node36</title>
<path fill="none" stroke="midnightblue" d="M3413.76,-55.7274C3356.48,-44.3271 3279.24,-28.9571 3231.84,-19.5254"/>
<polygon fill="midnightblue" stroke="midnightblue" points="3413.37,-59.2167 3423.86,-57.7358 3414.73,-52.3513 3413.37,-59.2167"/>
</g>
<!-- Node50&#45;&gt;Node17 -->
<g id="edge56" class="edge"><title>Node50&#45;&gt;Node17</title>
<path fill="none" stroke="midnightblue" d="M1829.11,-217.514C1873.78,-229.062 1939.79,-246.959 1976.38,-257.475"/>
<polygon fill="midnightblue" stroke="midnightblue" points="1829.92,-214.109 1819.36,-215.009 1828.17,-220.888 1829.92,-214.109"/>
</g>
<!-- Node50&#45;&gt;Node18 -->
<g id="edge53" class="edge"><title>Node50&#45;&gt;Node18</title>
<path fill="none" stroke="midnightblue" d="M1852.11,-198.98C1975,-188.988 2226.8,-167.674 2314,-154 2324.08,-152.419 2334.94,-150.238 2344.87,-148.047"/>
<polygon fill="midnightblue" stroke="midnightblue" points="1851.74,-195.498 1842.06,-199.795 1852.31,-202.475 1851.74,-195.498"/>
</g>
<!-- Node50&#45;&gt;Node21 -->
<g id="edge54" class="edge"><title>Node50&#45;&gt;Node21</title>
<path fill="none" stroke="midnightblue" d="M1768.27,-188.473C1747.25,-165.784 1710.25,-126.633 1702,-123 1593.42,-75.199 749.673,-72.3103 524.229,-72.3999"/>
<polygon fill="midnightblue" stroke="midnightblue" points="1765.86,-191.018 1775.21,-195.991 1771,-186.269 1765.86,-191.018"/>
</g>
<!-- Node50&#45;&gt;Node23 -->
<g id="edge66" class="edge"><title>Node50&#45;&gt;Node23</title>
<path fill="none" stroke="midnightblue" d="M1718.15,-194.608C1704.58,-192.825 1690.34,-191.166 1677,-190 1429.11,-168.345 651.781,-147.034 423.582,-141.114"/>
<polygon fill="midnightblue" stroke="midnightblue" points="1717.99,-198.118 1728.37,-195.989 1718.93,-191.182 1717.99,-198.118"/>
</g>
<!-- Node50&#45;&gt;Node25 -->
<g id="edge55" class="edge"><title>Node50&#45;&gt;Node25</title>
<path fill="none" stroke="midnightblue" d="M1754.25,-191.613C1725.53,-178.739 1682.18,-159.306 1657.33,-148.167"/>
<polygon fill="midnightblue" stroke="midnightblue" points="1753.19,-194.972 1763.75,-195.869 1756.05,-188.584 1753.19,-194.972"/>
</g>
<!-- Node50&#45;&gt;Node33 -->
<g id="edge57" class="edge"><title>Node50&#45;&gt;Node33</title>
<path fill="none" stroke="midnightblue" d="M1737.55,-193.586C1695.01,-183.368 1629.7,-167.668 1573,-154 1564.98,-152.066 1556.35,-149.984 1548.21,-148.017"/>
<polygon fill="midnightblue" stroke="midnightblue" points="1736.79,-197.002 1747.33,-195.934 1738.42,-190.195 1736.79,-197.002"/>
</g>
<!-- Node50&#45;&gt;Node34 -->
<g id="edge59" class="edge"><title>Node50&#45;&gt;Node34</title>
<path fill="none" stroke="midnightblue" d="M1777.58,-186.428C1770.94,-167.532 1757.79,-138.514 1736,-123 1702.48,-99.1357 1589.59,-84.1301 1523.1,-77.1414"/>
<polygon fill="midnightblue" stroke="midnightblue" points="1774.26,-187.544 1780.69,-195.97 1780.92,-185.377 1774.26,-187.544"/>
</g>
<!-- Node50&#45;&gt;Node35 -->
<g id="edge58" class="edge"><title>Node50&#45;&gt;Node35</title>
<path fill="none" stroke="midnightblue" d="M1797.95,-188.304C1807.8,-177.635 1820.57,-163.802 1829.99,-153.589"/>
<polygon fill="midnightblue" stroke="midnightblue" points="1795.3,-186.012 1791.09,-195.734 1800.45,-190.76 1795.3,-186.012"/>
</g>
<!-- Node50&#45;&gt;Node41 -->
<g id="edge60" class="edge"><title>Node50&#45;&gt;Node41</title>
<path fill="none" stroke="midnightblue" d="M1716.78,-194.634C1703.62,-192.901 1689.89,-191.255 1677,-190 1402.72,-163.305 1332.17,-181.798 1058,-154 1042.64,-152.443 1026.03,-150.243 1010.83,-148.026"/>
<polygon fill="midnightblue" stroke="midnightblue" points="1716.33,-198.105 1726.71,-195.97 1717.27,-191.167 1716.33,-198.105"/>
</g>
<!-- Node50&#45;&gt;Node43 -->
<g id="edge61" class="edge"><title>Node50&#45;&gt;Node43</title>
<path fill="none" stroke="midnightblue" d="M1830.48,-193.488C1863.08,-184.982 1906.83,-171.672 1943,-154 1964.82,-143.338 1964.92,-130.544 1988,-123 2121.45,-79.3896 3111.34,-101.261 3251,-87 3264.23,-85.6489 3278.54,-83.3962 3291.45,-81.0645"/>
<polygon fill="midnightblue" stroke="midnightblue" points="1829.56,-190.109 1820.74,-195.973 1831.3,-196.892 1829.56,-190.109"/>
</g>
<!-- Node50&#45;&gt;Node44 -->
<g id="edge62" class="edge"><title>Node50&#45;&gt;Node44</title>
<path fill="none" stroke="midnightblue" d="M1818.57,-192.572C1843.93,-183.461 1878.46,-169.805 1907,-154 1927.61,-142.587 1927.75,-130.753 1950,-123 1999.63,-105.703 2778.62,-80.6863 2992.21,-74.1249"/>
<polygon fill="midnightblue" stroke="midnightblue" points="1817.26,-189.325 1808.99,-195.955 1819.59,-195.926 1817.26,-189.325"/>
</g>
<!-- Node50&#45;&gt;Node45 -->
<g id="edge63" class="edge"><title>Node50&#45;&gt;Node45</title>
<path fill="none" stroke="midnightblue" d="M1715.48,-194.637C1702.72,-192.95 1689.46,-191.319 1677,-190 1464.7,-167.522 1409.57,-182.576 1198,-154 1186.58,-152.458 1174.27,-150.263 1163.03,-148.045"/>
<polygon fill="midnightblue" stroke="midnightblue" points="1715.21,-198.132 1725.59,-195.997 1716.15,-191.195 1715.21,-198.132"/>
</g>
<!-- Node50&#45;&gt;Node46 -->
<g id="edge64" class="edge"><title>Node50&#45;&gt;Node46</title>
<path fill="none" stroke="midnightblue" d="M1713.72,-194.866C1701.49,-193.21 1688.87,-191.531 1677,-190 1546.09,-173.12 1391.84,-154.865 1312.69,-145.617"/>
<polygon fill="midnightblue" stroke="midnightblue" points="1713.49,-198.368 1723.87,-196.247 1714.44,-191.431 1713.49,-198.368"/>
</g>
<!-- Node50&#45;&gt;Node49 -->
<g id="edge65" class="edge"><title>Node50&#45;&gt;Node49</title>
<path fill="none" stroke="midnightblue" d="M1850.92,-193.978C1890,-186.26 1939.27,-173.632 1980,-154 2000.58,-144.081 1999.44,-130.545 2021,-123 2167.25,-71.8254 3261.01,-104.155 3415,-87 3417.83,-86.6853 3420.7,-86.3175 3423.61,-85.9082"/>
<polygon fill="midnightblue" stroke="midnightblue" points="1849.86,-190.616 1840.7,-195.931 1851.18,-197.492 1849.86,-190.616"/>
</g>
<!-- Node50&#45;&gt;Node51 -->
<g id="edge67" class="edge"><title>Node50&#45;&gt;Node51</title>
<path fill="none" stroke="midnightblue" d="M1835.12,-193.879C1897.95,-181.077 2002.28,-159.819 2060.13,-148.032"/>
<polygon fill="midnightblue" stroke="midnightblue" points="1834.13,-190.509 1825.03,-195.936 1835.53,-197.368 1834.13,-190.509"/>
</g>
<!-- Node50&#45;&gt;Node52 -->
<g id="edge68" class="edge"><title>Node50&#45;&gt;Node52</title>
<path fill="none" stroke="midnightblue" d="M1852.16,-197.693C1932.13,-189.378 2067.57,-173.923 2183,-154 2192.71,-152.324 2203.16,-150.186 2212.81,-148.071"/>
<polygon fill="midnightblue" stroke="midnightblue" points="1851.8,-194.212 1842.21,-198.721 1852.52,-201.175 1851.8,-194.212"/>
</g>
<!-- Node54&#45;&gt;Node16 -->
<g id="edge73" class="edge"><title>Node54&#45;&gt;Node16</title>
<path fill="none" stroke="midnightblue" d="M4354.64,-225.67C4310.44,-251.066 4234.33,-294.805 4202.11,-313.319"/>
<polygon fill="midnightblue" stroke="midnightblue" points="4356.63,-228.562 4363.56,-220.545 4353.14,-222.493 4356.63,-228.562"/>
</g>
<!-- Node63&#45;&gt;Node64 -->
<g id="edge82" class="edge"><title>Node63&#45;&gt;Node64</title>
<path fill="none" stroke="midnightblue" d="M3259.31,-189.92C3278.09,-177.069 3304.82,-158.782 3320.39,-148.127"/>
<polygon fill="midnightblue" stroke="midnightblue" points="3257.09,-187.198 3250.81,-195.734 3261.04,-192.976 3257.09,-187.198"/>
</g>
<!-- Node64&#45;&gt;Node40 -->
<g id="edge86" class="edge"><title>Node64&#45;&gt;Node40</title>
<path fill="none" stroke="midnightblue" d="M3303.46,-124.948C3273.16,-112.079 3226.85,-92.4032 3200.4,-81.1672"/>
<polygon fill="midnightblue" stroke="midnightblue" points="3302.11,-128.18 3312.68,-128.869 3304.85,-121.737 3302.11,-128.18"/>
</g>
<!-- Node64&#45;&gt;Node43 -->
<g id="edge83" class="edge"><title>Node64&#45;&gt;Node43</title>
<path fill="none" stroke="midnightblue" d="M3333,-118.537C3333,-106.17 3333,-90.6198 3333,-81.1273"/>
<polygon fill="midnightblue" stroke="midnightblue" points="3329.5,-118.734 3333,-128.734 3336.5,-118.734 3329.5,-118.734"/>
</g>
<!-- Node64&#45;&gt;Node44 -->
<g id="edge84" class="edge"><title>Node64&#45;&gt;Node44</title>
<path fill="none" stroke="midnightblue" d="M3288.31,-126.591C3283.15,-125.364 3277.96,-124.144 3273,-123 3200.28,-106.234 3181.81,-103.369 3109,-87 3105.93,-86.3107 3102.78,-85.5987 3099.61,-84.8772"/>
<polygon fill="midnightblue" stroke="midnightblue" points="3287.59,-130.017 3298.13,-128.942 3289.22,-123.209 3287.59,-130.017"/>
</g>
<!-- Node64&#45;&gt;Node49 -->
<g id="edge85" class="edge"><title>Node64&#45;&gt;Node49</title>
<path fill="none" stroke="midnightblue" d="M3363.02,-124.913C3389.26,-113.906 3427.33,-97.9418 3454.55,-86.5281"/>
<polygon fill="midnightblue" stroke="midnightblue" points="3361.45,-121.773 3353.58,-128.869 3364.16,-128.229 3361.45,-121.773"/>
</g>
<!-- Node65&#45;&gt;Node64 -->
<g id="edge88" class="edge"><title>Node65&#45;&gt;Node64</title>
<path fill="none" stroke="midnightblue" d="M3392.33,-184.343C3376.28,-172.213 3356.67,-157.389 3344.5,-148.195"/>
<polygon fill="midnightblue" stroke="midnightblue" points="3390.25,-187.158 3400.34,-190.396 3394.47,-181.574 3390.25,-187.158"/>
</g>
<!-- Node66&#45;&gt;Node17 -->
<g id="edge91" class="edge"><title>Node66&#45;&gt;Node17</title>
<path fill="none" stroke="midnightblue" d="M3487.91,-221.609C3196.39,-251.729 2343.46,-262.634 2080.81,-265.3"/>
<polygon fill="midnightblue" stroke="midnightblue" points="3488.46,-225.069 3498.04,-220.529 3487.72,-218.108 3488.46,-225.069"/>
</g>
</g>
</svg>
