<?xml version="1.0" encoding="UTF-8" standalone="no"?>
<!DOCTYPE svg PUBLIC "-//W3C//DTD SVG 1.1//EN"
 "http://www.w3.org/Graphics/SVG/1.1/DTD/svg11.dtd">
<!-- Generated by graphviz version 2.38.0 (20140413.2041)
 -->
<!-- Title: ViennaRNA/dp_matrices.h Pages: 1 -->
<svg width="1148pt" height="274pt"
 viewBox="0.00 0.00 1147.50 274.00" xmlns="http://www.w3.org/2000/svg" xmlns:xlink="http://www.w3.org/1999/xlink">
<g id="graph0" class="graph" transform="scale(1 1) rotate(0) translate(4 270)">
<title>ViennaRNA/dp_matrices.h</title>
<!-- Node0 -->
<g id="node1" class="node"><title>Node0</title>
<polygon fill="#bfbfbf" stroke="black" points="502.5,-246.5 502.5,-265.5 642.5,-265.5 642.5,-246.5 502.5,-246.5"/>
<text text-anchor="middle" x="572.5" y="-253.5" font-family="Helvetica,sans-Serif" font-size="10.00">ViennaRNA/dp_matrices.h</text>
</g>
<!-- Node1 -->
<g id="node2" class="node"><title>Node1</title>
<g id="a_node2"><a xlink:href="data__structures_8h.html" target="_top" xlink:title="Various data structures and pre&#45;processor macros. ">
<polygon fill="none" stroke="black" points="495,-190.5 495,-209.5 650,-209.5 650,-190.5 495,-190.5"/>
<text text-anchor="middle" x="572.5" y="-197.5" font-family="Helvetica,sans-Serif" font-size="10.00">ViennaRNA/data_structures.h</text>
</a>
</g>
</g>
<!-- Node0&#45;&gt;Node1 -->
<g id="edge1" class="edge"><title>Node0&#45;&gt;Node1</title>
<path fill="none" stroke="midnightblue" d="M567.334,-246.083C565.824,-238.927 565.394,-228.635 566.042,-219.691"/>
<polygon fill="midnightblue" stroke="midnightblue" points="569.515,-220.126 567.369,-209.751 562.577,-219.2 569.515,-220.126"/>
</g>
<!-- Node1&#45;&gt;Node0 -->
<g id="edge9" class="edge"><title>Node1&#45;&gt;Node0</title>
<path fill="none" stroke="midnightblue" d="M577.631,-209.751C579.157,-216.858 579.604,-227.136 578.972,-236.101"/>
<polygon fill="midnightblue" stroke="midnightblue" points="575.493,-235.713 577.666,-246.083 582.434,-236.622 575.493,-235.713"/>
</g>
<!-- Node2 -->
<g id="node3" class="node"><title>Node2</title>
<g id="a_node3"><a xlink:href="energy__const_8h.html" target="_top" xlink:title="Energy parameter constants. ">
<polygon fill="none" stroke="black" points="0,-62 0,-81 147,-81 147,-62 0,-62"/>
<text text-anchor="middle" x="73.5" y="-69" font-family="Helvetica,sans-Serif" font-size="10.00">ViennaRNA/energy_const.h</text>
</a>
</g>
</g>
<!-- Node1&#45;&gt;Node2 -->
<g id="edge2" class="edge"><title>Node1&#45;&gt;Node2</title>
<path fill="none" stroke="midnightblue" d="M494.934,-196.73C391.245,-192.66 213.751,-181.774 155.5,-154 124.983,-139.45 99.1254,-108.764 85.0068,-89.4751"/>
<polygon fill="midnightblue" stroke="midnightblue" points="87.6781,-87.1904 79.0498,-81.042 81.9607,-91.2291 87.6781,-87.1904"/>
</g>
<!-- Node4 -->
<g id="node5" class="node"><title>Node4</title>
<g id="a_node5"><a xlink:href="model_8h.html" target="_top" xlink:title="The model details data structure and its corresponding modifiers. ">
<polygon fill="none" stroke="black" points="165,-62 165,-81 276,-81 276,-62 165,-62"/>
<text text-anchor="middle" x="220.5" y="-69" font-family="Helvetica,sans-Serif" font-size="10.00">ViennaRNA/model.h</text>
</a>
</g>
</g>
<!-- Node1&#45;&gt;Node4 -->
<g id="edge4" class="edge"><title>Node1&#45;&gt;Node4</title>
<path fill="none" stroke="midnightblue" d="M531.951,-190.434C496.723,-182.511 444.577,-169.618 400.5,-154 343.996,-133.979 280.759,-103.315 246.311,-85.8675"/>
<polygon fill="midnightblue" stroke="midnightblue" points="247.483,-82.5365 236.985,-81.1099 244.302,-88.772 247.483,-82.5365"/>
</g>
<!-- Node5 -->
<g id="node6" class="node"><title>Node5</title>
<g id="a_node6"><a xlink:href="params_8h.html" target="_top" xlink:title="Functions to deal with sets of energy parameters. ">
<polygon fill="none" stroke="black" points="164.5,-129 164.5,-148 282.5,-148 282.5,-129 164.5,-129"/>
<text text-anchor="middle" x="223.5" y="-136" font-family="Helvetica,sans-Serif" font-size="10.00">ViennaRNA/params.h</text>
</a>
</g>
</g>
<!-- Node1&#45;&gt;Node5 -->
<g id="edge5" class="edge"><title>Node1&#45;&gt;Node5</title>
<path fill="none" stroke="midnightblue" d="M512.924,-190.46C456.225,-181.592 368.863,-167.196 293.5,-154 286.051,-152.696 278.212,-151.293 270.569,-149.893"/>
<polygon fill="midnightblue" stroke="midnightblue" points="271.153,-146.442 260.683,-148.061 269.878,-153.324 271.153,-146.442"/>
</g>
<!-- Node6 -->
<g id="node7" class="node"><title>Node6</title>
<g id="a_node7"><a xlink:href="constraints_8h.html" target="_top" xlink:title="Functions and data structures for constraining secondary structure predictions and evaluation...">
<polygon fill="none" stroke="black" points="458.5,-129 458.5,-148 592.5,-148 592.5,-129 458.5,-129"/>
<text text-anchor="middle" x="525.5" y="-136" font-family="Helvetica,sans-Serif" font-size="10.00">ViennaRNA/constraints.h</text>
</a>
</g>
</g>
<!-- Node1&#45;&gt;Node6 -->
<g id="edge10" class="edge"><title>Node1&#45;&gt;Node6</title>
<path fill="none" stroke="midnightblue" d="M560.865,-190.475C551.958,-181.638 540.439,-167.589 532.746,-156.475"/>
<polygon fill="midnightblue" stroke="midnightblue" points="535.665,-154.543 527.324,-148.009 529.77,-158.318 535.665,-154.543"/>
</g>
<!-- Node12 -->
<g id="node13" class="node"><title>Node12</title>
<g id="a_node13"><a xlink:href="grammar_8h.html" target="_top" xlink:title="Implementations for the RNA folding grammar. ">
<polygon fill="none" stroke="black" points="725,-129 725,-148 850,-148 850,-129 725,-129"/>
<text text-anchor="middle" x="787.5" y="-136" font-family="Helvetica,sans-Serif" font-size="10.00">ViennaRNA/grammar.h</text>
</a>
</g>
</g>
<!-- Node1&#45;&gt;Node12 -->
<g id="edge22" class="edge"><title>Node1&#45;&gt;Node12</title>
<path fill="none" stroke="midnightblue" d="M598.404,-190.475C634.033,-179.982 698.35,-162.137 742.044,-150.587"/>
<polygon fill="midnightblue" stroke="midnightblue" points="743.073,-153.935 751.856,-148.009 741.295,-147.165 743.073,-153.935"/>
</g>
<!-- Node13 -->
<g id="node14" class="node"><title>Node13</title>
<g id="a_node14"><a xlink:href="structured__domains_8h.html" target="_top" xlink:title="This module provides interfaces that deal with additional structured domains in the folding grammar...">
<polygon fill="none" stroke="black" points="868,-123.5 868,-153.5 989,-153.5 989,-123.5 868,-123.5"/>
<text text-anchor="start" x="876" y="-141.5" font-family="Helvetica,sans-Serif" font-size="10.00">ViennaRNA/structured</text>
<text text-anchor="middle" x="928.5" y="-130.5" font-family="Helvetica,sans-Serif" font-size="10.00">_domains.h</text>
</a>
</g>
</g>
<!-- Node1&#45;&gt;Node13 -->
<g id="edge24" class="edge"><title>Node1&#45;&gt;Node13</title>
<path fill="none" stroke="midnightblue" d="M632.846,-190.463C688.813,-182.335 774.647,-169.339 858.058,-154.215"/>
<polygon fill="midnightblue" stroke="midnightblue" points="858.744,-157.647 867.953,-152.408 857.487,-150.761 858.744,-157.647"/>
</g>
<!-- Node14 -->
<g id="node15" class="node"><title>Node14</title>
<g id="a_node15"><a xlink:href="unstructured__domains_8h.html" target="_top" xlink:title="Functions to modify unstructured domains, e.g. to incorporate ligands binding to unpaired stretches...">
<polygon fill="none" stroke="black" points="1007.5,-123.5 1007.5,-153.5 1139.5,-153.5 1139.5,-123.5 1007.5,-123.5"/>
<text text-anchor="start" x="1015.5" y="-141.5" font-family="Helvetica,sans-Serif" font-size="10.00">ViennaRNA/unstructured</text>
<text text-anchor="middle" x="1073.5" y="-130.5" font-family="Helvetica,sans-Serif" font-size="10.00">_domains.h</text>
</a>
</g>
</g>
<!-- Node1&#45;&gt;Node14 -->
<g id="edge25" class="edge"><title>Node1&#45;&gt;Node14</title>
<path fill="none" stroke="midnightblue" d="M650.05,-192.239C733.971,-184.83 871.443,-171.614 989.5,-154 992.025,-153.623 994.594,-153.221 997.191,-152.8"/>
<polygon fill="midnightblue" stroke="midnightblue" points="998.028,-156.208 1007.3,-151.091 996.861,-149.306 998.028,-156.208"/>
</g>
<!-- Node3 -->
<g id="node4" class="node"><title>Node3</title>
<polygon fill="none" stroke="#bfbfbf" points="49.5,-0.5 49.5,-19.5 97.5,-19.5 97.5,-0.5 49.5,-0.5"/>
<text text-anchor="middle" x="73.5" y="-7.5" font-family="Helvetica,sans-Serif" font-size="10.00">limits.h</text>
</g>
<!-- Node2&#45;&gt;Node3 -->
<g id="edge3" class="edge"><title>Node2&#45;&gt;Node3</title>
<path fill="none" stroke="midnightblue" d="M73.5,-61.9751C73.5,-53.5803 73.5,-40.4806 73.5,-29.6631"/>
<polygon fill="midnightblue" stroke="midnightblue" points="77.0001,-29.5091 73.5,-19.5091 70.0001,-29.5091 77.0001,-29.5091"/>
</g>
<!-- Node5&#45;&gt;Node1 -->
<g id="edge7" class="edge"><title>Node5&#45;&gt;Node1</title>
<path fill="none" stroke="midnightblue" d="M278.174,-148.061C289.267,-150.045 300.786,-152.124 311.5,-154 382.3,-166.397 463.69,-179.853 516.585,-188.79"/>
<polygon fill="midnightblue" stroke="midnightblue" points="516.003,-192.241 526.447,-190.46 517.171,-185.339 516.003,-192.241"/>
</g>
<!-- Node5&#45;&gt;Node2 -->
<g id="edge6" class="edge"><title>Node5&#45;&gt;Node2</title>
<path fill="none" stroke="midnightblue" d="M203.581,-128.869C177.805,-117.699 132.685,-98.1468 102.947,-85.2602"/>
<polygon fill="midnightblue" stroke="midnightblue" points="104.068,-81.9319 93.5012,-81.1672 101.285,-88.3548 104.068,-81.9319"/>
</g>
<!-- Node5&#45;&gt;Node4 -->
<g id="edge8" class="edge"><title>Node5&#45;&gt;Node4</title>
<path fill="none" stroke="midnightblue" d="M223.095,-128.734C222.655,-119.183 221.936,-103.618 221.367,-91.2829"/>
<polygon fill="midnightblue" stroke="midnightblue" points="224.856,-90.9553 220.898,-81.1273 217.863,-91.2781 224.856,-90.9553"/>
</g>
<!-- Node6&#45;&gt;Node1 -->
<g id="edge11" class="edge"><title>Node6&#45;&gt;Node1</title>
<path fill="none" stroke="midnightblue" d="M537.119,-148.009C546.023,-156.84 557.543,-170.888 565.241,-182.005"/>
<polygon fill="midnightblue" stroke="midnightblue" points="562.325,-183.943 570.667,-190.475 568.22,-180.167 562.325,-183.943"/>
</g>
<!-- Node7 -->
<g id="node8" class="node"><title>Node7</title>
<g id="a_node8"><a xlink:href="constraints__hard_8h.html" target="_top" xlink:title="Functions and data structures for handling of secondary structure hard constraints. ">
<polygon fill="none" stroke="black" points="294.5,-56.5 294.5,-86.5 420.5,-86.5 420.5,-56.5 294.5,-56.5"/>
<text text-anchor="start" x="302.5" y="-74.5" font-family="Helvetica,sans-Serif" font-size="10.00">ViennaRNA/constraints</text>
<text text-anchor="middle" x="357.5" y="-63.5" font-family="Helvetica,sans-Serif" font-size="10.00">_hard.h</text>
</a>
</g>
</g>
<!-- Node6&#45;&gt;Node7 -->
<g id="edge12" class="edge"><title>Node6&#45;&gt;Node7</title>
<path fill="none" stroke="midnightblue" d="M503.191,-128.869C477.873,-119.073 435.89,-102.83 403.479,-90.2897"/>
<polygon fill="midnightblue" stroke="midnightblue" points="404.346,-86.8723 393.757,-86.5281 401.82,-93.4007 404.346,-86.8723"/>
</g>
<!-- Node8 -->
<g id="node9" class="node"><title>Node8</title>
<g id="a_node9"><a xlink:href="constraints__soft_8h.html" target="_top" xlink:title="Functions and data structures for secondary structure soft constraints. ">
<polygon fill="none" stroke="black" points="438.5,-56.5 438.5,-86.5 564.5,-86.5 564.5,-56.5 438.5,-56.5"/>
<text text-anchor="start" x="446.5" y="-74.5" font-family="Helvetica,sans-Serif" font-size="10.00">ViennaRNA/constraints</text>
<text text-anchor="middle" x="501.5" y="-63.5" font-family="Helvetica,sans-Serif" font-size="10.00">_soft.h</text>
</a>
</g>
</g>
<!-- Node6&#45;&gt;Node8 -->
<g id="edge14" class="edge"><title>Node6&#45;&gt;Node8</title>
<path fill="none" stroke="midnightblue" d="M522.263,-128.734C519.176,-120.372 514.386,-107.4 510.185,-96.0221"/>
<polygon fill="midnightblue" stroke="midnightblue" points="513.449,-94.7577 506.702,-86.589 506.883,-97.1823 513.449,-94.7577"/>
</g>
<!-- Node9 -->
<g id="node10" class="node"><title>Node9</title>
<g id="a_node10"><a xlink:href="constraints__SHAPE_8h.html" target="_top" xlink:title="This module provides function to incorporate SHAPE reactivity data into the folding recursions by mea...">
<polygon fill="none" stroke="black" points="582.5,-56.5 582.5,-86.5 708.5,-86.5 708.5,-56.5 582.5,-56.5"/>
<text text-anchor="start" x="590.5" y="-74.5" font-family="Helvetica,sans-Serif" font-size="10.00">ViennaRNA/constraints</text>
<text text-anchor="middle" x="645.5" y="-63.5" font-family="Helvetica,sans-Serif" font-size="10.00">_SHAPE.h</text>
</a>
</g>
</g>
<!-- Node6&#45;&gt;Node9 -->
<g id="edge16" class="edge"><title>Node6&#45;&gt;Node9</title>
<path fill="none" stroke="midnightblue" d="M541.684,-128.734C559.227,-119.231 587.758,-103.777 610.475,-91.4719"/>
<polygon fill="midnightblue" stroke="midnightblue" points="612.364,-94.4294 619.49,-86.589 609.03,-88.2744 612.364,-94.4294"/>
</g>
<!-- Node10 -->
<g id="node11" class="node"><title>Node10</title>
<g id="a_node11"><a xlink:href="perturbation__fold_8h.html" target="_top" xlink:title="Find a vector of perturbation energies that minimizes the discripancies between predicted and observe...">
<polygon fill="none" stroke="black" points="727,-56.5 727,-86.5 858,-86.5 858,-56.5 727,-56.5"/>
<text text-anchor="start" x="735" y="-74.5" font-family="Helvetica,sans-Serif" font-size="10.00">ViennaRNA/perturbation</text>
<text text-anchor="middle" x="792.5" y="-63.5" font-family="Helvetica,sans-Serif" font-size="10.00">_fold.h</text>
</a>
</g>
</g>
<!-- Node6&#45;&gt;Node10 -->
<g id="edge18" class="edge"><title>Node6&#45;&gt;Node10</title>
<path fill="none" stroke="midnightblue" d="M560.68,-128.936C602.319,-118.799 672.593,-101.691 724.877,-88.9625"/>
<polygon fill="midnightblue" stroke="midnightblue" points="725.861,-92.3253 734.749,-86.5592 724.205,-85.5239 725.861,-92.3253"/>
</g>
<!-- Node11 -->
<g id="node12" class="node"><title>Node11</title>
<g id="a_node12"><a xlink:href="constraints__ligand_8h.html" target="_top" xlink:title="Functions for incorporation of ligands binding to hairpin and interior loop motifs using the soft con...">
<polygon fill="none" stroke="black" points="876.5,-56.5 876.5,-86.5 1002.5,-86.5 1002.5,-56.5 876.5,-56.5"/>
<text text-anchor="start" x="884.5" y="-74.5" font-family="Helvetica,sans-Serif" font-size="10.00">ViennaRNA/constraints</text>
<text text-anchor="middle" x="939.5" y="-63.5" font-family="Helvetica,sans-Serif" font-size="10.00">_ligand.h</text>
</a>
</g>
</g>
<!-- Node6&#45;&gt;Node11 -->
<g id="edge20" class="edge"><title>Node6&#45;&gt;Node11</title>
<path fill="none" stroke="midnightblue" d="M590.271,-128.96C657.018,-119.928 764.308,-104.767 866.452,-87.1319"/>
<polygon fill="midnightblue" stroke="midnightblue" points="867.066,-90.5778 876.319,-85.4177 865.867,-83.6811 867.066,-90.5778"/>
</g>
<!-- Node7&#45;&gt;Node1 -->
<g id="edge13" class="edge"><title>Node7&#45;&gt;Node1</title>
<path fill="none" stroke="midnightblue" d="M368.56,-86.5353C383.392,-104.499 411.369,-135.502 441.5,-154 466.738,-169.494 498.011,-180.495 523.671,-187.74"/>
<polygon fill="midnightblue" stroke="midnightblue" points="522.997,-191.184 533.565,-190.428 524.833,-184.429 522.997,-191.184"/>
</g>
<!-- Node8&#45;&gt;Node1 -->
<g id="edge15" class="edge"><title>Node8&#45;&gt;Node1</title>
<path fill="none" stroke="midnightblue" d="M481.564,-86.5775C460.789,-103.012 433.346,-130.889 449.5,-154 460.923,-170.342 478.951,-180.768 497.719,-187.415"/>
<polygon fill="midnightblue" stroke="midnightblue" points="496.676,-190.756 507.267,-190.47 498.809,-184.089 496.676,-190.756"/>
</g>
<!-- Node9&#45;&gt;Node1 -->
<g id="edge17" class="edge"><title>Node9&#45;&gt;Node1</title>
<path fill="none" stroke="midnightblue" d="M638.349,-86.526C629.898,-102.912 615.244,-130.744 601.5,-154 595.934,-163.418 589.356,-173.688 583.873,-182.037"/>
<polygon fill="midnightblue" stroke="midnightblue" points="580.872,-180.229 578.26,-190.497 586.705,-184.099 580.872,-180.229"/>
</g>
<!-- Node10&#45;&gt;Node1 -->
<g id="edge19" class="edge"><title>Node10&#45;&gt;Node1</title>
<path fill="none" stroke="midnightblue" d="M757.542,-86.6961C735.53,-96.0835 706.789,-109.174 682.5,-123 649.168,-141.974 613.038,-168.116 591.608,-184.269"/>
<polygon fill="midnightblue" stroke="midnightblue" points="589.476,-181.493 583.633,-190.331 593.712,-187.066 589.476,-181.493"/>
</g>
<!-- Node11&#45;&gt;Node1 -->
<g id="edge21" class="edge"><title>Node11&#45;&gt;Node1</title>
<path fill="none" stroke="midnightblue" d="M876.463,-85.4291C815.774,-98.0943 731.087,-116.421 716.5,-123 695.023,-132.686 693.923,-142.255 673.5,-154 651.334,-166.747 624.89,-178.412 604.622,-186.67"/>
<polygon fill="midnightblue" stroke="midnightblue" points="603.194,-183.472 595.214,-190.44 605.798,-189.969 603.194,-183.472"/>
</g>
<!-- Node12&#45;&gt;Node1 -->
<g id="edge23" class="edge"><title>Node12&#45;&gt;Node1</title>
<path fill="none" stroke="midnightblue" d="M761.65,-148.009C726.05,-158.495 661.737,-176.34 618.022,-187.896"/>
<polygon fill="midnightblue" stroke="midnightblue" points="616.987,-184.549 608.205,-190.475 618.766,-191.319 616.987,-184.549"/>
</g>
<!-- Node14&#45;&gt;Node1 -->
<g id="edge26" class="edge"><title>Node14&#45;&gt;Node1</title>
<path fill="none" stroke="midnightblue" d="M1010.67,-153.518C1009.61,-153.682 1008.55,-153.843 1007.5,-154 887.925,-171.841 748.433,-185.169 660.231,-192.522"/>
<polygon fill="midnightblue" stroke="midnightblue" points="659.678,-189.056 650,-193.367 660.254,-196.032 659.678,-189.056"/>
</g>
</g>
</svg>
