<?xml version="1.0" encoding="UTF-8" standalone="no"?>
<!DOCTYPE svg PUBLIC "-//W3C//DTD SVG 1.1//EN"
 "http://www.w3.org/Graphics/SVG/1.1/DTD/svg11.dtd">
<!-- Generated by graphviz version 2.38.0 (20140413.2041)
 -->
<!-- Title: ViennaRNA/grammar.h Pages: 1 -->
<!--zoomable 341 -->
<svg id="main" version="1.1" xmlns="http://www.w3.org/2000/svg" xmlns:xlink="http://www.w3.org/1999/xlink" xml:space="preserve" onload="init(evt)">
<style type="text/css"><![CDATA[
.edge:hover path { stroke: red; }
.edge:hover polygon { stroke: red; fill: red; }
]]></style>
<script type="text/javascript"><![CDATA[
var edges = document.getElementsByTagName('g');
if (edges && edges.length) {
  for (var i=0;i<edges.length;i++) {
    if (edges[i].id.substr(0,4)=='edge') {
      edges[i].setAttribute('class','edge');
    }
  }
}
]]></script>
        <defs>
                <circle id="rim" cx="0" cy="0" r="7"/>
                <circle id="rim2" cx="0" cy="0" r="3.5"/>
                <g id="zoomPlus">
                        <use xlink:href="#rim" fill="#404040">
                                <set attributeName="fill" to="#808080" begin="zoomplus.mouseover" end="zoomplus.mouseout"/>
                        </use>
                        <path d="M-4,0h8M0,-4v8" fill="none" stroke="white" stroke-width="1.5" pointer-events="none"/>
                </g>
                <g id="zoomMin">
                        <use xlink:href="#rim" fill="#404040">
                                <set attributeName="fill" to="#808080" begin="zoomminus.mouseover" end="zoomminus.mouseout"/>
                        </use>
                        <path d="M-4,0h8" fill="none" stroke="white" stroke-width="1.5" pointer-events="none"/>
                </g>
                <g id="dirArrow">
                        <path fill="none" stroke="white" stroke-width="1.5" d="M0,-3.0v7 M-2.5,-0.5L0,-3.0L2.5,-0.5"/>
                </g>
               <g id="resetDef">
                       <use xlink:href="#rim2" fill="#404040">
                               <set attributeName="fill" to="#808080" begin="reset.mouseover" end="reset.mouseout"/>
                       </use>
               </g>
        </defs>

<script type="text/javascript">
var viewWidth = 4844;
var viewHeight = 341;
var sectionId = 'dynsection-1';
</script>
<script xlink:href="svgpan.js"/>
<svg id="graph" class="graph">
<g id="viewport">
<title>ViennaRNA/grammar.h</title>
<!-- Node15 -->
<g id="node1" class="node"><title>Node15</title>
<polygon fill="#bfbfbf" stroke="black" points="1720.12,-313.5 1720.12,-332.5 1845.12,-332.5 1845.12,-313.5 1720.12,-313.5"/>
<text text-anchor="middle" x="1782.62" y="-320.5" font-family="Helvetica,sans-Serif" font-size="10.00">ViennaRNA/grammar.h</text>
</g>
<!-- Node16 -->
<g id="node2" class="node"><title>Node16</title>
<g id="a_node2"><a xlink:href="data__structures_8h.html" target="_top" xlink:title="Various data structures and pre&#45;processor macros. ">
<polygon fill="none" stroke="black" points="1705.12,-257.5 1705.12,-276.5 1860.12,-276.5 1860.12,-257.5 1705.12,-257.5"/>
<text text-anchor="middle" x="1782.62" y="-264.5" font-family="Helvetica,sans-Serif" font-size="10.00">ViennaRNA/data_structures.h</text>
</a>
</g>
</g>
<!-- Node15&#45;&gt;Node16 -->
<g id="edge1" class="edge"><title>Node15&#45;&gt;Node16</title>
<path fill="none" stroke="midnightblue" d="M1776.15,-303.101C1775.51,-294.136 1775.96,-283.858 1777.49,-276.751"/>
<polygon fill="midnightblue" stroke="midnightblue" points="1772.68,-303.622 1777.45,-313.083 1779.62,-302.713 1772.68,-303.622"/>
</g>
<!-- Node16&#45;&gt;Node15 -->
<g id="edge41" class="edge"><title>Node16&#45;&gt;Node15</title>
<path fill="none" stroke="midnightblue" d="M1789.08,-286.691C1789.72,-295.635 1789.29,-305.927 1787.78,-313.083"/>
<polygon fill="midnightblue" stroke="midnightblue" points="1792.54,-286.2 1787.75,-276.751 1785.6,-287.126 1792.54,-286.2"/>
</g>
<!-- Node17 -->
<g id="node3" class="node"><title>Node17</title>
<g id="a_node3"><a xlink:href="2Dfold_8h.html" target="_top" xlink:title="MFE structures for base pair distance classes. ">
<polygon fill="none" stroke="black" points="754.118,-129 754.118,-148 867.118,-148 867.118,-129 754.118,-129"/>
<text text-anchor="middle" x="810.618" y="-136" font-family="Helvetica,sans-Serif" font-size="10.00">ViennaRNA/2Dfold.h</text>
</a>
</g>
</g>
<!-- Node16&#45;&gt;Node17 -->
<g id="edge2" class="edge"><title>Node16&#45;&gt;Node17</title>
<path fill="none" stroke="midnightblue" d="M1694.83,-265.091C1517.23,-262.586 1121.03,-253.433 989.618,-221 924.642,-204.963 854.234,-165.709 824.799,-148.189"/>
<polygon fill="midnightblue" stroke="midnightblue" points="1694.88,-268.592 1704.92,-265.23 1694.97,-261.593 1694.88,-268.592"/>
</g>
<!-- Node18 -->
<g id="node4" class="node"><title>Node18</title>
<g id="a_node4"><a xlink:href="2Dpfold_8h.html" target="_top" xlink:title="Partition function implementations for base pair distance classes. ">
<polygon fill="none" stroke="black" points="2572.12,-196 2572.12,-215 2691.12,-215 2691.12,-196 2572.12,-196"/>
<text text-anchor="middle" x="2631.62" y="-203" font-family="Helvetica,sans-Serif" font-size="10.00">ViennaRNA/2Dpfold.h</text>
</a>
</g>
</g>
<!-- Node16&#45;&gt;Node18 -->
<g id="edge3" class="edge"><title>Node16&#45;&gt;Node18</title>
<path fill="none" stroke="midnightblue" d="M1870.32,-264.772C2014.32,-261.89 2309.68,-252.342 2557.62,-221 2569.31,-219.522 2581.92,-217.291 2593.37,-215.02"/>
<polygon fill="midnightblue" stroke="midnightblue" points="1870.14,-261.274 1860.21,-264.968 1870.28,-268.273 1870.14,-261.274"/>
</g>
<!-- Node19 -->
<g id="node5" class="node"><title>Node19</title>
<g id="a_node5"><a xlink:href="ali__plex_8h_source.html" target="_top" xlink:title="ViennaRNA/ali_plex.h">
<polygon fill="none" stroke="black" points="2709.12,-196 2709.12,-215 2828.12,-215 2828.12,-196 2709.12,-196"/>
<text text-anchor="middle" x="2768.62" y="-203" font-family="Helvetica,sans-Serif" font-size="10.00">ViennaRNA/ali_plex.h</text>
</a>
</g>
</g>
<!-- Node16&#45;&gt;Node19 -->
<g id="edge4" class="edge"><title>Node16&#45;&gt;Node19</title>
<path fill="none" stroke="midnightblue" d="M1870.4,-266.387C2034.28,-266.07 2397.62,-260.469 2700.62,-221 2711.51,-219.581 2723.25,-217.339 2733.86,-215.038"/>
<polygon fill="midnightblue" stroke="midnightblue" points="1870.36,-262.886 1860.37,-266.4 1870.37,-269.886 1870.36,-262.886"/>
</g>
<!-- Node20 -->
<g id="node6" class="node"><title>Node20</title>
<g id="a_node6"><a xlink:href="alifold_8h.html" target="_top" xlink:title="Functions for comparative structure prediction using RNA sequence alignments. ">
<polygon fill="none" stroke="black" points="214.618,-62 214.618,-81 324.618,-81 324.618,-62 214.618,-62"/>
<text text-anchor="middle" x="269.618" y="-69" font-family="Helvetica,sans-Serif" font-size="10.00">ViennaRNA/alifold.h</text>
</a>
</g>
</g>
<!-- Node16&#45;&gt;Node20 -->
<g id="edge5" class="edge"><title>Node16&#45;&gt;Node20</title>
<path fill="none" stroke="midnightblue" d="M1694.85,-265.413C1342.12,-262.849 45.2232,-251.369 15.6178,-221 -54.626,-148.944 133.653,-99.8484 224.169,-81.0455"/>
<polygon fill="midnightblue" stroke="midnightblue" points="1694.99,-268.914 1705.01,-265.486 1695.04,-261.914 1694.99,-268.914"/>
</g>
<!-- Node21 -->
<g id="node7" class="node"><title>Node21</title>
<g id="a_node7"><a xlink:href="boltzmann__sampling_8h.html" target="_top" xlink:title="Boltzmann Sampling of secondary structures from the ensemble. ">
<polygon fill="none" stroke="black" points="24.6178,-190.5 24.6178,-220.5 146.618,-220.5 146.618,-190.5 24.6178,-190.5"/>
<text text-anchor="start" x="32.6178" y="-208.5" font-family="Helvetica,sans-Serif" font-size="10.00">ViennaRNA/boltzmann</text>
<text text-anchor="middle" x="85.6178" y="-197.5" font-family="Helvetica,sans-Serif" font-size="10.00">_sampling.h</text>
</a>
</g>
</g>
<!-- Node16&#45;&gt;Node21 -->
<g id="edge6" class="edge"><title>Node16&#45;&gt;Node21</title>
<path fill="none" stroke="midnightblue" d="M1694.82,-265.616C1401.59,-264.012 457.623,-256.176 155.618,-221 152.782,-220.67 149.892,-220.282 146.978,-219.849"/>
<polygon fill="midnightblue" stroke="midnightblue" points="1694.95,-269.116 1704.97,-265.67 1694.99,-262.117 1694.95,-269.116"/>
</g>
<!-- Node22 -->
<g id="node8" class="node"><title>Node22</title>
<g id="a_node8"><a xlink:href="part__func_8h.html" target="_top" xlink:title="Partition function implementations. ">
<polygon fill="none" stroke="black" points="206.118,-129 206.118,-148 333.118,-148 333.118,-129 206.118,-129"/>
<text text-anchor="middle" x="269.618" y="-136" font-family="Helvetica,sans-Serif" font-size="10.00">ViennaRNA/part_func.h</text>
</a>
</g>
</g>
<!-- Node16&#45;&gt;Node22 -->
<g id="edge70" class="edge"><title>Node16&#45;&gt;Node22</title>
<path fill="none" stroke="midnightblue" d="M1694.44,-266.158C1419.3,-266.209 588.222,-262.855 474.618,-221 453.841,-213.345 455.222,-200.293 435.618,-190 396.545,-169.486 347.829,-155.913 313.303,-148.054"/>
<polygon fill="midnightblue" stroke="midnightblue" points="1694.77,-269.658 1704.77,-266.154 1694.77,-262.658 1694.77,-269.658"/>
</g>
<!-- Node23 -->
<g id="node9" class="node"><title>Node23</title>
<g id="a_node9"><a xlink:href="centroid_8h.html" target="_top" xlink:title="Centroid structure computation. ">
<polygon fill="none" stroke="black" points="165.118,-196 165.118,-215 286.118,-215 286.118,-196 165.118,-196"/>
<text text-anchor="middle" x="225.618" y="-203" font-family="Helvetica,sans-Serif" font-size="10.00">ViennaRNA/centroid.h</text>
</a>
</g>
</g>
<!-- Node16&#45;&gt;Node23 -->
<g id="edge10" class="edge"><title>Node16&#45;&gt;Node23</title>
<path fill="none" stroke="midnightblue" d="M1694.43,-265.38C1417.61,-263.113 568.105,-253.611 294.618,-221 283.314,-219.652 271.117,-217.37 260.167,-215.01"/>
<polygon fill="midnightblue" stroke="midnightblue" points="1694.8,-268.883 1704.83,-265.464 1694.85,-261.884 1694.8,-268.883"/>
</g>
<!-- Node24 -->
<g id="node10" class="node"><title>Node24</title>
<g id="a_node10"><a xlink:href="cofold_8h.html" target="_top" xlink:title="MFE implementations for RNA&#45;RNA interaction. ">
<polygon fill="none" stroke="black" points="428.118,-129 428.118,-148 539.118,-148 539.118,-129 428.118,-129"/>
<text text-anchor="middle" x="483.618" y="-136" font-family="Helvetica,sans-Serif" font-size="10.00">ViennaRNA/cofold.h</text>
</a>
</g>
</g>
<!-- Node16&#45;&gt;Node24 -->
<g id="edge12" class="edge"><title>Node16&#45;&gt;Node24</title>
<path fill="none" stroke="midnightblue" d="M1694.72,-265.468C1443.59,-263.54 734.573,-255.108 635.618,-221 613.344,-213.323 612.954,-201.895 592.618,-190 563.454,-172.942 527.551,-157.25 505.117,-148.026"/>
<polygon fill="midnightblue" stroke="midnightblue" points="1694.87,-268.969 1704.9,-265.545 1694.92,-261.969 1694.87,-268.969"/>
</g>
<!-- Node25 -->
<g id="node11" class="node"><title>Node25</title>
<g id="a_node11"><a xlink:href="commands_8h.html" target="_top" xlink:title="Parse and apply different commands that alter the behavior of secondary structure prediction and eval...">
<polygon fill="none" stroke="black" points="2846.62,-196 2846.62,-215 2980.62,-215 2980.62,-196 2846.62,-196"/>
<text text-anchor="middle" x="2913.62" y="-203" font-family="Helvetica,sans-Serif" font-size="10.00">ViennaRNA/commands.h</text>
</a>
</g>
</g>
<!-- Node16&#45;&gt;Node25 -->
<g id="edge13" class="edge"><title>Node16&#45;&gt;Node25</title>
<path fill="none" stroke="midnightblue" d="M1870.37,-266.571C2051.7,-266.803 2480.62,-262.446 2837.62,-221 2849.76,-219.59 2862.87,-217.351 2874.73,-215.049"/>
<polygon fill="midnightblue" stroke="midnightblue" points="1870.36,-263.071 1860.35,-266.553 1870.35,-270.071 1870.36,-263.071"/>
</g>
<!-- Node26 -->
<g id="node12" class="node"><title>Node26</title>
<g id="a_node12"><a xlink:href="constraints_8h.html" target="_top" xlink:title="Functions and data structures for constraining secondary structure predictions and evaluation...">
<polygon fill="none" stroke="black" points="2040.62,-129 2040.62,-148 2174.62,-148 2174.62,-129 2040.62,-129"/>
<text text-anchor="middle" x="2107.62" y="-136" font-family="Helvetica,sans-Serif" font-size="10.00">ViennaRNA/constraints.h</text>
</a>
</g>
</g>
<!-- Node16&#45;&gt;Node26 -->
<g id="edge14" class="edge"><title>Node16&#45;&gt;Node26</title>
<path fill="none" stroke="midnightblue" d="M1763.2,-249.493C1749.63,-232.664 1736.98,-206.721 1751.62,-190 1791.49,-144.457 1961.85,-163.604 2021.62,-154 2032.63,-152.23 2044.49,-150.106 2055.82,-148.037"/>
<polygon fill="midnightblue" stroke="midnightblue" points="1760.96,-252.243 1770.24,-257.366 1766.18,-247.578 1760.96,-252.243"/>
</g>
<!-- Node27 -->
<g id="node13" class="node"><title>Node27</title>
<g id="a_node13"><a xlink:href="interior__loops_8h.html" target="_top" xlink:title="Energy evaluation of interior loops for MFE and partition function calculations. ">
<polygon fill="none" stroke="black" points="1918.12,-56.5 1918.12,-86.5 2025.12,-86.5 2025.12,-56.5 1918.12,-56.5"/>
<text text-anchor="start" x="1926.12" y="-74.5" font-family="Helvetica,sans-Serif" font-size="10.00">ViennaRNA/interior</text>
<text text-anchor="middle" x="1971.62" y="-63.5" font-family="Helvetica,sans-Serif" font-size="10.00">_loops.h</text>
</a>
</g>
</g>
<!-- Node16&#45;&gt;Node27 -->
<g id="edge44" class="edge"><title>Node16&#45;&gt;Node27</title>
<path fill="none" stroke="midnightblue" d="M1870.41,-263.553C2054.53,-257.992 2465.84,-243.149 2486.62,-221 2552.95,-150.294 2170.09,-96.3054 2025.34,-78.6649"/>
<polygon fill="midnightblue" stroke="midnightblue" points="1870.11,-260.06 1860.22,-263.858 1870.32,-267.057 1870.11,-260.06"/>
</g>
<!-- Node29 -->
<g id="node15" class="node"><title>Node29</title>
<g id="a_node15"><a xlink:href="constraints__hard_8h.html" target="_top" xlink:title="Functions and data structures for handling of secondary structure hard constraints. ">
<polygon fill="none" stroke="black" points="1769.62,-190.5 1769.62,-220.5 1895.62,-220.5 1895.62,-190.5 1769.62,-190.5"/>
<text text-anchor="start" x="1777.62" y="-208.5" font-family="Helvetica,sans-Serif" font-size="10.00">ViennaRNA/constraints</text>
<text text-anchor="middle" x="1832.62" y="-197.5" font-family="Helvetica,sans-Serif" font-size="10.00">_hard.h</text>
</a>
</g>
</g>
<!-- Node16&#45;&gt;Node29 -->
<g id="edge18" class="edge"><title>Node16&#45;&gt;Node29</title>
<path fill="none" stroke="midnightblue" d="M1796.22,-249.811C1803.92,-240.649 1813.46,-229.303 1820.83,-220.523"/>
<polygon fill="midnightblue" stroke="midnightblue" points="1793.54,-247.568 1789.78,-257.475 1798.89,-252.071 1793.54,-247.568"/>
</g>
<!-- Node30 -->
<g id="node16" class="node"><title>Node30</title>
<g id="a_node16"><a xlink:href="constraints__ligand_8h.html" target="_top" xlink:title="Functions for incorporation of ligands binding to hairpin and interior loop motifs using the soft con...">
<polygon fill="none" stroke="black" points="1913.62,-190.5 1913.62,-220.5 2039.62,-220.5 2039.62,-190.5 1913.62,-190.5"/>
<text text-anchor="start" x="1921.62" y="-208.5" font-family="Helvetica,sans-Serif" font-size="10.00">ViennaRNA/constraints</text>
<text text-anchor="middle" x="1976.62" y="-197.5" font-family="Helvetica,sans-Serif" font-size="10.00">_ligand.h</text>
</a>
</g>
</g>
<!-- Node16&#45;&gt;Node30 -->
<g id="edge20" class="edge"><title>Node16&#45;&gt;Node30</title>
<path fill="none" stroke="midnightblue" d="M1820.17,-254.483C1851.8,-244.782 1897.16,-230.871 1930.9,-220.523"/>
<polygon fill="midnightblue" stroke="midnightblue" points="1818.95,-251.197 1810.41,-257.475 1821,-257.889 1818.95,-251.197"/>
</g>
<!-- Node31 -->
<g id="node17" class="node"><title>Node31</title>
<g id="a_node17"><a xlink:href="constraints__SHAPE_8h.html" target="_top" xlink:title="This module provides function to incorporate SHAPE reactivity data into the folding recursions by mea...">
<polygon fill="none" stroke="black" points="2057.62,-190.5 2057.62,-220.5 2183.62,-220.5 2183.62,-190.5 2057.62,-190.5"/>
<text text-anchor="start" x="2065.62" y="-208.5" font-family="Helvetica,sans-Serif" font-size="10.00">ViennaRNA/constraints</text>
<text text-anchor="middle" x="2120.62" y="-197.5" font-family="Helvetica,sans-Serif" font-size="10.00">_SHAPE.h</text>
</a>
</g>
</g>
<!-- Node16&#45;&gt;Node31 -->
<g id="edge22" class="edge"><title>Node16&#45;&gt;Node31</title>
<path fill="none" stroke="midnightblue" d="M1846.05,-255.839C1900,-247.06 1979.5,-233.803 2048.62,-221 2051.5,-220.466 2054.45,-219.911 2057.42,-219.342"/>
<polygon fill="midnightblue" stroke="midnightblue" points="1845.26,-252.422 1835.95,-257.479 1846.38,-259.331 1845.26,-252.422"/>
</g>
<!-- Node32 -->
<g id="node18" class="node"><title>Node32</title>
<g id="a_node18"><a xlink:href="constraints__soft_8h.html" target="_top" xlink:title="Functions and data structures for secondary structure soft constraints. ">
<polygon fill="none" stroke="black" points="2201.62,-190.5 2201.62,-220.5 2327.62,-220.5 2327.62,-190.5 2201.62,-190.5"/>
<text text-anchor="start" x="2209.62" y="-208.5" font-family="Helvetica,sans-Serif" font-size="10.00">ViennaRNA/constraints</text>
<text text-anchor="middle" x="2264.62" y="-197.5" font-family="Helvetica,sans-Serif" font-size="10.00">_soft.h</text>
</a>
</g>
</g>
<!-- Node16&#45;&gt;Node32 -->
<g id="edge24" class="edge"><title>Node16&#45;&gt;Node32</title>
<path fill="none" stroke="midnightblue" d="M1870.52,-258.644C1953.75,-251.138 2082.07,-238.164 2192.62,-221 2195.52,-220.55 2198.47,-220.064 2201.46,-219.552"/>
<polygon fill="midnightblue" stroke="midnightblue" points="1869.99,-255.177 1860.35,-259.554 1870.62,-262.149 1869.99,-255.177"/>
</g>
<!-- Node33 -->
<g id="node19" class="node"><title>Node33</title>
<g id="a_node19"><a xlink:href="dp__matrices_8h.html" target="_top" xlink:title="Functions to deal with standard dynamic programming (DP) matrices. ">
<polygon fill="none" stroke="black" points="2998.62,-196 2998.62,-215 3138.62,-215 3138.62,-196 2998.62,-196"/>
<text text-anchor="middle" x="3068.62" y="-203" font-family="Helvetica,sans-Serif" font-size="10.00">ViennaRNA/dp_matrices.h</text>
</a>
</g>
</g>
<!-- Node16&#45;&gt;Node33 -->
<g id="edge26" class="edge"><title>Node16&#45;&gt;Node33</title>
<path fill="none" stroke="midnightblue" d="M1870.31,-264.291C2108.7,-259.497 2764.85,-244.698 2980.62,-221 2993.37,-219.599 3007.16,-217.333 3020.01,-215.004"/>
<polygon fill="midnightblue" stroke="midnightblue" points="1870.22,-260.792 1860.29,-264.492 1870.36,-267.791 1870.22,-260.792"/>
</g>
<!-- Node34 -->
<g id="node20" class="node"><title>Node34</title>
<g id="a_node20"><a xlink:href="duplex_8h.html" target="_top" xlink:title="Functions for simple RNA&#45;RNA duplex interactions. ">
<polygon fill="none" stroke="black" points="3157.12,-196 3157.12,-215 3270.12,-215 3270.12,-196 3157.12,-196"/>
<text text-anchor="middle" x="3213.62" y="-203" font-family="Helvetica,sans-Serif" font-size="10.00">ViennaRNA/duplex.h</text>
</a>
</g>
</g>
<!-- Node16&#45;&gt;Node34 -->
<g id="edge28" class="edge"><title>Node16&#45;&gt;Node34</title>
<path fill="none" stroke="midnightblue" d="M1870.65,-265.206C2131.76,-262.518 2899.2,-252.116 3147.62,-221 3158.44,-219.644 3170.11,-217.36 3180.59,-215"/>
<polygon fill="midnightblue" stroke="midnightblue" points="1870.42,-261.708 1860.46,-265.31 1870.49,-268.708 1870.42,-261.708"/>
</g>
<!-- Node35 -->
<g id="node21" class="node"><title>Node35</title>
<g id="a_node21"><a xlink:href="equilibrium__probs_8h.html" target="_top" xlink:title="Equilibrium Probability implementations. ">
<polygon fill="none" stroke="black" points="304.118,-190.5 304.118,-220.5 427.118,-220.5 427.118,-190.5 304.118,-190.5"/>
<text text-anchor="start" x="312.118" y="-208.5" font-family="Helvetica,sans-Serif" font-size="10.00">ViennaRNA/equilibrium</text>
<text text-anchor="middle" x="365.618" y="-197.5" font-family="Helvetica,sans-Serif" font-size="10.00">_probs.h</text>
</a>
</g>
</g>
<!-- Node16&#45;&gt;Node35 -->
<g id="edge29" class="edge"><title>Node16&#45;&gt;Node35</title>
<path fill="none" stroke="midnightblue" d="M1694.82,-264.832C1437.11,-261.12 685.638,-248.207 441.618,-221 436.945,-220.479 432.13,-219.83 427.298,-219.096"/>
<polygon fill="midnightblue" stroke="midnightblue" points="1694.83,-268.332 1704.88,-264.975 1694.93,-261.333 1694.83,-268.332"/>
</g>
<!-- Node36 -->
<g id="node22" class="node"><title>Node36</title>
<g id="a_node22"><a xlink:href="eval_8h.html" target="_top" xlink:title="Functions and variables related to energy evaluation of sequence/structure pairs. ...">
<polygon fill="none" stroke="black" points="595.618,-129 595.618,-148 697.618,-148 697.618,-129 595.618,-129"/>
<text text-anchor="middle" x="646.618" y="-136" font-family="Helvetica,sans-Serif" font-size="10.00">ViennaRNA/eval.h</text>
</a>
</g>
</g>
<!-- Node16&#45;&gt;Node36 -->
<g id="edge31" class="edge"><title>Node16&#45;&gt;Node36</title>
<path fill="none" stroke="midnightblue" d="M1694.64,-266.463C1454.18,-267.146 798.117,-264.914 711.618,-221 679.988,-204.942 658.689,-165.699 650.443,-148.186"/>
<polygon fill="midnightblue" stroke="midnightblue" points="1694.75,-269.962 1704.74,-266.431 1694.73,-262.962 1694.75,-269.962"/>
</g>
<!-- Node37 -->
<g id="node23" class="node"><title>Node37</title>
<g id="a_node23"><a xlink:href="fold_8h.html" target="_top" xlink:title="MFE calculations for single RNA sequences. ">
<polygon fill="none" stroke="black" points="556.618,-62 556.618,-81 656.618,-81 656.618,-62 556.618,-62"/>
<text text-anchor="middle" x="606.618" y="-69" font-family="Helvetica,sans-Serif" font-size="10.00">ViennaRNA/fold.h</text>
</a>
</g>
</g>
<!-- Node16&#45;&gt;Node37 -->
<g id="edge37" class="edge"><title>Node16&#45;&gt;Node37</title>
<path fill="none" stroke="midnightblue" d="M1694.63,-265.489C1449.13,-263.634 768.362,-255.413 673.618,-221 667.884,-218.917 589.311,-159.474 586.618,-154 574.396,-129.163 591.333,-96.2996 600.878,-81.0055"/>
<polygon fill="midnightblue" stroke="midnightblue" points="1694.91,-268.991 1704.94,-265.565 1694.97,-261.991 1694.91,-268.991"/>
</g>
<!-- Node38 -->
<g id="node24" class="node"><title>Node38</title>
<g id="a_node24"><a xlink:href="exterior__loops_8h.html" target="_top" xlink:title="Energy evaluation of exterior loops for MFE and partition function calculations. ">
<polygon fill="none" stroke="black" points="923.618,-123.5 923.618,-153.5 1033.62,-153.5 1033.62,-123.5 923.618,-123.5"/>
<text text-anchor="start" x="931.618" y="-141.5" font-family="Helvetica,sans-Serif" font-size="10.00">ViennaRNA/exterior</text>
<text text-anchor="middle" x="978.618" y="-130.5" font-family="Helvetica,sans-Serif" font-size="10.00">_loops.h</text>
</a>
</g>
</g>
<!-- Node16&#45;&gt;Node38 -->
<g id="edge33" class="edge"><title>Node16&#45;&gt;Node38</title>
<path fill="none" stroke="midnightblue" d="M1694.85,-265.797C1505.79,-264.652 1072.65,-257.975 1017.62,-221 994.573,-205.516 984.751,-172.483 980.884,-153.57"/>
<polygon fill="midnightblue" stroke="midnightblue" points="1695.01,-269.297 1705.03,-265.854 1695.05,-262.298 1695.01,-269.297"/>
</g>
<!-- Node39 -->
<g id="node25" class="node"><title>Node39</title>
<g id="a_node25"><a xlink:href="file__formats_8h.html" target="_top" xlink:title="Read and write different file formats for RNA sequences, structures. ">
<polygon fill="none" stroke="black" points="3288.12,-196 3288.12,-215 3425.12,-215 3425.12,-196 3288.12,-196"/>
<text text-anchor="middle" x="3356.62" y="-203" font-family="Helvetica,sans-Serif" font-size="10.00">ViennaRNA/file_formats.h</text>
</a>
</g>
</g>
<!-- Node16&#45;&gt;Node39 -->
<g id="edge35" class="edge"><title>Node16&#45;&gt;Node39</title>
<path fill="none" stroke="midnightblue" d="M1870.41,-265.161C2147.88,-262.227 3003.85,-250.925 3279.62,-221 3292.06,-219.65 3305.5,-217.397 3317.62,-215.066"/>
<polygon fill="midnightblue" stroke="midnightblue" points="1870.36,-261.662 1860.39,-265.266 1870.43,-268.661 1870.36,-261.662"/>
</g>
<!-- Node40 -->
<g id="node26" class="node"><title>Node40</title>
<g id="a_node26"><a xlink:href="findpath_8h.html" target="_top" xlink:title="A breadth&#45;first search heuristic for optimal direct folding paths. ">
<polygon fill="none" stroke="black" points="3443.12,-196 3443.12,-215 3564.12,-215 3564.12,-196 3443.12,-196"/>
<text text-anchor="middle" x="3503.62" y="-203" font-family="Helvetica,sans-Serif" font-size="10.00">ViennaRNA/findpath.h</text>
</a>
</g>
</g>
<!-- Node16&#45;&gt;Node40 -->
<g id="edge36" class="edge"><title>Node16&#45;&gt;Node40</title>
<path fill="none" stroke="midnightblue" d="M1870.75,-265.69C2167.32,-264.32 3127.67,-257.135 3434.62,-221 3445.92,-219.669 3458.12,-217.392 3469.07,-215.031"/>
<polygon fill="midnightblue" stroke="midnightblue" points="1870.46,-262.191 1860.48,-265.737 1870.5,-269.191 1870.46,-262.191"/>
</g>
<!-- Node41 -->
<g id="node27" class="node"><title>Node41</title>
<g id="a_node27"><a xlink:href="fold__vars_8h.html" target="_top" xlink:title="Here all all declarations of the global variables used throughout RNAlib. ">
<polygon fill="none" stroke="black" points="2533.62,-129 2533.62,-148 2659.62,-148 2659.62,-129 2533.62,-129"/>
<text text-anchor="middle" x="2596.62" y="-136" font-family="Helvetica,sans-Serif" font-size="10.00">ViennaRNA/fold_vars.h</text>
</a>
</g>
</g>
<!-- Node16&#45;&gt;Node41 -->
<g id="edge38" class="edge"><title>Node16&#45;&gt;Node41</title>
<path fill="none" stroke="midnightblue" d="M1870.44,-264.249C2053.17,-260.084 2462.17,-247.861 2519.62,-221 2554.18,-204.84 2580.95,-165.651 2591.61,-148.169"/>
<polygon fill="midnightblue" stroke="midnightblue" points="1870.24,-260.752 1860.32,-264.476 1870.4,-267.75 1870.24,-260.752"/>
</g>
<!-- Node43 -->
<g id="node29" class="node"><title>Node43</title>
<g id="a_node29"><a xlink:href="gquad_8h.html" target="_top" xlink:title="G&#45;quadruplexes. ">
<polygon fill="none" stroke="black" points="1203.62,-129 1203.62,-148 1315.62,-148 1315.62,-129 1203.62,-129"/>
<text text-anchor="middle" x="1259.62" y="-136" font-family="Helvetica,sans-Serif" font-size="10.00">ViennaRNA/gquad.h</text>
</a>
</g>
</g>
<!-- Node16&#45;&gt;Node43 -->
<g id="edge40" class="edge"><title>Node16&#45;&gt;Node43</title>
<path fill="none" stroke="midnightblue" d="M1694.98,-264.882C1552.33,-262.144 1282.81,-252.778 1253.62,-221 1235.09,-200.834 1247.91,-164.752 1255.34,-148.214"/>
<polygon fill="midnightblue" stroke="midnightblue" points="1694.96,-268.383 1705.03,-265.068 1695.09,-261.384 1694.96,-268.383"/>
</g>
<!-- Node44 -->
<g id="node30" class="node"><title>Node44</title>
<g id="a_node30"><a xlink:href="hairpin__loops_8h.html" target="_top" xlink:title="Energy evaluation of hairpin loops for MFE and partition function calculations. ">
<polygon fill="none" stroke="black" points="1467.62,-62 1467.62,-81 1613.62,-81 1613.62,-62 1467.62,-62"/>
<text text-anchor="middle" x="1540.62" y="-69" font-family="Helvetica,sans-Serif" font-size="10.00">ViennaRNA/hairpin_loops.h</text>
</a>
</g>
</g>
<!-- Node16&#45;&gt;Node44 -->
<g id="edge42" class="edge"><title>Node16&#45;&gt;Node44</title>
<path fill="none" stroke="midnightblue" d="M1694.72,-262.249C1583,-256.563 1402.11,-243.917 1381.62,-221 1372.43,-210.729 1372.24,-200.092 1381.62,-190 1456.1,-109.861 1798.14,-234.139 1872.62,-154 1882,-143.908 1881.6,-133.449 1872.62,-123 1839.94,-84.9735 1701.3,-75.2486 1613.84,-72.9608"/>
<polygon fill="midnightblue" stroke="midnightblue" points="1694.81,-265.758 1704.97,-262.761 1695.16,-258.766 1694.81,-265.758"/>
</g>
<!-- Node45 -->
<g id="node31" class="node"><title>Node45</title>
<g id="a_node31"><a xlink:href="LPfold_8h.html" target="_top" xlink:title="Partition function implementation for the Lfold algorithm. ">
<polygon fill="none" stroke="black" points="1334.12,-129 1334.12,-148 1447.12,-148 1447.12,-129 1334.12,-129"/>
<text text-anchor="middle" x="1390.62" y="-136" font-family="Helvetica,sans-Serif" font-size="10.00">ViennaRNA/LPfold.h</text>
</a>
</g>
</g>
<!-- Node16&#45;&gt;Node45 -->
<g id="edge45" class="edge"><title>Node16&#45;&gt;Node45</title>
<path fill="none" stroke="midnightblue" d="M1694.73,-264.702C1554.52,-261.71 1293.04,-251.995 1264.62,-221 1233.28,-186.82 1306.44,-160.77 1353.93,-148.068"/>
<polygon fill="midnightblue" stroke="midnightblue" points="1694.96,-268.208 1705.03,-264.915 1695.1,-261.209 1694.96,-268.208"/>
</g>
<!-- Node46 -->
<g id="node32" class="node"><title>Node46</title>
<g id="a_node32"><a xlink:href="MEA_8h.html" target="_top" xlink:title="Computes a MEA (maximum expected accuracy) structure. ">
<polygon fill="none" stroke="black" points="1465.12,-129 1465.12,-148 1570.12,-148 1570.12,-129 1465.12,-129"/>
<text text-anchor="middle" x="1517.62" y="-136" font-family="Helvetica,sans-Serif" font-size="10.00">ViennaRNA/MEA.h</text>
</a>
</g>
</g>
<!-- Node16&#45;&gt;Node46 -->
<g id="edge46" class="edge"><title>Node16&#45;&gt;Node46</title>
<path fill="none" stroke="midnightblue" d="M1694.97,-264.136C1562.48,-260.399 1323.8,-249.723 1297.62,-221 1212.16,-127.245 1232.99,-205.396 1455.62,-154 1463.91,-152.085 1472.83,-150.011 1481.24,-148.045"/>
<polygon fill="midnightblue" stroke="midnightblue" points="1695.01,-267.638 1705.1,-264.414 1695.2,-260.641 1695.01,-267.638"/>
</g>
<!-- Node47 -->
<g id="node33" class="node"><title>Node47</title>
<g id="a_node33"><a xlink:href="mfe_8h.html" target="_top" xlink:title="MFE calculations for single RNA sequences. ">
<polygon fill="none" stroke="red" points="483.618,-196 483.618,-215 583.618,-215 583.618,-196 483.618,-196"/>
<text text-anchor="middle" x="533.618" y="-203" font-family="Helvetica,sans-Serif" font-size="10.00">ViennaRNA/mfe.h</text>
</a>
</g>
</g>
<!-- Node16&#45;&gt;Node47 -->
<g id="edge47" class="edge"><title>Node16&#45;&gt;Node47</title>
<path fill="none" stroke="midnightblue" d="M1694.5,-264.765C1457.41,-261.106 809.569,-248.792 597.618,-221 587.225,-219.637 576.037,-217.381 565.967,-215.05"/>
<polygon fill="midnightblue" stroke="midnightblue" points="1694.75,-268.269 1704.8,-264.923 1694.85,-261.27 1694.75,-268.269"/>
</g>
<!-- Node49 -->
<g id="node34" class="node"><title>Node49</title>
<g id="a_node34"><a xlink:href="multibranch__loops_8h.html" target="_top" xlink:title="Energy evaluation of multibranch loops for MFE and partition function calculations. ">
<polygon fill="none" stroke="black" points="1178.62,-56.5 1178.62,-86.5 1306.62,-86.5 1306.62,-56.5 1178.62,-56.5"/>
<text text-anchor="start" x="1186.62" y="-74.5" font-family="Helvetica,sans-Serif" font-size="10.00">ViennaRNA/multibranch</text>
<text text-anchor="middle" x="1242.62" y="-63.5" font-family="Helvetica,sans-Serif" font-size="10.00">_loops.h</text>
</a>
</g>
</g>
<!-- Node16&#45;&gt;Node49 -->
<g id="edge51" class="edge"><title>Node16&#45;&gt;Node49</title>
<path fill="none" stroke="midnightblue" d="M1694.8,-265.3C1503.38,-263.156 1053.88,-254.593 905.618,-221 830.029,-203.874 787.624,-218.478 744.618,-154 736.973,-142.538 735.38,-133.222 744.618,-123 773.205,-91.3674 1050.63,-78.5563 1178.57,-74.2992"/>
<polygon fill="midnightblue" stroke="midnightblue" points="1694.78,-268.8 1704.82,-265.409 1694.86,-261.8 1694.78,-268.8"/>
</g>
<!-- Node50 -->
<g id="node35" class="node"><title>Node50</title>
<g id="a_node35"><a xlink:href="params_8h.html" target="_top" xlink:title="Functions to deal with sets of energy parameters. ">
<polygon fill="none" stroke="black" points="1026.62,-196 1026.62,-215 1144.62,-215 1144.62,-196 1026.62,-196"/>
<text text-anchor="middle" x="1085.62" y="-203" font-family="Helvetica,sans-Serif" font-size="10.00">ViennaRNA/params.h</text>
</a>
</g>
</g>
<!-- Node16&#45;&gt;Node50 -->
<g id="edge53" class="edge"><title>Node16&#45;&gt;Node50</title>
<path fill="none" stroke="midnightblue" d="M1695.02,-263.341C1572.38,-258.721 1343.05,-247.082 1149.62,-221 1138.35,-219.48 1126.2,-217.292 1115.48,-215.075"/>
<polygon fill="midnightblue" stroke="midnightblue" points="1694.99,-266.842 1705.11,-263.715 1695.25,-259.847 1694.99,-266.842"/>
</g>
<!-- Node51 -->
<g id="node36" class="node"><title>Node51</title>
<g id="a_node36"><a xlink:href="part__func__co_8h.html" target="_top" xlink:title="Partition function for two RNA sequences. ">
<polygon fill="none" stroke="black" points="1588.62,-129 1588.62,-148 1732.62,-148 1732.62,-129 1588.62,-129"/>
<text text-anchor="middle" x="1660.62" y="-136" font-family="Helvetica,sans-Serif" font-size="10.00">ViennaRNA/part_func_co.h</text>
</a>
</g>
</g>
<!-- Node16&#45;&gt;Node51 -->
<g id="edge71" class="edge"><title>Node16&#45;&gt;Node51</title>
<path fill="none" stroke="midnightblue" d="M1694.52,-263.291C1571.87,-258.598 1361.99,-246.858 1338.62,-221 1220.68,-90.5055 988.966,-250.341 1578.62,-154 1589.89,-152.158 1602.01,-150.073 1613.39,-148.069"/>
<polygon fill="midnightblue" stroke="midnightblue" points="1694.53,-266.794 1704.65,-263.671 1694.79,-259.799 1694.53,-266.794"/>
</g>
<!-- Node52 -->
<g id="node37" class="node"><title>Node52</title>
<g id="a_node37"><a xlink:href="subopt_8h.html" target="_top" xlink:title="RNAsubopt and density of states declarations. ">
<polygon fill="none" stroke="black" points="1751.12,-129 1751.12,-148 1864.12,-148 1864.12,-129 1751.12,-129"/>
<text text-anchor="middle" x="1807.62" y="-136" font-family="Helvetica,sans-Serif" font-size="10.00">ViennaRNA/subopt.h</text>
</a>
</g>
</g>
<!-- Node16&#45;&gt;Node52 -->
<g id="edge90" class="edge"><title>Node16&#45;&gt;Node52</title>
<path fill="none" stroke="midnightblue" d="M1694.67,-263.071C1574.53,-258.15 1371.32,-246.18 1348.62,-221 1339.39,-210.768 1339.33,-200.177 1348.62,-190 1378.18,-157.61 1698.29,-160.718 1741.62,-154 1751.7,-152.436 1762.56,-150.261 1772.49,-148.07"/>
<polygon fill="midnightblue" stroke="midnightblue" points="1694.83,-266.58 1704.96,-263.484 1695.11,-259.586 1694.83,-266.58"/>
</g>
<!-- Node53 -->
<g id="node38" class="node"><title>Node53</title>
<g id="a_node38"><a xlink:href="part__func__up_8h.html" target="_top" xlink:title="Implementations for accessibility and RNA&#45;RNA interaction as a stepwise process. ">
<polygon fill="none" stroke="black" points="3582.62,-196 3582.62,-215 3726.62,-215 3726.62,-196 3582.62,-196"/>
<text text-anchor="middle" x="3654.62" y="-203" font-family="Helvetica,sans-Serif" font-size="10.00">ViennaRNA/part_func_up.h</text>
</a>
</g>
</g>
<!-- Node16&#45;&gt;Node53 -->
<g id="edge72" class="edge"><title>Node16&#45;&gt;Node53</title>
<path fill="none" stroke="midnightblue" d="M1870.59,-265.561C2182.91,-263.727 3237.62,-255.095 3573.62,-221 3586.84,-219.659 3601.14,-217.378 3614,-215.018"/>
<polygon fill="midnightblue" stroke="midnightblue" points="1870.22,-262.063 1860.24,-265.621 1870.26,-269.063 1870.22,-262.063"/>
</g>
<!-- Node54 -->
<g id="node39" class="node"><title>Node54</title>
<g id="a_node39"><a xlink:href="perturbation__fold_8h.html" target="_top" xlink:title="Find a vector of perturbation energies that minimizes the discripancies between predicted and observe...">
<polygon fill="none" stroke="black" points="2346.12,-190.5 2346.12,-220.5 2477.12,-220.5 2477.12,-190.5 2346.12,-190.5"/>
<text text-anchor="start" x="2354.12" y="-208.5" font-family="Helvetica,sans-Serif" font-size="10.00">ViennaRNA/perturbation</text>
<text text-anchor="middle" x="2411.62" y="-197.5" font-family="Helvetica,sans-Serif" font-size="10.00">_fold.h</text>
</a>
</g>
</g>
<!-- Node16&#45;&gt;Node54 -->
<g id="edge73" class="edge"><title>Node16&#45;&gt;Node54</title>
<path fill="none" stroke="midnightblue" d="M1870.45,-261.852C1979.97,-255.995 2172.75,-243.427 2336.62,-221 2339.64,-220.586 2342.72,-220.13 2345.84,-219.642"/>
<polygon fill="midnightblue" stroke="midnightblue" points="1870.24,-258.358 1860.44,-262.381 1870.61,-265.349 1870.24,-258.358"/>
</g>
<!-- Node55 -->
<g id="node40" class="node"><title>Node55</title>
<g id="a_node40"><a xlink:href="PKplex_8h_source.html" target="_top" xlink:title="ViennaRNA/PKplex.h">
<polygon fill="none" stroke="black" points="3744.62,-196 3744.62,-215 3860.62,-215 3860.62,-196 3744.62,-196"/>
<text text-anchor="middle" x="3802.62" y="-203" font-family="Helvetica,sans-Serif" font-size="10.00">ViennaRNA/PKplex.h</text>
</a>
</g>
</g>
<!-- Node16&#45;&gt;Node55 -->
<g id="edge75" class="edge"><title>Node16&#45;&gt;Node55</title>
<path fill="none" stroke="midnightblue" d="M1870.68,-266.194C2201.11,-266.577 3367.05,-264.726 3735.62,-221 3746.61,-219.696 3758.46,-217.426 3769.09,-215.064"/>
<polygon fill="midnightblue" stroke="midnightblue" points="1870.22,-262.694 1860.21,-266.181 1870.21,-269.694 1870.22,-262.694"/>
</g>
<!-- Node56 -->
<g id="node41" class="node"><title>Node56</title>
<g id="a_node41"><a xlink:href="plex_8h_source.html" target="_top" xlink:title="ViennaRNA/plex.h">
<polygon fill="none" stroke="black" points="3878.62,-196 3878.62,-215 3980.62,-215 3980.62,-196 3878.62,-196"/>
<text text-anchor="middle" x="3929.62" y="-203" font-family="Helvetica,sans-Serif" font-size="10.00">ViennaRNA/plex.h</text>
</a>
</g>
</g>
<!-- Node16&#45;&gt;Node56 -->
<g id="edge76" class="edge"><title>Node16&#45;&gt;Node56</title>
<path fill="none" stroke="midnightblue" d="M1870.31,-265.225C2241.03,-261.795 3669.73,-246.999 3869.62,-221 3879.61,-219.701 3890.35,-217.401 3899.95,-215.01"/>
<polygon fill="midnightblue" stroke="midnightblue" points="1870.15,-261.726 1860.18,-265.318 1870.21,-268.726 1870.15,-261.726"/>
</g>
<!-- Node57 -->
<g id="node42" class="node"><title>Node57</title>
<g id="a_node42"><a xlink:href="plot__layouts_8h.html" target="_top" xlink:title="Secondary structure plot layout algorithms. ">
<polygon fill="none" stroke="red" points="3999.12,-196 3999.12,-215 4138.12,-215 4138.12,-196 3999.12,-196"/>
<text text-anchor="middle" x="4068.62" y="-203" font-family="Helvetica,sans-Serif" font-size="10.00">ViennaRNA/plot_layouts.h</text>
</a>
</g>
</g>
<!-- Node16&#45;&gt;Node57 -->
<g id="edge77" class="edge"><title>Node16&#45;&gt;Node57</title>
<path fill="none" stroke="midnightblue" d="M1870.27,-266.1C2226.63,-266.212 3567.82,-263.728 3989.62,-221 4002.52,-219.693 4016.47,-217.422 4029.01,-215.06"/>
<polygon fill="midnightblue" stroke="midnightblue" points="1870.27,-262.6 1860.27,-266.096 1870.26,-269.6 1870.27,-262.6"/>
</g>
<!-- Node60 -->
<g id="node43" class="node"><title>Node60</title>
<g id="a_node43"><a xlink:href="profiledist_8h.html" target="_top" xlink:title="ViennaRNA/profiledist.h">
<polygon fill="none" stroke="black" points="4156.62,-196 4156.62,-215 4284.62,-215 4284.62,-196 4156.62,-196"/>
<text text-anchor="middle" x="4220.62" y="-203" font-family="Helvetica,sans-Serif" font-size="10.00">ViennaRNA/profiledist.h</text>
</a>
</g>
</g>
<!-- Node16&#45;&gt;Node60 -->
<g id="edge78" class="edge"><title>Node16&#45;&gt;Node60</title>
<path fill="none" stroke="midnightblue" d="M1870.6,-266.411C2243.28,-267.83 3693.56,-270.024 4147.62,-221 4159.69,-219.696 4172.74,-217.395 4184.42,-215.004"/>
<polygon fill="midnightblue" stroke="midnightblue" points="1870.42,-262.91 1860.41,-266.371 1870.4,-269.91 1870.42,-262.91"/>
</g>
<!-- Node59 -->
<g id="node44" class="node"><title>Node59</title>
<g id="a_node44"><a xlink:href="PS__dot_8h.html" target="_top" xlink:title="Various functions for plotting RNA secondary structures, dot&#45;plots and other visualizations. ">
<polygon fill="none" stroke="black" points="4303.12,-196 4303.12,-215 4420.12,-215 4420.12,-196 4303.12,-196"/>
<text text-anchor="middle" x="4361.62" y="-203" font-family="Helvetica,sans-Serif" font-size="10.00">ViennaRNA/PS_dot.h</text>
</a>
</g>
</g>
<!-- Node16&#45;&gt;Node59 -->
<g id="edge79" class="edge"><title>Node16&#45;&gt;Node59</title>
<path fill="none" stroke="midnightblue" d="M1870.38,-265.429C2286.34,-262.585 4049.36,-248.968 4293.62,-221 4304.89,-219.709 4317.05,-217.411 4327.93,-215.02"/>
<polygon fill="midnightblue" stroke="midnightblue" points="1870.19,-261.93 1860.22,-265.498 1870.24,-268.929 1870.19,-261.93"/>
</g>
<!-- Node61 -->
<g id="node45" class="node"><title>Node61</title>
<g id="a_node45"><a xlink:href="snofold_8h_source.html" target="_top" xlink:title="ViennaRNA/snofold.h">
<polygon fill="none" stroke="black" points="4438.12,-196 4438.12,-215 4555.12,-215 4555.12,-196 4438.12,-196"/>
<text text-anchor="middle" x="4496.62" y="-203" font-family="Helvetica,sans-Serif" font-size="10.00">ViennaRNA/snofold.h</text>
</a>
</g>
</g>
<!-- Node16&#45;&gt;Node61 -->
<g id="edge80" class="edge"><title>Node16&#45;&gt;Node61</title>
<path fill="none" stroke="midnightblue" d="M1870.52,-265.531C2300.43,-263.097 4171.25,-250.86 4429.62,-221 4440.73,-219.716 4452.72,-217.419 4463.43,-215.028"/>
<polygon fill="midnightblue" stroke="midnightblue" points="1870.32,-262.032 1860.34,-265.588 1870.36,-269.031 1870.32,-262.032"/>
</g>
<!-- Node62 -->
<g id="node46" class="node"><title>Node62</title>
<g id="a_node46"><a xlink:href="snoop_8h_source.html" target="_top" xlink:title="ViennaRNA/snoop.h">
<polygon fill="none" stroke="black" points="4573.62,-196 4573.62,-215 4685.62,-215 4685.62,-196 4573.62,-196"/>
<text text-anchor="middle" x="4629.62" y="-203" font-family="Helvetica,sans-Serif" font-size="10.00">ViennaRNA/snoop.h</text>
</a>
</g>
</g>
<!-- Node16&#45;&gt;Node62 -->
<g id="edge81" class="edge"><title>Node16&#45;&gt;Node62</title>
<path fill="none" stroke="midnightblue" d="M1870.64,-265.641C2314.02,-263.691 4292.28,-253.238 4564.62,-221 4575.41,-219.722 4587.04,-217.428 4597.44,-215.036"/>
<polygon fill="midnightblue" stroke="midnightblue" points="1870.44,-262.142 1860.45,-265.686 1870.47,-269.142 1870.44,-262.142"/>
</g>
<!-- Node63 -->
<g id="node47" class="node"><title>Node63</title>
<g id="a_node47"><a xlink:href="string__utils_8h.html" target="_top" xlink:title="General utility&#45; and helper&#45;functions for RNA sequence and structure strings used throughout the Vien...">
<polygon fill="none" stroke="black" points="1391.12,-196 1391.12,-215 1524.12,-215 1524.12,-196 1391.12,-196"/>
<text text-anchor="middle" x="1457.62" y="-203" font-family="Helvetica,sans-Serif" font-size="10.00">ViennaRNA/string_utils.h</text>
</a>
</g>
</g>
<!-- Node16&#45;&gt;Node63 -->
<g id="edge82" class="edge"><title>Node16&#45;&gt;Node63</title>
<path fill="none" stroke="midnightblue" d="M1724.08,-255.682C1673.39,-246.696 1598.12,-233.226 1532.62,-221 1522.45,-219.102 1511.51,-217.014 1501.22,-215.029"/>
<polygon fill="midnightblue" stroke="midnightblue" points="1723.73,-259.176 1734.19,-257.474 1724.95,-252.283 1723.73,-259.176"/>
</g>
<!-- Node64 -->
<g id="node48" class="node"><title>Node64</title>
<g id="a_node48"><a xlink:href="utils_8h.html" target="_top" xlink:title="General utility&#45; and helper&#45;functions used throughout the ViennaRNA Package. ">
<polygon fill="none" stroke="black" points="1921.12,-129 1921.12,-148 2022.12,-148 2022.12,-129 1921.12,-129"/>
<text text-anchor="middle" x="1971.62" y="-136" font-family="Helvetica,sans-Serif" font-size="10.00">ViennaRNA/utils.h</text>
</a>
</g>
</g>
<!-- Node16&#45;&gt;Node64 -->
<g id="edge93" class="edge"><title>Node16&#45;&gt;Node64</title>
<path fill="none" stroke="midnightblue" d="M1747.17,-253.196C1732.84,-246.064 1717.77,-235.609 1709.62,-221 1702.9,-208.97 1700.79,-200.582 1709.62,-190 1738.12,-155.82 1863,-162.846 1906.62,-154 1915.68,-152.161 1925.43,-150.056 1934.55,-148.03"/>
<polygon fill="midnightblue" stroke="midnightblue" points="1745.86,-256.443 1756.41,-257.414 1748.76,-250.076 1745.86,-256.443"/>
</g>
<!-- Node65 -->
<g id="node49" class="node"><title>Node65</title>
<g id="a_node49"><a xlink:href="structure__utils_8h.html" target="_top" xlink:title="Various utility&#45; and helper&#45;functions for secondary structure parsing, converting, etc. ">
<polygon fill="none" stroke="black" points="1542.12,-190.5 1542.12,-220.5 1657.12,-220.5 1657.12,-190.5 1542.12,-190.5"/>
<text text-anchor="start" x="1550.12" y="-208.5" font-family="Helvetica,sans-Serif" font-size="10.00">ViennaRNA/structure</text>
<text text-anchor="middle" x="1599.62" y="-197.5" font-family="Helvetica,sans-Serif" font-size="10.00">_utils.h</text>
</a>
</g>
</g>
<!-- Node16&#45;&gt;Node65 -->
<g id="edge88" class="edge"><title>Node16&#45;&gt;Node65</title>
<path fill="none" stroke="midnightblue" d="M1746.81,-254.357C1716.99,-244.662 1674.44,-230.826 1642.75,-220.523"/>
<polygon fill="midnightblue" stroke="midnightblue" points="1745.81,-257.711 1756.4,-257.475 1747.97,-251.055 1745.81,-257.711"/>
</g>
<!-- Node66 -->
<g id="node50" class="node"><title>Node66</title>
<g id="a_node50"><a xlink:href="unstructured__domains_8h.html" target="_top" xlink:title="Functions to modify unstructured domains, e.g. to incorporate ligands binding to unpaired stretches...">
<polygon fill="none" stroke="black" points="4703.62,-190.5 4703.62,-220.5 4835.62,-220.5 4835.62,-190.5 4703.62,-190.5"/>
<text text-anchor="start" x="4711.62" y="-208.5" font-family="Helvetica,sans-Serif" font-size="10.00">ViennaRNA/unstructured</text>
<text text-anchor="middle" x="4769.62" y="-197.5" font-family="Helvetica,sans-Serif" font-size="10.00">_domains.h</text>
</a>
</g>
</g>
<!-- Node16&#45;&gt;Node66 -->
<g id="edge91" class="edge"><title>Node16&#45;&gt;Node66</title>
<path fill="none" stroke="midnightblue" d="M1870.56,-265.547C2325.34,-263.116 4399.79,-250.606 4685.62,-221 4691.42,-220.399 4697.45,-219.576 4703.49,-218.625"/>
<polygon fill="midnightblue" stroke="midnightblue" points="1870.42,-262.048 1860.44,-265.601 1870.46,-269.048 1870.42,-262.048"/>
</g>
<!-- Node21&#45;&gt;Node20 -->
<g id="edge7" class="edge"><title>Node21&#45;&gt;Node20</title>
<path fill="none" stroke="midnightblue" d="M112.394,-184.514C134.781,-167.883 167.617,-143.672 196.618,-123 217.575,-108.062 242.255,-91.1231 256.882,-81.1507"/>
<polygon fill="midnightblue" stroke="midnightblue" points="110.289,-181.717 104.355,-190.494 114.467,-187.334 110.289,-181.717"/>
</g>
<!-- Node21&#45;&gt;Node22 -->
<g id="edge8" class="edge"><title>Node21&#45;&gt;Node22</title>
<path fill="none" stroke="midnightblue" d="M135.309,-186.946C171.047,-174.321 217.673,-157.85 245.536,-148.007"/>
<polygon fill="midnightblue" stroke="midnightblue" points="133.806,-183.765 125.543,-190.396 136.138,-190.365 133.806,-183.765"/>
</g>
<!-- Node22&#45;&gt;Node20 -->
<g id="edge9" class="edge"><title>Node22&#45;&gt;Node20</title>
<path fill="none" stroke="midnightblue" d="M269.618,-118.537C269.618,-106.17 269.618,-90.6198 269.618,-81.1273"/>
<polygon fill="midnightblue" stroke="midnightblue" points="266.118,-118.734 269.618,-128.734 273.118,-118.734 266.118,-118.734"/>
</g>
<!-- Node23&#45;&gt;Node22 -->
<g id="edge11" class="edge"><title>Node23&#45;&gt;Node22</title>
<path fill="none" stroke="midnightblue" d="M237.191,-187.404C245.741,-174.773 257.024,-158.104 263.778,-148.127"/>
<polygon fill="midnightblue" stroke="midnightblue" points="234.259,-185.491 231.552,-195.734 240.056,-189.415 234.259,-185.491"/>
</g>
<!-- Node26&#45;&gt;Node16 -->
<g id="edge15" class="edge"><title>Node26&#45;&gt;Node16</title>
<path fill="none" stroke="midnightblue" d="M2063.15,-149.932C2055.34,-151.368 2047.28,-152.769 2039.62,-154 1979.85,-163.604 1809.49,-144.457 1769.62,-190 1752.43,-209.636 1772.87,-241.989 1780.88,-257.366"/>
<polygon fill="midnightblue" stroke="midnightblue" points="2064.04,-153.326 2073.23,-148.037 2062.75,-146.447 2064.04,-153.326"/>
</g>
<!-- Node26&#45;&gt;Node27 -->
<g id="edge16" class="edge"><title>Node26&#45;&gt;Node27</title>
<path fill="none" stroke="midnightblue" d="M2080.36,-124.474C2057.37,-113.485 2024.53,-97.791 2000.97,-86.5281"/>
<polygon fill="midnightblue" stroke="midnightblue" points="2079.03,-127.714 2089.56,-128.869 2082.04,-121.398 2079.03,-127.714"/>
</g>
<!-- Node28 -->
<g id="node14" class="node"><title>Node28</title>
<g id="a_node14"><a xlink:href="loop__energies_8h.html" target="_top" xlink:title="Energy evaluation for MFE and partition function calculations. ">
<polygon fill="none" stroke="black" points="1316.62,-0.5 1316.62,-19.5 1466.62,-19.5 1466.62,-0.5 1316.62,-0.5"/>
<text text-anchor="middle" x="1391.62" y="-7.5" font-family="Helvetica,sans-Serif" font-size="10.00">ViennaRNA/loop_energies.h</text>
</a>
</g>
</g>
<!-- Node27&#45;&gt;Node28 -->
<g id="edge17" class="edge"><title>Node27&#45;&gt;Node28</title>
<path fill="none" stroke="midnightblue" d="M1908.01,-63.9743C1800.14,-52.9089 1581.88,-30.5182 1466.7,-18.7024"/>
<polygon fill="midnightblue" stroke="midnightblue" points="1907.79,-67.4702 1918.09,-65.009 1908.5,-60.5067 1907.79,-67.4702"/>
</g>
<!-- Node29&#45;&gt;Node26 -->
<g id="edge19" class="edge"><title>Node29&#45;&gt;Node26</title>
<path fill="none" stroke="midnightblue" d="M1901.8,-188.149C1955.76,-175.394 2028.54,-158.191 2071.54,-148.029"/>
<polygon fill="midnightblue" stroke="midnightblue" points="1900.88,-184.77 1891.95,-190.476 1902.49,-191.582 1900.88,-184.77"/>
</g>
<!-- Node30&#45;&gt;Node26 -->
<g id="edge21" class="edge"><title>Node30&#45;&gt;Node26</title>
<path fill="none" stroke="midnightblue" d="M2014.3,-185.803C2039.41,-173.342 2071.23,-157.556 2090.47,-148.007"/>
<polygon fill="midnightblue" stroke="midnightblue" points="2012.45,-182.816 2005.04,-190.396 2015.56,-189.086 2012.45,-182.816"/>
</g>
<!-- Node31&#45;&gt;Node26 -->
<g id="edge23" class="edge"><title>Node31&#45;&gt;Node26</title>
<path fill="none" stroke="midnightblue" d="M2115.77,-180.25C2113.52,-169.017 2110.99,-156.377 2109.36,-148.195"/>
<polygon fill="midnightblue" stroke="midnightblue" points="2112.4,-181.277 2117.8,-190.396 2119.27,-179.904 2112.4,-181.277"/>
</g>
<!-- Node32&#45;&gt;Node26 -->
<g id="edge25" class="edge"><title>Node32&#45;&gt;Node26</title>
<path fill="none" stroke="midnightblue" d="M2221.04,-186.458C2190.71,-173.9 2151.64,-157.724 2128.17,-148.007"/>
<polygon fill="midnightblue" stroke="midnightblue" points="2219.97,-189.804 2230.55,-190.396 2222.65,-183.337 2219.97,-189.804"/>
</g>
<!-- Node33&#45;&gt;Node16 -->
<g id="edge27" class="edge"><title>Node33&#45;&gt;Node16</title>
<path fill="none" stroke="midnightblue" d="M3027.28,-216.831C3017.91,-218.476 3007.98,-219.971 2998.62,-221 2777.28,-245.31 2092.5,-260.255 1860.4,-264.643"/>
<polygon fill="midnightblue" stroke="midnightblue" points="3027.98,-220.261 3037.18,-215.004 3026.71,-213.378 3027.98,-220.261"/>
</g>
<!-- Node35&#45;&gt;Node22 -->
<g id="edge30" class="edge"><title>Node35&#45;&gt;Node22</title>
<path fill="none" stroke="midnightblue" d="M336.287,-184.641C318.17,-172.374 295.85,-157.261 282.182,-148.007"/>
<polygon fill="midnightblue" stroke="midnightblue" points="334.544,-187.688 344.787,-190.396 338.469,-181.891 334.544,-187.688"/>
</g>
<!-- Node36&#45;&gt;Node37 -->
<g id="edge32" class="edge"><title>Node36&#45;&gt;Node37</title>
<path fill="none" stroke="midnightblue" d="M635.87,-120.035C628.125,-107.45 618.007,-91.0072 611.927,-81.1273"/>
<polygon fill="midnightblue" stroke="midnightblue" points="633.001,-122.052 641.223,-128.734 638.963,-118.383 633.001,-122.052"/>
</g>
<!-- Node38&#45;&gt;Node28 -->
<g id="edge34" class="edge"><title>Node38&#45;&gt;Node28</title>
<path fill="none" stroke="midnightblue" d="M1015.85,-118.924C1053.74,-100.67 1114.56,-73.1319 1169.62,-56 1223.88,-39.1173 1287.61,-26.9563 1332.84,-19.5655"/>
<polygon fill="midnightblue" stroke="midnightblue" points="1014.2,-115.836 1006.73,-123.353 1017.26,-122.133 1014.2,-115.836"/>
</g>
<!-- Node42 -->
<g id="node28" class="node"><title>Node42</title>
<g id="a_node28"><a xlink:href="pair__mat_8h_source.html" target="_top" xlink:title="ViennaRNA/pair_mat.h">
<polygon fill="none" stroke="black" points="2288.62,-62 2288.62,-81 2412.62,-81 2412.62,-62 2288.62,-62"/>
<text text-anchor="middle" x="2350.62" y="-69" font-family="Helvetica,sans-Serif" font-size="10.00">ViennaRNA/pair_mat.h</text>
</a>
</g>
</g>
<!-- Node41&#45;&gt;Node42 -->
<g id="edge39" class="edge"><title>Node41&#45;&gt;Node42</title>
<path fill="none" stroke="midnightblue" d="M2554.32,-126.323C2505.74,-113.489 2427.11,-92.7118 2383.1,-81.0834"/>
<polygon fill="midnightblue" stroke="midnightblue" points="2553.64,-129.765 2564.2,-128.936 2555.43,-122.997 2553.64,-129.765"/>
</g>
<!-- Node44&#45;&gt;Node28 -->
<g id="edge43" class="edge"><title>Node44&#45;&gt;Node28</title>
<path fill="none" stroke="midnightblue" d="M1509.64,-58.1313C1480.7,-46.5717 1438.25,-29.62 1412.93,-19.5091"/>
<polygon fill="midnightblue" stroke="midnightblue" points="1508.68,-61.5169 1519.27,-61.9751 1511.28,-55.0161 1508.68,-61.5169"/>
</g>
<!-- Node47&#45;&gt;Node20 -->
<g id="edge48" class="edge"><title>Node47&#45;&gt;Node20</title>
<path fill="none" stroke="midnightblue" d="M499.617,-192.306C474.143,-182.802 438.654,-168.774 408.618,-154 360.673,-130.417 306.896,-96.6569 282.678,-81.0333"/>
<polygon fill="midnightblue" stroke="midnightblue" points="498.603,-195.663 509.196,-195.843 501.028,-189.096 498.603,-195.663"/>
</g>
<!-- Node47&#45;&gt;Node24 -->
<g id="edge49" class="edge"><title>Node47&#45;&gt;Node24</title>
<path fill="none" stroke="midnightblue" d="M520.749,-187.77C511,-175.097 498.003,-158.201 490.254,-148.127"/>
<polygon fill="midnightblue" stroke="midnightblue" points="518.003,-189.942 526.875,-195.734 523.552,-185.674 518.003,-189.942"/>
</g>
<!-- Node47&#45;&gt;Node37 -->
<g id="edge50" class="edge"><title>Node47&#45;&gt;Node37</title>
<path fill="none" stroke="midnightblue" d="M490.791,-192.993C448.706,-179.538 394.097,-154.977 418.618,-123 435.327,-101.21 506.574,-86.7352 556.388,-79.0686"/>
<polygon fill="midnightblue" stroke="midnightblue" points="489.767,-196.339 500.354,-195.933 491.824,-189.648 489.767,-196.339"/>
</g>
<!-- Node49&#45;&gt;Node28 -->
<g id="edge52" class="edge"><title>Node49&#45;&gt;Node28</title>
<path fill="none" stroke="midnightblue" d="M1287.3,-52.6583C1314.62,-41.7455 1348.36,-28.2724 1369.94,-19.6578"/>
<polygon fill="midnightblue" stroke="midnightblue" points="1285.92,-49.4403 1277.93,-56.3993 1288.51,-55.9412 1285.92,-49.4403"/>
</g>
<!-- Node50&#45;&gt;Node16 -->
<g id="edge57" class="edge"><title>Node50&#45;&gt;Node16</title>
<path fill="none" stroke="midnightblue" d="M1142.82,-216.975C1151.15,-218.501 1159.61,-219.92 1167.62,-221 1360.03,-246.945 1587.96,-258.597 1704.95,-263.268"/>
<polygon fill="midnightblue" stroke="midnightblue" points="1143.22,-213.49 1132.75,-215.075 1141.92,-220.368 1143.22,-213.49"/>
</g>
<!-- Node50&#45;&gt;Node17 -->
<g id="edge54" class="edge"><title>Node50&#45;&gt;Node17</title>
<path fill="none" stroke="midnightblue" d="M1039.35,-193.564C985.136,-180.75 896.438,-159.785 846.932,-148.083"/>
<polygon fill="midnightblue" stroke="midnightblue" points="1038.85,-197.041 1049.38,-195.936 1040.46,-190.229 1038.85,-197.041"/>
</g>
<!-- Node50&#45;&gt;Node20 -->
<g id="edge55" class="edge"><title>Node50&#45;&gt;Node20</title>
<path fill="none" stroke="midnightblue" d="M1029.62,-193.693C995.185,-185.678 950.865,-172.842 914.618,-154 894.972,-143.787 896.202,-131.159 875.618,-123 825.135,-102.99 464.353,-82.524 324.663,-75.2604"/>
<polygon fill="midnightblue" stroke="midnightblue" points="1028.99,-197.138 1039.51,-195.927 1030.53,-190.31 1028.99,-197.138"/>
</g>
<!-- Node50&#45;&gt;Node22 -->
<g id="edge67" class="edge"><title>Node50&#45;&gt;Node22</title>
<path fill="none" stroke="midnightblue" d="M1015.99,-199.722C894.61,-191.282 636.434,-172.842 418.618,-154 390.653,-151.581 359.764,-148.622 333.396,-146.01"/>
<polygon fill="midnightblue" stroke="midnightblue" points="1016.03,-203.233 1026.25,-200.434 1016.51,-196.25 1016.03,-203.233"/>
</g>
<!-- Node50&#45;&gt;Node24 -->
<g id="edge56" class="edge"><title>Node50&#45;&gt;Node24</title>
<path fill="none" stroke="midnightblue" d="M1016.18,-198.335C919.694,-189.572 739.667,-172.51 586.618,-154 571.2,-152.135 554.517,-149.887 539.159,-147.723"/>
<polygon fill="midnightblue" stroke="midnightblue" points="1016.11,-201.843 1026.39,-199.259 1016.74,-194.872 1016.11,-201.843"/>
</g>
<!-- Node50&#45;&gt;Node27 -->
<g id="edge63" class="edge"><title>Node50&#45;&gt;Node27</title>
<path fill="none" stroke="midnightblue" d="M1107.94,-190.321C1122.9,-180.567 1142.85,-167.061 1159.62,-154 1176.01,-141.229 1175.44,-130.994 1194.62,-123 1227.96,-109.105 1747.32,-83.207 1917.84,-75.0371"/>
<polygon fill="midnightblue" stroke="midnightblue" points="1105.85,-187.507 1099.35,-195.872 1109.65,-193.387 1105.85,-187.507"/>
</g>
<!-- Node50&#45;&gt;Node36 -->
<g id="edge58" class="edge"><title>Node50&#45;&gt;Node36</title>
<path fill="none" stroke="midnightblue" d="M1017.86,-194.467C929.531,-181.389 777.015,-158.807 697.764,-147.073"/>
<polygon fill="midnightblue" stroke="midnightblue" points="1017.37,-197.933 1027.77,-195.936 1018.4,-191.009 1017.37,-197.933"/>
</g>
<!-- Node50&#45;&gt;Node37 -->
<g id="edge60" class="edge"><title>Node50&#45;&gt;Node37</title>
<path fill="none" stroke="midnightblue" d="M1081.24,-185.882C1075.69,-166.746 1064.14,-137.731 1042.62,-123 980.919,-80.7616 757.589,-73.6055 656.701,-72.566"/>
<polygon fill="midnightblue" stroke="midnightblue" points="1077.92,-187.039 1083.84,-195.825 1084.69,-185.264 1077.92,-187.039"/>
</g>
<!-- Node50&#45;&gt;Node38 -->
<g id="edge59" class="edge"><title>Node50&#45;&gt;Node38</title>
<path fill="none" stroke="midnightblue" d="M1062.5,-190.454C1044.55,-179.551 1019.78,-164.503 1001.81,-153.589"/>
<polygon fill="midnightblue" stroke="midnightblue" points="1060.82,-193.533 1071.19,-195.734 1064.46,-187.551 1060.82,-193.533"/>
</g>
<!-- Node50&#45;&gt;Node43 -->
<g id="edge61" class="edge"><title>Node50&#45;&gt;Node43</title>
<path fill="none" stroke="midnightblue" d="M1118.35,-192.271C1152.89,-179.37 1206.41,-159.376 1236.69,-148.064"/>
<polygon fill="midnightblue" stroke="midnightblue" points="1116.87,-189.09 1108.72,-195.869 1119.32,-195.648 1116.87,-189.09"/>
</g>
<!-- Node50&#45;&gt;Node44 -->
<g id="edge62" class="edge"><title>Node50&#45;&gt;Node44</title>
<path fill="none" stroke="midnightblue" d="M1098.88,-187.805C1116.32,-166.313 1146.51,-130.798 1161.62,-123 1213.45,-96.2509 1372.75,-82.4282 1467.52,-76.3906"/>
<polygon fill="midnightblue" stroke="midnightblue" points="1096,-185.792 1092.47,-195.78 1101.46,-190.177 1096,-185.792"/>
</g>
<!-- Node50&#45;&gt;Node45 -->
<g id="edge64" class="edge"><title>Node50&#45;&gt;Node45</title>
<path fill="none" stroke="midnightblue" d="M1136.58,-193.856C1184.98,-183.717 1259.79,-167.97 1324.62,-154 1333.45,-152.097 1342.94,-150.027 1351.89,-148.063"/>
<polygon fill="midnightblue" stroke="midnightblue" points="1135.73,-190.457 1126.66,-195.932 1137.17,-197.308 1135.73,-190.457"/>
</g>
<!-- Node50&#45;&gt;Node46 -->
<g id="edge65" class="edge"><title>Node50&#45;&gt;Node46</title>
<path fill="none" stroke="midnightblue" d="M1155.05,-197C1229.64,-188.482 1351.5,-173.237 1455.62,-154 1464.75,-152.313 1474.56,-150.172 1483.63,-148.056"/>
<polygon fill="midnightblue" stroke="midnightblue" points="1154.39,-193.552 1144.85,-198.156 1155.18,-200.508 1154.39,-193.552"/>
</g>
<!-- Node50&#45;&gt;Node49 -->
<g id="edge66" class="edge"><title>Node50&#45;&gt;Node49</title>
<path fill="none" stroke="midnightblue" d="M1090.09,-185.948C1095.33,-167.763 1105.68,-140.324 1123.62,-123 1141.22,-106.007 1165.4,-94.3295 1187.37,-86.5217"/>
<polygon fill="midnightblue" stroke="midnightblue" points="1086.69,-185.107 1087.51,-195.67 1093.45,-186.898 1086.69,-185.107"/>
</g>
<!-- Node50&#45;&gt;Node51 -->
<g id="edge68" class="edge"><title>Node50&#45;&gt;Node51</title>
<path fill="none" stroke="midnightblue" d="M1155.1,-198.991C1250.73,-191.043 1428.16,-174.98 1578.62,-154 1590.65,-152.323 1603.61,-150.185 1615.6,-148.07"/>
<polygon fill="midnightblue" stroke="midnightblue" points="1154.66,-195.516 1144.98,-199.827 1155.23,-202.492 1154.66,-195.516"/>
</g>
<!-- Node50&#45;&gt;Node52 -->
<g id="edge69" class="edge"><title>Node50&#45;&gt;Node52</title>
<path fill="none" stroke="midnightblue" d="M1154.81,-199.723C1311.59,-188.82 1684.74,-162.395 1741.62,-154 1751.95,-152.475 1763.07,-150.258 1773.19,-148.015"/>
<polygon fill="midnightblue" stroke="midnightblue" points="1154.54,-196.234 1144.8,-200.418 1155.02,-203.217 1154.54,-196.234"/>
</g>
<!-- Node54&#45;&gt;Node26 -->
<g id="edge74" class="edge"><title>Node54&#45;&gt;Node26</title>
<path fill="none" stroke="midnightblue" d="M2335.89,-188.307C2276.16,-175.537 2195.23,-158.233 2147.51,-148.029"/>
<polygon fill="midnightblue" stroke="midnightblue" points="2335.52,-191.808 2346.03,-190.476 2336.98,-184.962 2335.52,-191.808"/>
</g>
<!-- Node63&#45;&gt;Node64 -->
<g id="edge83" class="edge"><title>Node63&#45;&gt;Node64</title>
<path fill="none" stroke="midnightblue" d="M1507.88,-194.101C1516.12,-192.592 1524.59,-191.159 1532.62,-190 1697.89,-166.124 1741.7,-180.229 1906.62,-154 1916.55,-152.42 1927.24,-150.239 1937.02,-148.049"/>
<polygon fill="midnightblue" stroke="midnightblue" points="1507.16,-190.675 1497.98,-195.967 1508.45,-197.554 1507.16,-190.675"/>
</g>
<!-- Node64&#45;&gt;Node27 -->
<g id="edge85" class="edge"><title>Node64&#45;&gt;Node27</title>
<path fill="none" stroke="midnightblue" d="M1971.62,-118.411C1971.62,-108.222 1971.62,-95.901 1971.62,-86.589"/>
<polygon fill="midnightblue" stroke="midnightblue" points="1968.12,-118.734 1971.62,-128.734 1975.12,-118.734 1968.12,-118.734"/>
</g>
<!-- Node64&#45;&gt;Node42 -->
<g id="edge87" class="edge"><title>Node64&#45;&gt;Node42</title>
<path fill="none" stroke="midnightblue" d="M2014.83,-126.621C2020.46,-125.331 2026.17,-124.088 2031.62,-123 2120.42,-105.27 2224.14,-89.8122 2288.61,-80.8159"/>
<polygon fill="midnightblue" stroke="midnightblue" points="2013.77,-123.274 2004.84,-128.97 2015.37,-130.088 2013.77,-123.274"/>
</g>
<!-- Node64&#45;&gt;Node44 -->
<g id="edge84" class="edge"><title>Node64&#45;&gt;Node44</title>
<path fill="none" stroke="midnightblue" d="M1925.95,-126.815C1919.48,-125.446 1912.89,-124.13 1906.62,-123 1805.61,-104.798 1687.9,-89.622 1613.81,-80.7996"/>
<polygon fill="midnightblue" stroke="midnightblue" points="1925.45,-130.289 1935.96,-128.992 1926.94,-123.448 1925.45,-130.289"/>
</g>
<!-- Node64&#45;&gt;Node49 -->
<g id="edge86" class="edge"><title>Node64&#45;&gt;Node49</title>
<path fill="none" stroke="midnightblue" d="M1911.07,-127.991C1898.39,-126.179 1885.08,-124.411 1872.62,-123 1764.27,-110.736 1444.43,-87.0761 1306.79,-77.1072"/>
<polygon fill="midnightblue" stroke="midnightblue" points="1910.68,-131.471 1921.08,-129.447 1911.69,-124.544 1910.68,-131.471"/>
</g>
<!-- Node65&#45;&gt;Node64 -->
<g id="edge89" class="edge"><title>Node65&#45;&gt;Node64</title>
<path fill="none" stroke="midnightblue" d="M1667.22,-190.79C1668.7,-190.521 1670.17,-190.257 1671.62,-190 1775.66,-171.565 1802.77,-173.514 1906.62,-154 1915.94,-152.249 1925.95,-150.132 1935.27,-148.063"/>
<polygon fill="midnightblue" stroke="midnightblue" points="1666.53,-187.357 1657.34,-192.628 1667.81,-194.239 1666.53,-187.357"/>
</g>
<!-- Node66&#45;&gt;Node16 -->
<g id="edge92" class="edge"><title>Node66&#45;&gt;Node16</title>
<path fill="none" stroke="midnightblue" d="M4697.92,-221.484C4369.08,-251.221 2289.68,-263.432 1860.15,-265.629"/>
<polygon fill="midnightblue" stroke="midnightblue" points="4698.39,-224.955 4708.01,-220.509 4697.72,-217.987 4698.39,-224.955"/>
</g>
</g>
</svg>
        <g id="navigator" transform="translate(0 0)" fill="#404254">
                <rect fill="#f2f5e9" fill-opacity="0.5" stroke="#606060" stroke-width=".5" x="0" y="0" width="60" height="60"/>
                <use id="zoomplus" xlink:href="#zoomPlus" x="17" y="9" onmousedown="handleZoom(evt,'in')"/>
                <use id="zoomminus" xlink:href="#zoomMin" x="42" y="9" onmousedown="handleZoom(evt,'out')"/>
                <use id="reset" xlink:href="#resetDef" x="30" y="36" onmousedown="handleReset()"/>
                <g id="arrowUp" xlink:href="#dirArrow" transform="translate(30 24)" onmousedown="handlePan(0,-1)">
                  <use xlink:href="#rim" fill="#404040">
                        <set attributeName="fill" to="#808080" begin="arrowUp.mouseover" end="arrowUp.mouseout"/>
                  </use>
                  <path fill="none" stroke="white" stroke-width="1.5" d="M0,-3.0v7 M-2.5,-0.5L0,-3.0L2.5,-0.5"/>
                </g>
                <g id="arrowRight" xlink:href="#dirArrow" transform="rotate(90) translate(36 -43)" onmousedown="handlePan(1,0)">
                  <use xlink:href="#rim" fill="#404040">
                        <set attributeName="fill" to="#808080" begin="arrowRight.mouseover" end="arrowRight.mouseout"/>
                  </use>
                  <path fill="none" stroke="white" stroke-width="1.5" d="M0,-3.0v7 M-2.5,-0.5L0,-3.0L2.5,-0.5"/>
                </g>
                <g id="arrowDown" xlink:href="#dirArrow" transform="rotate(180) translate(-30 -48)" onmousedown="handlePan(0,1)">
                  <use xlink:href="#rim" fill="#404040">
                        <set attributeName="fill" to="#808080" begin="arrowDown.mouseover" end="arrowDown.mouseout"/>
                  </use>
                  <path fill="none" stroke="white" stroke-width="1.5" d="M0,-3.0v7 M-2.5,-0.5L0,-3.0L2.5,-0.5"/>
                </g>
                <g id="arrowLeft" xlink:href="#dirArrow" transform="rotate(270) translate(-36 17)" onmousedown="handlePan(-1,0)">
                  <use xlink:href="#rim" fill="#404040">
                        <set attributeName="fill" to="#808080" begin="arrowLeft.mouseover" end="arrowLeft.mouseout"/>
                  </use>
                  <path fill="none" stroke="white" stroke-width="1.5" d="M0,-3.0v7 M-2.5,-0.5L0,-3.0L2.5,-0.5"/>
                </g>
        </g>
        <svg viewBox="0 0 15 15" width="100%" height="30px" preserveAspectRatio="xMaxYMin meet">
         <g id="arrow_out" transform="scale(0.3 0.3)">
          <a xlink:href="grammar_8h__dep__incl_org.svg" target="_base">
           <rect id="button" ry="5" rx="5" y="6" x="6" height="38" width="38"
                fill="#f2f5e9" fill-opacity="0.5" stroke="#606060" stroke-width="1.0"/>
           <path id="arrow"
             d="M 11.500037,31.436501 C 11.940474,20.09759 22.043105,11.32322 32.158766,21.979434 L 37.068811,17.246167 C 37.068811,17.246167 37.088388,32 37.088388,32 L 22.160133,31.978069 C 22.160133,31.978069 26.997745,27.140456 26.997745,27.140456 C 18.528582,18.264221 13.291696,25.230495 11.500037,31.436501 z"
             style="fill:#404040;"/>
          </a>
         </g>
        </svg>
</svg>
