<?xml version="1.0" encoding="UTF-8" standalone="no"?>
<!DOCTYPE svg PUBLIC "-//W3C//DTD SVG 1.1//EN"
 "http://www.w3.org/Graphics/SVG/1.1/DTD/svg11.dtd">
<!-- Generated by graphviz version 2.38.0 (20140413.2041)
 -->
<!-- Title: Incorporating ligands binding to specific sequence/structure motifs using soft constraints Pages: 1 -->
<svg width="287pt" height="61pt"
 viewBox="0.00 0.00 287.00 61.00" xmlns="http://www.w3.org/2000/svg" xmlns:xlink="http://www.w3.org/1999/xlink">
<g id="graph0" class="graph" transform="scale(1 1) rotate(0) translate(4 57)">
<title>Incorporating ligands binding to specific sequence/structure motifs using soft constraints</title>
<!-- Node1 -->
<g id="node1" class="node"><title>Node1</title>
<g id="a_node1"><a xlink:href="group__ligand__binding.html" target="_top" xlink:title="Simple extensions to model ligand binding to RNA structures. ">
<polygon fill="none" stroke="black" points="0,-11.5 0,-41.5 103,-41.5 103,-11.5 0,-11.5"/>
<text text-anchor="start" x="8" y="-29.5" font-family="Helvetica,sans-Serif" font-size="10.00">Ligands binding to</text>
<text text-anchor="middle" x="51.5" y="-18.5" font-family="Helvetica,sans-Serif" font-size="10.00"> RNA structures</text>
</a>
</g>
</g>
<!-- Node0 -->
<g id="node2" class="node"><title>Node0</title>
<polygon fill="#bfbfbf" stroke="black" points="139,-0.5 139,-52.5 279,-52.5 279,-0.5 139,-0.5"/>
<text text-anchor="start" x="147" y="-40.5" font-family="Helvetica,sans-Serif" font-size="10.00">Incorporating ligands</text>
<text text-anchor="start" x="147" y="-29.5" font-family="Helvetica,sans-Serif" font-size="10.00"> binding to specific</text>
<text text-anchor="start" x="147" y="-18.5" font-family="Helvetica,sans-Serif" font-size="10.00"> sequence/structure motifs</text>
<text text-anchor="middle" x="209" y="-7.5" font-family="Helvetica,sans-Serif" font-size="10.00"> using soft constraints</text>
</g>
<!-- Node1&#45;&gt;Node0 -->
<g id="edge1" class="edge"><title>Node1&#45;&gt;Node0</title>
<path fill="none" stroke="black" d="M113.438,-26.5C121.787,-26.5 130.408,-26.5 138.89,-26.5"/>
<polygon fill="black" stroke="black" points="113.417,-23.0001 103.417,-26.5 113.416,-30.0001 113.417,-23.0001"/>
</g>
</g>
</svg>
