<?xml version="1.0" encoding="UTF-8" standalone="no"?>
<!DOCTYPE svg PUBLIC "-//W3C//DTD SVG 1.1//EN"
 "http://www.w3.org/Graphics/SVG/1.1/DTD/svg11.dtd">
<!-- Generated by graphviz version 2.38.0 (20140413.2041)
 -->
<!-- Title: Utilities Pages: 1 -->
<svg width="261pt" height="330pt"
 viewBox="0.00 0.00 261.00 329.50" xmlns="http://www.w3.org/2000/svg" xmlns:xlink="http://www.w3.org/1999/xlink">
<g id="graph0" class="graph" transform="scale(1 1) rotate(0) translate(4 325.5)">
<title>Utilities</title>
<!-- Node2 -->
<g id="node1" class="node"><title>Node2</title>
<g id="a_node1"><a xlink:href="group__struct__utils.html" target="_top" xlink:title="Parsing, converting,\l comparing secondary\l structures">
<polygon fill="none" stroke="black" points="108.5,-280 108.5,-321 230.5,-321 230.5,-280 108.5,-280"/>
<text text-anchor="start" x="116.5" y="-309" font-family="Helvetica,sans-Serif" font-size="10.00">Parsing, converting,</text>
<text text-anchor="start" x="116.5" y="-298" font-family="Helvetica,sans-Serif" font-size="10.00"> comparing secondary</text>
<text text-anchor="middle" x="169.5" y="-287" font-family="Helvetica,sans-Serif" font-size="10.00"> structures</text>
</a>
</g>
</g>
<!-- Node6 -->
<g id="node2" class="node"><title>Node6</title>
<g id="a_node2"><a xlink:href="group__units.html" target="_top" xlink:title="Functions to convert\l between various units">
<polygon fill="none" stroke="black" points="109,-230.5 109,-260.5 230,-260.5 230,-230.5 109,-230.5"/>
<text text-anchor="start" x="117" y="-248.5" font-family="Helvetica,sans-Serif" font-size="10.00">Functions to convert</text>
<text text-anchor="middle" x="169.5" y="-237.5" font-family="Helvetica,sans-Serif" font-size="10.00"> between various units</text>
</a>
</g>
</g>
<!-- Node1 -->
<g id="node3" class="node"><title>Node1</title>
<g id="a_node3"><a xlink:href="group__string__utils.html" target="_top" xlink:title="Parsing, converting,\l and comparing sequences">
<polygon fill="none" stroke="black" points="97.5,-181.5 97.5,-211.5 241.5,-211.5 241.5,-181.5 97.5,-181.5"/>
<text text-anchor="start" x="105.5" y="-199.5" font-family="Helvetica,sans-Serif" font-size="10.00">Parsing, converting,</text>
<text text-anchor="middle" x="169.5" y="-188.5" font-family="Helvetica,sans-Serif" font-size="10.00"> and comparing sequences</text>
</a>
</g>
</g>
<!-- Node5 -->
<g id="node4" class="node"><title>Node5</title>
<g id="a_node4"><a xlink:href="group__plotting__utils.html" target="_top" xlink:title="Functions for Creating\l RNA Secondary Structures\l Plots, Dot&#45;Plots, and More">
<polygon fill="none" stroke="black" points="96.5,-121 96.5,-162 242.5,-162 242.5,-121 96.5,-121"/>
<text text-anchor="start" x="104.5" y="-150" font-family="Helvetica,sans-Serif" font-size="10.00">Functions for Creating</text>
<text text-anchor="start" x="104.5" y="-139" font-family="Helvetica,sans-Serif" font-size="10.00"> RNA Secondary Structures</text>
<text text-anchor="middle" x="169.5" y="-128" font-family="Helvetica,sans-Serif" font-size="10.00"> Plots, Dot&#45;Plots, and More</text>
</a>
</g>
</g>
<!-- Node4 -->
<g id="node5" class="node"><title>Node4</title>
<g id="a_node5"><a xlink:href="group__file__utils.html" target="_top" xlink:title="Functions dealing with file formats for RNA sequences, structures, and alignments. ">
<polygon fill="none" stroke="black" points="86,-49.5 86,-101.5 253,-101.5 253,-49.5 86,-49.5"/>
<text text-anchor="start" x="94" y="-89.5" font-family="Helvetica,sans-Serif" font-size="10.00">Functions to Read/Write</text>
<text text-anchor="start" x="94" y="-78.5" font-family="Helvetica,sans-Serif" font-size="10.00"> several File Formats</text>
<text text-anchor="start" x="94" y="-67.5" font-family="Helvetica,sans-Serif" font-size="10.00"> for RNA Sequences, Structures,</text>
<text text-anchor="middle" x="169.5" y="-56.5" font-family="Helvetica,sans-Serif" font-size="10.00"> and Alignments</text>
</a>
</g>
</g>
<!-- Node0 -->
<g id="node6" class="node"><title>Node0</title>
<polygon fill="#bfbfbf" stroke="black" points="0,-159 0,-178 50,-178 50,-159 0,-159"/>
<text text-anchor="middle" x="25" y="-166" font-family="Helvetica,sans-Serif" font-size="10.00">Utilities</text>
</g>
<!-- Node0&#45;&gt;Node2 -->
<g id="edge2" class="edge"><title>Node0&#45;&gt;Node2</title>
<path fill="none" stroke="black" d="M32.6638,-187.71C41.4881,-210.483 59.1401,-248.154 86,-270.5 92.561,-275.958 100.199,-280.464 108.13,-284.173"/>
<polygon fill="black" stroke="black" points="35.8759,-186.304 29.134,-178.131 29.3077,-188.725 35.8759,-186.304"/>
</g>
<!-- Node0&#45;&gt;Node6 -->
<g id="edge6" class="edge"><title>Node0&#45;&gt;Node6</title>
<path fill="none" stroke="black" d="M41.3551,-185.566C52.6669,-197.197 68.9853,-212.132 86,-221.5 93.0561,-225.385 100.806,-228.699 108.644,-231.51"/>
<polygon fill="black" stroke="black" points="43.7786,-183.034 34.3766,-178.15 38.6807,-187.831 43.7786,-183.034"/>
</g>
<!-- Node0&#45;&gt;Node1 -->
<g id="edge1" class="edge"><title>Node0&#45;&gt;Node1</title>
<path fill="none" stroke="black" d="M60.0322,-175.187C71.3563,-177.412 84.4241,-179.98 97.4816,-182.546"/>
<polygon fill="black" stroke="black" points="60.6604,-171.744 50.1732,-173.25 59.3107,-178.612 60.6604,-171.744"/>
</g>
<!-- Node0&#45;&gt;Node5 -->
<g id="edge5" class="edge"><title>Node0&#45;&gt;Node5</title>
<path fill="none" stroke="black" d="M60.12,-162.035C71.0671,-159.961 83.637,-157.579 96.2487,-155.19"/>
<polygon fill="black" stroke="black" points="59.3468,-158.619 50.1732,-163.92 60.65,-165.497 59.3468,-158.619"/>
</g>
<!-- Node0&#45;&gt;Node4 -->
<g id="edge4" class="edge"><title>Node0&#45;&gt;Node4</title>
<path fill="none" stroke="black" d="M41.1336,-151.203C52.5423,-138.937 69.072,-122.727 86,-111.5 91.3396,-107.959 97.0849,-104.628 102.969,-101.532"/>
<polygon fill="black" stroke="black" points="38.2312,-149.194 34.1115,-158.955 43.4191,-153.893 38.2312,-149.194"/>
</g>
<!-- Node3 -->
<g id="node7" class="node"><title>Node3</title>
<g id="a_node7"><a xlink:href="group__aln__utils.html" target="_top" xlink:title="Utilities for sequence\l alignments">
<polygon fill="none" stroke="black" points="112,-0.5 112,-30.5 227,-30.5 227,-0.5 112,-0.5"/>
<text text-anchor="start" x="120" y="-18.5" font-family="Helvetica,sans-Serif" font-size="10.00">Utilities for sequence</text>
<text text-anchor="middle" x="169.5" y="-7.5" font-family="Helvetica,sans-Serif" font-size="10.00"> alignments</text>
</a>
</g>
</g>
<!-- Node0&#45;&gt;Node3 -->
<g id="edge3" class="edge"><title>Node0&#45;&gt;Node3</title>
<path fill="none" stroke="black" d="M29.8817,-149.042C36.4858,-120.999 52.5774,-69.4228 86,-40.5 93.4692,-34.0364 102.571,-29.2439 111.966,-25.6905"/>
<polygon fill="black" stroke="black" points="26.4524,-148.34 27.7349,-158.857 33.2908,-149.836 26.4524,-148.34"/>
</g>
</g>
</svg>
