<?xml version="1.0" encoding="UTF-8" standalone="no"?>
<!DOCTYPE svg PUBLIC "-//W3C//DTD SVG 1.1//EN"
 "http://www.w3.org/Graphics/SVG/1.1/DTD/svg11.dtd">
<!-- Generated by graphviz version 2.38.0 (20140413.2041)
 -->
<!-- Title: Partition Function for two hybridized Sequences Pages: 1 -->
<svg width="579pt" height="54pt"
 viewBox="0.00 0.00 579.00 54.22" xmlns="http://www.w3.org/2000/svg" xmlns:xlink="http://www.w3.org/1999/xlink">
<g id="graph0" class="graph" transform="scale(1 1) rotate(0) translate(4 50.2241)">
<title>Partition Function for two hybridized Sequences</title>
<!-- Node2 -->
<g id="node1" class="node"><title>Node2</title>
<g id="a_node1"><a xlink:href="group__pf__fold.html" target="_top" xlink:title="Compuate the partition function and various equilibrium properties derived from it. ">
<polygon fill="none" stroke="black" points="0,-9.22408 0,-39.2241 140,-39.2241 140,-9.22408 0,-9.22408"/>
<text text-anchor="start" x="8" y="-27.2241" font-family="Helvetica,sans-Serif" font-size="10.00">Partition function</text>
<text text-anchor="middle" x="70" y="-16.2241" font-family="Helvetica,sans-Serif" font-size="10.00"> and equilibrium properties</text>
</a>
</g>
</g>
<!-- Node0 -->
<g id="node3" class="node"><title>Node0</title>
<polygon fill="#bfbfbf" stroke="black" points="246,-3.72408 246,-44.7241 349,-44.7241 349,-3.72408 246,-3.72408"/>
<text text-anchor="start" x="254" y="-32.7241" font-family="Helvetica,sans-Serif" font-size="10.00">Partition Function</text>
<text text-anchor="start" x="254" y="-21.7241" font-family="Helvetica,sans-Serif" font-size="10.00"> for two hybridized</text>
<text text-anchor="middle" x="297.5" y="-10.7241" font-family="Helvetica,sans-Serif" font-size="10.00"> Sequences</text>
</g>
<!-- Node2&#45;&gt;Node0 -->
<g id="edge2" class="edge"><title>Node2&#45;&gt;Node0</title>
<path fill="none" stroke="black" d="M150.352,-28.9742C152.931,-29.068 155.486,-29.1519 158,-29.2241 189.098,-30.117 196.91,-30.3573 228,-29.2241 233.72,-29.0156 239.703,-28.7095 245.649,-28.3498"/>
<polygon fill="black" stroke="black" points="150.45,-25.4754 140.317,-28.5673 150.166,-32.4697 150.45,-25.4754"/>
</g>
<!-- Node1 -->
<g id="node2" class="node"><title>Node1</title>
<g id="a_node2"><a xlink:href="group__cofold.html" target="_top" xlink:title="Predict structures formed by two molecules upon hybridization. ">
<polygon fill="none" stroke="black" points="455,-14.7241 455,-33.7241 571,-33.7241 571,-14.7241 455,-14.7241"/>
<text text-anchor="middle" x="513" y="-21.7241" font-family="Helvetica,sans-Serif" font-size="10.00">RNA&#45;RNA interaction</text>
</a>
</g>
</g>
<!-- Node1&#45;&gt;Node0 -->
<g id="edge1" class="edge"><title>Node1&#45;&gt;Node0</title>
<path fill="none" stroke="black" d="M444.641,-22.3421C442.061,-22.2972 439.507,-22.2575 437,-22.2241 405.892,-21.8094 398.108,-21.7701 367,-22.2241 361.29,-22.3074 355.313,-22.4298 349.37,-22.5737"/>
<polygon fill="black" stroke="black" points="444.609,-25.842 454.675,-22.5382 444.746,-18.8433 444.609,-25.842"/>
</g>
<!-- Node0&#45;&gt;Node2 -->
<g id="edge3" class="edge"><title>Node0&#45;&gt;Node2</title>
<path fill="none" stroke="darkgreen" stroke-dasharray="5,2" d="M245.64,-6.81998C239.749,-5.34649 233.782,-4.09042 228,-3.22408 197.232,1.38623 188.893,0.451626 158,-3.22408 147.045,-4.52748 135.475,-6.72321 124.473,-9.21605"/>
<text text-anchor="middle" x="193" y="-17.2241" font-family="Helvetica,sans-Serif" font-size="10.00">part_func_co.h</text>
<text text-anchor="middle" x="193" y="-6.22408" font-family="Helvetica,sans-Serif" font-size="10.00">part_func_up.h</text>
</g>
<!-- Node0&#45;&gt;Node1 -->
<g id="edge4" class="edge"><title>Node0&#45;&gt;Node1</title>
<path fill="none" stroke="darkgreen" stroke-dasharray="5,2" d="M349.097,-24.2241C380.911,-24.2241 422.027,-24.2241 454.992,-24.2241"/>
<text text-anchor="middle" x="402" y="-38.2241" font-family="Helvetica,sans-Serif" font-size="10.00">part_func_co.h</text>
<text text-anchor="middle" x="402" y="-27.2241" font-family="Helvetica,sans-Serif" font-size="10.00">part_func_up.h</text>
</g>
</g>
</svg>
