<?xml version="1.0" encoding="UTF-8" standalone="no"?>
<!DOCTYPE svg PUBLIC "-//W3C//DTD SVG 1.1//EN"
 "http://www.w3.org/Graphics/SVG/1.1/DTD/svg11.dtd">
<!-- Generated by graphviz version 2.38.0 (20140413.2041)
 -->
<!-- Title: Locally stable structures Pages: 1 -->
<svg width="305pt" height="160pt"
 viewBox="0.00 0.00 305.00 159.50" xmlns="http://www.w3.org/2000/svg" xmlns:xlink="http://www.w3.org/1999/xlink">
<g id="graph0" class="graph" transform="scale(1 1) rotate(0) translate(4 155.5)">
<title>Locally stable structures</title>
<!-- Node1 -->
<g id="node1" class="node"><title>Node1</title>
<g id="a_node1"><a xlink:href="group__local__mfe__fold.html" target="_top" xlink:title="Local MFE structure\l Prediction and Z&#45;scores">
<polygon fill="none" stroke="black" points="165,-121 165,-151 297,-151 297,-121 165,-121"/>
<text text-anchor="start" x="173" y="-139" font-family="Helvetica,sans-Serif" font-size="10.00">Local MFE structure</text>
<text text-anchor="middle" x="231" y="-128" font-family="Helvetica,sans-Serif" font-size="10.00"> Prediction and Z&#45;scores</text>
</a>
</g>
</g>
<!-- Node0 -->
<g id="node2" class="node"><title>Node0</title>
<polygon fill="#bfbfbf" stroke="black" points="0,-71.5 0,-90.5 129,-90.5 129,-71.5 0,-71.5"/>
<text text-anchor="middle" x="64.5" y="-78.5" font-family="Helvetica,sans-Serif" font-size="10.00">Locally stable structures</text>
</g>
<!-- Node0&#45;&gt;Node1 -->
<g id="edge1" class="edge"><title>Node0&#45;&gt;Node1</title>
<path fill="none" stroke="black" d="M103.731,-93.7825C127.984,-101.891 159.475,-112.42 184.941,-120.935"/>
<polygon fill="black" stroke="black" points="104.748,-90.4319 94.1537,-90.5803 102.528,-97.0706 104.748,-90.4319"/>
</g>
<!-- Node3 -->
<g id="node3" class="node"><title>Node3</title>
<g id="a_node3"><a xlink:href="group__local__consensus__fold.html" target="_top" xlink:title="Local MFE consensus\l structures for Sequence\l Alignments">
<polygon fill="none" stroke="black" points="165.5,-60.5 165.5,-101.5 296.5,-101.5 296.5,-60.5 165.5,-60.5"/>
<text text-anchor="start" x="173.5" y="-89.5" font-family="Helvetica,sans-Serif" font-size="10.00">Local MFE consensus</text>
<text text-anchor="start" x="173.5" y="-78.5" font-family="Helvetica,sans-Serif" font-size="10.00"> structures for Sequence</text>
<text text-anchor="middle" x="231" y="-67.5" font-family="Helvetica,sans-Serif" font-size="10.00"> Alignments</text>
</a>
</g>
</g>
<!-- Node0&#45;&gt;Node3 -->
<g id="edge3" class="edge"><title>Node0&#45;&gt;Node3</title>
<path fill="none" stroke="black" d="M139.277,-81C148.017,-81 156.886,-81 165.483,-81"/>
<polygon fill="black" stroke="black" points="139.1,-77.5001 129.1,-81 139.1,-84.5001 139.1,-77.5001"/>
</g>
<!-- Node2 -->
<g id="node4" class="node"><title>Node2</title>
<g id="a_node4"><a xlink:href="group__local__pf__fold.html" target="_top" xlink:title="Partition functions\l for locally stable\l secondary structures">
<polygon fill="none" stroke="black" points="172,-0.5 172,-41.5 290,-41.5 290,-0.5 172,-0.5"/>
<text text-anchor="start" x="180" y="-29.5" font-family="Helvetica,sans-Serif" font-size="10.00">Partition functions</text>
<text text-anchor="start" x="180" y="-18.5" font-family="Helvetica,sans-Serif" font-size="10.00"> for locally stable</text>
<text text-anchor="middle" x="231" y="-7.5" font-family="Helvetica,sans-Serif" font-size="10.00"> secondary structures</text>
</a>
</g>
</g>
<!-- Node0&#45;&gt;Node2 -->
<g id="edge2" class="edge"><title>Node0&#45;&gt;Node2</title>
<path fill="none" stroke="black" d="M101.134,-68.0028C122.329,-60.272 149.69,-50.2922 173.745,-41.5184"/>
<polygon fill="black" stroke="black" points="99.7608,-64.778 91.5655,-71.4928 102.159,-71.3543 99.7608,-64.778"/>
</g>
</g>
</svg>
