<?xml version="1.0" encoding="UTF-8" standalone="no"?>
<!DOCTYPE svg PUBLIC "-//W3C//DTD SVG 1.1//EN"
 "http://www.w3.org/Graphics/SVG/1.1/DTD/svg11.dtd">
<!-- Generated by graphviz version 2.38.0 (20140413.2041)
 -->
<!-- Title: Structure sampling from the ensemble Pages: 1 -->
<svg width="505pt" height="110pt"
 viewBox="0.00 0.00 505.00 110.00" xmlns="http://www.w3.org/2000/svg" xmlns:xlink="http://www.w3.org/1999/xlink">
<g id="graph0" class="graph" transform="scale(1 1) rotate(0) translate(4 106)">
<title>Structure sampling from the ensemble</title>
<!-- Node3 -->
<g id="node1" class="node"><title>Node3</title>
<g id="a_node1"><a xlink:href="group__kl__neighborhood__stochbt.html" target="_top" xlink:title="Contains functions related to stochastic backtracking from a specified distance class. ">
<polygon fill="none" stroke="black" points="347,-60.5 347,-101.5 494,-101.5 494,-60.5 347,-60.5"/>
<text text-anchor="start" x="355" y="-89.5" font-family="Helvetica,sans-Serif" font-size="10.00">Stochastic Backtracking</text>
<text text-anchor="start" x="355" y="-78.5" font-family="Helvetica,sans-Serif" font-size="10.00"> of Structures from Distance</text>
<text text-anchor="middle" x="420.5" y="-67.5" font-family="Helvetica,sans-Serif" font-size="10.00"> Based Partitioning</text>
</a>
</g>
</g>
<!-- Node0 -->
<g id="node2" class="node"><title>Node0</title>
<polygon fill="#bfbfbf" stroke="black" points="201,-36 201,-66 308,-66 308,-36 201,-36"/>
<text text-anchor="start" x="209" y="-54" font-family="Helvetica,sans-Serif" font-size="10.00">Structure sampling</text>
<text text-anchor="middle" x="254.5" y="-43" font-family="Helvetica,sans-Serif" font-size="10.00"> from the ensemble</text>
</g>
<!-- Node0&#45;&gt;Node3 -->
<g id="edge3" class="edge"><title>Node0&#45;&gt;Node3</title>
<path fill="none" stroke="black" d="M318.256,-62.4797C327.587,-64.1867 337.271,-65.9581 346.786,-67.6986"/>
<polygon fill="black" stroke="black" points="318.76,-59.0139 308.293,-60.6573 317.5,-65.8997 318.76,-59.0139"/>
</g>
<!-- Node2 -->
<g id="node3" class="node"><title>Node2</title>
<g id="a_node3"><a xlink:href="group__consensus__stochbt.html" target="_top" xlink:title="Stochastic Backtracking\l of Consensus Structures\l from Sequence Alignment(s)">
<polygon fill="none" stroke="black" points="344,-0.5 344,-41.5 497,-41.5 497,-0.5 344,-0.5"/>
<text text-anchor="start" x="352" y="-29.5" font-family="Helvetica,sans-Serif" font-size="10.00">Stochastic Backtracking</text>
<text text-anchor="start" x="352" y="-18.5" font-family="Helvetica,sans-Serif" font-size="10.00"> of Consensus Structures</text>
<text text-anchor="middle" x="420.5" y="-7.5" font-family="Helvetica,sans-Serif" font-size="10.00"> from Sequence Alignment(s)</text>
</a>
</g>
</g>
<!-- Node0&#45;&gt;Node2 -->
<g id="edge2" class="edge"><title>Node0&#45;&gt;Node2</title>
<path fill="none" stroke="black" d="M318.308,-39.5107C326.653,-37.9842 335.279,-36.4062 343.814,-34.845"/>
<polygon fill="black" stroke="black" points="317.5,-36.1003 308.293,-41.3427 318.76,-42.9861 317.5,-36.1003"/>
</g>
<!-- Node1 -->
<g id="node4" class="node"><title>Node1</title>
<g id="a_node4"><a xlink:href="group__subopt__and__representatives.html" target="_top" xlink:title="Sample and enumerate suboptimal secondary structures from RNA sequence data. ">
<polygon fill="none" stroke="black" points="0,-36 0,-66 165,-66 165,-36 0,-36"/>
<text text-anchor="start" x="8" y="-54" font-family="Helvetica,sans-Serif" font-size="10.00">Suboptimals and representative</text>
<text text-anchor="middle" x="82.5" y="-43" font-family="Helvetica,sans-Serif" font-size="10.00"> structures</text>
</a>
</g>
</g>
<!-- Node1&#45;&gt;Node0 -->
<g id="edge1" class="edge"><title>Node1&#45;&gt;Node0</title>
<path fill="none" stroke="black" d="M175.225,-51C183.904,-51 192.489,-51 200.616,-51"/>
<polygon fill="black" stroke="black" points="175.015,-47.5001 165.015,-51 175.015,-54.5001 175.015,-47.5001"/>
</g>
</g>
</svg>
