<?xml version="1.0" encoding="UTF-8" standalone="no"?>
<!DOCTYPE svg PUBLIC "-//W3C//DTD SVG 1.1//EN"
 "http://www.w3.org/Graphics/SVG/1.1/DTD/svg11.dtd">
<!-- Generated by graphviz version 2.38.0 (20140413.2041)
 -->
<!-- Title: Minimum Free Energy (MFE) algorithms Pages: 1 -->
<svg width="334pt" height="235pt"
 viewBox="0.00 0.00 334.00 235.00" xmlns="http://www.w3.org/2000/svg" xmlns:xlink="http://www.w3.org/1999/xlink">
<g id="graph0" class="graph" transform="scale(1 1) rotate(0) translate(4 231)">
<title>Minimum Free Energy (MFE) algorithms</title>
<!-- Node5 -->
<g id="node1" class="node"><title>Node5</title>
<g id="a_node1"><a xlink:href="group__local__mfe__fold.html" target="_top" xlink:title="Local MFE structure\l Prediction and Z&#45;scores">
<polygon fill="none" stroke="black" points="174.5,-196.5 174.5,-226.5 306.5,-226.5 306.5,-196.5 174.5,-196.5"/>
<text text-anchor="start" x="182.5" y="-214.5" font-family="Helvetica,sans-Serif" font-size="10.00">Local MFE structure</text>
<text text-anchor="middle" x="240.5" y="-203.5" font-family="Helvetica,sans-Serif" font-size="10.00"> Prediction and Z&#45;scores</text>
</a>
</g>
</g>
<!-- Node2 -->
<g id="node2" class="node"><title>Node2</title>
<g id="a_node2"><a xlink:href="group__kl__neighborhood__mfe.html" target="_top" xlink:title="Compute the minimum free energy (MFE) and secondary structures for a partitioning of the secondary st...">
<polygon fill="none" stroke="black" points="155,-147.5 155,-177.5 326,-177.5 326,-147.5 155,-147.5"/>
<text text-anchor="start" x="163" y="-165.5" font-family="Helvetica,sans-Serif" font-size="10.00">Calculating MFE representatives</text>
<text text-anchor="middle" x="240.5" y="-154.5" font-family="Helvetica,sans-Serif" font-size="10.00"> of a Distance Based Partitioning</text>
</a>
</g>
</g>
<!-- Node0 -->
<g id="node3" class="node"><title>Node0</title>
<polygon fill="#bfbfbf" stroke="black" points="0,-98.5 0,-128.5 119,-128.5 119,-98.5 0,-98.5"/>
<text text-anchor="start" x="8" y="-116.5" font-family="Helvetica,sans-Serif" font-size="10.00">Minimum Free Energy</text>
<text text-anchor="middle" x="59.5" y="-105.5" font-family="Helvetica,sans-Serif" font-size="10.00"> (MFE) algorithms</text>
</g>
<!-- Node0&#45;&gt;Node5 -->
<g id="edge5" class="edge"><title>Node0&#45;&gt;Node5</title>
<path fill="none" stroke="black" d="M83.5966,-135.803C101.715,-152.197 128.263,-173.901 155,-187.5 161.661,-190.888 168.867,-193.858 176.167,-196.446"/>
<polygon fill="black" stroke="black" points="85.6168,-132.905 75.8951,-128.693 80.8683,-138.048 85.6168,-132.905"/>
</g>
<!-- Node0&#45;&gt;Node2 -->
<g id="edge2" class="edge"><title>Node0&#45;&gt;Node2</title>
<path fill="none" stroke="black" d="M125.336,-131.248C144.736,-136.559 165.813,-142.329 184.516,-147.448"/>
<polygon fill="black" stroke="black" points="126.236,-127.866 115.666,-128.601 124.388,-134.618 126.236,-127.866"/>
</g>
<!-- Node4 -->
<g id="node4" class="node"><title>Node4</title>
<g id="a_node4"><a xlink:href="group__mfe__cofold.html" target="_top" xlink:title="MFE version of cofolding routines This file includes (almost) all function declarations within the RN...">
<polygon fill="none" stroke="black" points="179,-98.5 179,-128.5 302,-128.5 302,-98.5 179,-98.5"/>
<text text-anchor="start" x="187" y="-116.5" font-family="Helvetica,sans-Serif" font-size="10.00">MFE Structures of two</text>
<text text-anchor="middle" x="240.5" y="-105.5" font-family="Helvetica,sans-Serif" font-size="10.00"> hybridized Sequences</text>
</a>
</g>
</g>
<!-- Node0&#45;&gt;Node4 -->
<g id="edge4" class="edge"><title>Node0&#45;&gt;Node4</title>
<path fill="none" stroke="black" d="M129.165,-113.5C145.55,-113.5 162.922,-113.5 178.914,-113.5"/>
<polygon fill="black" stroke="black" points="129.111,-110 119.111,-113.5 129.111,-117 129.111,-110"/>
</g>
<!-- Node3 -->
<g id="node5" class="node"><title>Node3</title>
<g id="a_node5"><a xlink:href="group__mfe__fold__single.html" target="_top" xlink:title="This module contains all functions and variables related to the calculation of global minimum free en...">
<polygon fill="none" stroke="black" points="174.5,-49.5 174.5,-79.5 306.5,-79.5 306.5,-49.5 174.5,-49.5"/>
<text text-anchor="start" x="182.5" y="-67.5" font-family="Helvetica,sans-Serif" font-size="10.00">MFE Structures of single</text>
<text text-anchor="middle" x="240.5" y="-56.5" font-family="Helvetica,sans-Serif" font-size="10.00"> Nucleic Acid Sequences</text>
</a>
</g>
</g>
<!-- Node0&#45;&gt;Node3 -->
<g id="edge3" class="edge"><title>Node0&#45;&gt;Node3</title>
<path fill="none" stroke="black" d="M125.336,-95.7515C144.736,-90.4409 165.813,-84.6712 184.516,-79.5516"/>
<polygon fill="black" stroke="black" points="124.388,-92.3824 115.666,-98.3986 126.236,-99.134 124.388,-92.3824"/>
</g>
<!-- Node1 -->
<g id="node6" class="node"><title>Node1</title>
<g id="a_node6"><a xlink:href="group__consensus__mfe__fold.html" target="_top" xlink:title="MFE Consensus Structures\l for Sequence Alignment(s)">
<polygon fill="none" stroke="black" points="168,-0.5 168,-30.5 313,-30.5 313,-0.5 168,-0.5"/>
<text text-anchor="start" x="176" y="-18.5" font-family="Helvetica,sans-Serif" font-size="10.00">MFE Consensus Structures</text>
<text text-anchor="middle" x="240.5" y="-7.5" font-family="Helvetica,sans-Serif" font-size="10.00"> for Sequence Alignment(s)</text>
</a>
</g>
</g>
<!-- Node0&#45;&gt;Node1 -->
<g id="edge1" class="edge"><title>Node0&#45;&gt;Node1</title>
<path fill="none" stroke="black" d="M84.0213,-91.3051C102.18,-75.2191 128.589,-54.0054 155,-40.5 162.355,-36.7387 170.368,-33.4519 178.432,-30.6067"/>
<polygon fill="black" stroke="black" points="81.3638,-88.989 76.2884,-98.289 86.0556,-94.1839 81.3638,-88.989"/>
</g>
</g>
</svg>
