<?xml version="1.0" encoding="UTF-8" standalone="no"?>
<!DOCTYPE svg PUBLIC "-//W3C//DTD SVG 1.1//EN"
 "http://www.w3.org/Graphics/SVG/1.1/DTD/svg11.dtd">
<!-- Generated by graphviz version 2.38.0 (20140413.2041)
 -->
<!-- Title: ViennaRNA/LPfold.h Pages: 1 -->
<svg width="1173pt" height="274pt"
 viewBox="0.00 0.00 1172.50 274.00" xmlns="http://www.w3.org/2000/svg" xmlns:xlink="http://www.w3.org/1999/xlink">
<g id="graph0" class="graph" transform="scale(1 1) rotate(0) translate(4 270)">
<title>ViennaRNA/LPfold.h</title>
<!-- Node0 -->
<g id="node1" class="node"><title>Node0</title>
<polygon fill="#bfbfbf" stroke="black" points="299,-246.5 299,-265.5 412,-265.5 412,-246.5 299,-246.5"/>
<text text-anchor="middle" x="355.5" y="-253.5" font-family="Helvetica,sans-Serif" font-size="10.00">ViennaRNA/LPfold.h</text>
</g>
<!-- Node1 -->
<g id="node2" class="node"><title>Node1</title>
<g id="a_node2"><a xlink:href="data__structures_8h.html" target="_top" xlink:title="Various data structures and pre&#45;processor macros. ">
<polygon fill="none" stroke="black" points="404,-190.5 404,-209.5 559,-209.5 559,-190.5 404,-190.5"/>
<text text-anchor="middle" x="481.5" y="-197.5" font-family="Helvetica,sans-Serif" font-size="10.00">ViennaRNA/data_structures.h</text>
</a>
</g>
</g>
<!-- Node0&#45;&gt;Node1 -->
<g id="edge1" class="edge"><title>Node0&#45;&gt;Node1</title>
<path fill="none" stroke="midnightblue" d="M375.465,-246.444C396.109,-237.596 428.563,-223.687 452.132,-213.586"/>
<polygon fill="midnightblue" stroke="midnightblue" points="453.816,-216.673 461.628,-209.516 451.058,-210.239 453.816,-216.673"/>
</g>
<!-- Node5 -->
<g id="node6" class="node"><title>Node5</title>
<g id="a_node6"><a xlink:href="params_8h.html" target="_top" xlink:title="Functions to deal with sets of energy parameters. ">
<polygon fill="none" stroke="black" points="25.5,-129 25.5,-148 143.5,-148 143.5,-129 25.5,-129"/>
<text text-anchor="middle" x="84.5" y="-136" font-family="Helvetica,sans-Serif" font-size="10.00">ViennaRNA/params.h</text>
</a>
</g>
</g>
<!-- Node0&#45;&gt;Node5 -->
<g id="edge28" class="edge"><title>Node0&#45;&gt;Node5</title>
<path fill="none" stroke="midnightblue" d="M335.131,-246.319C287.637,-226.077 169.394,-175.682 114.004,-152.075"/>
<polygon fill="midnightblue" stroke="midnightblue" points="115.307,-148.825 104.736,-148.124 112.563,-155.265 115.307,-148.825"/>
</g>
<!-- Node2 -->
<g id="node3" class="node"><title>Node2</title>
<g id="a_node3"><a xlink:href="energy__const_8h.html" target="_top" xlink:title="Energy parameter constants. ">
<polygon fill="none" stroke="black" points="0,-62 0,-81 147,-81 147,-62 0,-62"/>
<text text-anchor="middle" x="73.5" y="-69" font-family="Helvetica,sans-Serif" font-size="10.00">ViennaRNA/energy_const.h</text>
</a>
</g>
</g>
<!-- Node1&#45;&gt;Node2 -->
<g id="edge2" class="edge"><title>Node1&#45;&gt;Node2</title>
<path fill="none" stroke="midnightblue" d="M403.949,-193.55C349.158,-187.906 274.705,-176.568 212.5,-154 188.463,-145.279 127.872,-107.452 95.1927,-86.5366"/>
<polygon fill="midnightblue" stroke="midnightblue" points="97.0741,-83.5852 86.7691,-81.1239 93.29,-89.4743 97.0741,-83.5852"/>
</g>
<!-- Node4 -->
<g id="node5" class="node"><title>Node4</title>
<g id="a_node5"><a xlink:href="model_8h.html" target="_top" xlink:title="The model details data structure and its corresponding modifiers. ">
<polygon fill="none" stroke="black" points="165,-62 165,-81 276,-81 276,-62 165,-62"/>
<text text-anchor="middle" x="220.5" y="-69" font-family="Helvetica,sans-Serif" font-size="10.00">ViennaRNA/model.h</text>
</a>
</g>
</g>
<!-- Node1&#45;&gt;Node4 -->
<g id="edge4" class="edge"><title>Node1&#45;&gt;Node4</title>
<path fill="none" stroke="midnightblue" d="M403.801,-195.249C338.359,-190.346 251.785,-179.18 228.5,-154 213.072,-137.317 213.79,-109.697 216.507,-91.3005"/>
<polygon fill="midnightblue" stroke="midnightblue" points="219.995,-91.6811 218.33,-81.2178 213.107,-90.4354 219.995,-91.6811"/>
</g>
<!-- Node1&#45;&gt;Node5 -->
<g id="edge5" class="edge"><title>Node1&#45;&gt;Node5</title>
<path fill="none" stroke="midnightblue" d="M404.509,-190.468C336.739,-182.175 235.719,-168.706 148.5,-154 141.399,-152.803 133.929,-151.439 126.682,-150.039"/>
<polygon fill="midnightblue" stroke="midnightblue" points="127.134,-146.561 116.644,-148.048 125.773,-153.427 127.134,-146.561"/>
</g>
<!-- Node6 -->
<g id="node7" class="node"><title>Node6</title>
<g id="a_node7"><a xlink:href="dp__matrices_8h.html" target="_top" xlink:title="Functions to deal with standard dynamic programming (DP) matrices. ">
<polygon fill="none" stroke="black" points="237.5,-129 237.5,-148 377.5,-148 377.5,-129 237.5,-129"/>
<text text-anchor="middle" x="307.5" y="-136" font-family="Helvetica,sans-Serif" font-size="10.00">ViennaRNA/dp_matrices.h</text>
</a>
</g>
</g>
<!-- Node1&#45;&gt;Node6 -->
<g id="edge9" class="edge"><title>Node1&#45;&gt;Node6</title>
<path fill="none" stroke="midnightblue" d="M451.669,-190.475C419.596,-180.269 369.195,-163.108 337.186,-151.549"/>
<polygon fill="midnightblue" stroke="midnightblue" points="338.08,-148.15 327.487,-148.009 335.68,-154.726 338.08,-148.15"/>
</g>
<!-- Node7 -->
<g id="node8" class="node"><title>Node7</title>
<g id="a_node8"><a xlink:href="constraints_8h.html" target="_top" xlink:title="Functions and data structures for constraining secondary structure predictions and evaluation...">
<polygon fill="none" stroke="black" points="509.5,-129 509.5,-148 643.5,-148 643.5,-129 509.5,-129"/>
<text text-anchor="middle" x="576.5" y="-136" font-family="Helvetica,sans-Serif" font-size="10.00">ViennaRNA/constraints.h</text>
</a>
</g>
</g>
<!-- Node1&#45;&gt;Node7 -->
<g id="edge11" class="edge"><title>Node1&#45;&gt;Node7</title>
<path fill="none" stroke="midnightblue" d="M490.211,-190.475C503.671,-180.711 529.135,-164.581 549.045,-153.081"/>
<polygon fill="midnightblue" stroke="midnightblue" points="551.034,-155.977 558.017,-148.009 547.589,-149.883 551.034,-155.977"/>
</g>
<!-- Node13 -->
<g id="node14" class="node"><title>Node13</title>
<g id="a_node14"><a xlink:href="grammar_8h.html" target="_top" xlink:title="Implementations for the RNA folding grammar. ">
<polygon fill="none" stroke="black" points="662,-129 662,-148 787,-148 787,-129 662,-129"/>
<text text-anchor="middle" x="724.5" y="-136" font-family="Helvetica,sans-Serif" font-size="10.00">ViennaRNA/grammar.h</text>
</a>
</g>
</g>
<!-- Node1&#45;&gt;Node13 -->
<g id="edge23" class="edge"><title>Node1&#45;&gt;Node13</title>
<path fill="none" stroke="midnightblue" d="M511.415,-190.475C552.324,-179.893 625.924,-161.836 675.063,-150.297"/>
<polygon fill="midnightblue" stroke="midnightblue" points="675.91,-153.693 684.851,-148.009 674.317,-146.876 675.91,-153.693"/>
</g>
<!-- Node14 -->
<g id="node15" class="node"><title>Node14</title>
<g id="a_node15"><a xlink:href="structured__domains_8h.html" target="_top" xlink:title="This module provides interfaces that deal with additional structured domains in the folding grammar...">
<polygon fill="none" stroke="black" points="805,-123.5 805,-153.5 926,-153.5 926,-123.5 805,-123.5"/>
<text text-anchor="start" x="813" y="-141.5" font-family="Helvetica,sans-Serif" font-size="10.00">ViennaRNA/structured</text>
<text text-anchor="middle" x="865.5" y="-130.5" font-family="Helvetica,sans-Serif" font-size="10.00">_domains.h</text>
</a>
</g>
</g>
<!-- Node1&#45;&gt;Node14 -->
<g id="edge25" class="edge"><title>Node1&#45;&gt;Node14</title>
<path fill="none" stroke="midnightblue" d="M549.682,-190.467C611.176,-182.488 704.318,-169.704 794.943,-154.03"/>
<polygon fill="midnightblue" stroke="midnightblue" points="795.587,-157.471 804.838,-152.305 794.385,-150.575 795.587,-157.471"/>
</g>
<!-- Node15 -->
<g id="node16" class="node"><title>Node15</title>
<g id="a_node16"><a xlink:href="unstructured__domains_8h.html" target="_top" xlink:title="Functions to modify unstructured domains, e.g. to incorporate ligands binding to unpaired stretches...">
<polygon fill="none" stroke="black" points="944.5,-123.5 944.5,-153.5 1076.5,-153.5 1076.5,-123.5 944.5,-123.5"/>
<text text-anchor="start" x="952.5" y="-141.5" font-family="Helvetica,sans-Serif" font-size="10.00">ViennaRNA/unstructured</text>
<text text-anchor="middle" x="1010.5" y="-130.5" font-family="Helvetica,sans-Serif" font-size="10.00">_domains.h</text>
</a>
</g>
</g>
<!-- Node1&#45;&gt;Node15 -->
<g id="edge26" class="edge"><title>Node1&#45;&gt;Node15</title>
<path fill="none" stroke="midnightblue" d="M559.036,-192.904C647.846,-185.775 797.419,-172.542 925.5,-154 928.366,-153.585 931.289,-153.137 934.244,-152.665"/>
<polygon fill="midnightblue" stroke="midnightblue" points="935.088,-156.072 944.377,-150.977 933.938,-149.168 935.088,-156.072"/>
</g>
<!-- Node3 -->
<g id="node4" class="node"><title>Node3</title>
<polygon fill="none" stroke="#bfbfbf" points="49.5,-0.5 49.5,-19.5 97.5,-19.5 97.5,-0.5 49.5,-0.5"/>
<text text-anchor="middle" x="73.5" y="-7.5" font-family="Helvetica,sans-Serif" font-size="10.00">limits.h</text>
</g>
<!-- Node2&#45;&gt;Node3 -->
<g id="edge3" class="edge"><title>Node2&#45;&gt;Node3</title>
<path fill="none" stroke="midnightblue" d="M73.5,-61.9751C73.5,-53.5803 73.5,-40.4806 73.5,-29.6631"/>
<polygon fill="midnightblue" stroke="midnightblue" points="77.0001,-29.5091 73.5,-19.5091 70.0001,-29.5091 77.0001,-29.5091"/>
</g>
<!-- Node5&#45;&gt;Node1 -->
<g id="edge7" class="edge"><title>Node5&#45;&gt;Node1</title>
<path fill="none" stroke="midnightblue" d="M134.053,-148.048C144.808,-150.118 156.052,-152.238 166.5,-154 249.29,-167.96 344.514,-180.804 408.466,-189.165"/>
<polygon fill="midnightblue" stroke="midnightblue" points="408.086,-192.645 418.455,-190.468 408.992,-185.704 408.086,-192.645"/>
</g>
<!-- Node5&#45;&gt;Node2 -->
<g id="edge6" class="edge"><title>Node5&#45;&gt;Node2</title>
<path fill="none" stroke="midnightblue" d="M83.0165,-128.734C81.4001,-119.183 78.7662,-103.618 76.6786,-91.2829"/>
<polygon fill="midnightblue" stroke="midnightblue" points="80.0796,-90.4031 74.96,-81.1273 73.1777,-91.5711 80.0796,-90.4031"/>
</g>
<!-- Node5&#45;&gt;Node4 -->
<g id="edge8" class="edge"><title>Node5&#45;&gt;Node4</title>
<path fill="none" stroke="midnightblue" d="M102.56,-128.869C125.727,-117.796 166.129,-98.4862 193.095,-85.5978"/>
<polygon fill="midnightblue" stroke="midnightblue" points="194.852,-88.6373 202.366,-81.1672 191.834,-82.3216 194.852,-88.6373"/>
</g>
<!-- Node6&#45;&gt;Node1 -->
<g id="edge10" class="edge"><title>Node6&#45;&gt;Node1</title>
<path fill="none" stroke="midnightblue" d="M337.281,-148.009C369.335,-158.208 419.736,-175.368 451.764,-186.933"/>
<polygon fill="midnightblue" stroke="midnightblue" points="450.877,-190.335 461.471,-190.475 453.276,-183.759 450.877,-190.335"/>
</g>
<!-- Node7&#45;&gt;Node1 -->
<g id="edge12" class="edge"><title>Node7&#45;&gt;Node1</title>
<path fill="none" stroke="midnightblue" d="M567.811,-148.009C554.363,-157.767 528.904,-173.896 508.987,-185.401"/>
<polygon fill="midnightblue" stroke="midnightblue" points="506.994,-182.507 500.012,-190.475 510.439,-188.6 506.994,-182.507"/>
</g>
<!-- Node8 -->
<g id="node9" class="node"><title>Node8</title>
<g id="a_node9"><a xlink:href="constraints__hard_8h.html" target="_top" xlink:title="Functions and data structures for handling of secondary structure hard constraints. ">
<polygon fill="none" stroke="black" points="312.5,-56.5 312.5,-86.5 438.5,-86.5 438.5,-56.5 312.5,-56.5"/>
<text text-anchor="start" x="320.5" y="-74.5" font-family="Helvetica,sans-Serif" font-size="10.00">ViennaRNA/constraints</text>
<text text-anchor="middle" x="375.5" y="-63.5" font-family="Helvetica,sans-Serif" font-size="10.00">_hard.h</text>
</a>
</g>
</g>
<!-- Node7&#45;&gt;Node8 -->
<g id="edge13" class="edge"><title>Node7&#45;&gt;Node8</title>
<path fill="none" stroke="midnightblue" d="M549.809,-128.869C518.995,-118.904 467.551,-102.268 428.516,-89.6444"/>
<polygon fill="midnightblue" stroke="midnightblue" points="429.471,-86.2749 418.879,-86.5281 427.317,-92.9353 429.471,-86.2749"/>
</g>
<!-- Node9 -->
<g id="node10" class="node"><title>Node9</title>
<g id="a_node10"><a xlink:href="constraints__soft_8h.html" target="_top" xlink:title="Functions and data structures for secondary structure soft constraints. ">
<polygon fill="none" stroke="black" points="456.5,-56.5 456.5,-86.5 582.5,-86.5 582.5,-56.5 456.5,-56.5"/>
<text text-anchor="start" x="464.5" y="-74.5" font-family="Helvetica,sans-Serif" font-size="10.00">ViennaRNA/constraints</text>
<text text-anchor="middle" x="519.5" y="-63.5" font-family="Helvetica,sans-Serif" font-size="10.00">_soft.h</text>
</a>
</g>
</g>
<!-- Node7&#45;&gt;Node9 -->
<g id="edge15" class="edge"><title>Node7&#45;&gt;Node9</title>
<path fill="none" stroke="midnightblue" d="M568.813,-128.734C561.109,-119.949 548.946,-106.078 538.627,-94.3111"/>
<polygon fill="midnightblue" stroke="midnightblue" points="541.08,-91.8 531.855,-86.589 535.817,-96.4153 541.08,-91.8"/>
</g>
<!-- Node10 -->
<g id="node11" class="node"><title>Node10</title>
<g id="a_node11"><a xlink:href="constraints__SHAPE_8h.html" target="_top" xlink:title="This module provides function to incorporate SHAPE reactivity data into the folding recursions by mea...">
<polygon fill="none" stroke="black" points="600.5,-56.5 600.5,-86.5 726.5,-86.5 726.5,-56.5 600.5,-56.5"/>
<text text-anchor="start" x="608.5" y="-74.5" font-family="Helvetica,sans-Serif" font-size="10.00">ViennaRNA/constraints</text>
<text text-anchor="middle" x="663.5" y="-63.5" font-family="Helvetica,sans-Serif" font-size="10.00">_SHAPE.h</text>
</a>
</g>
</g>
<!-- Node7&#45;&gt;Node10 -->
<g id="edge17" class="edge"><title>Node7&#45;&gt;Node10</title>
<path fill="none" stroke="midnightblue" d="M588.233,-128.734C600.556,-119.527 620.358,-104.733 636.558,-92.6293"/>
<polygon fill="midnightblue" stroke="midnightblue" points="638.726,-95.3782 644.642,-86.589 634.536,-89.7704 638.726,-95.3782"/>
</g>
<!-- Node11 -->
<g id="node12" class="node"><title>Node11</title>
<g id="a_node12"><a xlink:href="perturbation__fold_8h.html" target="_top" xlink:title="Find a vector of perturbation energies that minimizes the discripancies between predicted and observe...">
<polygon fill="none" stroke="black" points="793,-56.5 793,-86.5 924,-86.5 924,-56.5 793,-56.5"/>
<text text-anchor="start" x="801" y="-74.5" font-family="Helvetica,sans-Serif" font-size="10.00">ViennaRNA/perturbation</text>
<text text-anchor="middle" x="858.5" y="-63.5" font-family="Helvetica,sans-Serif" font-size="10.00">_fold.h</text>
</a>
</g>
</g>
<!-- Node7&#45;&gt;Node11 -->
<g id="edge19" class="edge"><title>Node7&#45;&gt;Node11</title>
<path fill="none" stroke="midnightblue" d="M613.657,-128.936C657.726,-118.778 732.165,-101.62 787.422,-88.8832"/>
<polygon fill="midnightblue" stroke="midnightblue" points="788.547,-92.2159 797.505,-86.5592 786.974,-85.3947 788.547,-92.2159"/>
</g>
<!-- Node12 -->
<g id="node13" class="node"><title>Node12</title>
<g id="a_node13"><a xlink:href="constraints__ligand_8h.html" target="_top" xlink:title="Functions for incorporation of ligands binding to hairpin and interior loop motifs using the soft con...">
<polygon fill="none" stroke="black" points="1038.5,-56.5 1038.5,-86.5 1164.5,-86.5 1164.5,-56.5 1038.5,-56.5"/>
<text text-anchor="start" x="1046.5" y="-74.5" font-family="Helvetica,sans-Serif" font-size="10.00">ViennaRNA/constraints</text>
<text text-anchor="middle" x="1101.5" y="-63.5" font-family="Helvetica,sans-Serif" font-size="10.00">_ligand.h</text>
</a>
</g>
</g>
<!-- Node7&#45;&gt;Node12 -->
<g id="edge21" class="edge"><title>Node7&#45;&gt;Node12</title>
<path fill="none" stroke="midnightblue" d="M618.214,-128.946C629.326,-126.831 641.344,-124.689 652.5,-123 784.498,-103.015 939.434,-87.2829 1028.47,-78.9817"/>
<polygon fill="midnightblue" stroke="midnightblue" points="1028.83,-82.4633 1038.47,-78.0553 1028.19,-75.4932 1028.83,-82.4633"/>
</g>
<!-- Node8&#45;&gt;Node1 -->
<g id="edge14" class="edge"><title>Node8&#45;&gt;Node1</title>
<path fill="none" stroke="midnightblue" d="M387.556,-86.888C407.371,-110.534 446.706,-157.477 467.639,-182.459"/>
<polygon fill="midnightblue" stroke="midnightblue" points="465.109,-184.888 474.214,-190.305 470.474,-180.392 465.109,-184.888"/>
</g>
<!-- Node9&#45;&gt;Node1 -->
<g id="edge16" class="edge"><title>Node9&#45;&gt;Node1</title>
<path fill="none" stroke="midnightblue" d="M498.205,-86.6227C486.773,-95.5386 473.773,-108.164 467.5,-123 459.528,-141.855 466.032,-165.231 472.588,-181.042"/>
<polygon fill="midnightblue" stroke="midnightblue" points="469.432,-182.557 476.752,-190.216 475.806,-179.663 469.432,-182.557"/>
</g>
<!-- Node10&#45;&gt;Node1 -->
<g id="edge18" class="edge"><title>Node10&#45;&gt;Node1</title>
<path fill="none" stroke="midnightblue" d="M600.485,-85.332C560.817,-94.6358 514.548,-108.15 500.5,-123 486.071,-138.252 482.135,-162.746 481.284,-179.79"/>
<polygon fill="midnightblue" stroke="midnightblue" points="477.777,-180.132 481.096,-190.193 484.776,-180.258 477.777,-180.132"/>
</g>
<!-- Node11&#45;&gt;Node1 -->
<g id="edge20" class="edge"><title>Node11&#45;&gt;Node1</title>
<path fill="none" stroke="midnightblue" d="M924.061,-75.4497C1007.74,-81.4632 1135.99,-99.6042 1085.5,-154 1051.16,-190.998 728.468,-197.811 569.353,-198.905"/>
<polygon fill="midnightblue" stroke="midnightblue" points="569.091,-195.407 559.114,-198.969 569.135,-202.407 569.091,-195.407"/>
</g>
<!-- Node12&#45;&gt;Node1 -->
<g id="edge22" class="edge"><title>Node12&#45;&gt;Node1</title>
<path fill="none" stroke="midnightblue" d="M1107.64,-86.6744C1114.41,-104.788 1122.29,-135.954 1105.5,-154 1069.76,-192.407 732.549,-198.473 569.266,-199.138"/>
<polygon fill="midnightblue" stroke="midnightblue" points="569.231,-195.638 559.243,-199.173 569.255,-202.638 569.231,-195.638"/>
</g>
<!-- Node13&#45;&gt;Node1 -->
<g id="edge24" class="edge"><title>Node13&#45;&gt;Node1</title>
<path fill="none" stroke="midnightblue" d="M694.646,-148.009C653.769,-158.584 580.174,-176.641 531.011,-188.186"/>
<polygon fill="midnightblue" stroke="midnightblue" points="530.158,-184.791 521.217,-190.475 531.751,-191.608 530.158,-184.791"/>
</g>
<!-- Node15&#45;&gt;Node1 -->
<g id="edge27" class="edge"><title>Node15&#45;&gt;Node1</title>
<path fill="none" stroke="midnightblue" d="M946.712,-153.525C945.635,-153.688 944.564,-153.846 943.5,-154 814.015,-172.745 662.566,-186.064 569.272,-193.137"/>
<polygon fill="midnightblue" stroke="midnightblue" points="568.739,-189.667 559.029,-193.905 569.263,-196.647 568.739,-189.667"/>
</g>
</g>
</svg>
