<?xml version="1.0" encoding="UTF-8" standalone="no"?>
<!DOCTYPE svg PUBLIC "-//W3C//DTD SVG 1.1//EN"
 "http://www.w3.org/Graphics/SVG/1.1/DTD/svg11.dtd">
<!-- Generated by graphviz version 2.38.0 (20140413.2041)
 -->
<!-- Title: ViennaRNA/model.h Pages: 1 -->
<svg width="4720pt" height="285pt"
 viewBox="0.00 0.00 4720.37 285.00" xmlns="http://www.w3.org/2000/svg" xmlns:xlink="http://www.w3.org/1999/xlink">
<g id="graph0" class="graph" transform="scale(1 1) rotate(0) translate(4 281)">
<title>ViennaRNA/model.h</title>
<!-- Node1 -->
<g id="node1" class="node"><title>Node1</title>
<polygon fill="#bfbfbf" stroke="black" points="1888.5,-257.5 1888.5,-276.5 1999.5,-276.5 1999.5,-257.5 1888.5,-257.5"/>
<text text-anchor="middle" x="1944" y="-264.5" font-family="Helvetica,sans-Serif" font-size="10.00">ViennaRNA/model.h</text>
</g>
<!-- Node2 -->
<g id="node2" class="node"><title>Node2</title>
<g id="a_node2"><a xlink:href="alphabet_8h.html" target="_top" xlink:title="Functions to process, convert, and generally handle different nucleotide and/or base pair alphabets...">
<polygon fill="none" stroke="black" points="750.5,-201.5 750.5,-220.5 873.5,-220.5 873.5,-201.5 750.5,-201.5"/>
<text text-anchor="middle" x="812" y="-208.5" font-family="Helvetica,sans-Serif" font-size="10.00">ViennaRNA/alphabet.h</text>
</a>
</g>
</g>
<!-- Node1&#45;&gt;Node2 -->
<g id="edge1" class="edge"><title>Node1&#45;&gt;Node2</title>
<path fill="none" stroke="midnightblue" d="M1878.1,-262.857C1676.45,-253.237 1069.55,-224.286 873.672,-214.942"/>
<polygon fill="midnightblue" stroke="midnightblue" points="1878.09,-266.36 1888.25,-263.341 1878.43,-259.368 1878.09,-266.36"/>
</g>
<!-- Node9 -->
<g id="node7" class="node"><title>Node9</title>
<g id="a_node7"><a xlink:href="data__structures_8h.html" target="_top" xlink:title="Various data structures and pre&#45;processor macros. ">
<polygon fill="none" stroke="red" points="1866.5,-201.5 1866.5,-220.5 2021.5,-220.5 2021.5,-201.5 1866.5,-201.5"/>
<text text-anchor="middle" x="1944" y="-208.5" font-family="Helvetica,sans-Serif" font-size="10.00">ViennaRNA/data_structures.h</text>
</a>
</g>
</g>
<!-- Node1&#45;&gt;Node9 -->
<g id="edge6" class="edge"><title>Node1&#45;&gt;Node9</title>
<path fill="none" stroke="midnightblue" d="M1944,-246.805C1944,-237.91 1944,-227.78 1944,-220.751"/>
<polygon fill="midnightblue" stroke="midnightblue" points="1940.5,-247.083 1944,-257.083 1947.5,-247.083 1940.5,-247.083"/>
</g>
<!-- Node32 -->
<g id="node30" class="node"><title>Node32</title>
<g id="a_node30"><a xlink:href="fold__vars_8h.html" target="_top" xlink:title="Here all all declarations of the global variables used throughout RNAlib. ">
<polygon fill="none" stroke="red" points="4566,-140 4566,-159 4692,-159 4692,-140 4566,-140"/>
<text text-anchor="middle" x="4629" y="-147" font-family="Helvetica,sans-Serif" font-size="10.00">ViennaRNA/fold_vars.h</text>
</a>
</g>
</g>
<!-- Node1&#45;&gt;Node32 -->
<g id="edge91" class="edge"><title>Node1&#45;&gt;Node32</title>
<path fill="none" stroke="midnightblue" d="M2009.59,-264.89C2362.82,-258.695 4041.7,-226.446 4557,-165 4568.65,-163.611 4581.22,-161.348 4592.55,-159.018"/>
<polygon fill="midnightblue" stroke="midnightblue" points="2009.47,-261.391 1999.53,-265.065 2009.59,-268.39 2009.47,-261.391"/>
</g>
<!-- Node39 -->
<g id="node36" class="node"><title>Node39</title>
<g id="a_node36"><a xlink:href="params_8h.html" target="_top" xlink:title="Functions to deal with sets of energy parameters. ">
<polygon fill="none" stroke="black" points="1409,-140 1409,-159 1527,-159 1527,-140 1409,-140"/>
<text text-anchor="middle" x="1468" y="-147" font-family="Helvetica,sans-Serif" font-size="10.00">ViennaRNA/params.h</text>
</a>
</g>
</g>
<!-- Node1&#45;&gt;Node39 -->
<g id="edge92" class="edge"><title>Node1&#45;&gt;Node39</title>
<path fill="none" stroke="midnightblue" d="M1898.8,-255.032C1804.46,-232.14 1588.33,-179.698 1503.3,-159.065"/>
<polygon fill="midnightblue" stroke="midnightblue" points="1898.07,-258.456 1908.61,-257.413 1899.72,-251.654 1898.07,-258.456"/>
</g>
<!-- Node47 -->
<g id="node44" class="node"><title>Node47</title>
<g id="a_node44"><a xlink:href="plot__structure_8h.html" target="_top" xlink:title="Various functions for plotting RNA secondary structures. ">
<polygon fill="none" stroke="black" points="4408,-73 4408,-92 4554,-92 4554,-73 4408,-73"/>
<text text-anchor="middle" x="4481" y="-80" font-family="Helvetica,sans-Serif" font-size="10.00">ViennaRNA/plot_structure.h</text>
</a>
</g>
</g>
<!-- Node1&#45;&gt;Node47 -->
<g id="edge93" class="edge"><title>Node1&#45;&gt;Node47</title>
<path fill="none" stroke="midnightblue" d="M2009.98,-266.18C2420.09,-266.982 4606.21,-266.477 4701,-165 4748.41,-114.251 4635.08,-94.9495 4554.09,-87.7178"/>
<polygon fill="midnightblue" stroke="midnightblue" points="2009.78,-262.68 1999.77,-266.159 2009.76,-269.68 2009.78,-262.68"/>
</g>
<!-- Node3 -->
<g id="node3" class="node"><title>Node3</title>
<g id="a_node3"><a xlink:href="utils_8h.html" target="_top" xlink:title="General utility&#45; and helper&#45;functions used throughout the ViennaRNA Package. ">
<polygon fill="none" stroke="red" points="817.5,-73 817.5,-92 918.5,-92 918.5,-73 817.5,-73"/>
<text text-anchor="middle" x="868" y="-80" font-family="Helvetica,sans-Serif" font-size="10.00">ViennaRNA/utils.h</text>
</a>
</g>
</g>
<!-- Node2&#45;&gt;Node3 -->
<g id="edge2" class="edge"><title>Node2&#45;&gt;Node3</title>
<path fill="none" stroke="midnightblue" d="M740.218,-210.322C581.349,-210.284 211.003,-205.773 173,-165 163.606,-154.921 163.617,-144.089 173,-134 183.981,-122.193 658.929,-95.0145 817.248,-86.2667"/>
<polygon fill="midnightblue" stroke="midnightblue" points="740.372,-213.822 750.37,-210.318 740.369,-206.822 740.372,-213.822"/>
</g>
<!-- Node4 -->
<g id="node4" class="node"><title>Node4</title>
<g id="a_node4"><a xlink:href="hairpin__loops_8h.html" target="_top" xlink:title="Energy evaluation of hairpin loops for MFE and partition function calculations. ">
<polygon fill="none" stroke="red" points="960,-6 960,-25 1106,-25 1106,-6 960,-6"/>
<text text-anchor="middle" x="1033" y="-13" font-family="Helvetica,sans-Serif" font-size="10.00">ViennaRNA/hairpin_loops.h</text>
</a>
</g>
</g>
<!-- Node3&#45;&gt;Node4 -->
<g id="edge3" class="edge"><title>Node3&#45;&gt;Node4</title>
<path fill="none" stroke="midnightblue" d="M899.466,-69.1041C932.227,-56.1984 982.67,-36.3272 1011.26,-25.0637"/>
<polygon fill="midnightblue" stroke="midnightblue" points="897.932,-65.9468 889.911,-72.8685 900.498,-72.4596 897.932,-65.9468"/>
</g>
<!-- Node6 -->
<g id="node5" class="node"><title>Node6</title>
<g id="a_node5"><a xlink:href="interior__loops_8h.html" target="_top" xlink:title="Energy evaluation of interior loops for MFE and partition function calculations. ">
<polygon fill="none" stroke="red" points="688.5,-0.5 688.5,-30.5 795.5,-30.5 795.5,-0.5 688.5,-0.5"/>
<text text-anchor="start" x="696.5" y="-18.5" font-family="Helvetica,sans-Serif" font-size="10.00">ViennaRNA/interior</text>
<text text-anchor="middle" x="742" y="-7.5" font-family="Helvetica,sans-Serif" font-size="10.00">_loops.h</text>
</a>
</g>
</g>
<!-- Node3&#45;&gt;Node6 -->
<g id="edge4" class="edge"><title>Node3&#45;&gt;Node6</title>
<path fill="none" stroke="midnightblue" d="M842.208,-68.1944C821.013,-57.2607 791.063,-41.8102 769.432,-30.6516"/>
<polygon fill="midnightblue" stroke="midnightblue" points="840.776,-71.3943 851.268,-72.8685 843.986,-65.1733 840.776,-71.3943"/>
</g>
<!-- Node7 -->
<g id="node6" class="node"><title>Node7</title>
<g id="a_node6"><a xlink:href="multibranch__loops_8h.html" target="_top" xlink:title="Energy evaluation of multibranch loops for MFE and partition function calculations. ">
<polygon fill="none" stroke="red" points="814,-0.5 814,-30.5 942,-30.5 942,-0.5 814,-0.5"/>
<text text-anchor="start" x="822" y="-18.5" font-family="Helvetica,sans-Serif" font-size="10.00">ViennaRNA/multibranch</text>
<text text-anchor="middle" x="878" y="-7.5" font-family="Helvetica,sans-Serif" font-size="10.00">_loops.h</text>
</a>
</g>
</g>
<!-- Node3&#45;&gt;Node7 -->
<g id="edge5" class="edge"><title>Node3&#45;&gt;Node7</title>
<path fill="none" stroke="midnightblue" d="M870.886,-62.7386C872.463,-52.4873 874.384,-40.0011 875.832,-30.589"/>
<polygon fill="midnightblue" stroke="midnightblue" points="867.41,-62.3179 869.349,-72.7338 874.329,-63.3823 867.41,-62.3179"/>
</g>
<!-- Node9&#45;&gt;Node3 -->
<g id="edge90" class="edge"><title>Node9&#45;&gt;Node3</title>
<path fill="none" stroke="midnightblue" d="M1856.11,-210.531C1623.74,-211.318 1005.43,-209.183 925,-165 895.338,-148.707 877.684,-109.589 871.037,-92.1472"/>
<polygon fill="midnightblue" stroke="midnightblue" points="1856.23,-214.031 1866.22,-210.494 1856.2,-207.031 1856.23,-214.031"/>
</g>
<!-- Node9&#45;&gt;Node4 -->
<g id="edge45" class="edge"><title>Node9&#45;&gt;Node4</title>
<path fill="none" stroke="midnightblue" d="M1856.17,-207.61C1680.54,-202.361 1298.06,-188.389 1243,-165 1224.18,-157.005 1227.47,-142.769 1209,-134 1110.37,-87.1828 1037.32,-180.665 966,-98 943.505,-71.9271 990.183,-40.1953 1016.57,-25.1774"/>
<polygon fill="midnightblue" stroke="midnightblue" points="1856.32,-211.116 1866.42,-207.914 1856.53,-204.119 1856.32,-211.116"/>
</g>
<!-- Node9&#45;&gt;Node6 -->
<g id="edge46" class="edge"><title>Node9&#45;&gt;Node6</title>
<path fill="none" stroke="midnightblue" d="M1856.21,-208.532C1603.42,-204.024 889.022,-189.201 845,-165 817.024,-149.62 768.44,-64.8546 749.689,-30.7343"/>
<polygon fill="midnightblue" stroke="midnightblue" points="1856.39,-212.036 1866.45,-208.713 1856.52,-205.037 1856.39,-212.036"/>
</g>
<!-- Node9&#45;&gt;Node7 -->
<g id="edge53" class="edge"><title>Node9&#45;&gt;Node7</title>
<path fill="none" stroke="midnightblue" d="M1855.9,-209.388C1618.97,-207.3 979.98,-198.586 891,-165 879.912,-160.815 813.111,-108.693 808,-98 802.059,-85.569 801.724,-79.2656 808,-67 816.191,-50.9914 832.083,-38.8947 846.658,-30.56"/>
<polygon fill="midnightblue" stroke="midnightblue" points="1856.17,-212.891 1866.2,-209.477 1856.23,-205.891 1856.17,-212.891"/>
</g>
<!-- Node10 -->
<g id="node8" class="node"><title>Node10</title>
<g id="a_node8"><a xlink:href="2Dfold_8h.html" target="_top" xlink:title="MFE structures for base pair distance classes. ">
<polygon fill="none" stroke="black" points="975.5,-73 975.5,-92 1088.5,-92 1088.5,-73 975.5,-73"/>
<text text-anchor="middle" x="1032" y="-80" font-family="Helvetica,sans-Serif" font-size="10.00">ViennaRNA/2Dfold.h</text>
</a>
</g>
</g>
<!-- Node9&#45;&gt;Node10 -->
<g id="edge7" class="edge"><title>Node9&#45;&gt;Node10</title>
<path fill="none" stroke="midnightblue" d="M1856.24,-210.595C1700.66,-210.572 1383.25,-205.369 1281,-165 1260.73,-156.996 1262.53,-143.669 1243,-134 1235.19,-130.136 1128.48,-105.484 1069.89,-92.107"/>
<polygon fill="midnightblue" stroke="midnightblue" points="1856.25,-214.095 1866.25,-210.59 1856.24,-207.095 1856.25,-214.095"/>
</g>
<!-- Node11 -->
<g id="node9" class="node"><title>Node11</title>
<g id="a_node9"><a xlink:href="2Dpfold_8h.html" target="_top" xlink:title="Partition function implementations for base pair distance classes. ">
<polygon fill="none" stroke="black" points="2156.5,-140 2156.5,-159 2275.5,-159 2275.5,-140 2156.5,-140"/>
<text text-anchor="middle" x="2216" y="-147" font-family="Helvetica,sans-Serif" font-size="10.00">ViennaRNA/2Dpfold.h</text>
</a>
</g>
</g>
<!-- Node9&#45;&gt;Node11 -->
<g id="edge8" class="edge"><title>Node9&#45;&gt;Node11</title>
<path fill="none" stroke="midnightblue" d="M1992.78,-199.33C2045.52,-187.792 2128.56,-169.628 2177.1,-159.009"/>
<polygon fill="midnightblue" stroke="midnightblue" points="1991.99,-195.919 1982.97,-201.475 1993.49,-202.757 1991.99,-195.919"/>
</g>
<!-- Node12 -->
<g id="node10" class="node"><title>Node12</title>
<g id="a_node10"><a xlink:href="ali__plex_8h_source.html" target="_top" xlink:title="ViennaRNA/ali_plex.h">
<polygon fill="none" stroke="black" points="2293.5,-140 2293.5,-159 2412.5,-159 2412.5,-140 2293.5,-140"/>
<text text-anchor="middle" x="2353" y="-147" font-family="Helvetica,sans-Serif" font-size="10.00">ViennaRNA/ali_plex.h</text>
</a>
</g>
</g>
<!-- Node9&#45;&gt;Node12 -->
<g id="edge9" class="edge"><title>Node9&#45;&gt;Node12</title>
<path fill="none" stroke="midnightblue" d="M2031.16,-200.302C2100.01,-192.199 2198.41,-179.635 2284,-165 2294.01,-163.288 2304.79,-161.161 2314.78,-159.07"/>
<polygon fill="midnightblue" stroke="midnightblue" points="2030.75,-196.826 2021.22,-201.465 2031.56,-203.779 2030.75,-196.826"/>
</g>
<!-- Node13 -->
<g id="node11" class="node"><title>Node13</title>
<g id="a_node11"><a xlink:href="alifold_8h.html" target="_top" xlink:title="Functions for comparative structure prediction using RNA sequence alignments. ">
<polygon fill="none" stroke="black" points="2098,-6 2098,-25 2208,-25 2208,-6 2098,-6"/>
<text text-anchor="middle" x="2153" y="-13" font-family="Helvetica,sans-Serif" font-size="10.00">ViennaRNA/alifold.h</text>
</a>
</g>
</g>
<!-- Node9&#45;&gt;Node13 -->
<g id="edge10" class="edge"><title>Node9&#45;&gt;Node13</title>
<path fill="none" stroke="midnightblue" d="M1856.41,-209.634C1763.01,-206.333 1635.22,-191.657 1688,-134 1749.31,-67.0277 2016.22,-143.136 2095,-98 2124.53,-81.0794 2142.84,-42.2947 2149.8,-25.0438"/>
<polygon fill="midnightblue" stroke="midnightblue" points="1856.37,-213.135 1866.48,-209.951 1856.59,-206.138 1856.37,-213.135"/>
</g>
<!-- Node14 -->
<g id="node12" class="node"><title>Node14</title>
<g id="a_node12"><a xlink:href="boltzmann__sampling_8h.html" target="_top" xlink:title="Boltzmann Sampling of secondary structures from the ensemble. ">
<polygon fill="none" stroke="black" points="1697,-134.5 1697,-164.5 1819,-164.5 1819,-134.5 1697,-134.5"/>
<text text-anchor="start" x="1705" y="-152.5" font-family="Helvetica,sans-Serif" font-size="10.00">ViennaRNA/boltzmann</text>
<text text-anchor="middle" x="1758" y="-141.5" font-family="Helvetica,sans-Serif" font-size="10.00">_sampling.h</text>
</a>
</g>
</g>
<!-- Node9&#45;&gt;Node14 -->
<g id="edge11" class="edge"><title>Node9&#45;&gt;Node14</title>
<path fill="none" stroke="midnightblue" d="M1907.6,-198.357C1877.3,-188.662 1834.05,-174.826 1801.84,-164.523"/>
<polygon fill="midnightblue" stroke="midnightblue" points="1906.76,-201.762 1917.35,-201.475 1908.89,-195.095 1906.76,-201.762"/>
</g>
<!-- Node15 -->
<g id="node13" class="node"><title>Node15</title>
<g id="a_node13"><a xlink:href="part__func_8h.html" target="_top" xlink:title="Partition function implementations. ">
<polygon fill="none" stroke="black" points="2181.5,-73 2181.5,-92 2308.5,-92 2308.5,-73 2181.5,-73"/>
<text text-anchor="middle" x="2245" y="-80" font-family="Helvetica,sans-Serif" font-size="10.00">ViennaRNA/part_func.h</text>
</a>
</g>
</g>
<!-- Node9&#45;&gt;Node15 -->
<g id="edge71" class="edge"><title>Node9&#45;&gt;Node15</title>
<path fill="none" stroke="midnightblue" d="M1953.86,-192.6C1964.77,-174.993 1984.04,-148.377 2008,-134 2016.31,-129.015 2135.42,-105.046 2201.54,-92.0024"/>
<polygon fill="midnightblue" stroke="midnightblue" points="1950.78,-190.935 1948.68,-201.32 1956.79,-194.512 1950.78,-190.935"/>
</g>
<!-- Node16 -->
<g id="node14" class="node"><title>Node16</title>
<g id="a_node14"><a xlink:href="centroid_8h.html" target="_top" xlink:title="Centroid structure computation. ">
<polygon fill="none" stroke="black" points="2017.5,-140 2017.5,-159 2138.5,-159 2138.5,-140 2017.5,-140"/>
<text text-anchor="middle" x="2078" y="-147" font-family="Helvetica,sans-Serif" font-size="10.00">ViennaRNA/centroid.h</text>
</a>
</g>
</g>
<!-- Node9&#45;&gt;Node16 -->
<g id="edge15" class="edge"><title>Node9&#45;&gt;Node16</title>
<path fill="none" stroke="midnightblue" d="M1972.54,-197.327C1998.55,-185.776 2036.26,-169.032 2058.84,-159.009"/>
<polygon fill="midnightblue" stroke="midnightblue" points="1970.92,-194.218 1963.2,-201.475 1973.76,-200.616 1970.92,-194.218"/>
</g>
<!-- Node17 -->
<g id="node15" class="node"><title>Node17</title>
<g id="a_node15"><a xlink:href="cofold_8h.html" target="_top" xlink:title="MFE implementations for RNA&#45;RNA interaction. ">
<polygon fill="none" stroke="black" points="3655.5,-73 3655.5,-92 3766.5,-92 3766.5,-73 3655.5,-73"/>
<text text-anchor="middle" x="3711" y="-80" font-family="Helvetica,sans-Serif" font-size="10.00">ViennaRNA/cofold.h</text>
</a>
</g>
</g>
<!-- Node9&#45;&gt;Node17 -->
<g id="edge17" class="edge"><title>Node9&#45;&gt;Node17</title>
<path fill="none" stroke="midnightblue" d="M2031.77,-209.421C2385.27,-206.883 3687.28,-195.479 3717,-165 3736.21,-145.292 3722.86,-108.65 3715.27,-92.0577"/>
<polygon fill="midnightblue" stroke="midnightblue" points="2031.56,-205.922 2021.59,-209.493 2031.61,-212.922 2031.56,-205.922"/>
</g>
<!-- Node18 -->
<g id="node16" class="node"><title>Node18</title>
<g id="a_node16"><a xlink:href="commands_8h.html" target="_top" xlink:title="Parse and apply different commands that alter the behavior of secondary structure prediction and eval...">
<polygon fill="none" stroke="black" points="2431,-140 2431,-159 2565,-159 2565,-140 2431,-140"/>
<text text-anchor="middle" x="2498" y="-147" font-family="Helvetica,sans-Serif" font-size="10.00">ViennaRNA/commands.h</text>
</a>
</g>
</g>
<!-- Node9&#45;&gt;Node18 -->
<g id="edge18" class="edge"><title>Node9&#45;&gt;Node18</title>
<path fill="none" stroke="midnightblue" d="M2031.74,-204.156C2127.64,-197.202 2285.7,-184.08 2421,-165 2432.58,-163.366 2445.07,-161.194 2456.56,-159.029"/>
<polygon fill="midnightblue" stroke="midnightblue" points="2031.23,-200.684 2021.5,-204.892 2031.73,-207.666 2031.23,-200.684"/>
</g>
<!-- Node19 -->
<g id="node17" class="node"><title>Node19</title>
<g id="a_node17"><a xlink:href="constraints_8h.html" target="_top" xlink:title="Functions and data structures for constraining secondary structure predictions and evaluation...">
<polygon fill="none" stroke="black" points="428,-73 428,-92 562,-92 562,-73 428,-73"/>
<text text-anchor="middle" x="495" y="-80" font-family="Helvetica,sans-Serif" font-size="10.00">ViennaRNA/constraints.h</text>
</a>
</g>
</g>
<!-- Node9&#45;&gt;Node19 -->
<g id="edge19" class="edge"><title>Node9&#45;&gt;Node19</title>
<path fill="none" stroke="midnightblue" d="M1856.01,-209.954C1552.87,-209.453 567.91,-204.784 514,-165 490.526,-147.677 486.567,-109.457 489.991,-92.2262"/>
<polygon fill="midnightblue" stroke="midnightblue" points="1856.06,-213.454 1866.07,-209.97 1856.08,-206.454 1856.06,-213.454"/>
</g>
<!-- Node20 -->
<g id="node18" class="node"><title>Node20</title>
<g id="a_node18"><a xlink:href="constraints__hard_8h.html" target="_top" xlink:title="Functions and data structures for handling of secondary structure hard constraints. ">
<polygon fill="none" stroke="black" points="532,-134.5 532,-164.5 658,-164.5 658,-134.5 532,-134.5"/>
<text text-anchor="start" x="540" y="-152.5" font-family="Helvetica,sans-Serif" font-size="10.00">ViennaRNA/constraints</text>
<text text-anchor="middle" x="595" y="-141.5" font-family="Helvetica,sans-Serif" font-size="10.00">_hard.h</text>
</a>
</g>
</g>
<!-- Node9&#45;&gt;Node20 -->
<g id="edge22" class="edge"><title>Node9&#45;&gt;Node20</title>
<path fill="none" stroke="midnightblue" d="M1856.09,-208.775C1606.7,-205.001 897.893,-192.133 667,-165 664.087,-164.658 661.117,-164.26 658.122,-163.819"/>
<polygon fill="midnightblue" stroke="midnightblue" points="1856.14,-212.276 1866.19,-208.927 1856.25,-205.277 1856.14,-212.276"/>
</g>
<!-- Node21 -->
<g id="node19" class="node"><title>Node21</title>
<g id="a_node19"><a xlink:href="constraints__ligand_8h.html" target="_top" xlink:title="Functions for incorporation of ligands binding to hairpin and interior loop motifs using the soft con...">
<polygon fill="none" stroke="black" points="676,-134.5 676,-164.5 802,-164.5 802,-134.5 676,-134.5"/>
<text text-anchor="start" x="684" y="-152.5" font-family="Helvetica,sans-Serif" font-size="10.00">ViennaRNA/constraints</text>
<text text-anchor="middle" x="739" y="-141.5" font-family="Helvetica,sans-Serif" font-size="10.00">_ligand.h</text>
</a>
</g>
</g>
<!-- Node9&#45;&gt;Node21 -->
<g id="edge24" class="edge"><title>Node9&#45;&gt;Node21</title>
<path fill="none" stroke="midnightblue" d="M1856.21,-210.854C1665.99,-211.75 1201.79,-208.781 816,-165 811.54,-164.494 806.95,-163.877 802.338,-163.187"/>
<polygon fill="midnightblue" stroke="midnightblue" points="1856.45,-214.353 1866.43,-210.801 1856.41,-207.353 1856.45,-214.353"/>
</g>
<!-- Node22 -->
<g id="node20" class="node"><title>Node22</title>
<g id="a_node20"><a xlink:href="constraints__SHAPE_8h.html" target="_top" xlink:title="This module provides function to incorporate SHAPE reactivity data into the folding recursions by mea...">
<polygon fill="none" stroke="black" points="0,-134.5 0,-164.5 126,-164.5 126,-134.5 0,-134.5"/>
<text text-anchor="start" x="8" y="-152.5" font-family="Helvetica,sans-Serif" font-size="10.00">ViennaRNA/constraints</text>
<text text-anchor="middle" x="63" y="-141.5" font-family="Helvetica,sans-Serif" font-size="10.00">_SHAPE.h</text>
</a>
</g>
</g>
<!-- Node9&#45;&gt;Node22 -->
<g id="edge26" class="edge"><title>Node9&#45;&gt;Node22</title>
<path fill="none" stroke="midnightblue" d="M1856,-208.996C1546.02,-205.268 505.551,-191.07 173,-165 157.829,-163.811 141.546,-161.975 126.282,-160.004"/>
<polygon fill="midnightblue" stroke="midnightblue" points="1856.24,-212.499 1866.28,-209.119 1856.32,-205.5 1856.24,-212.499"/>
</g>
<!-- Node23 -->
<g id="node21" class="node"><title>Node23</title>
<g id="a_node21"><a xlink:href="constraints__soft_8h.html" target="_top" xlink:title="Functions and data structures for secondary structure soft constraints. ">
<polygon fill="none" stroke="black" points="182,-134.5 182,-164.5 308,-164.5 308,-134.5 182,-134.5"/>
<text text-anchor="start" x="190" y="-152.5" font-family="Helvetica,sans-Serif" font-size="10.00">ViennaRNA/constraints</text>
<text text-anchor="middle" x="245" y="-141.5" font-family="Helvetica,sans-Serif" font-size="10.00">_soft.h</text>
</a>
</g>
</g>
<!-- Node9&#45;&gt;Node23 -->
<g id="edge28" class="edge"><title>Node9&#45;&gt;Node23</title>
<path fill="none" stroke="midnightblue" d="M1856.21,-209.552C1563,-207.746 619.101,-199.342 317,-165 314.086,-164.669 311.115,-164.28 308.119,-163.847"/>
<polygon fill="midnightblue" stroke="midnightblue" points="1856.34,-213.053 1866.36,-209.614 1856.38,-206.053 1856.34,-213.053"/>
</g>
<!-- Node24 -->
<g id="node22" class="node"><title>Node24</title>
<g id="a_node22"><a xlink:href="dp__matrices_8h.html" target="_top" xlink:title="Functions to deal with standard dynamic programming (DP) matrices. ">
<polygon fill="none" stroke="black" points="2583,-140 2583,-159 2723,-159 2723,-140 2583,-140"/>
<text text-anchor="middle" x="2653" y="-147" font-family="Helvetica,sans-Serif" font-size="10.00">ViennaRNA/dp_matrices.h</text>
</a>
</g>
</g>
<!-- Node9&#45;&gt;Node24 -->
<g id="edge30" class="edge"><title>Node9&#45;&gt;Node24</title>
<path fill="none" stroke="midnightblue" d="M2032.22,-206.505C2152.88,-201.19 2375.8,-189.046 2565,-165 2577.17,-163.453 2590.31,-161.256 2602.68,-159.039"/>
<polygon fill="midnightblue" stroke="midnightblue" points="2031.77,-203.021 2021.93,-206.952 2032.07,-210.014 2031.77,-203.021"/>
</g>
<!-- Node25 -->
<g id="node23" class="node"><title>Node25</title>
<g id="a_node23"><a xlink:href="duplex_8h.html" target="_top" xlink:title="Functions for simple RNA&#45;RNA duplex interactions. ">
<polygon fill="none" stroke="black" points="2741.5,-140 2741.5,-159 2854.5,-159 2854.5,-140 2741.5,-140"/>
<text text-anchor="middle" x="2798" y="-147" font-family="Helvetica,sans-Serif" font-size="10.00">ViennaRNA/duplex.h</text>
</a>
</g>
</g>
<!-- Node9&#45;&gt;Node25 -->
<g id="edge32" class="edge"><title>Node9&#45;&gt;Node25</title>
<path fill="none" stroke="midnightblue" d="M2031.81,-209.535C2177.82,-207.746 2479.46,-199.727 2732,-165 2742.46,-163.562 2753.72,-161.342 2763.93,-159.069"/>
<polygon fill="midnightblue" stroke="midnightblue" points="2031.53,-206.038 2021.57,-209.654 2031.61,-213.038 2031.53,-206.038"/>
</g>
<!-- Node26 -->
<g id="node24" class="node"><title>Node26</title>
<g id="a_node24"><a xlink:href="equilibrium__probs_8h.html" target="_top" xlink:title="Equilibrium Probability implementations. ">
<polygon fill="none" stroke="black" points="1837.5,-134.5 1837.5,-164.5 1960.5,-164.5 1960.5,-134.5 1837.5,-134.5"/>
<text text-anchor="start" x="1845.5" y="-152.5" font-family="Helvetica,sans-Serif" font-size="10.00">ViennaRNA/equilibrium</text>
<text text-anchor="middle" x="1899" y="-141.5" font-family="Helvetica,sans-Serif" font-size="10.00">_probs.h</text>
</a>
</g>
</g>
<!-- Node9&#45;&gt;Node26 -->
<g id="edge33" class="edge"><title>Node9&#45;&gt;Node26</title>
<path fill="none" stroke="midnightblue" d="M1931.33,-193.247C1924.48,-184.187 1916.11,-173.124 1909.61,-164.523"/>
<polygon fill="midnightblue" stroke="midnightblue" points="1928.73,-195.611 1937.55,-201.475 1934.31,-191.388 1928.73,-195.611"/>
</g>
<!-- Node27 -->
<g id="node25" class="node"><title>Node27</title>
<g id="a_node25"><a xlink:href="eval_8h.html" target="_top" xlink:title="Functions and variables related to energy evaluation of sequence/structure pairs. ...">
<polygon fill="none" stroke="black" points="3861,-73 3861,-92 3963,-92 3963,-73 3861,-73"/>
<text text-anchor="middle" x="3912" y="-80" font-family="Helvetica,sans-Serif" font-size="10.00">ViennaRNA/eval.h</text>
</a>
</g>
</g>
<!-- Node9&#45;&gt;Node27 -->
<g id="edge35" class="edge"><title>Node9&#45;&gt;Node27</title>
<path fill="none" stroke="midnightblue" d="M2031.86,-209.137C2455.19,-204.881 4264.89,-185.498 4285,-165 4294.65,-155.164 4294.07,-144.375 4285,-134 4264.15,-110.133 4060.69,-93.4384 3963.37,-86.7517"/>
<polygon fill="midnightblue" stroke="midnightblue" points="2031.79,-205.638 2021.82,-209.238 2031.86,-212.638 2031.79,-205.638"/>
</g>
<!-- Node28 -->
<g id="node26" class="node"><title>Node28</title>
<g id="a_node26"><a xlink:href="fold_8h.html" target="_top" xlink:title="MFE calculations for single RNA sequences. ">
<polygon fill="none" stroke="black" points="3822,-6 3822,-25 3922,-25 3922,-6 3822,-6"/>
<text text-anchor="middle" x="3872" y="-13" font-family="Helvetica,sans-Serif" font-size="10.00">ViennaRNA/fold.h</text>
</a>
</g>
</g>
<!-- Node9&#45;&gt;Node28 -->
<g id="edge40" class="edge"><title>Node9&#45;&gt;Node28</title>
<path fill="none" stroke="midnightblue" d="M2031.67,-209.992C2454.16,-209.748 4261.49,-206.291 4302,-165 4417.46,-47.313 4058.7,-22.8155 3922.34,-17.7816"/>
<polygon fill="midnightblue" stroke="midnightblue" points="2031.65,-206.492 2021.65,-209.997 2031.65,-213.492 2031.65,-206.492"/>
</g>
<!-- Node29 -->
<g id="node27" class="node"><title>Node29</title>
<g id="a_node27"><a xlink:href="exterior__loops_8h.html" target="_top" xlink:title="Energy evaluation of exterior loops for MFE and partition function calculations. ">
<polygon fill="none" stroke="red" points="1107,-67.5 1107,-97.5 1217,-97.5 1217,-67.5 1107,-67.5"/>
<text text-anchor="start" x="1115" y="-85.5" font-family="Helvetica,sans-Serif" font-size="10.00">ViennaRNA/exterior</text>
<text text-anchor="middle" x="1162" y="-74.5" font-family="Helvetica,sans-Serif" font-size="10.00">_loops.h</text>
</a>
</g>
</g>
<!-- Node9&#45;&gt;Node29 -->
<g id="edge37" class="edge"><title>Node9&#45;&gt;Node29</title>
<path fill="none" stroke="midnightblue" d="M1856.2,-207.931C1712.47,-203.798 1433.52,-192.44 1339,-165 1310.93,-156.851 1307.37,-146.611 1281,-134 1253.36,-120.783 1221.37,-107.303 1197.52,-97.5985"/>
<polygon fill="midnightblue" stroke="midnightblue" points="1856.21,-211.433 1866.31,-208.217 1856.41,-204.436 1856.21,-211.433"/>
</g>
<!-- Node30 -->
<g id="node28" class="node"><title>Node30</title>
<g id="a_node28"><a xlink:href="file__formats_8h.html" target="_top" xlink:title="Read and write different file formats for RNA sequences, structures. ">
<polygon fill="none" stroke="black" points="2872.5,-140 2872.5,-159 3009.5,-159 3009.5,-140 2872.5,-140"/>
<text text-anchor="middle" x="2941" y="-147" font-family="Helvetica,sans-Serif" font-size="10.00">ViennaRNA/file_formats.h</text>
</a>
</g>
</g>
<!-- Node9&#45;&gt;Node30 -->
<g id="edge38" class="edge"><title>Node9&#45;&gt;Node30</title>
<path fill="none" stroke="midnightblue" d="M2031.57,-209.709C2195.51,-208.28 2559.7,-200.922 2864,-165 2876.16,-163.565 2889.28,-161.347 2901.2,-159.073"/>
<polygon fill="midnightblue" stroke="midnightblue" points="2031.51,-206.209 2021.54,-209.791 2031.57,-213.209 2031.51,-206.209"/>
</g>
<!-- Node31 -->
<g id="node29" class="node"><title>Node31</title>
<g id="a_node29"><a xlink:href="findpath_8h.html" target="_top" xlink:title="A breadth&#45;first search heuristic for optimal direct folding paths. ">
<polygon fill="none" stroke="black" points="3027.5,-140 3027.5,-159 3148.5,-159 3148.5,-140 3027.5,-140"/>
<text text-anchor="middle" x="3088" y="-147" font-family="Helvetica,sans-Serif" font-size="10.00">ViennaRNA/findpath.h</text>
</a>
</g>
</g>
<!-- Node9&#45;&gt;Node31 -->
<g id="edge39" class="edge"><title>Node9&#45;&gt;Node31</title>
<path fill="none" stroke="midnightblue" d="M2031.99,-208.193C2253.29,-203.345 2828.91,-188.787 3019,-165 3030.17,-163.602 3042.23,-161.336 3053.09,-159.006"/>
<polygon fill="midnightblue" stroke="midnightblue" points="2031.64,-204.699 2021.72,-208.416 2031.8,-211.698 2031.64,-204.699"/>
</g>
<!-- Node9&#45;&gt;Node32 -->
<g id="edge41" class="edge"><title>Node9&#45;&gt;Node32</title>
<path fill="none" stroke="midnightblue" d="M2031.82,-209.435C2458.15,-206.566 4301.96,-192.645 4557,-165 4568.92,-163.708 4581.79,-161.41 4593.31,-159.019"/>
<polygon fill="midnightblue" stroke="midnightblue" points="2031.69,-205.936 2021.71,-209.503 2031.74,-212.936 2031.69,-205.936"/>
</g>
<!-- Node33 -->
<g id="node31" class="node"><title>Node33</title>
<g id="a_node31"><a xlink:href="gquad_8h.html" target="_top" xlink:title="G&#45;quadruplexes. ">
<polygon fill="none" stroke="black" points="1235,-73 1235,-92 1347,-92 1347,-73 1235,-73"/>
<text text-anchor="middle" x="1291" y="-80" font-family="Helvetica,sans-Serif" font-size="10.00">ViennaRNA/gquad.h</text>
</a>
</g>
</g>
<!-- Node9&#45;&gt;Node33 -->
<g id="edge42" class="edge"><title>Node9&#45;&gt;Node33</title>
<path fill="none" stroke="midnightblue" d="M1856.17,-209.289C1721.59,-207.127 1471.28,-198.562 1389,-165 1348.84,-148.618 1312.73,-109.547 1298.01,-92.1326"/>
<polygon fill="midnightblue" stroke="midnightblue" points="1856.4,-212.793 1866.45,-209.446 1856.5,-205.794 1856.4,-212.793"/>
</g>
<!-- Node34 -->
<g id="node32" class="node"><title>Node34</title>
<g id="a_node32"><a xlink:href="grammar_8h.html" target="_top" xlink:title="Implementations for the RNA folding grammar. ">
<polygon fill="none" stroke="black" points="3166.5,-140 3166.5,-159 3291.5,-159 3291.5,-140 3166.5,-140"/>
<text text-anchor="middle" x="3229" y="-147" font-family="Helvetica,sans-Serif" font-size="10.00">ViennaRNA/grammar.h</text>
</a>
</g>
</g>
<!-- Node9&#45;&gt;Node34 -->
<g id="edge43" class="edge"><title>Node9&#45;&gt;Node34</title>
<path fill="none" stroke="midnightblue" d="M2031.82,-208.549C2271.33,-204.383 2932.1,-190.989 3149,-165 3160.49,-163.623 3172.89,-161.363 3184.49,-159.033"/>
<polygon fill="midnightblue" stroke="midnightblue" points="2031.7,-205.05 2021.76,-208.722 2031.82,-212.049 2031.7,-205.05"/>
</g>
<!-- Node35 -->
<g id="node33" class="node"><title>Node35</title>
<g id="a_node33"><a xlink:href="LPfold_8h.html" target="_top" xlink:title="Partition function implementation for the Lfold algorithm. ">
<polygon fill="none" stroke="black" points="1365.5,-73 1365.5,-92 1478.5,-92 1478.5,-73 1365.5,-73"/>
<text text-anchor="middle" x="1422" y="-80" font-family="Helvetica,sans-Serif" font-size="10.00">ViennaRNA/LPfold.h</text>
</a>
</g>
</g>
<!-- Node9&#45;&gt;Node35 -->
<g id="edge47" class="edge"><title>Node9&#45;&gt;Node35</title>
<path fill="none" stroke="midnightblue" d="M1856.17,-209.106C1710.1,-206.698 1430.21,-197.808 1400,-165 1380.94,-144.299 1402.85,-108.806 1414.99,-92.3529"/>
<polygon fill="midnightblue" stroke="midnightblue" points="1856.4,-212.61 1866.45,-209.269 1856.51,-205.611 1856.4,-212.61"/>
</g>
<!-- Node36 -->
<g id="node34" class="node"><title>Node36</title>
<g id="a_node34"><a xlink:href="MEA_8h.html" target="_top" xlink:title="Computes a MEA (maximum expected accuracy) structure. ">
<polygon fill="none" stroke="black" points="1687.5,-73 1687.5,-92 1792.5,-92 1792.5,-73 1687.5,-73"/>
<text text-anchor="middle" x="1740" y="-80" font-family="Helvetica,sans-Serif" font-size="10.00">ViennaRNA/MEA.h</text>
</a>
</g>
</g>
<!-- Node9&#45;&gt;Node36 -->
<g id="edge48" class="edge"><title>Node9&#45;&gt;Node36</title>
<path fill="none" stroke="midnightblue" d="M1856.28,-204.209C1761.96,-197.069 1623.25,-183.561 1607,-165 1575.79,-129.341 1649.4,-104.349 1699.11,-92.1045"/>
<polygon fill="midnightblue" stroke="midnightblue" points="1856.17,-207.711 1866.41,-204.964 1856.7,-200.73 1856.17,-207.711"/>
</g>
<!-- Node37 -->
<g id="node35" class="node"><title>Node37</title>
<g id="a_node35"><a xlink:href="mfe_8h.html" target="_top" xlink:title="MFE calculations for single RNA sequences. ">
<polygon fill="none" stroke="red" points="3764,-140 3764,-159 3864,-159 3864,-140 3764,-140"/>
<text text-anchor="middle" x="3814" y="-147" font-family="Helvetica,sans-Serif" font-size="10.00">ViennaRNA/mfe.h</text>
</a>
</g>
</g>
<!-- Node9&#45;&gt;Node37 -->
<g id="edge49" class="edge"><title>Node9&#45;&gt;Node37</title>
<path fill="none" stroke="midnightblue" d="M2031.96,-210.112C2346.09,-210.152 3411.77,-207.107 3750,-165 3760.51,-163.691 3771.84,-161.42 3781.99,-159.058"/>
<polygon fill="midnightblue" stroke="midnightblue" points="2031.55,-206.612 2021.55,-210.109 2031.55,-213.612 2031.55,-206.612"/>
</g>
<!-- Node9&#45;&gt;Node39 -->
<g id="edge54" class="edge"><title>Node9&#45;&gt;Node39</title>
<path fill="none" stroke="midnightblue" d="M1856.26,-203C1772.51,-195.466 1643.14,-182.212 1532,-165 1521.15,-163.319 1509.45,-161.156 1499,-159.016"/>
<polygon fill="midnightblue" stroke="midnightblue" points="1855.97,-206.488 1866.25,-203.89 1856.6,-199.515 1855.97,-206.488"/>
</g>
<!-- Node40 -->
<g id="node37" class="node"><title>Node40</title>
<g id="a_node37"><a xlink:href="part__func__co_8h.html" target="_top" xlink:title="Partition function for two RNA sequences. ">
<polygon fill="none" stroke="black" points="1811,-73 1811,-92 1955,-92 1955,-73 1811,-73"/>
<text text-anchor="middle" x="1883" y="-80" font-family="Helvetica,sans-Serif" font-size="10.00">ViennaRNA/part_func_co.h</text>
</a>
</g>
</g>
<!-- Node9&#45;&gt;Node40 -->
<g id="edge72" class="edge"><title>Node9&#45;&gt;Node40</title>
<path fill="none" stroke="midnightblue" d="M1856.2,-210.401C1770.11,-208.698 1647.47,-199.954 1617,-165 1607.95,-154.615 1608.21,-144.612 1617,-134 1618.75,-131.881 1760.26,-105.844 1836.13,-92.0118"/>
<polygon fill="midnightblue" stroke="midnightblue" points="1856.19,-213.901 1866.24,-210.571 1856.31,-206.902 1856.19,-213.901"/>
</g>
<!-- Node41 -->
<g id="node38" class="node"><title>Node41</title>
<g id="a_node38"><a xlink:href="subopt_8h.html" target="_top" xlink:title="RNAsubopt and density of states declarations. ">
<polygon fill="none" stroke="black" points="1973.5,-73 1973.5,-92 2086.5,-92 2086.5,-73 1973.5,-73"/>
<text text-anchor="middle" x="2030" y="-80" font-family="Helvetica,sans-Serif" font-size="10.00">ViennaRNA/subopt.h</text>
</a>
</g>
</g>
<!-- Node9&#45;&gt;Node41 -->
<g id="edge89" class="edge"><title>Node9&#45;&gt;Node41</title>
<path fill="none" stroke="midnightblue" d="M1855.74,-208.437C1780.47,-205.014 1680.51,-194.791 1655,-165 1646.04,-154.535 1645.84,-144.291 1655,-134 1700.97,-82.3659 1895.82,-109.431 1964,-98 1973.83,-96.3511 1984.41,-94.1986 1994.16,-92.0587"/>
<polygon fill="midnightblue" stroke="midnightblue" points="1856.05,-211.953 1866.19,-208.877 1856.34,-204.96 1856.05,-211.953"/>
</g>
<!-- Node42 -->
<g id="node39" class="node"><title>Node42</title>
<g id="a_node39"><a xlink:href="part__func__up_8h.html" target="_top" xlink:title="Implementations for accessibility and RNA&#45;RNA interaction as a stepwise process. ">
<polygon fill="none" stroke="black" points="3310,-140 3310,-159 3454,-159 3454,-140 3310,-140"/>
<text text-anchor="middle" x="3382" y="-147" font-family="Helvetica,sans-Serif" font-size="10.00">ViennaRNA/part_func_up.h</text>
</a>
</g>
</g>
<!-- Node9&#45;&gt;Node42 -->
<g id="edge73" class="edge"><title>Node9&#45;&gt;Node42</title>
<path fill="none" stroke="midnightblue" d="M2031.92,-208.74C2291.8,-204.753 3053.62,-191.106 3301,-165 3314.07,-163.621 3328.21,-161.36 3340.96,-159.03"/>
<polygon fill="midnightblue" stroke="midnightblue" points="2031.72,-205.242 2021.77,-208.895 2031.83,-212.242 2031.72,-205.242"/>
</g>
<!-- Node43 -->
<g id="node40" class="node"><title>Node43</title>
<g id="a_node40"><a xlink:href="perturbation__fold_8h.html" target="_top" xlink:title="Find a vector of perturbation energies that minimizes the discripancies between predicted and observe...">
<polygon fill="none" stroke="black" points="326.5,-134.5 326.5,-164.5 457.5,-164.5 457.5,-134.5 326.5,-134.5"/>
<text text-anchor="start" x="334.5" y="-152.5" font-family="Helvetica,sans-Serif" font-size="10.00">ViennaRNA/perturbation</text>
<text text-anchor="middle" x="392" y="-141.5" font-family="Helvetica,sans-Serif" font-size="10.00">_fold.h</text>
</a>
</g>
</g>
<!-- Node9&#45;&gt;Node43 -->
<g id="edge74" class="edge"><title>Node9&#45;&gt;Node43</title>
<path fill="none" stroke="midnightblue" d="M1855.85,-209.026C1581.12,-205.72 742.653,-193.505 472,-165 467.368,-164.512 462.6,-163.909 457.809,-163.229"/>
<polygon fill="midnightblue" stroke="midnightblue" points="1856.12,-212.53 1866.16,-209.15 1856.2,-205.53 1856.12,-212.53"/>
</g>
<!-- Node44 -->
<g id="node41" class="node"><title>Node44</title>
<g id="a_node41"><a xlink:href="PKplex_8h_source.html" target="_top" xlink:title="ViennaRNA/PKplex.h">
<polygon fill="none" stroke="black" points="3472,-140 3472,-159 3588,-159 3588,-140 3472,-140"/>
<text text-anchor="middle" x="3530" y="-147" font-family="Helvetica,sans-Serif" font-size="10.00">ViennaRNA/PKplex.h</text>
</a>
</g>
</g>
<!-- Node9&#45;&gt;Node44 -->
<g id="edge76" class="edge"><title>Node9&#45;&gt;Node44</title>
<path fill="none" stroke="midnightblue" d="M2031.66,-209.517C2311.76,-207.64 3183.13,-199.137 3463,-165 3473.99,-163.66 3485.83,-161.38 3496.46,-159.02"/>
<polygon fill="midnightblue" stroke="midnightblue" points="2031.52,-206.017 2021.55,-209.583 2031.57,-213.017 2031.52,-206.017"/>
</g>
<!-- Node45 -->
<g id="node42" class="node"><title>Node45</title>
<g id="a_node42"><a xlink:href="plex_8h_source.html" target="_top" xlink:title="ViennaRNA/plex.h">
<polygon fill="none" stroke="black" points="3606,-140 3606,-159 3708,-159 3708,-140 3606,-140"/>
<text text-anchor="middle" x="3657" y="-147" font-family="Helvetica,sans-Serif" font-size="10.00">ViennaRNA/plex.h</text>
</a>
</g>
</g>
<!-- Node9&#45;&gt;Node45 -->
<g id="edge77" class="edge"><title>Node9&#45;&gt;Node45</title>
<path fill="none" stroke="midnightblue" d="M2032.23,-210.038C2329.11,-209.784 3290.44,-205.755 3597,-165 3606.88,-163.687 3617.5,-161.414 3627.02,-159.052"/>
<polygon fill="midnightblue" stroke="midnightblue" points="2031.95,-206.538 2021.95,-210.046 2031.95,-213.538 2031.95,-206.538"/>
</g>
<!-- Node46 -->
<g id="node43" class="node"><title>Node46</title>
<g id="a_node43"><a xlink:href="plot__layouts_8h.html" target="_top" xlink:title="Secondary structure plot layout algorithms. ">
<polygon fill="none" stroke="black" points="4408.5,-140 4408.5,-159 4547.5,-159 4547.5,-140 4408.5,-140"/>
<text text-anchor="middle" x="4478" y="-147" font-family="Helvetica,sans-Serif" font-size="10.00">ViennaRNA/plot_layouts.h</text>
</a>
</g>
</g>
<!-- Node9&#45;&gt;Node46 -->
<g id="edge78" class="edge"><title>Node9&#45;&gt;Node46</title>
<path fill="none" stroke="midnightblue" d="M2031.63,-209.184C2441.03,-205.267 4155.58,-187.634 4394,-165 4407.7,-163.699 4422.53,-161.43 4435.87,-159.068"/>
<polygon fill="midnightblue" stroke="midnightblue" points="2031.59,-205.685 2021.62,-209.28 2031.65,-212.684 2031.59,-205.685"/>
</g>
<!-- Node48 -->
<g id="node45" class="node"><title>Node48</title>
<g id="a_node45"><a xlink:href="PS__dot_8h.html" target="_top" xlink:title="Various functions for plotting RNA secondary structures, dot&#45;plots and other visualizations. ">
<polygon fill="none" stroke="black" points="4371.5,-6 4371.5,-25 4488.5,-25 4488.5,-6 4371.5,-6"/>
<text text-anchor="middle" x="4430" y="-13" font-family="Helvetica,sans-Serif" font-size="10.00">ViennaRNA/PS_dot.h</text>
</a>
</g>
</g>
<!-- Node9&#45;&gt;Node48 -->
<g id="edge82" class="edge"><title>Node9&#45;&gt;Node48</title>
<path fill="none" stroke="midnightblue" d="M2031.74,-209.421C2455.63,-206.49 4273.37,-192.348 4325,-165 4340.14,-156.982 4405.06,-55.8566 4424.49,-25.2311"/>
<polygon fill="midnightblue" stroke="midnightblue" points="2031.66,-205.921 2021.68,-209.49 2031.71,-212.921 2031.66,-205.921"/>
</g>
<!-- Node49 -->
<g id="node46" class="node"><title>Node49</title>
<g id="a_node46"><a xlink:href="profiledist_8h.html" target="_top" xlink:title="ViennaRNA/profiledist.h">
<polygon fill="none" stroke="black" points="3882,-140 3882,-159 4010,-159 4010,-140 3882,-140"/>
<text text-anchor="middle" x="3946" y="-147" font-family="Helvetica,sans-Serif" font-size="10.00">ViennaRNA/profiledist.h</text>
</a>
</g>
</g>
<!-- Node9&#45;&gt;Node49 -->
<g id="edge81" class="edge"><title>Node9&#45;&gt;Node49</title>
<path fill="none" stroke="midnightblue" d="M2032.06,-209.966C2359.85,-209.526 3509.02,-205.09 3873,-165 3884.94,-163.684 3897.84,-161.411 3909.43,-159.049"/>
<polygon fill="midnightblue" stroke="midnightblue" points="2031.67,-206.467 2021.68,-209.979 2031.68,-213.466 2031.67,-206.467"/>
</g>
<!-- Node50 -->
<g id="node47" class="node"><title>Node50</title>
<g id="a_node47"><a xlink:href="snofold_8h_source.html" target="_top" xlink:title="ViennaRNA/snofold.h">
<polygon fill="none" stroke="black" points="4028.5,-140 4028.5,-159 4145.5,-159 4145.5,-140 4028.5,-140"/>
<text text-anchor="middle" x="4087" y="-147" font-family="Helvetica,sans-Serif" font-size="10.00">ViennaRNA/snofold.h</text>
</a>
</g>
</g>
<!-- Node9&#45;&gt;Node50 -->
<g id="edge83" class="edge"><title>Node9&#45;&gt;Node50</title>
<path fill="none" stroke="midnightblue" d="M2031.8,-210.299C2374.84,-211.124 3625.14,-210.848 4019,-165 4030.15,-163.702 4042.17,-161.433 4052.96,-159.071"/>
<polygon fill="midnightblue" stroke="midnightblue" points="2031.68,-206.798 2021.67,-210.273 2031.66,-213.798 2031.68,-206.798"/>
</g>
<!-- Node51 -->
<g id="node48" class="node"><title>Node51</title>
<g id="a_node48"><a xlink:href="snoop_8h_source.html" target="_top" xlink:title="ViennaRNA/snoop.h">
<polygon fill="none" stroke="black" points="4164,-140 4164,-159 4276,-159 4276,-140 4164,-140"/>
<text text-anchor="middle" x="4220" y="-147" font-family="Helvetica,sans-Serif" font-size="10.00">ViennaRNA/snoop.h</text>
</a>
</g>
</g>
<!-- Node9&#45;&gt;Node51 -->
<g id="edge84" class="edge"><title>Node9&#45;&gt;Node51</title>
<path fill="none" stroke="midnightblue" d="M2031.75,-209.247C2416.18,-205.811 3942.05,-190.659 4155,-165 4165.79,-163.7 4177.42,-161.399 4187.82,-159.009"/>
<polygon fill="midnightblue" stroke="midnightblue" points="2031.49,-205.75 2021.52,-209.339 2031.55,-212.749 2031.49,-205.75"/>
</g>
<!-- Node52 -->
<g id="node49" class="node"><title>Node52</title>
<g id="a_node49"><a xlink:href="string__utils_8h.html" target="_top" xlink:title="General utility&#45; and helper&#45;functions for RNA sequence and structure strings used throughout the Vien...">
<polygon fill="none" stroke="black" points="934.5,-140 934.5,-159 1067.5,-159 1067.5,-140 934.5,-140"/>
<text text-anchor="middle" x="1001" y="-147" font-family="Helvetica,sans-Serif" font-size="10.00">ViennaRNA/string_utils.h</text>
</a>
</g>
</g>
<!-- Node9&#45;&gt;Node52 -->
<g id="edge85" class="edge"><title>Node9&#45;&gt;Node52</title>
<path fill="none" stroke="midnightblue" d="M1856.39,-209.48C1699.4,-207.654 1359.98,-199.641 1076,-165 1064.15,-163.555 1051.37,-161.333 1039.76,-159.061"/>
<polygon fill="midnightblue" stroke="midnightblue" points="1856.43,-212.98 1866.47,-209.591 1856.51,-205.981 1856.43,-212.98"/>
</g>
<!-- Node53 -->
<g id="node50" class="node"><title>Node53</title>
<g id="a_node50"><a xlink:href="structure__utils_8h.html" target="_top" xlink:title="Various utility&#45; and helper&#45;functions for secondary structure parsing, converting, etc. ">
<polygon fill="none" stroke="black" points="1085.5,-134.5 1085.5,-164.5 1200.5,-164.5 1200.5,-134.5 1085.5,-134.5"/>
<text text-anchor="start" x="1093.5" y="-152.5" font-family="Helvetica,sans-Serif" font-size="10.00">ViennaRNA/structure</text>
<text text-anchor="middle" x="1143" y="-141.5" font-family="Helvetica,sans-Serif" font-size="10.00">_utils.h</text>
</a>
</g>
</g>
<!-- Node9&#45;&gt;Node53 -->
<g id="edge87" class="edge"><title>Node9&#45;&gt;Node53</title>
<path fill="none" stroke="midnightblue" d="M1856.2,-208.461C1718.87,-205.181 1445.14,-195.133 1215,-165 1210.32,-164.388 1205.49,-163.649 1200.65,-162.834"/>
<polygon fill="midnightblue" stroke="midnightblue" points="1856.17,-211.961 1866.25,-208.694 1856.34,-204.963 1856.17,-211.961"/>
</g>
<!-- Node14&#45;&gt;Node13 -->
<g id="edge12" class="edge"><title>Node14&#45;&gt;Node13</title>
<path fill="none" stroke="midnightblue" d="M1829.33,-134.106C1909.98,-124.619 2079.76,-139.618 2129,-98 2150.97,-79.4327 2153.39,-41.864 2153.3,-25.0143"/>
<polygon fill="midnightblue" stroke="midnightblue" points="1828.45,-130.695 1819.03,-135.54 1829.41,-137.628 1828.45,-130.695"/>
</g>
<!-- Node14&#45;&gt;Node15 -->
<g id="edge13" class="edge"><title>Node14&#45;&gt;Node15</title>
<path fill="none" stroke="midnightblue" d="M1829.08,-133.934C1979.44,-110.989 2020.29,-119.393 2167,-98 2178.59,-96.3107 2191.08,-94.1446 2202.59,-92.0046"/>
<polygon fill="midnightblue" stroke="midnightblue" points="1828.37,-130.503 1819.02,-135.492 1829.44,-137.421 1828.37,-130.503"/>
</g>
<!-- Node15&#45;&gt;Node13 -->
<g id="edge14" class="edge"><title>Node15&#45;&gt;Node13</title>
<path fill="none" stroke="midnightblue" d="M2224.36,-66.9196C2206.18,-54.0695 2180.29,-35.7821 2165.21,-25.1273"/>
<polygon fill="midnightblue" stroke="midnightblue" points="2222.41,-69.822 2232.59,-72.7338 2226.44,-64.1049 2222.41,-69.822"/>
</g>
<!-- Node16&#45;&gt;Node15 -->
<g id="edge16" class="edge"><title>Node16&#45;&gt;Node15</title>
<path fill="none" stroke="midnightblue" d="M2109.85,-136.104C2143.01,-123.198 2194.06,-103.327 2223,-92.0637"/>
<polygon fill="midnightblue" stroke="midnightblue" points="2108.23,-132.98 2100.18,-139.869 2110.76,-139.503 2108.23,-132.98"/>
</g>
<!-- Node19&#45;&gt;Node6 -->
<g id="edge21" class="edge"><title>Node19&#45;&gt;Node6</title>
<path fill="none" stroke="midnightblue" d="M537.414,-70.3384C579.239,-59.3319 643.298,-42.4743 688.575,-30.5592"/>
<polygon fill="midnightblue" stroke="midnightblue" points="536.325,-67.0058 527.545,-72.9355 538.106,-73.7753 536.325,-67.0058"/>
</g>
<!-- Node19&#45;&gt;Node9 -->
<g id="edge20" class="edge"><title>Node19&#45;&gt;Node9</title>
<path fill="none" stroke="midnightblue" d="M502.308,-102.217C506.391,-121.435 512.377,-150.519 532,-165 586.118,-204.938 1578.52,-209.489 1866.39,-209.96"/>
<polygon fill="midnightblue" stroke="midnightblue" points="505.667,-101.201 500.036,-92.2262 498.841,-102.753 505.667,-101.201"/>
</g>
<!-- Node20&#45;&gt;Node19 -->
<g id="edge23" class="edge"><title>Node20&#45;&gt;Node19</title>
<path fill="none" stroke="midnightblue" d="M564.705,-128.808C545.787,-116.512 522.39,-101.303 508.088,-92.007"/>
<polygon fill="midnightblue" stroke="midnightblue" points="563.01,-131.881 573.301,-134.396 566.825,-126.011 563.01,-131.881"/>
</g>
<!-- Node21&#45;&gt;Node19 -->
<g id="edge25" class="edge"><title>Node21&#45;&gt;Node19</title>
<path fill="none" stroke="midnightblue" d="M676.425,-131.83C628.671,-119.109 564.845,-102.106 527.015,-92.0287"/>
<polygon fill="midnightblue" stroke="midnightblue" points="675.792,-135.284 686.356,-134.476 677.594,-128.52 675.792,-135.284"/>
</g>
<!-- Node22&#45;&gt;Node19 -->
<g id="edge27" class="edge"><title>Node22&#45;&gt;Node19</title>
<path fill="none" stroke="midnightblue" d="M136.654,-134.558C137.777,-134.369 138.893,-134.183 140,-134 240.422,-117.411 357.375,-101.413 428.782,-92.0173"/>
<polygon fill="midnightblue" stroke="midnightblue" points="135.668,-131.176 126.409,-136.326 136.859,-138.074 135.668,-131.176"/>
</g>
<!-- Node23&#45;&gt;Node19 -->
<g id="edge29" class="edge"><title>Node23&#45;&gt;Node19</title>
<path fill="none" stroke="midnightblue" d="M308.807,-131.91C357.768,-119.18 423.357,-102.127 462.197,-92.0287"/>
<polygon fill="midnightblue" stroke="midnightblue" points="307.736,-128.572 298.938,-134.476 309.497,-135.347 307.736,-128.572"/>
</g>
<!-- Node24&#45;&gt;Node9 -->
<g id="edge31" class="edge"><title>Node24&#45;&gt;Node9</title>
<path fill="none" stroke="midnightblue" d="M2609.83,-160.891C2601,-162.44 2591.75,-163.888 2583,-165 2381.76,-190.576 2142.37,-202.687 2021.66,-207.438"/>
<polygon fill="midnightblue" stroke="midnightblue" points="2610.74,-164.282 2619.95,-159.039 2609.48,-157.396 2610.74,-164.282"/>
</g>
<!-- Node26&#45;&gt;Node15 -->
<g id="edge34" class="edge"><title>Node26&#45;&gt;Node15</title>
<path fill="none" stroke="midnightblue" d="M1970.63,-134.827C1972.1,-134.549 1973.56,-134.273 1975,-134 2053.72,-119.128 2145.4,-102.027 2199.13,-92.0274"/>
<polygon fill="midnightblue" stroke="midnightblue" points="1969.97,-131.389 1960.8,-136.69 1971.28,-138.266 1969.97,-131.389"/>
</g>
<!-- Node27&#45;&gt;Node28 -->
<g id="edge36" class="edge"><title>Node27&#45;&gt;Node28</title>
<path fill="none" stroke="midnightblue" d="M3901.25,-64.0347C3893.51,-51.4499 3883.39,-35.0072 3877.31,-25.1273"/>
<polygon fill="midnightblue" stroke="midnightblue" points="3898.38,-66.0516 3906.61,-72.7338 3904.35,-62.3829 3898.38,-66.0516"/>
</g>
<!-- Node34&#45;&gt;Node9 -->
<g id="edge44" class="edge"><title>Node34&#45;&gt;Node9</title>
<path fill="none" stroke="midnightblue" d="M3191.7,-161.068C3183.61,-162.627 3175.08,-164.032 3167,-165 2944.5,-191.66 2254.9,-205.067 2021.82,-208.853"/>
<polygon fill="midnightblue" stroke="midnightblue" points="3192.55,-164.466 3201.65,-159.033 3191.15,-157.609 3192.55,-164.466"/>
</g>
<!-- Node37&#45;&gt;Node13 -->
<g id="edge50" class="edge"><title>Node37&#45;&gt;Node13</title>
<path fill="none" stroke="midnightblue" d="M3811.07,-129.892C3806.94,-110.52 3797.36,-81.0778 3776,-67 3709.21,-22.9754 2484.75,-17.319 2208.19,-16.6025"/>
<polygon fill="midnightblue" stroke="midnightblue" points="3807.67,-130.743 3812.93,-139.943 3814.56,-129.474 3807.67,-130.743"/>
</g>
<!-- Node37&#45;&gt;Node17 -->
<g id="edge51" class="edge"><title>Node37&#45;&gt;Node17</title>
<path fill="none" stroke="midnightblue" d="M3791.45,-134.269C3771.06,-121.403 3741.71,-102.879 3724.67,-92.1273"/>
<polygon fill="midnightblue" stroke="midnightblue" points="3789.78,-137.357 3800.11,-139.734 3793.52,-131.437 3789.78,-137.357"/>
</g>
<!-- Node37&#45;&gt;Node28 -->
<g id="edge52" class="edge"><title>Node37&#45;&gt;Node28</title>
<path fill="none" stroke="midnightblue" d="M3821.89,-130.54C3834.56,-101.717 3858.94,-46.2241 3868.26,-25.0212"/>
<polygon fill="midnightblue" stroke="midnightblue" points="3818.62,-129.276 3817.81,-139.839 3825.03,-132.092 3818.62,-129.276"/>
</g>
<!-- Node39&#45;&gt;Node4 -->
<g id="edge63" class="edge"><title>Node39&#45;&gt;Node4</title>
<path fill="none" stroke="midnightblue" d="M1500.39,-136.002C1535.41,-120.727 1583.18,-93.6154 1559,-67 1529.14,-34.1329 1243.54,-22.0946 1106.14,-18.1795"/>
<polygon fill="midnightblue" stroke="midnightblue" points="1498.78,-132.882 1490.92,-139.986 1501.5,-139.334 1498.78,-132.882"/>
</g>
<!-- Node39&#45;&gt;Node6 -->
<g id="edge64" class="edge"><title>Node39&#45;&gt;Node6</title>
<path fill="none" stroke="midnightblue" d="M1480.05,-131.018C1491.06,-112.698 1503.35,-84.234 1487,-67 1434.78,-11.9464 880.146,-41.5498 805,-31 801.999,-30.5787 798.93,-30.085 795.842,-29.5388"/>
<polygon fill="midnightblue" stroke="midnightblue" points="1477.03,-129.254 1474.57,-139.56 1482.92,-133.036 1477.03,-129.254"/>
</g>
<!-- Node39&#45;&gt;Node7 -->
<g id="edge67" class="edge"><title>Node39&#45;&gt;Node7</title>
<path fill="none" stroke="midnightblue" d="M1488.82,-133.976C1511.05,-116.777 1540.57,-87.8401 1521,-67 1477.56,-20.7347 1013.93,-39.1998 951,-31 948.053,-30.616 945.046,-30.1839 942.014,-29.7156"/>
<polygon fill="midnightblue" stroke="midnightblue" points="1486.72,-131.177 1480.78,-139.951 1490.9,-136.796 1486.72,-131.177"/>
</g>
<!-- Node39&#45;&gt;Node9 -->
<g id="edge58" class="edge"><title>Node39&#45;&gt;Node9</title>
<path fill="none" stroke="midnightblue" d="M1526.35,-160.915C1534.32,-162.398 1542.37,-163.818 1550,-165 1659.57,-181.969 1786.86,-195.091 1866.5,-202.677"/>
<polygon fill="midnightblue" stroke="midnightblue" points="1526.82,-157.441 1516.34,-159.016 1525.52,-164.318 1526.82,-157.441"/>
</g>
<!-- Node39&#45;&gt;Node10 -->
<g id="edge55" class="edge"><title>Node39&#45;&gt;Node10</title>
<path fill="none" stroke="midnightblue" d="M1398.62,-140.723C1324.07,-131.974 1202.25,-116.534 1098,-98 1088.3,-96.275 1077.86,-94.1208 1068.21,-92.0049"/>
<polygon fill="midnightblue" stroke="midnightblue" points="1398.48,-144.231 1408.82,-141.913 1399.29,-137.278 1398.48,-144.231"/>
</g>
<!-- Node39&#45;&gt;Node13 -->
<g id="edge56" class="edge"><title>Node39&#45;&gt;Node13</title>
<path fill="none" stroke="midnightblue" d="M1495.87,-135.598C1545.23,-112.754 1643.05,-67.5301 1645,-67 1805.37,-23.4282 2003.33,-16.592 2097.79,-16.0532"/>
<polygon fill="midnightblue" stroke="midnightblue" points="1494.29,-132.471 1486.68,-139.848 1497.23,-138.824 1494.29,-132.471"/>
</g>
<!-- Node39&#45;&gt;Node15 -->
<g id="edge68" class="edge"><title>Node39&#45;&gt;Node15</title>
<path fill="none" stroke="midnightblue" d="M1537.37,-143.277C1653.02,-134.488 1892.52,-115.939 2095,-98 2123.28,-95.4948 2154.53,-92.5085 2181.15,-89.8989"/>
<polygon fill="midnightblue" stroke="midnightblue" points="1536.95,-139.799 1527.24,-144.046 1537.48,-146.779 1536.95,-139.799"/>
</g>
<!-- Node39&#45;&gt;Node17 -->
<g id="edge57" class="edge"><title>Node39&#45;&gt;Node17</title>
<path fill="none" stroke="midnightblue" d="M1537.39,-143.198C1580.68,-140.071 1637.56,-136.291 1688,-134 2468.02,-98.574 3418.42,-86.5969 3655.46,-84.0546"/>
<polygon fill="midnightblue" stroke="midnightblue" points="1536.98,-139.719 1527.26,-143.936 1537.48,-146.7 1536.98,-139.719"/>
</g>
<!-- Node39&#45;&gt;Node27 -->
<g id="edge59" class="edge"><title>Node39&#45;&gt;Node27</title>
<path fill="none" stroke="midnightblue" d="M1537.39,-143.061C1580.67,-139.883 1637.55,-136.096 1688,-134 2615.34,-95.4685 2849.63,-155.256 3776,-98 3804.08,-96.2642 3835.31,-93.0285 3860.75,-90.0534"/>
<polygon fill="midnightblue" stroke="midnightblue" points="1536.96,-139.582 1527.25,-143.812 1537.48,-146.563 1536.96,-139.582"/>
</g>
<!-- Node39&#45;&gt;Node28 -->
<g id="edge61" class="edge"><title>Node39&#45;&gt;Node28</title>
<path fill="none" stroke="midnightblue" d="M1513.31,-137.442C1545.98,-128.699 1590.69,-115.125 1628,-98 1651.76,-87.0916 1652.94,-74.4518 1678,-67 1784.05,-35.4678 3504.39,-19.5778 3821.85,-16.9072"/>
<polygon fill="midnightblue" stroke="midnightblue" points="1512.36,-134.072 1503.58,-139.999 1514.14,-140.842 1512.36,-134.072"/>
</g>
<!-- Node39&#45;&gt;Node29 -->
<g id="edge60" class="edge"><title>Node39&#45;&gt;Node29</title>
<path fill="none" stroke="midnightblue" d="M1415.93,-137.902C1366.89,-127.857 1291.38,-112.228 1226,-98 1223.11,-97.3702 1220.14,-96.7187 1217.14,-96.0565"/>
<polygon fill="midnightblue" stroke="midnightblue" points="1415.49,-141.383 1425.98,-139.959 1416.89,-134.525 1415.49,-141.383"/>
</g>
<!-- Node39&#45;&gt;Node33 -->
<g id="edge62" class="edge"><title>Node39&#45;&gt;Node33</title>
<path fill="none" stroke="midnightblue" d="M1434.7,-136.271C1399.57,-123.37 1345.12,-103.376 1314.32,-92.0637"/>
<polygon fill="midnightblue" stroke="midnightblue" points="1433.9,-139.707 1444.5,-139.869 1436.32,-133.136 1433.9,-139.707"/>
</g>
<!-- Node39&#45;&gt;Node35 -->
<g id="edge65" class="edge"><title>Node39&#45;&gt;Node35</title>
<path fill="none" stroke="midnightblue" d="M1455.9,-131.404C1446.96,-118.773 1435.17,-102.104 1428.11,-92.1273"/>
<polygon fill="midnightblue" stroke="midnightblue" points="1453.16,-133.593 1461.8,-139.734 1458.88,-129.549 1453.16,-133.593"/>
</g>
<!-- Node39&#45;&gt;Node36 -->
<g id="edge66" class="edge"><title>Node39&#45;&gt;Node36</title>
<path fill="none" stroke="midnightblue" d="M1513.76,-137.564C1567.39,-124.75 1655.12,-103.785 1704.08,-92.0834"/>
<polygon fill="midnightblue" stroke="midnightblue" points="1512.75,-134.207 1503.84,-139.936 1514.38,-141.015 1512.75,-134.207"/>
</g>
<!-- Node39&#45;&gt;Node40 -->
<g id="edge69" class="edge"><title>Node39&#45;&gt;Node40</title>
<path fill="none" stroke="midnightblue" d="M1537.09,-138.526C1604.49,-128.678 1709.89,-112.961 1801,-98 1812.27,-96.1493 1824.39,-94.06 1835.77,-92.0556"/>
<polygon fill="midnightblue" stroke="midnightblue" points="1536.41,-135.089 1527.02,-139.996 1537.42,-142.016 1536.41,-135.089"/>
</g>
<!-- Node39&#45;&gt;Node41 -->
<g id="edge70" class="edge"><title>Node39&#45;&gt;Node41</title>
<path fill="none" stroke="midnightblue" d="M1537.15,-141.671C1668.58,-128.663 1943.25,-101.324 1964,-98 1974.08,-96.3854 1984.93,-94.1935 1994.86,-92.0033"/>
<polygon fill="midnightblue" stroke="midnightblue" points="1536.79,-138.19 1527.18,-142.658 1537.47,-145.156 1536.79,-138.19"/>
</g>
<!-- Node43&#45;&gt;Node19 -->
<g id="edge75" class="edge"><title>Node43&#45;&gt;Node19</title>
<path fill="none" stroke="midnightblue" d="M422.94,-128.975C442.471,-116.649 466.722,-101.345 481.52,-92.007"/>
<polygon fill="midnightblue" stroke="midnightblue" points="420.938,-126.099 414.349,-134.396 424.674,-132.019 420.938,-126.099"/>
</g>
<!-- Node46&#45;&gt;Node47 -->
<g id="edge79" class="edge"><title>Node46&#45;&gt;Node47</title>
<path fill="none" stroke="midnightblue" d="M4478.88,-129.537C4479.45,-117.17 4480.16,-101.62 4480.6,-92.1273"/>
<polygon fill="midnightblue" stroke="midnightblue" points="4475.37,-129.583 4478.4,-139.734 4482.36,-129.906 4475.37,-129.583"/>
</g>
<!-- Node47&#45;&gt;Node48 -->
<g id="edge80" class="edge"><title>Node47&#45;&gt;Node48</title>
<path fill="none" stroke="midnightblue" d="M4467.87,-64.7705C4457.93,-52.0972 4444.67,-35.201 4436.77,-25.1273"/>
<polygon fill="midnightblue" stroke="midnightblue" points="4465.2,-67.0269 4474.12,-72.7338 4470.7,-62.7059 4465.2,-67.0269"/>
</g>
<!-- Node52&#45;&gt;Node3 -->
<g id="edge86" class="edge"><title>Node52&#45;&gt;Node3</title>
<path fill="none" stroke="midnightblue" d="M974.285,-135.444C947.941,-122.569 908.426,-103.257 885.734,-92.1672"/>
<polygon fill="midnightblue" stroke="midnightblue" points="972.817,-138.622 983.339,-139.869 975.891,-132.333 972.817,-138.622"/>
</g>
<!-- Node53&#45;&gt;Node3 -->
<g id="edge88" class="edge"><title>Node53&#45;&gt;Node3</title>
<path fill="none" stroke="midnightblue" d="M1075.49,-132.543C1021.39,-119.757 947.588,-102.312 904.142,-92.0428"/>
<polygon fill="midnightblue" stroke="midnightblue" points="1074.81,-135.98 1085.35,-134.874 1076.42,-129.167 1074.81,-135.98"/>
</g>
</g>
</svg>
