<?xml version="1.0" encoding="UTF-8" standalone="no"?>
<!DOCTYPE svg PUBLIC "-//W3C//DTD SVG 1.1//EN"
 "http://www.w3.org/Graphics/SVG/1.1/DTD/svg11.dtd">
<!-- Generated by graphviz version 2.38.0 (20140413.2041)
 -->
<!-- Title: ViennaRNA/multibranch_loops.h Pages: 1 -->
<svg width="1253pt" height="408pt"
 viewBox="0.00 0.00 1252.50 408.00" xmlns="http://www.w3.org/2000/svg" xmlns:xlink="http://www.w3.org/1999/xlink">
<g id="graph0" class="graph" transform="scale(1 1) rotate(0) translate(4 404)">
<title>ViennaRNA/multibranch_loops.h</title>
<!-- Node0 -->
<g id="node1" class="node"><title>Node0</title>
<polygon fill="#bfbfbf" stroke="black" points="705,-369.5 705,-399.5 833,-399.5 833,-369.5 705,-369.5"/>
<text text-anchor="start" x="713" y="-387.5" font-family="Helvetica,sans-Serif" font-size="10.00">ViennaRNA/multibranch</text>
<text text-anchor="middle" x="769" y="-376.5" font-family="Helvetica,sans-Serif" font-size="10.00">_loops.h</text>
</g>
<!-- Node1 -->
<g id="node2" class="node"><title>Node1</title>
<g id="a_node2"><a xlink:href="utils_8h.html" target="_top" xlink:title="General utility&#45; and helper&#45;functions used throughout the ViennaRNA Package. ">
<polygon fill="none" stroke="black" points="804.5,-313.5 804.5,-332.5 905.5,-332.5 905.5,-313.5 804.5,-313.5"/>
<text text-anchor="middle" x="855" y="-320.5" font-family="Helvetica,sans-Serif" font-size="10.00">ViennaRNA/utils.h</text>
</a>
</g>
</g>
<!-- Node0&#45;&gt;Node1 -->
<g id="edge1" class="edge"><title>Node0&#45;&gt;Node1</title>
<path fill="none" stroke="midnightblue" d="M789.381,-369.399C802.908,-360.04 820.611,-347.792 834.22,-338.377"/>
<polygon fill="midnightblue" stroke="midnightblue" points="836.254,-341.226 842.486,-332.658 832.271,-335.469 836.254,-341.226"/>
</g>
<!-- Node3 -->
<g id="node4" class="node"><title>Node3</title>
<g id="a_node4"><a xlink:href="data__structures_8h.html" target="_top" xlink:title="Various data structures and pre&#45;processor macros. ">
<polygon fill="none" stroke="black" points="510.5,-190.5 510.5,-209.5 665.5,-209.5 665.5,-190.5 510.5,-190.5"/>
<text text-anchor="middle" x="588" y="-197.5" font-family="Helvetica,sans-Serif" font-size="10.00">ViennaRNA/data_structures.h</text>
</a>
</g>
</g>
<!-- Node0&#45;&gt;Node3 -->
<g id="edge38" class="edge"><title>Node0&#45;&gt;Node3</title>
<path fill="none" stroke="midnightblue" d="M704.858,-369.853C655.767,-355.676 591.331,-328.13 560,-277 548.47,-258.184 561.599,-233.876 573.487,-217.881"/>
<polygon fill="midnightblue" stroke="midnightblue" points="576.318,-219.944 579.799,-209.937 570.838,-215.589 576.318,-219.944"/>
</g>
<!-- Node7 -->
<g id="node8" class="node"><title>Node7</title>
<g id="a_node8"><a xlink:href="params_8h.html" target="_top" xlink:title="Functions to deal with sets of energy parameters. ">
<polygon fill="none" stroke="black" points="1032,-129 1032,-148 1150,-148 1150,-129 1032,-129"/>
<text text-anchor="middle" x="1091" y="-136" font-family="Helvetica,sans-Serif" font-size="10.00">ViennaRNA/params.h</text>
</a>
</g>
</g>
<!-- Node0&#45;&gt;Node7 -->
<g id="edge39" class="edge"><title>Node0&#45;&gt;Node7</title>
<path fill="none" stroke="midnightblue" d="M766.767,-369.34C763.335,-342.366 759.828,-283.007 788,-246 819.111,-205.133 962.364,-167.93 1040.24,-150.283"/>
<polygon fill="midnightblue" stroke="midnightblue" points="1041.33,-153.626 1050.32,-148.025 1039.8,-146.796 1041.33,-153.626"/>
</g>
<!-- Node2 -->
<g id="node3" class="node"><title>Node2</title>
<polygon fill="none" stroke="#bfbfbf" points="927.5,-190.5 927.5,-209.5 974.5,-209.5 974.5,-190.5 927.5,-190.5"/>
<text text-anchor="middle" x="951" y="-197.5" font-family="Helvetica,sans-Serif" font-size="10.00">stdio.h</text>
</g>
<!-- Node1&#45;&gt;Node2 -->
<g id="edge2" class="edge"><title>Node1&#45;&gt;Node2</title>
<path fill="none" stroke="midnightblue" d="M905.678,-318.013C959.99,-312.563 1040.99,-300.638 1060,-277 1068.64,-266.264 1067.66,-257.451 1060,-246 1043.39,-221.174 1010.31,-210.029 984.927,-205.035"/>
<polygon fill="midnightblue" stroke="midnightblue" points="985.388,-201.563 974.936,-203.301 984.191,-208.46 985.388,-201.563"/>
</g>
<!-- Node1&#45;&gt;Node3 -->
<g id="edge3" class="edge"><title>Node1&#45;&gt;Node3</title>
<path fill="none" stroke="midnightblue" d="M840.197,-313.33C814.46,-298.453 759.565,-267.582 711,-246 682.51,-233.339 649.255,-221.332 624.511,-212.91"/>
<polygon fill="midnightblue" stroke="midnightblue" points="625.398,-209.516 614.804,-209.641 623.164,-216.149 625.398,-209.516"/>
</g>
<!-- Node18 -->
<g id="node19" class="node"><title>Node18</title>
<g id="a_node19"><a xlink:href="string__utils_8h.html" target="_top" xlink:title="General utility&#45; and helper&#45;functions for RNA sequence and structure strings used throughout the Vien...">
<polygon fill="none" stroke="black" points="569.5,-252 569.5,-271 702.5,-271 702.5,-252 569.5,-252"/>
<text text-anchor="middle" x="636" y="-259" font-family="Helvetica,sans-Serif" font-size="10.00">ViennaRNA/string_utils.h</text>
</a>
</g>
</g>
<!-- Node1&#45;&gt;Node18 -->
<g id="edge30" class="edge"><title>Node1&#45;&gt;Node18</title>
<path fill="none" stroke="midnightblue" d="M823.623,-313.475C785.081,-303.004 719.595,-285.212 677.076,-273.66"/>
<polygon fill="midnightblue" stroke="midnightblue" points="677.887,-270.253 667.319,-271.009 676.052,-277.009 677.887,-270.253"/>
</g>
<!-- Node19 -->
<g id="node20" class="node"><title>Node19</title>
<g id="a_node20"><a xlink:href="structure__utils_8h.html" target="_top" xlink:title="Various utility&#45; and helper&#45;functions for secondary structure parsing, converting, etc. ">
<polygon fill="none" stroke="black" points="797.5,-246.5 797.5,-276.5 912.5,-276.5 912.5,-246.5 797.5,-246.5"/>
<text text-anchor="start" x="805.5" y="-264.5" font-family="Helvetica,sans-Serif" font-size="10.00">ViennaRNA/structure</text>
<text text-anchor="middle" x="855" y="-253.5" font-family="Helvetica,sans-Serif" font-size="10.00">_utils.h</text>
</a>
</g>
</g>
<!-- Node1&#45;&gt;Node19 -->
<g id="edge32" class="edge"><title>Node1&#45;&gt;Node19</title>
<path fill="none" stroke="midnightblue" d="M855,-313.475C855,-306.471 855,-296.192 855,-286.696"/>
<polygon fill="midnightblue" stroke="midnightblue" points="858.5,-286.523 855,-276.523 851.5,-286.523 858.5,-286.523"/>
</g>
<!-- Node20 -->
<g id="node21" class="node"><title>Node20</title>
<g id="a_node21"><a xlink:href="file__utils_8h.html" target="_top" xlink:title="Several utilities for file handling. ">
<polygon fill="none" stroke="black" points="931,-252 931,-271 1051,-271 1051,-252 931,-252"/>
<text text-anchor="middle" x="991" y="-259" font-family="Helvetica,sans-Serif" font-size="10.00">ViennaRNA/file_utils.h</text>
</a>
</g>
</g>
<!-- Node1&#45;&gt;Node20 -->
<g id="edge35" class="edge"><title>Node1&#45;&gt;Node20</title>
<path fill="none" stroke="midnightblue" d="M874.485,-313.475C897.41,-303.445 935.685,-286.7 962.075,-275.155"/>
<polygon fill="midnightblue" stroke="midnightblue" points="963.792,-278.224 971.551,-271.009 960.986,-271.811 963.792,-278.224"/>
</g>
<!-- Node21 -->
<g id="node22" class="node"><title>Node21</title>
<g id="a_node22"><a xlink:href="alphabet_8h.html" target="_top" xlink:title="Functions to process, convert, and generally handle different nucleotide and/or base pair alphabets...">
<polygon fill="none" stroke="black" points="1121.5,-190.5 1121.5,-209.5 1244.5,-209.5 1244.5,-190.5 1121.5,-190.5"/>
<text text-anchor="middle" x="1183" y="-197.5" font-family="Helvetica,sans-Serif" font-size="10.00">ViennaRNA/alphabet.h</text>
</a>
</g>
</g>
<!-- Node1&#45;&gt;Node21 -->
<g id="edge36" class="edge"><title>Node1&#45;&gt;Node21</title>
<path fill="none" stroke="midnightblue" d="M905.559,-317.982C952.003,-312.877 1021.92,-301.561 1078,-277 1112.63,-261.833 1147.03,-233.842 1166.58,-216.391"/>
<polygon fill="midnightblue" stroke="midnightblue" points="1168.98,-218.945 1174.01,-209.625 1164.26,-213.77 1168.98,-218.945"/>
</g>
<!-- Node4 -->
<g id="node5" class="node"><title>Node4</title>
<g id="a_node5"><a xlink:href="energy__const_8h.html" target="_top" xlink:title="Energy parameter constants. ">
<polygon fill="none" stroke="black" points="842.5,-62 842.5,-81 989.5,-81 989.5,-62 842.5,-62"/>
<text text-anchor="middle" x="916" y="-69" font-family="Helvetica,sans-Serif" font-size="10.00">ViennaRNA/energy_const.h</text>
</a>
</g>
</g>
<!-- Node3&#45;&gt;Node4 -->
<g id="edge4" class="edge"><title>Node3&#45;&gt;Node4</title>
<path fill="none" stroke="midnightblue" d="M585.027,-190.204C580.355,-174.571 573.432,-141.826 590,-123 605.865,-104.974 740.86,-88.8923 832.085,-79.9442"/>
<polygon fill="midnightblue" stroke="midnightblue" points="832.535,-83.417 842.151,-78.9682 831.86,-76.4496 832.535,-83.417"/>
</g>
<!-- Node6 -->
<g id="node7" class="node"><title>Node6</title>
<g id="a_node7"><a xlink:href="model_8h.html" target="_top" xlink:title="The model details data structure and its corresponding modifiers. ">
<polygon fill="none" stroke="black" points="1122.5,-62 1122.5,-81 1233.5,-81 1233.5,-62 1122.5,-62"/>
<text text-anchor="middle" x="1178" y="-69" font-family="Helvetica,sans-Serif" font-size="10.00">ViennaRNA/model.h</text>
</a>
</g>
</g>
<!-- Node3&#45;&gt;Node6 -->
<g id="edge6" class="edge"><title>Node3&#45;&gt;Node6</title>
<path fill="none" stroke="midnightblue" d="M665.533,-197.899C812.975,-195.086 1122.41,-185.464 1159,-154 1176.87,-138.631 1179.72,-110.007 1179.41,-91.1025"/>
<polygon fill="midnightblue" stroke="midnightblue" points="1182.91,-90.8541 1178.94,-81.0306 1175.91,-91.1849 1182.91,-90.8541"/>
</g>
<!-- Node3&#45;&gt;Node7 -->
<g id="edge7" class="edge"><title>Node3&#45;&gt;Node7</title>
<path fill="none" stroke="midnightblue" d="M665.812,-192.948C751.459,-186.026 892.883,-173.122 1014,-154 1021.05,-152.887 1028.47,-151.515 1035.83,-150.062"/>
<polygon fill="midnightblue" stroke="midnightblue" points="1036.67,-153.463 1045.77,-148.049 1035.28,-146.602 1036.67,-153.463"/>
</g>
<!-- Node8 -->
<g id="node9" class="node"><title>Node8</title>
<g id="a_node9"><a xlink:href="dp__matrices_8h.html" target="_top" xlink:title="Functions to deal with standard dynamic programming (DP) matrices. ">
<polygon fill="none" stroke="black" points="137,-129 137,-148 277,-148 277,-129 137,-129"/>
<text text-anchor="middle" x="207" y="-136" font-family="Helvetica,sans-Serif" font-size="10.00">ViennaRNA/dp_matrices.h</text>
</a>
</g>
</g>
<!-- Node3&#45;&gt;Node8 -->
<g id="edge11" class="edge"><title>Node3&#45;&gt;Node8</title>
<path fill="none" stroke="midnightblue" d="M519.75,-190.467C456.506,-181.833 360.144,-167.821 277,-154 269.262,-152.714 261.111,-151.293 253.197,-149.858"/>
<polygon fill="midnightblue" stroke="midnightblue" points="253.817,-146.414 243.348,-148.043 252.548,-153.298 253.817,-146.414"/>
</g>
<!-- Node9 -->
<g id="node10" class="node"><title>Node9</title>
<g id="a_node10"><a xlink:href="constraints_8h.html" target="_top" xlink:title="Functions and data structures for constraining secondary structure predictions and evaluation...">
<polygon fill="none" stroke="black" points="295,-129 295,-148 429,-148 429,-129 295,-129"/>
<text text-anchor="middle" x="362" y="-136" font-family="Helvetica,sans-Serif" font-size="10.00">ViennaRNA/constraints.h</text>
</a>
</g>
</g>
<!-- Node3&#45;&gt;Node9 -->
<g id="edge13" class="edge"><title>Node3&#45;&gt;Node9</title>
<path fill="none" stroke="midnightblue" d="M550.719,-190.475C508.75,-180.026 441.199,-162.287 399.249,-150.733"/>
<polygon fill="midnightblue" stroke="midnightblue" points="399.995,-147.308 389.423,-148.009 398.124,-154.054 399.995,-147.308"/>
</g>
<!-- Node15 -->
<g id="node16" class="node"><title>Node15</title>
<g id="a_node16"><a xlink:href="grammar_8h.html" target="_top" xlink:title="Implementations for the RNA folding grammar. ">
<polygon fill="none" stroke="black" points="599.5,-129 599.5,-148 724.5,-148 724.5,-129 599.5,-129"/>
<text text-anchor="middle" x="662" y="-136" font-family="Helvetica,sans-Serif" font-size="10.00">ViennaRNA/grammar.h</text>
</a>
</g>
</g>
<!-- Node3&#45;&gt;Node15 -->
<g id="edge25" class="edge"><title>Node3&#45;&gt;Node15</title>
<path fill="none" stroke="midnightblue" d="M593.702,-190.475C603.49,-180.931 622.597,-165.307 638.256,-153.868"/>
<polygon fill="midnightblue" stroke="midnightblue" points="640.387,-156.648 646.52,-148.009 636.338,-150.938 640.387,-156.648"/>
</g>
<!-- Node16 -->
<g id="node17" class="node"><title>Node16</title>
<g id="a_node17"><a xlink:href="structured__domains_8h.html" target="_top" xlink:title="This module provides interfaces that deal with additional structured domains in the folding grammar...">
<polygon fill="none" stroke="black" points="742.5,-123.5 742.5,-153.5 863.5,-153.5 863.5,-123.5 742.5,-123.5"/>
<text text-anchor="start" x="750.5" y="-141.5" font-family="Helvetica,sans-Serif" font-size="10.00">ViennaRNA/structured</text>
<text text-anchor="middle" x="803" y="-130.5" font-family="Helvetica,sans-Serif" font-size="10.00">_domains.h</text>
</a>
</g>
</g>
<!-- Node3&#45;&gt;Node16 -->
<g id="edge27" class="edge"><title>Node3&#45;&gt;Node16</title>
<path fill="none" stroke="midnightblue" d="M618.804,-190.475C650.985,-181.569 702.298,-167.369 742.601,-156.215"/>
<polygon fill="midnightblue" stroke="midnightblue" points="743.625,-159.563 752.329,-153.523 741.757,-152.817 743.625,-159.563"/>
</g>
<!-- Node17 -->
<g id="node18" class="node"><title>Node17</title>
<g id="a_node18"><a xlink:href="unstructured__domains_8h.html" target="_top" xlink:title="Functions to modify unstructured domains, e.g. to incorporate ligands binding to unpaired stretches...">
<polygon fill="none" stroke="black" points="882,-123.5 882,-153.5 1014,-153.5 1014,-123.5 882,-123.5"/>
<text text-anchor="start" x="890" y="-141.5" font-family="Helvetica,sans-Serif" font-size="10.00">ViennaRNA/unstructured</text>
<text text-anchor="middle" x="948" y="-130.5" font-family="Helvetica,sans-Serif" font-size="10.00">_domains.h</text>
</a>
</g>
</g>
<!-- Node3&#45;&gt;Node17 -->
<g id="edge28" class="edge"><title>Node3&#45;&gt;Node17</title>
<path fill="none" stroke="midnightblue" d="M638.381,-190.475C693.62,-181.792 784.563,-167.693 863,-154 865.853,-153.502 868.765,-152.985 871.711,-152.456"/>
<polygon fill="midnightblue" stroke="midnightblue" points="872.607,-155.85 881.82,-150.619 871.355,-148.963 872.607,-155.85"/>
</g>
<!-- Node5 -->
<g id="node6" class="node"><title>Node5</title>
<polygon fill="none" stroke="#bfbfbf" points="892,-0.5 892,-19.5 940,-19.5 940,-0.5 892,-0.5"/>
<text text-anchor="middle" x="916" y="-7.5" font-family="Helvetica,sans-Serif" font-size="10.00">limits.h</text>
</g>
<!-- Node4&#45;&gt;Node5 -->
<g id="edge5" class="edge"><title>Node4&#45;&gt;Node5</title>
<path fill="none" stroke="midnightblue" d="M916,-61.9751C916,-53.5803 916,-40.4806 916,-29.6631"/>
<polygon fill="midnightblue" stroke="midnightblue" points="919.5,-29.5091 916,-19.5091 912.5,-29.5091 919.5,-29.5091"/>
</g>
<!-- Node7&#45;&gt;Node3 -->
<g id="edge9" class="edge"><title>Node7&#45;&gt;Node3</title>
<path fill="none" stroke="midnightblue" d="M1063.09,-148.049C1053.29,-150.214 1042.25,-152.381 1032,-154 909.42,-173.353 766.039,-186.337 676.048,-193.196"/>
<polygon fill="midnightblue" stroke="midnightblue" points="675.594,-189.721 665.885,-193.962 676.12,-196.701 675.594,-189.721"/>
</g>
<!-- Node7&#45;&gt;Node4 -->
<g id="edge8" class="edge"><title>Node7&#45;&gt;Node4</title>
<path fill="none" stroke="midnightblue" d="M1067.76,-128.869C1037.21,-117.522 983.374,-97.5246 948.717,-84.6522"/>
<polygon fill="midnightblue" stroke="midnightblue" points="949.649,-81.2646 939.056,-81.0637 947.212,-87.8266 949.649,-81.2646"/>
</g>
<!-- Node7&#45;&gt;Node6 -->
<g id="edge10" class="edge"><title>Node7&#45;&gt;Node6</title>
<path fill="none" stroke="midnightblue" d="M1102.73,-128.734C1116.95,-118.111 1141.13,-100.049 1158.24,-87.2642"/>
<polygon fill="midnightblue" stroke="midnightblue" points="1160.54,-89.9165 1166.45,-81.1273 1156.35,-84.3087 1160.54,-89.9165"/>
</g>
<!-- Node8&#45;&gt;Node3 -->
<g id="edge12" class="edge"><title>Node8&#45;&gt;Node3</title>
<path fill="none" stroke="midnightblue" d="M260.799,-148.043C272.154,-150.069 283.995,-152.171 295,-154 373.597,-167.065 464.006,-180.301 523.442,-189.003"/>
<polygon fill="midnightblue" stroke="midnightblue" points="523.036,-192.481 533.438,-190.467 524.05,-185.555 523.036,-192.481"/>
</g>
<!-- Node9&#45;&gt;Node3 -->
<g id="edge14" class="edge"><title>Node9&#45;&gt;Node3</title>
<path fill="none" stroke="midnightblue" d="M399.217,-148.009C441.161,-158.451 508.711,-176.189 550.687,-187.749"/>
<polygon fill="midnightblue" stroke="midnightblue" points="549.949,-191.176 560.52,-190.475 551.819,-184.431 549.949,-191.176"/>
</g>
<!-- Node10 -->
<g id="node11" class="node"><title>Node10</title>
<g id="a_node11"><a xlink:href="constraints__hard_8h.html" target="_top" xlink:title="Functions and data structures for handling of secondary structure hard constraints. ">
<polygon fill="none" stroke="black" points="0,-56.5 0,-86.5 126,-86.5 126,-56.5 0,-56.5"/>
<text text-anchor="start" x="8" y="-74.5" font-family="Helvetica,sans-Serif" font-size="10.00">ViennaRNA/constraints</text>
<text text-anchor="middle" x="63" y="-63.5" font-family="Helvetica,sans-Serif" font-size="10.00">_hard.h</text>
</a>
</g>
</g>
<!-- Node9&#45;&gt;Node10 -->
<g id="edge15" class="edge"><title>Node9&#45;&gt;Node10</title>
<path fill="none" stroke="midnightblue" d="M322.604,-128.936C275.309,-118.654 195.025,-101.201 136.233,-88.4202"/>
<polygon fill="midnightblue" stroke="midnightblue" points="136.771,-84.9555 126.256,-86.2512 135.284,-91.7957 136.771,-84.9555"/>
</g>
<!-- Node11 -->
<g id="node12" class="node"><title>Node11</title>
<g id="a_node12"><a xlink:href="constraints__soft_8h.html" target="_top" xlink:title="Functions and data structures for secondary structure soft constraints. ">
<polygon fill="none" stroke="black" points="144,-56.5 144,-86.5 270,-86.5 270,-56.5 144,-56.5"/>
<text text-anchor="start" x="152" y="-74.5" font-family="Helvetica,sans-Serif" font-size="10.00">ViennaRNA/constraints</text>
<text text-anchor="middle" x="207" y="-63.5" font-family="Helvetica,sans-Serif" font-size="10.00">_soft.h</text>
</a>
</g>
</g>
<!-- Node9&#45;&gt;Node11 -->
<g id="edge17" class="edge"><title>Node9&#45;&gt;Node11</title>
<path fill="none" stroke="midnightblue" d="M341.417,-128.869C318.159,-119.115 279.658,-102.97 249.809,-90.452"/>
<polygon fill="midnightblue" stroke="midnightblue" points="251.027,-87.1677 240.452,-86.5281 248.32,-93.6231 251.027,-87.1677"/>
</g>
<!-- Node12 -->
<g id="node13" class="node"><title>Node12</title>
<g id="a_node13"><a xlink:href="constraints__SHAPE_8h.html" target="_top" xlink:title="This module provides function to incorporate SHAPE reactivity data into the folding recursions by mea...">
<polygon fill="none" stroke="black" points="288,-56.5 288,-86.5 414,-86.5 414,-56.5 288,-56.5"/>
<text text-anchor="start" x="296" y="-74.5" font-family="Helvetica,sans-Serif" font-size="10.00">ViennaRNA/constraints</text>
<text text-anchor="middle" x="351" y="-63.5" font-family="Helvetica,sans-Serif" font-size="10.00">_SHAPE.h</text>
</a>
</g>
</g>
<!-- Node9&#45;&gt;Node12 -->
<g id="edge19" class="edge"><title>Node9&#45;&gt;Node12</title>
<path fill="none" stroke="midnightblue" d="M360.516,-128.734C359.13,-120.541 356.995,-107.923 355.098,-96.7136"/>
<polygon fill="midnightblue" stroke="midnightblue" points="358.504,-95.8648 353.384,-86.589 351.602,-97.0329 358.504,-95.8648"/>
</g>
<!-- Node13 -->
<g id="node14" class="node"><title>Node13</title>
<g id="a_node14"><a xlink:href="perturbation__fold_8h.html" target="_top" xlink:title="Find a vector of perturbation energies that minimizes the discripancies between predicted and observe...">
<polygon fill="none" stroke="black" points="432.5,-56.5 432.5,-86.5 563.5,-86.5 563.5,-56.5 432.5,-56.5"/>
<text text-anchor="start" x="440.5" y="-74.5" font-family="Helvetica,sans-Serif" font-size="10.00">ViennaRNA/perturbation</text>
<text text-anchor="middle" x="498" y="-63.5" font-family="Helvetica,sans-Serif" font-size="10.00">_fold.h</text>
</a>
</g>
</g>
<!-- Node9&#45;&gt;Node13 -->
<g id="edge21" class="edge"><title>Node9&#45;&gt;Node13</title>
<path fill="none" stroke="midnightblue" d="M380.06,-128.869C400.202,-119.242 433.373,-103.388 459.415,-90.9415"/>
<polygon fill="midnightblue" stroke="midnightblue" points="461.136,-93.9982 468.649,-86.5281 458.117,-87.6825 461.136,-93.9982"/>
</g>
<!-- Node14 -->
<g id="node15" class="node"><title>Node14</title>
<g id="a_node15"><a xlink:href="constraints__ligand_8h.html" target="_top" xlink:title="Functions for incorporation of ligands binding to hairpin and interior loop motifs using the soft con...">
<polygon fill="none" stroke="black" points="582,-56.5 582,-86.5 708,-86.5 708,-56.5 582,-56.5"/>
<text text-anchor="start" x="590" y="-74.5" font-family="Helvetica,sans-Serif" font-size="10.00">ViennaRNA/constraints</text>
<text text-anchor="middle" x="645" y="-63.5" font-family="Helvetica,sans-Serif" font-size="10.00">_ligand.h</text>
</a>
</g>
</g>
<!-- Node9&#45;&gt;Node14 -->
<g id="edge23" class="edge"><title>Node9&#45;&gt;Node14</title>
<path fill="none" stroke="midnightblue" d="M399.288,-128.936C443.606,-118.757 518.528,-101.548 574.015,-88.804"/>
<polygon fill="midnightblue" stroke="midnightblue" points="574.826,-92.2089 583.789,-86.5592 573.259,-85.3866 574.826,-92.2089"/>
</g>
<!-- Node10&#45;&gt;Node3 -->
<g id="edge16" class="edge"><title>Node10&#45;&gt;Node3</title>
<path fill="none" stroke="midnightblue" d="M68.0605,-86.5831C75.6782,-105.511 92.0283,-138.562 118,-154 180.561,-191.187 382.472,-198.436 500.311,-199.388"/>
<polygon fill="midnightblue" stroke="midnightblue" points="500.372,-202.888 510.395,-199.456 500.419,-195.888 500.372,-202.888"/>
</g>
<!-- Node11&#45;&gt;Node3 -->
<g id="edge18" class="edge"><title>Node11&#45;&gt;Node3</title>
<path fill="none" stroke="midnightblue" d="M176.702,-86.5077C146.006,-102.532 105.958,-129.697 128,-154 152.471,-180.982 373.661,-192.327 500.189,-196.643"/>
<polygon fill="midnightblue" stroke="midnightblue" points="500.144,-200.143 510.255,-196.978 500.377,-193.147 500.144,-200.143"/>
</g>
<!-- Node12&#45;&gt;Node3 -->
<g id="edge20" class="edge"><title>Node12&#45;&gt;Node3</title>
<path fill="none" stroke="midnightblue" d="M377.57,-86.6821C423.66,-111.283 517.81,-161.536 562.874,-185.589"/>
<polygon fill="midnightblue" stroke="midnightblue" points="561.24,-188.684 571.71,-190.305 564.536,-182.509 561.24,-188.684"/>
</g>
<!-- Node13&#45;&gt;Node3 -->
<g id="edge22" class="edge"><title>Node13&#45;&gt;Node3</title>
<path fill="none" stroke="midnightblue" d="M506.027,-86.777C515.575,-103.399 532.33,-131.452 549,-154 556.375,-163.976 565.405,-174.487 572.919,-182.84"/>
<polygon fill="midnightblue" stroke="midnightblue" points="570.477,-185.356 579.809,-190.373 575.642,-180.632 570.477,-185.356"/>
</g>
<!-- Node14&#45;&gt;Node3 -->
<g id="edge24" class="edge"><title>Node14&#45;&gt;Node3</title>
<path fill="none" stroke="midnightblue" d="M601.255,-86.6798C584.323,-94.5506 566.71,-106.232 557,-123 545.793,-142.353 559.977,-166.539 572.632,-182.36"/>
<polygon fill="midnightblue" stroke="midnightblue" points="570.178,-184.876 579.335,-190.205 575.5,-180.329 570.178,-184.876"/>
</g>
<!-- Node15&#45;&gt;Node3 -->
<g id="edge26" class="edge"><title>Node15&#45;&gt;Node3</title>
<path fill="none" stroke="midnightblue" d="M656.314,-148.009C646.537,-157.546 627.433,-173.169 611.77,-184.613"/>
<polygon fill="midnightblue" stroke="midnightblue" points="609.635,-181.835 603.503,-190.475 613.685,-187.545 609.635,-181.835"/>
</g>
<!-- Node17&#45;&gt;Node3 -->
<g id="edge29" class="edge"><title>Node17&#45;&gt;Node3</title>
<path fill="none" stroke="midnightblue" d="M883.796,-153.509C882.859,-153.675 881.926,-153.838 881,-154 806.852,-166.944 721.53,-180.251 662.078,-189.003"/>
<polygon fill="midnightblue" stroke="midnightblue" points="661.414,-185.563 652.027,-190.475 662.429,-192.489 661.414,-185.563"/>
</g>
<!-- Node18&#45;&gt;Node3 -->
<g id="edge31" class="edge"><title>Node18&#45;&gt;Node3</title>
<path fill="none" stroke="midnightblue" d="M629.123,-251.975C621.851,-242.962 610.205,-228.525 601.159,-217.312"/>
<polygon fill="midnightblue" stroke="midnightblue" points="603.867,-215.095 594.864,-209.509 598.419,-219.49 603.867,-215.095"/>
</g>
<!-- Node19&#45;&gt;Node2 -->
<g id="edge33" class="edge"><title>Node19&#45;&gt;Node2</title>
<path fill="none" stroke="midnightblue" d="M877.751,-246.399C892.995,-236.951 912.989,-224.559 928.236,-215.109"/>
<polygon fill="midnightblue" stroke="midnightblue" points="930.375,-217.901 937.031,-209.658 926.687,-211.951 930.375,-217.901"/>
</g>
<!-- Node19&#45;&gt;Node3 -->
<g id="edge34" class="edge"><title>Node19&#45;&gt;Node3</title>
<path fill="none" stroke="midnightblue" d="M797.394,-247.663C749.221,-236.928 681.306,-221.793 636.027,-211.703"/>
<polygon fill="midnightblue" stroke="midnightblue" points="636.682,-208.263 626.16,-209.504 635.16,-215.095 636.682,-208.263"/>
</g>
<!-- Node21&#45;&gt;Node6 -->
<g id="edge37" class="edge"><title>Node21&#45;&gt;Node6</title>
<path fill="none" stroke="midnightblue" d="M1185.23,-190.449C1187.46,-181.453 1190.73,-166.844 1192,-154 1193.36,-140.289 1193.86,-136.652 1192,-123 1190.52,-112.127 1187.33,-100.29 1184.36,-90.8109"/>
<polygon fill="midnightblue" stroke="midnightblue" points="1187.68,-89.6855 1181.22,-81.2874 1181.03,-91.8806 1187.68,-89.6855"/>
</g>
</g>
</svg>
