<?xml version="1.0" encoding="UTF-8" standalone="no"?>
<!DOCTYPE svg PUBLIC "-//W3C//DTD SVG 1.1//EN"
 "http://www.w3.org/Graphics/SVG/1.1/DTD/svg11.dtd">
<!-- Generated by graphviz version 2.38.0 (20140413.2041)
 -->
<!-- Title: ViennaRNA/part_func.h Pages: 1 -->
<svg width="1169pt" height="341pt"
 viewBox="0.00 0.00 1168.50 341.00" xmlns="http://www.w3.org/2000/svg" xmlns:xlink="http://www.w3.org/1999/xlink">
<g id="graph0" class="graph" transform="scale(1 1) rotate(0) translate(4 337)">
<title>ViennaRNA/part_func.h</title>
<!-- Node0 -->
<g id="node1" class="node"><title>Node0</title>
<polygon fill="#bfbfbf" stroke="black" points="329,-313.5 329,-332.5 456,-332.5 456,-313.5 329,-313.5"/>
<text text-anchor="middle" x="392.5" y="-320.5" font-family="Helvetica,sans-Serif" font-size="10.00">ViennaRNA/part_func.h</text>
</g>
<!-- Node1 -->
<g id="node2" class="node"><title>Node1</title>
<g id="a_node2"><a xlink:href="data__structures_8h.html" target="_top" xlink:title="Various data structures and pre&#45;processor macros. ">
<polygon fill="none" stroke="black" points="404,-190.5 404,-209.5 559,-209.5 559,-190.5 404,-190.5"/>
<text text-anchor="middle" x="481.5" y="-197.5" font-family="Helvetica,sans-Serif" font-size="10.00">ViennaRNA/data_structures.h</text>
</a>
</g>
</g>
<!-- Node0&#45;&gt;Node1 -->
<g id="edge1" class="edge"><title>Node0&#45;&gt;Node1</title>
<path fill="none" stroke="midnightblue" d="M414.009,-313.404C429.742,-306.03 450.375,-293.905 462.5,-277 474.608,-260.119 479.032,-236.325 480.63,-219.878"/>
<polygon fill="midnightblue" stroke="midnightblue" points="484.125,-220.064 481.345,-209.84 477.143,-219.566 484.125,-220.064"/>
</g>
<!-- Node5 -->
<g id="node6" class="node"><title>Node5</title>
<g id="a_node6"><a xlink:href="params_8h.html" target="_top" xlink:title="Functions to deal with sets of energy parameters. ">
<polygon fill="none" stroke="black" points="25.5,-129 25.5,-148 143.5,-148 143.5,-129 25.5,-129"/>
<text text-anchor="middle" x="84.5" y="-136" font-family="Helvetica,sans-Serif" font-size="10.00">ViennaRNA/params.h</text>
</a>
</g>
</g>
<!-- Node0&#45;&gt;Node5 -->
<g id="edge28" class="edge"><title>Node0&#45;&gt;Node5</title>
<path fill="none" stroke="midnightblue" d="M328.888,-320.618C284.12,-316.904 224.567,-306.201 180.5,-277 135.127,-246.933 104.825,-187.448 91.781,-157.549"/>
<polygon fill="midnightblue" stroke="midnightblue" points="94.9952,-156.163 87.8903,-148.303 88.5433,-158.878 94.9952,-156.163"/>
</g>
<!-- Node16 -->
<g id="node17" class="node"><title>Node16</title>
<g id="a_node17"><a xlink:href="centroid_8h.html" target="_top" xlink:title="Centroid structure computation. ">
<polygon fill="none" stroke="black" points="510,-252 510,-271 631,-271 631,-252 510,-252"/>
<text text-anchor="middle" x="570.5" y="-259" font-family="Helvetica,sans-Serif" font-size="10.00">ViennaRNA/centroid.h</text>
</a>
</g>
</g>
<!-- Node0&#45;&gt;Node16 -->
<g id="edge29" class="edge"><title>Node0&#45;&gt;Node16</title>
<path fill="none" stroke="midnightblue" d="M418.003,-313.475C448.801,-303.18 500.765,-285.81 535.348,-274.25"/>
<polygon fill="midnightblue" stroke="midnightblue" points="536.67,-277.499 545.044,-271.009 534.45,-270.86 536.67,-277.499"/>
</g>
<!-- Node17 -->
<g id="node18" class="node"><title>Node17</title>
<g id="a_node18"><a xlink:href="equilibrium__probs_8h.html" target="_top" xlink:title="Equilibrium Probability implementations. ">
<polygon fill="none" stroke="black" points="190,-246.5 190,-276.5 313,-276.5 313,-246.5 190,-246.5"/>
<text text-anchor="start" x="198" y="-264.5" font-family="Helvetica,sans-Serif" font-size="10.00">ViennaRNA/equilibrium</text>
<text text-anchor="middle" x="251.5" y="-253.5" font-family="Helvetica,sans-Serif" font-size="10.00">_probs.h</text>
</a>
</g>
</g>
<!-- Node0&#45;&gt;Node17 -->
<g id="edge31" class="edge"><title>Node0&#45;&gt;Node17</title>
<path fill="none" stroke="midnightblue" d="M372.298,-313.475C351.952,-304.889 319.945,-291.383 293.988,-280.429"/>
<polygon fill="midnightblue" stroke="midnightblue" points="295.305,-277.186 284.731,-276.523 292.583,-283.636 295.305,-277.186"/>
</g>
<!-- Node18 -->
<g id="node19" class="node"><title>Node18</title>
<g id="a_node19"><a xlink:href="boltzmann__sampling_8h.html" target="_top" xlink:title="Boltzmann Sampling of secondary structures from the ensemble. ">
<polygon fill="none" stroke="black" points="331.5,-246.5 331.5,-276.5 453.5,-276.5 453.5,-246.5 331.5,-246.5"/>
<text text-anchor="start" x="339.5" y="-264.5" font-family="Helvetica,sans-Serif" font-size="10.00">ViennaRNA/boltzmann</text>
<text text-anchor="middle" x="392.5" y="-253.5" font-family="Helvetica,sans-Serif" font-size="10.00">_sampling.h</text>
</a>
</g>
</g>
<!-- Node0&#45;&gt;Node18 -->
<g id="edge33" class="edge"><title>Node0&#45;&gt;Node18</title>
<path fill="none" stroke="midnightblue" d="M392.5,-313.475C392.5,-306.471 392.5,-296.192 392.5,-286.696"/>
<polygon fill="midnightblue" stroke="midnightblue" points="396,-286.523 392.5,-276.523 389,-286.523 396,-286.523"/>
</g>
<!-- Node2 -->
<g id="node3" class="node"><title>Node2</title>
<g id="a_node3"><a xlink:href="energy__const_8h.html" target="_top" xlink:title="Energy parameter constants. ">
<polygon fill="none" stroke="black" points="0,-62 0,-81 147,-81 147,-62 0,-62"/>
<text text-anchor="middle" x="73.5" y="-69" font-family="Helvetica,sans-Serif" font-size="10.00">ViennaRNA/energy_const.h</text>
</a>
</g>
</g>
<!-- Node1&#45;&gt;Node2 -->
<g id="edge2" class="edge"><title>Node1&#45;&gt;Node2</title>
<path fill="none" stroke="midnightblue" d="M403.949,-193.55C349.158,-187.906 274.705,-176.568 212.5,-154 188.463,-145.279 127.872,-107.452 95.1927,-86.5366"/>
<polygon fill="midnightblue" stroke="midnightblue" points="97.0741,-83.5852 86.7691,-81.1239 93.29,-89.4743 97.0741,-83.5852"/>
</g>
<!-- Node4 -->
<g id="node5" class="node"><title>Node4</title>
<g id="a_node5"><a xlink:href="model_8h.html" target="_top" xlink:title="The model details data structure and its corresponding modifiers. ">
<polygon fill="none" stroke="black" points="165,-62 165,-81 276,-81 276,-62 165,-62"/>
<text text-anchor="middle" x="220.5" y="-69" font-family="Helvetica,sans-Serif" font-size="10.00">ViennaRNA/model.h</text>
</a>
</g>
</g>
<!-- Node1&#45;&gt;Node4 -->
<g id="edge4" class="edge"><title>Node1&#45;&gt;Node4</title>
<path fill="none" stroke="midnightblue" d="M403.801,-195.249C338.359,-190.346 251.785,-179.18 228.5,-154 213.072,-137.317 213.79,-109.697 216.507,-91.3005"/>
<polygon fill="midnightblue" stroke="midnightblue" points="219.995,-91.6811 218.33,-81.2178 213.107,-90.4354 219.995,-91.6811"/>
</g>
<!-- Node1&#45;&gt;Node5 -->
<g id="edge5" class="edge"><title>Node1&#45;&gt;Node5</title>
<path fill="none" stroke="midnightblue" d="M404.509,-190.468C336.739,-182.175 235.719,-168.706 148.5,-154 141.399,-152.803 133.929,-151.439 126.682,-150.039"/>
<polygon fill="midnightblue" stroke="midnightblue" points="127.134,-146.561 116.644,-148.048 125.773,-153.427 127.134,-146.561"/>
</g>
<!-- Node6 -->
<g id="node7" class="node"><title>Node6</title>
<g id="a_node7"><a xlink:href="dp__matrices_8h.html" target="_top" xlink:title="Functions to deal with standard dynamic programming (DP) matrices. ">
<polygon fill="none" stroke="black" points="237.5,-129 237.5,-148 377.5,-148 377.5,-129 237.5,-129"/>
<text text-anchor="middle" x="307.5" y="-136" font-family="Helvetica,sans-Serif" font-size="10.00">ViennaRNA/dp_matrices.h</text>
</a>
</g>
</g>
<!-- Node1&#45;&gt;Node6 -->
<g id="edge9" class="edge"><title>Node1&#45;&gt;Node6</title>
<path fill="none" stroke="midnightblue" d="M451.669,-190.475C419.596,-180.269 369.195,-163.108 337.186,-151.549"/>
<polygon fill="midnightblue" stroke="midnightblue" points="338.08,-148.15 327.487,-148.009 335.68,-154.726 338.08,-148.15"/>
</g>
<!-- Node7 -->
<g id="node8" class="node"><title>Node7</title>
<g id="a_node8"><a xlink:href="constraints_8h.html" target="_top" xlink:title="Functions and data structures for constraining secondary structure predictions and evaluation...">
<polygon fill="none" stroke="black" points="509.5,-129 509.5,-148 643.5,-148 643.5,-129 509.5,-129"/>
<text text-anchor="middle" x="576.5" y="-136" font-family="Helvetica,sans-Serif" font-size="10.00">ViennaRNA/constraints.h</text>
</a>
</g>
</g>
<!-- Node1&#45;&gt;Node7 -->
<g id="edge11" class="edge"><title>Node1&#45;&gt;Node7</title>
<path fill="none" stroke="midnightblue" d="M490.211,-190.475C503.671,-180.711 529.135,-164.581 549.045,-153.081"/>
<polygon fill="midnightblue" stroke="midnightblue" points="551.034,-155.977 558.017,-148.009 547.589,-149.883 551.034,-155.977"/>
</g>
<!-- Node13 -->
<g id="node14" class="node"><title>Node13</title>
<g id="a_node14"><a xlink:href="grammar_8h.html" target="_top" xlink:title="Implementations for the RNA folding grammar. ">
<polygon fill="none" stroke="black" points="662,-129 662,-148 787,-148 787,-129 662,-129"/>
<text text-anchor="middle" x="724.5" y="-136" font-family="Helvetica,sans-Serif" font-size="10.00">ViennaRNA/grammar.h</text>
</a>
</g>
</g>
<!-- Node1&#45;&gt;Node13 -->
<g id="edge23" class="edge"><title>Node1&#45;&gt;Node13</title>
<path fill="none" stroke="midnightblue" d="M511.415,-190.475C552.324,-179.893 625.924,-161.836 675.063,-150.297"/>
<polygon fill="midnightblue" stroke="midnightblue" points="675.91,-153.693 684.851,-148.009 674.317,-146.876 675.91,-153.693"/>
</g>
<!-- Node14 -->
<g id="node15" class="node"><title>Node14</title>
<g id="a_node15"><a xlink:href="structured__domains_8h.html" target="_top" xlink:title="This module provides interfaces that deal with additional structured domains in the folding grammar...">
<polygon fill="none" stroke="black" points="805,-123.5 805,-153.5 926,-153.5 926,-123.5 805,-123.5"/>
<text text-anchor="start" x="813" y="-141.5" font-family="Helvetica,sans-Serif" font-size="10.00">ViennaRNA/structured</text>
<text text-anchor="middle" x="865.5" y="-130.5" font-family="Helvetica,sans-Serif" font-size="10.00">_domains.h</text>
</a>
</g>
</g>
<!-- Node1&#45;&gt;Node14 -->
<g id="edge25" class="edge"><title>Node1&#45;&gt;Node14</title>
<path fill="none" stroke="midnightblue" d="M549.682,-190.467C611.176,-182.488 704.318,-169.704 794.943,-154.03"/>
<polygon fill="midnightblue" stroke="midnightblue" points="795.587,-157.471 804.838,-152.305 794.385,-150.575 795.587,-157.471"/>
</g>
<!-- Node15 -->
<g id="node16" class="node"><title>Node15</title>
<g id="a_node16"><a xlink:href="unstructured__domains_8h.html" target="_top" xlink:title="Functions to modify unstructured domains, e.g. to incorporate ligands binding to unpaired stretches...">
<polygon fill="none" stroke="black" points="944.5,-123.5 944.5,-153.5 1076.5,-153.5 1076.5,-123.5 944.5,-123.5"/>
<text text-anchor="start" x="952.5" y="-141.5" font-family="Helvetica,sans-Serif" font-size="10.00">ViennaRNA/unstructured</text>
<text text-anchor="middle" x="1010.5" y="-130.5" font-family="Helvetica,sans-Serif" font-size="10.00">_domains.h</text>
</a>
</g>
</g>
<!-- Node1&#45;&gt;Node15 -->
<g id="edge26" class="edge"><title>Node1&#45;&gt;Node15</title>
<path fill="none" stroke="midnightblue" d="M559.036,-192.904C647.846,-185.775 797.419,-172.542 925.5,-154 928.366,-153.585 931.289,-153.137 934.244,-152.665"/>
<polygon fill="midnightblue" stroke="midnightblue" points="935.088,-156.072 944.377,-150.977 933.938,-149.168 935.088,-156.072"/>
</g>
<!-- Node3 -->
<g id="node4" class="node"><title>Node3</title>
<polygon fill="none" stroke="#bfbfbf" points="49.5,-0.5 49.5,-19.5 97.5,-19.5 97.5,-0.5 49.5,-0.5"/>
<text text-anchor="middle" x="73.5" y="-7.5" font-family="Helvetica,sans-Serif" font-size="10.00">limits.h</text>
</g>
<!-- Node2&#45;&gt;Node3 -->
<g id="edge3" class="edge"><title>Node2&#45;&gt;Node3</title>
<path fill="none" stroke="midnightblue" d="M73.5,-61.9751C73.5,-53.5803 73.5,-40.4806 73.5,-29.6631"/>
<polygon fill="midnightblue" stroke="midnightblue" points="77.0001,-29.5091 73.5,-19.5091 70.0001,-29.5091 77.0001,-29.5091"/>
</g>
<!-- Node5&#45;&gt;Node1 -->
<g id="edge7" class="edge"><title>Node5&#45;&gt;Node1</title>
<path fill="none" stroke="midnightblue" d="M134.053,-148.048C144.808,-150.118 156.052,-152.238 166.5,-154 249.29,-167.96 344.514,-180.804 408.466,-189.165"/>
<polygon fill="midnightblue" stroke="midnightblue" points="408.086,-192.645 418.455,-190.468 408.992,-185.704 408.086,-192.645"/>
</g>
<!-- Node5&#45;&gt;Node2 -->
<g id="edge6" class="edge"><title>Node5&#45;&gt;Node2</title>
<path fill="none" stroke="midnightblue" d="M83.0165,-128.734C81.4001,-119.183 78.7662,-103.618 76.6786,-91.2829"/>
<polygon fill="midnightblue" stroke="midnightblue" points="80.0796,-90.4031 74.96,-81.1273 73.1777,-91.5711 80.0796,-90.4031"/>
</g>
<!-- Node5&#45;&gt;Node4 -->
<g id="edge8" class="edge"><title>Node5&#45;&gt;Node4</title>
<path fill="none" stroke="midnightblue" d="M102.56,-128.869C125.727,-117.796 166.129,-98.4862 193.095,-85.5978"/>
<polygon fill="midnightblue" stroke="midnightblue" points="194.852,-88.6373 202.366,-81.1672 191.834,-82.3216 194.852,-88.6373"/>
</g>
<!-- Node6&#45;&gt;Node1 -->
<g id="edge10" class="edge"><title>Node6&#45;&gt;Node1</title>
<path fill="none" stroke="midnightblue" d="M337.281,-148.009C369.335,-158.208 419.736,-175.368 451.764,-186.933"/>
<polygon fill="midnightblue" stroke="midnightblue" points="450.877,-190.335 461.471,-190.475 453.276,-183.759 450.877,-190.335"/>
</g>
<!-- Node7&#45;&gt;Node1 -->
<g id="edge12" class="edge"><title>Node7&#45;&gt;Node1</title>
<path fill="none" stroke="midnightblue" d="M567.811,-148.009C554.363,-157.767 528.904,-173.896 508.987,-185.401"/>
<polygon fill="midnightblue" stroke="midnightblue" points="506.994,-182.507 500.012,-190.475 510.439,-188.6 506.994,-182.507"/>
</g>
<!-- Node8 -->
<g id="node9" class="node"><title>Node8</title>
<g id="a_node9"><a xlink:href="constraints__hard_8h.html" target="_top" xlink:title="Functions and data structures for handling of secondary structure hard constraints. ">
<polygon fill="none" stroke="black" points="318.5,-56.5 318.5,-86.5 444.5,-86.5 444.5,-56.5 318.5,-56.5"/>
<text text-anchor="start" x="326.5" y="-74.5" font-family="Helvetica,sans-Serif" font-size="10.00">ViennaRNA/constraints</text>
<text text-anchor="middle" x="381.5" y="-63.5" font-family="Helvetica,sans-Serif" font-size="10.00">_hard.h</text>
</a>
</g>
</g>
<!-- Node7&#45;&gt;Node8 -->
<g id="edge13" class="edge"><title>Node7&#45;&gt;Node8</title>
<path fill="none" stroke="midnightblue" d="M550.606,-128.869C520.838,-118.946 471.225,-102.408 433.415,-89.8051"/>
<polygon fill="midnightblue" stroke="midnightblue" points="434.178,-86.37 423.584,-86.5281 431.964,-93.0108 434.178,-86.37"/>
</g>
<!-- Node9 -->
<g id="node10" class="node"><title>Node9</title>
<g id="a_node10"><a xlink:href="constraints__soft_8h.html" target="_top" xlink:title="Functions and data structures for secondary structure soft constraints. ">
<polygon fill="none" stroke="black" points="462.5,-56.5 462.5,-86.5 588.5,-86.5 588.5,-56.5 462.5,-56.5"/>
<text text-anchor="start" x="470.5" y="-74.5" font-family="Helvetica,sans-Serif" font-size="10.00">ViennaRNA/constraints</text>
<text text-anchor="middle" x="525.5" y="-63.5" font-family="Helvetica,sans-Serif" font-size="10.00">_soft.h</text>
</a>
</g>
</g>
<!-- Node7&#45;&gt;Node9 -->
<g id="edge15" class="edge"><title>Node7&#45;&gt;Node9</title>
<path fill="none" stroke="midnightblue" d="M569.622,-128.734C562.796,-120.034 552.055,-106.345 542.88,-94.6511"/>
<polygon fill="midnightblue" stroke="midnightblue" points="545.481,-92.2959 536.554,-86.589 539.974,-96.6169 545.481,-92.2959"/>
</g>
<!-- Node10 -->
<g id="node11" class="node"><title>Node10</title>
<g id="a_node11"><a xlink:href="constraints__SHAPE_8h.html" target="_top" xlink:title="This module provides function to incorporate SHAPE reactivity data into the folding recursions by mea...">
<polygon fill="none" stroke="black" points="606.5,-56.5 606.5,-86.5 732.5,-86.5 732.5,-56.5 606.5,-56.5"/>
<text text-anchor="start" x="614.5" y="-74.5" font-family="Helvetica,sans-Serif" font-size="10.00">ViennaRNA/constraints</text>
<text text-anchor="middle" x="669.5" y="-63.5" font-family="Helvetica,sans-Serif" font-size="10.00">_SHAPE.h</text>
</a>
</g>
</g>
<!-- Node7&#45;&gt;Node10 -->
<g id="edge17" class="edge"><title>Node7&#45;&gt;Node10</title>
<path fill="none" stroke="midnightblue" d="M589.042,-128.734C602.215,-119.527 623.382,-104.733 640.7,-92.6293"/>
<polygon fill="midnightblue" stroke="midnightblue" points="643.15,-95.1865 649.342,-86.589 639.14,-89.449 643.15,-95.1865"/>
</g>
<!-- Node11 -->
<g id="node12" class="node"><title>Node11</title>
<g id="a_node12"><a xlink:href="perturbation__fold_8h.html" target="_top" xlink:title="Find a vector of perturbation energies that minimizes the discripancies between predicted and observe...">
<polygon fill="none" stroke="black" points="840,-56.5 840,-86.5 971,-86.5 971,-56.5 840,-56.5"/>
<text text-anchor="start" x="848" y="-74.5" font-family="Helvetica,sans-Serif" font-size="10.00">ViennaRNA/perturbation</text>
<text text-anchor="middle" x="905.5" y="-63.5" font-family="Helvetica,sans-Serif" font-size="10.00">_fold.h</text>
</a>
</g>
</g>
<!-- Node7&#45;&gt;Node11 -->
<g id="edge19" class="edge"><title>Node7&#45;&gt;Node11</title>
<path fill="none" stroke="midnightblue" d="M619.849,-128.936C673.181,-118.399 764.636,-100.33 829.692,-87.4774"/>
<polygon fill="midnightblue" stroke="midnightblue" points="830.764,-90.8332 839.896,-85.4613 829.407,-83.9659 830.764,-90.8332"/>
</g>
<!-- Node12 -->
<g id="node13" class="node"><title>Node12</title>
<g id="a_node13"><a xlink:href="constraints__ligand_8h.html" target="_top" xlink:title="Functions for incorporation of ligands binding to hairpin and interior loop motifs using the soft con...">
<polygon fill="none" stroke="black" points="1034.5,-56.5 1034.5,-86.5 1160.5,-86.5 1160.5,-56.5 1034.5,-56.5"/>
<text text-anchor="start" x="1042.5" y="-74.5" font-family="Helvetica,sans-Serif" font-size="10.00">ViennaRNA/constraints</text>
<text text-anchor="middle" x="1097.5" y="-63.5" font-family="Helvetica,sans-Serif" font-size="10.00">_ligand.h</text>
</a>
</g>
</g>
<!-- Node7&#45;&gt;Node12 -->
<g id="edge21" class="edge"><title>Node7&#45;&gt;Node12</title>
<path fill="none" stroke="midnightblue" d="M618.211,-128.929C629.324,-126.813 641.342,-124.676 652.5,-123 797.09,-101.282 834.271,-103.917 979.5,-87 993.992,-85.3119 1009.48,-83.4506 1024.3,-81.6403"/>
<polygon fill="midnightblue" stroke="midnightblue" points="1024.94,-85.0884 1034.44,-80.398 1024.09,-78.1403 1024.94,-85.0884"/>
</g>
<!-- Node8&#45;&gt;Node1 -->
<g id="edge14" class="edge"><title>Node8&#45;&gt;Node1</title>
<path fill="none" stroke="midnightblue" d="M392.874,-86.888C411.567,-110.534 448.675,-157.477 468.424,-182.459"/>
<polygon fill="midnightblue" stroke="midnightblue" points="465.679,-184.631 474.627,-190.305 471.171,-180.29 465.679,-184.631"/>
</g>
<!-- Node9&#45;&gt;Node1 -->
<g id="edge16" class="edge"><title>Node9&#45;&gt;Node1</title>
<path fill="none" stroke="midnightblue" d="M500.913,-86.7053C488.405,-95.4145 474.415,-107.811 467.5,-123 459.018,-141.631 465.62,-165.051 472.339,-180.933"/>
<polygon fill="midnightblue" stroke="midnightblue" points="469.232,-182.554 476.613,-190.155 475.583,-179.61 469.232,-182.554"/>
</g>
<!-- Node10&#45;&gt;Node1 -->
<g id="edge18" class="edge"><title>Node10&#45;&gt;Node1</title>
<path fill="none" stroke="midnightblue" d="M612.468,-86.5663C566.611,-98.3614 508.539,-114.587 500.5,-123 485.918,-138.259 482.033,-162.947 481.235,-180.024"/>
<polygon fill="midnightblue" stroke="midnightblue" points="477.729,-180.371 481.082,-190.422 484.729,-180.474 477.729,-180.371"/>
</g>
<!-- Node11&#45;&gt;Node1 -->
<g id="edge20" class="edge"><title>Node11&#45;&gt;Node1</title>
<path fill="none" stroke="midnightblue" d="M971.263,-80.208C1037.32,-90.4526 1124.18,-112.328 1085.5,-154 1051.16,-190.998 728.468,-197.811 569.353,-198.905"/>
<polygon fill="midnightblue" stroke="midnightblue" points="569.091,-195.407 559.114,-198.969 569.135,-202.407 569.091,-195.407"/>
</g>
<!-- Node12&#45;&gt;Node1 -->
<g id="edge22" class="edge"><title>Node12&#45;&gt;Node1</title>
<path fill="none" stroke="midnightblue" d="M1104.38,-86.6603C1112.05,-104.759 1121.33,-135.909 1104.5,-154 1068.82,-192.348 732.147,-198.444 569.126,-199.128"/>
<polygon fill="midnightblue" stroke="midnightblue" points="569.106,-195.628 559.119,-199.164 569.132,-202.628 569.106,-195.628"/>
</g>
<!-- Node13&#45;&gt;Node1 -->
<g id="edge24" class="edge"><title>Node13&#45;&gt;Node1</title>
<path fill="none" stroke="midnightblue" d="M694.646,-148.009C653.769,-158.584 580.174,-176.641 531.011,-188.186"/>
<polygon fill="midnightblue" stroke="midnightblue" points="530.158,-184.791 521.217,-190.475 531.751,-191.608 530.158,-184.791"/>
</g>
<!-- Node15&#45;&gt;Node1 -->
<g id="edge27" class="edge"><title>Node15&#45;&gt;Node1</title>
<path fill="none" stroke="midnightblue" d="M946.712,-153.525C945.635,-153.688 944.564,-153.846 943.5,-154 814.015,-172.745 662.566,-186.064 569.272,-193.137"/>
<polygon fill="midnightblue" stroke="midnightblue" points="568.739,-189.667 559.029,-193.905 569.263,-196.647 568.739,-189.667"/>
</g>
<!-- Node16&#45;&gt;Node1 -->
<g id="edge30" class="edge"><title>Node16&#45;&gt;Node1</title>
<path fill="none" stroke="midnightblue" d="M557.748,-251.975C543.473,-242.431 520.103,-226.807 502.992,-215.368"/>
<polygon fill="midnightblue" stroke="midnightblue" points="504.486,-212.157 494.228,-209.509 500.596,-217.977 504.486,-212.157"/>
</g>
<!-- Node17&#45;&gt;Node1 -->
<g id="edge32" class="edge"><title>Node17&#45;&gt;Node1</title>
<path fill="none" stroke="midnightblue" d="M305.716,-246.475C346.262,-235.986 400.955,-221.837 438.507,-212.122"/>
<polygon fill="midnightblue" stroke="midnightblue" points="439.814,-215.399 448.618,-209.506 438.06,-208.622 439.814,-215.399"/>
</g>
<!-- Node18&#45;&gt;Node1 -->
<g id="edge34" class="edge"><title>Node18&#45;&gt;Node1</title>
<path fill="none" stroke="midnightblue" d="M413.592,-246.399C427.591,-237.04 445.911,-224.792 459.995,-215.377"/>
<polygon fill="midnightblue" stroke="midnightblue" points="462.182,-218.125 468.55,-209.658 458.291,-212.306 462.182,-218.125"/>
</g>
</g>
</svg>
