<?xml version="1.0" encoding="UTF-8" standalone="no"?>
<!DOCTYPE svg PUBLIC "-//W3C//DTD SVG 1.1//EN"
 "http://www.w3.org/Graphics/SVG/1.1/DTD/svg11.dtd">
<!-- Generated by graphviz version 2.38.0 (20140413.2041)
 -->
<!-- Title: ViennaRNA/perturbation_fold.h Pages: 1 -->
<svg width="1213pt" height="285pt"
 viewBox="0.00 0.00 1212.50 285.00" xmlns="http://www.w3.org/2000/svg" xmlns:xlink="http://www.w3.org/1999/xlink">
<g id="graph0" class="graph" transform="scale(1 1) rotate(0) translate(4 281)">
<title>ViennaRNA/perturbation_fold.h</title>
<!-- Node0 -->
<g id="node1" class="node"><title>Node0</title>
<polygon fill="#bfbfbf" stroke="black" points="370.5,-246.5 370.5,-276.5 501.5,-276.5 501.5,-246.5 370.5,-246.5"/>
<text text-anchor="start" x="378.5" y="-264.5" font-family="Helvetica,sans-Serif" font-size="10.00">ViennaRNA/perturbation</text>
<text text-anchor="middle" x="436" y="-253.5" font-family="Helvetica,sans-Serif" font-size="10.00">_fold.h</text>
</g>
<!-- Node1 -->
<g id="node2" class="node"><title>Node1</title>
<g id="a_node2"><a xlink:href="data__structures_8h.html" target="_top" xlink:title="Various data structures and pre&#45;processor macros. ">
<polygon fill="none" stroke="black" points="489,-190.5 489,-209.5 587,-209.5 587,-190.5 489,-190.5"/>
<text text-anchor="middle" x="538" y="-197.5" font-family="Helvetica,sans-Serif" font-size="10.00">data_structures.h</text>
</a>
</g>
</g>
<!-- Node0&#45;&gt;Node1 -->
<g id="edge1" class="edge"><title>Node0&#45;&gt;Node1</title>
<path fill="none" stroke="midnightblue" d="M460.173,-246.399C476.522,-236.862 498.015,-224.325 514.27,-214.842"/>
<polygon fill="midnightblue" stroke="midnightblue" points="516.284,-217.72 523.158,-209.658 512.757,-211.673 516.284,-217.72"/>
</g>
<!-- Node2 -->
<g id="node3" class="node"><title>Node2</title>
<g id="a_node3"><a xlink:href="energy__const_8h.html" target="_top" xlink:title="Energy parameter constants. ">
<polygon fill="none" stroke="black" points="1057.5,-62 1057.5,-81 1204.5,-81 1204.5,-62 1057.5,-62"/>
<text text-anchor="middle" x="1131" y="-69" font-family="Helvetica,sans-Serif" font-size="10.00">ViennaRNA/energy_const.h</text>
</a>
</g>
</g>
<!-- Node1&#45;&gt;Node2 -->
<g id="edge2" class="edge"><title>Node1&#45;&gt;Node2</title>
<path fill="none" stroke="midnightblue" d="M587.081,-198.638C720.162,-197.186 1080.49,-189.94 1119,-154 1135.88,-138.248 1136.24,-109.959 1134.21,-91.2049"/>
<polygon fill="midnightblue" stroke="midnightblue" points="1137.66,-90.6088 1132.8,-81.1943 1130.73,-91.5845 1137.66,-90.6088"/>
</g>
<!-- Node4 -->
<g id="node5" class="node"><title>Node4</title>
<g id="a_node5"><a xlink:href="model_8h.html" target="_top" xlink:title="The model details data structure and its corresponding modifiers. ">
<polygon fill="none" stroke="black" points="915.5,-62 915.5,-81 1026.5,-81 1026.5,-62 915.5,-62"/>
<text text-anchor="middle" x="971" y="-69" font-family="Helvetica,sans-Serif" font-size="10.00">ViennaRNA/model.h</text>
</a>
</g>
</g>
<!-- Node1&#45;&gt;Node4 -->
<g id="edge4" class="edge"><title>Node1&#45;&gt;Node4</title>
<path fill="none" stroke="midnightblue" d="M587.015,-196.55C689.193,-191.02 917.772,-176.292 945,-154 963.645,-138.735 969.1,-110.083 970.595,-91.1443"/>
<polygon fill="midnightblue" stroke="midnightblue" points="974.096,-91.212 971.092,-81.0519 967.104,-90.8676 974.096,-91.212"/>
</g>
<!-- Node5 -->
<g id="node6" class="node"><title>Node5</title>
<g id="a_node6"><a xlink:href="params_8h.html" target="_top" xlink:title="Functions to deal with sets of energy parameters. ">
<polygon fill="none" stroke="black" points="992,-129 992,-148 1110,-148 1110,-129 992,-129"/>
<text text-anchor="middle" x="1051" y="-136" font-family="Helvetica,sans-Serif" font-size="10.00">ViennaRNA/params.h</text>
</a>
</g>
</g>
<!-- Node1&#45;&gt;Node5 -->
<g id="edge5" class="edge"><title>Node1&#45;&gt;Node5</title>
<path fill="none" stroke="midnightblue" d="M587.293,-195.041C667.612,-188.661 831.175,-174.689 969,-154 976.813,-152.827 985.057,-151.388 993.205,-149.875"/>
<polygon fill="midnightblue" stroke="midnightblue" points="993.886,-153.309 1003.06,-148.008 992.582,-146.431 993.886,-153.309"/>
</g>
<!-- Node6 -->
<g id="node7" class="node"><title>Node6</title>
<g id="a_node7"><a xlink:href="dp__matrices_8h.html" target="_top" xlink:title="Functions to deal with standard dynamic programming (DP) matrices. ">
<polygon fill="none" stroke="black" points="287,-129 287,-148 427,-148 427,-129 287,-129"/>
<text text-anchor="middle" x="357" y="-136" font-family="Helvetica,sans-Serif" font-size="10.00">ViennaRNA/dp_matrices.h</text>
</a>
</g>
</g>
<!-- Node1&#45;&gt;Node6 -->
<g id="edge9" class="edge"><title>Node1&#45;&gt;Node6</title>
<path fill="none" stroke="midnightblue" d="M507.167,-190.475C473.748,-180.225 421.018,-162.959 387.672,-151.399"/>
<polygon fill="midnightblue" stroke="midnightblue" points="388.582,-148.01 377.988,-148.009 386.269,-154.617 388.582,-148.01"/>
</g>
<!-- Node7 -->
<g id="node8" class="node"><title>Node7</title>
<g id="a_node8"><a xlink:href="constraints_8h.html" target="_top" xlink:title="Functions and data structures for constraining secondary structure predictions and evaluation...">
<polygon fill="none" stroke="black" points="97,-129 97,-148 231,-148 231,-129 97,-129"/>
<text text-anchor="middle" x="164" y="-136" font-family="Helvetica,sans-Serif" font-size="10.00">ViennaRNA/constraints.h</text>
</a>
</g>
</g>
<!-- Node1&#45;&gt;Node7 -->
<g id="edge11" class="edge"><title>Node1&#45;&gt;Node7</title>
<path fill="none" stroke="midnightblue" d="M488.864,-192.736C428.842,-184.332 324.716,-168.751 236,-154 228.172,-152.698 219.928,-151.279 211.908,-149.854"/>
<polygon fill="midnightblue" stroke="midnightblue" points="212.38,-146.383 201.918,-148.055 211.139,-153.272 212.38,-146.383"/>
</g>
<!-- Node12 -->
<g id="node13" class="node"><title>Node12</title>
<g id="a_node13"><a xlink:href="grammar_8h.html" target="_top" xlink:title="Implementations for the RNA folding grammar. ">
<polygon fill="none" stroke="black" points="521.5,-129 521.5,-148 646.5,-148 646.5,-129 521.5,-129"/>
<text text-anchor="middle" x="584" y="-136" font-family="Helvetica,sans-Serif" font-size="10.00">ViennaRNA/grammar.h</text>
</a>
</g>
</g>
<!-- Node1&#45;&gt;Node12 -->
<g id="edge22" class="edge"><title>Node1&#45;&gt;Node12</title>
<path fill="none" stroke="midnightblue" d="M539.69,-190.475C544.742,-181.373 555.667,-166.741 565.582,-155.483"/>
<polygon fill="midnightblue" stroke="midnightblue" points="568.283,-157.718 572.524,-148.009 563.154,-152.954 568.283,-157.718"/>
</g>
<!-- Node13 -->
<g id="node14" class="node"><title>Node13</title>
<g id="a_node14"><a xlink:href="structured__domains_8h.html" target="_top" xlink:title="This module provides interfaces that deal with additional structured domains in the folding grammar...">
<polygon fill="none" stroke="black" points="664.5,-123.5 664.5,-153.5 785.5,-153.5 785.5,-123.5 664.5,-123.5"/>
<text text-anchor="start" x="672.5" y="-141.5" font-family="Helvetica,sans-Serif" font-size="10.00">ViennaRNA/structured</text>
<text text-anchor="middle" x="725" y="-130.5" font-family="Helvetica,sans-Serif" font-size="10.00">_domains.h</text>
</a>
</g>
</g>
<!-- Node1&#45;&gt;Node13 -->
<g id="edge24" class="edge"><title>Node1&#45;&gt;Node13</title>
<path fill="none" stroke="midnightblue" d="M564.793,-190.475C592.486,-181.664 636.471,-167.668 671.352,-156.57"/>
<polygon fill="midnightblue" stroke="midnightblue" points="672.46,-159.89 680.928,-153.523 670.337,-153.22 672.46,-159.89"/>
</g>
<!-- Node14 -->
<g id="node15" class="node"><title>Node14</title>
<g id="a_node15"><a xlink:href="unstructured__domains_8h.html" target="_top" xlink:title="Functions to modify unstructured domains, e.g. to incorporate ligands binding to unpaired stretches...">
<polygon fill="none" stroke="black" points="804,-123.5 804,-153.5 936,-153.5 936,-123.5 804,-123.5"/>
<text text-anchor="start" x="812" y="-141.5" font-family="Helvetica,sans-Serif" font-size="10.00">ViennaRNA/unstructured</text>
<text text-anchor="middle" x="870" y="-130.5" font-family="Helvetica,sans-Serif" font-size="10.00">_domains.h</text>
</a>
</g>
</g>
<!-- Node1&#45;&gt;Node14 -->
<g id="edge25" class="edge"><title>Node1&#45;&gt;Node14</title>
<path fill="none" stroke="midnightblue" d="M581.312,-190.419C630.708,-181.519 713.538,-167.097 785,-154 787.849,-153.478 790.757,-152.941 793.7,-152.395"/>
<polygon fill="midnightblue" stroke="midnightblue" points="794.61,-155.786 803.801,-150.515 793.33,-148.904 794.61,-155.786"/>
</g>
<!-- Node3 -->
<g id="node4" class="node"><title>Node3</title>
<polygon fill="none" stroke="#bfbfbf" points="1107,-0.5 1107,-19.5 1155,-19.5 1155,-0.5 1107,-0.5"/>
<text text-anchor="middle" x="1131" y="-7.5" font-family="Helvetica,sans-Serif" font-size="10.00">limits.h</text>
</g>
<!-- Node2&#45;&gt;Node3 -->
<g id="edge3" class="edge"><title>Node2&#45;&gt;Node3</title>
<path fill="none" stroke="midnightblue" d="M1131,-61.9751C1131,-53.5803 1131,-40.4806 1131,-29.6631"/>
<polygon fill="midnightblue" stroke="midnightblue" points="1134.5,-29.5091 1131,-19.5091 1127.5,-29.5091 1134.5,-29.5091"/>
</g>
<!-- Node5&#45;&gt;Node1 -->
<g id="edge7" class="edge"><title>Node5&#45;&gt;Node1</title>
<path fill="none" stroke="midnightblue" d="M1020.38,-148.008C1009.83,-150.173 997.989,-152.35 987,-154 848.356,-174.812 683.668,-188.827 597.34,-195.154"/>
<polygon fill="midnightblue" stroke="midnightblue" points="596.929,-191.675 587.208,-195.888 597.435,-198.657 596.929,-191.675"/>
</g>
<!-- Node5&#45;&gt;Node2 -->
<g id="edge6" class="edge"><title>Node5&#45;&gt;Node2</title>
<path fill="none" stroke="midnightblue" d="M1061.79,-128.734C1074.74,-118.208 1096.69,-100.379 1112.39,-87.6174"/>
<polygon fill="midnightblue" stroke="midnightblue" points="1114.83,-90.1497 1120.38,-81.1273 1110.41,-84.7169 1114.83,-90.1497"/>
</g>
<!-- Node5&#45;&gt;Node4 -->
<g id="edge8" class="edge"><title>Node5&#45;&gt;Node4</title>
<path fill="none" stroke="midnightblue" d="M1040.21,-128.734C1027.26,-118.208 1005.31,-100.379 989.606,-87.6174"/>
<polygon fill="midnightblue" stroke="midnightblue" points="991.586,-84.7169 981.618,-81.1273 987.172,-90.1497 991.586,-84.7169"/>
</g>
<!-- Node6&#45;&gt;Node1 -->
<g id="edge10" class="edge"><title>Node6&#45;&gt;Node1</title>
<path fill="none" stroke="midnightblue" d="M387.782,-148.009C421.18,-158.252 473.91,-175.517 507.277,-187.083"/>
<polygon fill="midnightblue" stroke="midnightblue" points="506.373,-190.474 516.968,-190.475 508.686,-183.868 506.373,-190.474"/>
</g>
<!-- Node7&#45;&gt;Node0 -->
<g id="edge19" class="edge"><title>Node7&#45;&gt;Node0</title>
<path fill="none" stroke="midnightblue" d="M183.315,-148.092C227.186,-167.608 335.15,-215.637 394.776,-242.162"/>
<polygon fill="midnightblue" stroke="midnightblue" points="393.706,-245.516 404.266,-246.383 396.552,-239.121 393.706,-245.516"/>
</g>
<!-- Node7&#45;&gt;Node1 -->
<g id="edge12" class="edge"><title>Node7&#45;&gt;Node1</title>
<path fill="none" stroke="midnightblue" d="M219.389,-148.055C230.891,-150.059 242.867,-152.149 254,-154 331.705,-166.92 421.231,-180.477 478.742,-189.29"/>
<polygon fill="midnightblue" stroke="midnightblue" points="478.331,-192.768 488.746,-190.826 479.392,-185.849 478.331,-192.768"/>
</g>
<!-- Node8 -->
<g id="node9" class="node"><title>Node8</title>
<g id="a_node9"><a xlink:href="constraints__hard_8h.html" target="_top" xlink:title="Functions and data structures for handling of secondary structure hard constraints. ">
<polygon fill="none" stroke="black" points="288,-56.5 288,-86.5 414,-86.5 414,-56.5 288,-56.5"/>
<text text-anchor="start" x="296" y="-74.5" font-family="Helvetica,sans-Serif" font-size="10.00">ViennaRNA/constraints</text>
<text text-anchor="middle" x="351" y="-63.5" font-family="Helvetica,sans-Serif" font-size="10.00">_hard.h</text>
</a>
</g>
</g>
<!-- Node7&#45;&gt;Node8 -->
<g id="edge13" class="edge"><title>Node7&#45;&gt;Node8</title>
<path fill="none" stroke="midnightblue" d="M188.832,-128.869C217.257,-118.988 264.551,-102.549 300.751,-89.9662"/>
<polygon fill="midnightblue" stroke="midnightblue" points="302.346,-93.1174 310.642,-86.5281 300.048,-86.5054 302.346,-93.1174"/>
</g>
<!-- Node9 -->
<g id="node10" class="node"><title>Node9</title>
<g id="a_node10"><a xlink:href="constraints__soft_8h.html" target="_top" xlink:title="Functions and data structures for secondary structure soft constraints. ">
<polygon fill="none" stroke="black" points="432,-56.5 432,-86.5 558,-86.5 558,-56.5 432,-56.5"/>
<text text-anchor="start" x="440" y="-74.5" font-family="Helvetica,sans-Serif" font-size="10.00">ViennaRNA/constraints</text>
<text text-anchor="middle" x="495" y="-63.5" font-family="Helvetica,sans-Serif" font-size="10.00">_soft.h</text>
</a>
</g>
</g>
<!-- Node7&#45;&gt;Node9 -->
<g id="edge15" class="edge"><title>Node7&#45;&gt;Node9</title>
<path fill="none" stroke="midnightblue" d="M208.471,-128.915C258.062,-119.323 340.936,-103.236 421.924,-87.2071"/>
<polygon fill="midnightblue" stroke="midnightblue" points="422.659,-90.6295 431.788,-85.2531 421.299,-83.7629 422.659,-90.6295"/>
</g>
<!-- Node10 -->
<g id="node11" class="node"><title>Node10</title>
<g id="a_node11"><a xlink:href="constraints__SHAPE_8h.html" target="_top" xlink:title="This module provides function to incorporate SHAPE reactivity data into the folding recursions by mea...">
<polygon fill="none" stroke="black" points="0,-56.5 0,-86.5 126,-86.5 126,-56.5 0,-56.5"/>
<text text-anchor="start" x="8" y="-74.5" font-family="Helvetica,sans-Serif" font-size="10.00">ViennaRNA/constraints</text>
<text text-anchor="middle" x="63" y="-63.5" font-family="Helvetica,sans-Serif" font-size="10.00">_SHAPE.h</text>
</a>
</g>
</g>
<!-- Node7&#45;&gt;Node10 -->
<g id="edge17" class="edge"><title>Node7&#45;&gt;Node10</title>
<path fill="none" stroke="midnightblue" d="M150.379,-128.734C135.876,-119.4 112.451,-104.325 93.5038,-92.1311"/>
<polygon fill="midnightblue" stroke="midnightblue" points="95.1954,-89.0577 84.8922,-86.589 91.4071,-94.944 95.1954,-89.0577"/>
</g>
<!-- Node11 -->
<g id="node12" class="node"><title>Node11</title>
<g id="a_node12"><a xlink:href="constraints__ligand_8h.html" target="_top" xlink:title="Functions for incorporation of ligands binding to hairpin and interior loop motifs using the soft con...">
<polygon fill="none" stroke="black" points="144,-56.5 144,-86.5 270,-86.5 270,-56.5 144,-56.5"/>
<text text-anchor="start" x="152" y="-74.5" font-family="Helvetica,sans-Serif" font-size="10.00">ViennaRNA/constraints</text>
<text text-anchor="middle" x="207" y="-63.5" font-family="Helvetica,sans-Serif" font-size="10.00">_ligand.h</text>
</a>
</g>
</g>
<!-- Node7&#45;&gt;Node11 -->
<g id="edge20" class="edge"><title>Node7&#45;&gt;Node11</title>
<path fill="none" stroke="midnightblue" d="M169.799,-128.734C175.499,-120.118 184.435,-106.61 192.121,-94.9923"/>
<polygon fill="midnightblue" stroke="midnightblue" points="195.081,-96.8603 197.68,-86.589 189.243,-92.9981 195.081,-96.8603"/>
</g>
<!-- Node8&#45;&gt;Node1 -->
<g id="edge14" class="edge"><title>Node8&#45;&gt;Node1</title>
<path fill="none" stroke="midnightblue" d="M376.343,-86.6327C393.469,-96.4061 416.436,-109.951 436,-123 465.927,-142.961 499.067,-168.29 519.214,-184.075"/>
<polygon fill="midnightblue" stroke="midnightblue" points="517.231,-186.968 527.252,-190.407 521.562,-181.469 517.231,-186.968"/>
</g>
<!-- Node9&#45;&gt;Node1 -->
<g id="edge16" class="edge"><title>Node9&#45;&gt;Node1</title>
<path fill="none" stroke="midnightblue" d="M496.574,-86.7287C498.723,-103.305 503.337,-131.315 512,-154 515.702,-163.693 521.324,-173.759 526.395,-181.906"/>
<polygon fill="midnightblue" stroke="midnightblue" points="523.564,-183.972 531.946,-190.451 529.434,-180.159 523.564,-183.972"/>
</g>
<!-- Node10&#45;&gt;Node1 -->
<g id="edge18" class="edge"><title>Node10&#45;&gt;Node1</title>
<path fill="none" stroke="midnightblue" d="M62.8954,-86.5661C63.5906,-105.161 67.8512,-137.492 88,-154 117.624,-178.272 363.487,-191.685 478.767,-196.693"/>
<polygon fill="midnightblue" stroke="midnightblue" points="478.698,-200.193 488.838,-197.124 478.997,-193.2 478.698,-200.193"/>
</g>
<!-- Node11&#45;&gt;Node1 -->
<g id="edge21" class="edge"><title>Node11&#45;&gt;Node1</title>
<path fill="none" stroke="midnightblue" d="M215.036,-86.6557C226.454,-105.352 249.22,-137.797 278,-154 311.487,-172.853 412.753,-186.322 478.575,-193.367"/>
<polygon fill="midnightblue" stroke="midnightblue" points="478.508,-196.879 488.819,-194.443 479.239,-189.918 478.508,-196.879"/>
</g>
<!-- Node12&#45;&gt;Node1 -->
<g id="edge23" class="edge"><title>Node12&#45;&gt;Node1</title>
<path fill="none" stroke="midnightblue" d="M582.319,-148.009C577.274,-157.104 566.351,-171.736 556.435,-182.997"/>
<polygon fill="midnightblue" stroke="midnightblue" points="553.731,-180.766 549.491,-190.475 558.861,-185.529 553.731,-180.766"/>
</g>
<!-- Node14&#45;&gt;Node1 -->
<g id="edge26" class="edge"><title>Node14&#45;&gt;Node1</title>
<path fill="none" stroke="midnightblue" d="M805.391,-153.561C804.59,-153.708 803.793,-153.855 803,-154 732.529,-166.916 651.002,-181.119 597.092,-190.046"/>
<polygon fill="midnightblue" stroke="midnightblue" points="596.322,-186.626 587.023,-191.704 597.459,-193.533 596.322,-186.626"/>
</g>
</g>
</svg>
