<?xml version="1.0" encoding="UTF-8" standalone="no"?>
<!DOCTYPE svg PUBLIC "-//W3C//DTD SVG 1.1//EN"
 "http://www.w3.org/Graphics/SVG/1.1/DTD/svg11.dtd">
<!-- Generated by graphviz version 2.38.0 (20140413.2041)
 -->
<!-- Title: ViennaRNA/perturbation_fold.h Pages: 1 -->
<!--zoomable 408 -->
<svg id="main" version="1.1" xmlns="http://www.w3.org/2000/svg" xmlns:xlink="http://www.w3.org/1999/xlink" xml:space="preserve" onload="init(evt)">
<style type="text/css"><![CDATA[
.edge:hover path { stroke: red; }
.edge:hover polygon { stroke: red; fill: red; }
]]></style>
<script type="text/javascript"><![CDATA[
var edges = document.getElementsByTagName('g');
if (edges && edges.length) {
  for (var i=0;i<edges.length;i++) {
    if (edges[i].id.substr(0,4)=='edge') {
      edges[i].setAttribute('class','edge');
    }
  }
}
]]></script>
        <defs>
                <circle id="rim" cx="0" cy="0" r="7"/>
                <circle id="rim2" cx="0" cy="0" r="3.5"/>
                <g id="zoomPlus">
                        <use xlink:href="#rim" fill="#404040">
                                <set attributeName="fill" to="#808080" begin="zoomplus.mouseover" end="zoomplus.mouseout"/>
                        </use>
                        <path d="M-4,0h8M0,-4v8" fill="none" stroke="white" stroke-width="1.5" pointer-events="none"/>
                </g>
                <g id="zoomMin">
                        <use xlink:href="#rim" fill="#404040">
                                <set attributeName="fill" to="#808080" begin="zoomminus.mouseover" end="zoomminus.mouseout"/>
                        </use>
                        <path d="M-4,0h8" fill="none" stroke="white" stroke-width="1.5" pointer-events="none"/>
                </g>
                <g id="dirArrow">
                        <path fill="none" stroke="white" stroke-width="1.5" d="M0,-3.0v7 M-2.5,-0.5L0,-3.0L2.5,-0.5"/>
                </g>
               <g id="resetDef">
                       <use xlink:href="#rim2" fill="#404040">
                               <set attributeName="fill" to="#808080" begin="reset.mouseover" end="reset.mouseout"/>
                       </use>
               </g>
        </defs>

<script type="text/javascript">
var viewWidth = 4764;
var viewHeight = 408;
var sectionId = 'dynsection-1';
</script>
<script xlink:href="svgpan.js"/>
<svg id="graph" class="graph">
<g id="viewport">
<title>ViennaRNA/perturbation_fold.h</title>
<!-- Node15 -->
<g id="node1" class="node"><title>Node15</title>
<polygon fill="#bfbfbf" stroke="black" points="3784.16,-369.5 3784.16,-399.5 3915.16,-399.5 3915.16,-369.5 3784.16,-369.5"/>
<text text-anchor="start" x="3792.16" y="-387.5" font-family="Helvetica,sans-Serif" font-size="10.00">ViennaRNA/perturbation</text>
<text text-anchor="middle" x="3849.66" y="-376.5" font-family="Helvetica,sans-Serif" font-size="10.00">_fold.h</text>
</g>
<!-- Node16 -->
<g id="node2" class="node"><title>Node16</title>
<g id="a_node2"><a xlink:href="constraints_8h.html" target="_top" xlink:title="Functions and data structures for constraining secondary structure predictions and evaluation...">
<polygon fill="none" stroke="black" points="4101.66,-313.5 4101.66,-332.5 4235.66,-332.5 4235.66,-313.5 4101.66,-313.5"/>
<text text-anchor="middle" x="4168.66" y="-320.5" font-family="Helvetica,sans-Serif" font-size="10.00">ViennaRNA/constraints.h</text>
</a>
</g>
</g>
<!-- Node15&#45;&gt;Node16 -->
<g id="edge1" class="edge"><title>Node15&#45;&gt;Node16</title>
<path fill="none" stroke="midnightblue" d="M3925.39,-369.376C3986.7,-357.94 4071.07,-342.204 4122.63,-332.586"/>
<polygon fill="midnightblue" stroke="midnightblue" points="3924.56,-365.969 3915.37,-371.244 3925.85,-372.851 3924.56,-365.969"/>
</g>
<!-- Node17 -->
<g id="node3" class="node"><title>Node17</title>
<g id="a_node3"><a xlink:href="data__structures_8h.html" target="_top" xlink:title="Various data structures and pre&#45;processor macros. ">
<polygon fill="none" stroke="black" points="2820.16,-257.5 2820.16,-276.5 2975.16,-276.5 2975.16,-257.5 2820.16,-257.5"/>
<text text-anchor="middle" x="2897.66" y="-264.5" font-family="Helvetica,sans-Serif" font-size="10.00">ViennaRNA/data_structures.h</text>
</a>
</g>
</g>
<!-- Node16&#45;&gt;Node17 -->
<g id="edge2" class="edge"><title>Node16&#45;&gt;Node17</title>
<path fill="none" stroke="midnightblue" d="M4091.45,-318.863C3864.68,-309.418 3202.66,-281.293 2975.32,-271.449"/>
<polygon fill="midnightblue" stroke="midnightblue" points="4091.46,-322.366 4101.6,-319.285 4091.75,-315.372 4091.46,-322.366"/>
</g>
<!-- Node45 -->
<g id="node31" class="node"><title>Node45</title>
<g id="a_node31"><a xlink:href="interior__loops_8h.html" target="_top" xlink:title="Energy evaluation of interior loops for MFE and partition function calculations. ">
<polygon fill="none" stroke="black" points="3656.16,-56.5 3656.16,-86.5 3763.16,-86.5 3763.16,-56.5 3656.16,-56.5"/>
<text text-anchor="start" x="3664.16" y="-74.5" font-family="Helvetica,sans-Serif" font-size="10.00">ViennaRNA/interior</text>
<text text-anchor="middle" x="3709.66" y="-63.5" font-family="Helvetica,sans-Serif" font-size="10.00">_loops.h</text>
</a>
</g>
</g>
<!-- Node16&#45;&gt;Node45 -->
<g id="edge93" class="edge"><title>Node16&#45;&gt;Node45</title>
<path fill="none" stroke="midnightblue" d="M4246.02,-321.862C4390.77,-319.066 4679.57,-300.011 4582.66,-190 4462.73,-53.8437 3951.3,-118.833 3772.66,-87 3769.57,-86.4487 3766.4,-85.8445 3763.21,-85.2056"/>
<polygon fill="midnightblue" stroke="midnightblue" points="4245.79,-318.365 4235.86,-322.036 4245.91,-325.364 4245.79,-318.365"/>
</g>
<!-- Node17&#45;&gt;Node15 -->
<g id="edge73" class="edge"><title>Node17&#45;&gt;Node15</title>
<path fill="none" stroke="midnightblue" d="M2978.15,-277.765C3162.87,-300.175 3614.29,-354.944 3783.85,-375.516"/>
<polygon fill="midnightblue" stroke="midnightblue" points="2978.32,-274.259 2967.97,-276.529 2977.47,-281.209 2978.32,-274.259"/>
</g>
<!-- Node17&#45;&gt;Node16 -->
<g id="edge15" class="edge"><title>Node17&#45;&gt;Node16</title>
<path fill="none" stroke="midnightblue" d="M2985.31,-271.572C3225.04,-281.574 3887.72,-309.732 4101.37,-319"/>
<polygon fill="midnightblue" stroke="midnightblue" points="2985.38,-268.072 2975.24,-271.152 2985.09,-275.066 2985.38,-268.072"/>
</g>
<!-- Node18 -->
<g id="node4" class="node"><title>Node18</title>
<g id="a_node4"><a xlink:href="2Dfold_8h.html" target="_top" xlink:title="MFE structures for base pair distance classes. ">
<polygon fill="none" stroke="black" points="2363.16,-129 2363.16,-148 2476.16,-148 2476.16,-129 2363.16,-129"/>
<text text-anchor="middle" x="2419.66" y="-136" font-family="Helvetica,sans-Serif" font-size="10.00">ViennaRNA/2Dfold.h</text>
</a>
</g>
</g>
<!-- Node17&#45;&gt;Node18 -->
<g id="edge3" class="edge"><title>Node17&#45;&gt;Node18</title>
<path fill="none" stroke="midnightblue" d="M2809.88,-265.994C2386.86,-265.76 577.226,-262.343 536.664,-221 527.015,-211.165 527.053,-199.872 536.664,-190 569.341,-156.435 2052.73,-142.493 2363.1,-139.941"/>
<polygon fill="midnightblue" stroke="midnightblue" points="2809.91,-269.494 2819.91,-265.999 2809.92,-262.494 2809.91,-269.494"/>
</g>
<!-- Node19 -->
<g id="node5" class="node"><title>Node19</title>
<g id="a_node5"><a xlink:href="2Dpfold_8h.html" target="_top" xlink:title="Partition function implementations for base pair distance classes. ">
<polygon fill="none" stroke="black" points="557.164,-196 557.164,-215 676.164,-215 676.164,-196 557.164,-196"/>
<text text-anchor="middle" x="616.664" y="-203" font-family="Helvetica,sans-Serif" font-size="10.00">ViennaRNA/2Dpfold.h</text>
</a>
</g>
</g>
<!-- Node17&#45;&gt;Node19 -->
<g id="edge4" class="edge"><title>Node17&#45;&gt;Node19</title>
<path fill="none" stroke="midnightblue" d="M2810.04,-266.438C2453.02,-267.878 1107.07,-269.882 684.664,-221 673.393,-219.696 661.23,-217.394 650.351,-215.004"/>
<polygon fill="midnightblue" stroke="midnightblue" points="2810.07,-269.938 2820.06,-266.396 2810.04,-262.938 2810.07,-269.938"/>
</g>
<!-- Node20 -->
<g id="node6" class="node"><title>Node20</title>
<g id="a_node6"><a xlink:href="ali__plex_8h_source.html" target="_top" xlink:title="ViennaRNA/ali_plex.h">
<polygon fill="none" stroke="black" points="694.164,-196 694.164,-215 813.164,-215 813.164,-196 694.164,-196"/>
<text text-anchor="middle" x="753.664" y="-203" font-family="Helvetica,sans-Serif" font-size="10.00">ViennaRNA/ali_plex.h</text>
</a>
</g>
</g>
<!-- Node17&#45;&gt;Node20 -->
<g id="edge5" class="edge"><title>Node17&#45;&gt;Node20</title>
<path fill="none" stroke="midnightblue" d="M2809.87,-266.264C2466.84,-266.96 1216.59,-266.266 822.664,-221 811.354,-219.7 799.156,-217.431 788.207,-215.069"/>
<polygon fill="midnightblue" stroke="midnightblue" points="2810,-269.764 2820,-266.243 2809.99,-262.764 2810,-269.764"/>
</g>
<!-- Node21 -->
<g id="node7" class="node"><title>Node21</title>
<g id="a_node7"><a xlink:href="alifold_8h.html" target="_top" xlink:title="Functions for comparative structure prediction using RNA sequence alignments. ">
<polygon fill="none" stroke="black" points="2279.66,-62 2279.66,-81 2389.66,-81 2389.66,-62 2279.66,-62"/>
<text text-anchor="middle" x="2334.66" y="-69" font-family="Helvetica,sans-Serif" font-size="10.00">ViennaRNA/alifold.h</text>
</a>
</g>
</g>
<!-- Node17&#45;&gt;Node21 -->
<g id="edge6" class="edge"><title>Node17&#45;&gt;Node21</title>
<path fill="none" stroke="midnightblue" d="M2934.38,-253.268C2949,-246.181 2964.32,-235.742 2972.66,-221 2979.45,-209.011 2982.12,-200.021 2972.66,-190 2878.1,-89.7807 2459.06,-242.758 2353.66,-154 2331.99,-135.75 2332.31,-98.0153 2333.7,-81.0684"/>
<polygon fill="midnightblue" stroke="midnightblue" points="2932.67,-250.197 2924.95,-257.453 2935.51,-256.596 2932.67,-250.197"/>
</g>
<!-- Node22 -->
<g id="node8" class="node"><title>Node22</title>
<g id="a_node8"><a xlink:href="boltzmann__sampling_8h.html" target="_top" xlink:title="Boltzmann Sampling of secondary structures from the ensemble. ">
<polygon fill="none" stroke="black" points="20.664,-190.5 20.664,-220.5 142.664,-220.5 142.664,-190.5 20.664,-190.5"/>
<text text-anchor="start" x="28.664" y="-208.5" font-family="Helvetica,sans-Serif" font-size="10.00">ViennaRNA/boltzmann</text>
<text text-anchor="middle" x="81.664" y="-197.5" font-family="Helvetica,sans-Serif" font-size="10.00">_sampling.h</text>
</a>
</g>
</g>
<!-- Node17&#45;&gt;Node22 -->
<g id="edge7" class="edge"><title>Node17&#45;&gt;Node22</title>
<path fill="none" stroke="midnightblue" d="M2810.07,-265.544C2371.06,-263.127 420.559,-250.785 151.664,-221 148.827,-220.686 145.935,-220.311 143.02,-219.889"/>
<polygon fill="midnightblue" stroke="midnightblue" points="2810.14,-269.044 2820.16,-265.599 2810.18,-262.045 2810.14,-269.044"/>
</g>
<!-- Node23 -->
<g id="node9" class="node"><title>Node23</title>
<g id="a_node9"><a xlink:href="part__func_8h.html" target="_top" xlink:title="Partition function implementations. ">
<polygon fill="none" stroke="black" points="338.164,-129 338.164,-148 465.164,-148 465.164,-129 338.164,-129"/>
<text text-anchor="middle" x="401.664" y="-136" font-family="Helvetica,sans-Serif" font-size="10.00">ViennaRNA/part_func.h</text>
</a>
</g>
</g>
<!-- Node17&#45;&gt;Node23 -->
<g id="edge70" class="edge"><title>Node17&#45;&gt;Node23</title>
<path fill="none" stroke="midnightblue" d="M2809.66,-266.133C2364.04,-266.599 376.022,-266.143 331.664,-221 306.957,-195.855 356.885,-163.416 384.712,-148.158"/>
<polygon fill="midnightblue" stroke="midnightblue" points="2809.9,-269.632 2819.89,-266.121 2809.89,-262.632 2809.9,-269.632"/>
</g>
<!-- Node24 -->
<g id="node10" class="node"><title>Node24</title>
<g id="a_node10"><a xlink:href="centroid_8h.html" target="_top" xlink:title="Centroid structure computation. ">
<polygon fill="none" stroke="black" points="341.164,-196 341.164,-215 462.164,-215 462.164,-196 341.164,-196"/>
<text text-anchor="middle" x="401.664" y="-203" font-family="Helvetica,sans-Serif" font-size="10.00">ViennaRNA/centroid.h</text>
</a>
</g>
</g>
<!-- Node17&#45;&gt;Node24 -->
<g id="edge11" class="edge"><title>Node17&#45;&gt;Node24</title>
<path fill="none" stroke="midnightblue" d="M2810.11,-266.395C2432.65,-267.787 942.625,-270.003 476.664,-221 464.266,-219.696 450.861,-217.395 438.86,-215.004"/>
<polygon fill="midnightblue" stroke="midnightblue" points="2810.16,-269.895 2820.15,-266.357 2810.14,-262.895 2810.16,-269.895"/>
</g>
<!-- Node25 -->
<g id="node11" class="node"><title>Node25</title>
<g id="a_node11"><a xlink:href="cofold_8h.html" target="_top" xlink:title="MFE implementations for RNA&#45;RNA interaction. ">
<polygon fill="none" stroke="black" points="3522.16,-129 3522.16,-148 3633.16,-148 3633.16,-129 3522.16,-129"/>
<text text-anchor="middle" x="3577.66" y="-136" font-family="Helvetica,sans-Serif" font-size="10.00">ViennaRNA/cofold.h</text>
</a>
</g>
</g>
<!-- Node17&#45;&gt;Node25 -->
<g id="edge13" class="edge"><title>Node17&#45;&gt;Node25</title>
<path fill="none" stroke="midnightblue" d="M2985.45,-264.327C3074.99,-260.924 3217.32,-250.805 3336.66,-221 3372.06,-212.161 3378.3,-202.239 3412.66,-190 3458.81,-173.566 3513.31,-157.525 3546.68,-148.078"/>
<polygon fill="midnightblue" stroke="midnightblue" points="2985.21,-260.834 2975.34,-264.692 2985.46,-267.829 2985.21,-260.834"/>
</g>
<!-- Node26 -->
<g id="node12" class="node"><title>Node26</title>
<g id="a_node12"><a xlink:href="commands_8h.html" target="_top" xlink:title="Parse and apply different commands that alter the behavior of secondary structure prediction and eval...">
<polygon fill="none" stroke="black" points="831.664,-196 831.664,-215 965.664,-215 965.664,-196 831.664,-196"/>
<text text-anchor="middle" x="898.664" y="-203" font-family="Helvetica,sans-Serif" font-size="10.00">ViennaRNA/commands.h</text>
</a>
</g>
</g>
<!-- Node17&#45;&gt;Node26 -->
<g id="edge14" class="edge"><title>Node17&#45;&gt;Node26</title>
<path fill="none" stroke="midnightblue" d="M2809.61,-265.871C2482.51,-265.09 1337.56,-259.597 974.664,-221 962.242,-219.679 948.815,-217.404 936.753,-215.043"/>
<polygon fill="midnightblue" stroke="midnightblue" points="2809.96,-269.371 2819.97,-265.894 2809.98,-262.371 2809.96,-269.371"/>
</g>
<!-- Node27 -->
<g id="node13" class="node"><title>Node27</title>
<g id="a_node13"><a xlink:href="constraints__hard_8h.html" target="_top" xlink:title="Functions and data structures for handling of secondary structure hard constraints. ">
<polygon fill="none" stroke="black" points="4447.66,-190.5 4447.66,-220.5 4573.66,-220.5 4573.66,-190.5 4447.66,-190.5"/>
<text text-anchor="start" x="4455.66" y="-208.5" font-family="Helvetica,sans-Serif" font-size="10.00">ViennaRNA/constraints</text>
<text text-anchor="middle" x="4510.66" y="-197.5" font-family="Helvetica,sans-Serif" font-size="10.00">_hard.h</text>
</a>
</g>
</g>
<!-- Node17&#45;&gt;Node27 -->
<g id="edge16" class="edge"><title>Node17&#45;&gt;Node27</title>
<path fill="none" stroke="midnightblue" d="M2985.59,-265.393C3268.63,-263.13 4154.16,-253.563 4438.66,-221 4441.58,-220.667 4444.55,-220.276 4447.54,-219.841"/>
<polygon fill="midnightblue" stroke="midnightblue" points="2985.35,-261.895 2975.38,-265.473 2985.4,-268.894 2985.35,-261.895"/>
</g>
<!-- Node28 -->
<g id="node14" class="node"><title>Node28</title>
<g id="a_node14"><a xlink:href="constraints__ligand_8h.html" target="_top" xlink:title="Functions for incorporation of ligands binding to hairpin and interior loop motifs using the soft con...">
<polygon fill="none" stroke="black" points="4015.66,-190.5 4015.66,-220.5 4141.66,-220.5 4141.66,-190.5 4015.66,-190.5"/>
<text text-anchor="start" x="4023.66" y="-208.5" font-family="Helvetica,sans-Serif" font-size="10.00">ViennaRNA/constraints</text>
<text text-anchor="middle" x="4078.66" y="-197.5" font-family="Helvetica,sans-Serif" font-size="10.00">_ligand.h</text>
</a>
</g>
</g>
<!-- Node17&#45;&gt;Node28 -->
<g id="edge18" class="edge"><title>Node17&#45;&gt;Node28</title>
<path fill="none" stroke="midnightblue" d="M2985.32,-266.742C3172.58,-267.382 3625.26,-263.882 4001.66,-221 4006.12,-220.492 4010.71,-219.874 4015.33,-219.183"/>
<polygon fill="midnightblue" stroke="midnightblue" points="2985.27,-263.242 2975.26,-266.703 2985.24,-270.242 2985.27,-263.242"/>
</g>
<!-- Node29 -->
<g id="node15" class="node"><title>Node29</title>
<g id="a_node15"><a xlink:href="constraints__SHAPE_8h.html" target="_top" xlink:title="This module provides function to incorporate SHAPE reactivity data into the folding recursions by mea...">
<polygon fill="none" stroke="black" points="4159.66,-190.5 4159.66,-220.5 4285.66,-220.5 4285.66,-190.5 4159.66,-190.5"/>
<text text-anchor="start" x="4167.66" y="-208.5" font-family="Helvetica,sans-Serif" font-size="10.00">ViennaRNA/constraints</text>
<text text-anchor="middle" x="4222.66" y="-197.5" font-family="Helvetica,sans-Serif" font-size="10.00">_SHAPE.h</text>
</a>
</g>
</g>
<!-- Node17&#45;&gt;Node29 -->
<g id="edge20" class="edge"><title>Node17&#45;&gt;Node29</title>
<path fill="none" stroke="midnightblue" d="M2985.59,-264.706C3231.76,-260.785 3924.63,-247.64 4150.66,-221 4153.58,-220.657 4156.55,-220.258 4159.54,-219.817"/>
<polygon fill="midnightblue" stroke="midnightblue" points="2985.2,-261.211 2975.26,-264.869 2985.31,-268.21 2985.2,-261.211"/>
</g>
<!-- Node30 -->
<g id="node16" class="node"><title>Node30</title>
<g id="a_node16"><a xlink:href="constraints__soft_8h.html" target="_top" xlink:title="Functions and data structures for secondary structure soft constraints. ">
<polygon fill="none" stroke="black" points="4303.66,-190.5 4303.66,-220.5 4429.66,-220.5 4429.66,-190.5 4303.66,-190.5"/>
<text text-anchor="start" x="4311.66" y="-208.5" font-family="Helvetica,sans-Serif" font-size="10.00">ViennaRNA/constraints</text>
<text text-anchor="middle" x="4366.66" y="-197.5" font-family="Helvetica,sans-Serif" font-size="10.00">_soft.h</text>
</a>
</g>
</g>
<!-- Node17&#45;&gt;Node30 -->
<g id="edge22" class="edge"><title>Node17&#45;&gt;Node30</title>
<path fill="none" stroke="midnightblue" d="M2985.87,-265.081C3251.23,-262.012 4039.55,-250.588 4294.66,-221 4297.58,-220.662 4300.55,-220.268 4303.54,-219.83"/>
<polygon fill="midnightblue" stroke="midnightblue" points="2985.48,-261.585 2975.52,-265.2 2985.56,-268.585 2985.48,-261.585"/>
</g>
<!-- Node31 -->
<g id="node17" class="node"><title>Node31</title>
<g id="a_node17"><a xlink:href="dp__matrices_8h.html" target="_top" xlink:title="Functions to deal with standard dynamic programming (DP) matrices. ">
<polygon fill="none" stroke="black" points="983.664,-196 983.664,-215 1123.66,-215 1123.66,-196 983.664,-196"/>
<text text-anchor="middle" x="1053.66" y="-203" font-family="Helvetica,sans-Serif" font-size="10.00">ViennaRNA/dp_matrices.h</text>
</a>
</g>
</g>
<!-- Node17&#45;&gt;Node31 -->
<g id="edge24" class="edge"><title>Node17&#45;&gt;Node31</title>
<path fill="none" stroke="midnightblue" d="M2809.85,-265.595C2499.49,-263.859 1455.55,-255.476 1123.66,-221 1110.77,-219.66 1096.81,-217.38 1084.7,-215.02"/>
<polygon fill="midnightblue" stroke="midnightblue" points="2810.12,-269.096 2820.14,-265.652 2810.16,-262.096 2810.12,-269.096"/>
</g>
<!-- Node32 -->
<g id="node18" class="node"><title>Node32</title>
<g id="a_node18"><a xlink:href="duplex_8h.html" target="_top" xlink:title="Functions for simple RNA&#45;RNA duplex interactions. ">
<polygon fill="none" stroke="black" points="1142.16,-196 1142.16,-215 1255.16,-215 1255.16,-196 1142.16,-196"/>
<text text-anchor="middle" x="1198.66" y="-203" font-family="Helvetica,sans-Serif" font-size="10.00">ViennaRNA/duplex.h</text>
</a>
</g>
</g>
<!-- Node17&#45;&gt;Node32 -->
<g id="edge26" class="edge"><title>Node17&#45;&gt;Node32</title>
<path fill="none" stroke="midnightblue" d="M2809.97,-265.804C2515.99,-264.797 1566.87,-258.639 1263.66,-221 1252.99,-219.675 1241.5,-217.399 1231.18,-215.038"/>
<polygon fill="midnightblue" stroke="midnightblue" points="2810.14,-269.304 2820.15,-265.837 2810.16,-262.304 2810.14,-269.304"/>
</g>
<!-- Node33 -->
<g id="node19" class="node"><title>Node33</title>
<g id="a_node19"><a xlink:href="equilibrium__probs_8h.html" target="_top" xlink:title="Equilibrium Probability implementations. ">
<polygon fill="none" stroke="black" points="161.164,-190.5 161.164,-220.5 284.164,-220.5 284.164,-190.5 161.164,-190.5"/>
<text text-anchor="start" x="169.164" y="-208.5" font-family="Helvetica,sans-Serif" font-size="10.00">ViennaRNA/equilibrium</text>
<text text-anchor="middle" x="222.664" y="-197.5" font-family="Helvetica,sans-Serif" font-size="10.00">_probs.h</text>
</a>
</g>
</g>
<!-- Node17&#45;&gt;Node33 -->
<g id="edge27" class="edge"><title>Node17&#45;&gt;Node33</title>
<path fill="none" stroke="midnightblue" d="M2809.97,-265.374C2385.3,-262.224 552.403,-247.207 298.664,-221 293.988,-220.517 289.169,-219.895 284.335,-219.181"/>
<polygon fill="midnightblue" stroke="midnightblue" points="2810.02,-268.875 2820.04,-265.449 2810.07,-261.875 2810.02,-268.875"/>
</g>
<!-- Node34 -->
<g id="node20" class="node"><title>Node34</title>
<g id="a_node20"><a xlink:href="eval_8h.html" target="_top" xlink:title="Functions and variables related to energy evaluation of sequence/structure pairs. ...">
<polygon fill="none" stroke="black" points="2984.66,-129 2984.66,-148 3086.66,-148 3086.66,-129 2984.66,-129"/>
<text text-anchor="middle" x="3035.66" y="-136" font-family="Helvetica,sans-Serif" font-size="10.00">ViennaRNA/eval.h</text>
</a>
</g>
</g>
<!-- Node17&#45;&gt;Node34 -->
<g id="edge29" class="edge"><title>Node17&#45;&gt;Node34</title>
<path fill="none" stroke="midnightblue" d="M2985.58,-266.308C3071.11,-264.509 3192.46,-255.67 3222.66,-221 3231.71,-210.611 3231.04,-200.939 3222.66,-190 3220.29,-186.896 3122.65,-161.644 3069.43,-148.066"/>
<polygon fill="midnightblue" stroke="midnightblue" points="2985.27,-262.813 2975.33,-266.493 2985.39,-269.811 2985.27,-262.813"/>
</g>
<!-- Node35 -->
<g id="node21" class="node"><title>Node35</title>
<g id="a_node21"><a xlink:href="fold_8h.html" target="_top" xlink:title="MFE calculations for single RNA sequences. ">
<polygon fill="none" stroke="black" points="3261.66,-62 3261.66,-81 3361.66,-81 3361.66,-62 3261.66,-62"/>
<text text-anchor="middle" x="3311.66" y="-69" font-family="Helvetica,sans-Serif" font-size="10.00">ViennaRNA/fold.h</text>
</a>
</g>
</g>
<!-- Node17&#45;&gt;Node35 -->
<g id="edge35" class="edge"><title>Node17&#45;&gt;Node35</title>
<path fill="none" stroke="midnightblue" d="M2985.44,-265.653C3135.08,-264.085 3432.89,-256.445 3530.66,-221 3552.81,-212.97 3552.53,-200.418 3573.66,-190 3623.61,-165.378 3660.43,-198.673 3693.66,-154 3701.89,-142.946 3702.75,-133.361 3693.66,-123 3672.11,-98.4123 3460.7,-81.9271 3361.97,-75.5086"/>
<polygon fill="midnightblue" stroke="midnightblue" points="2985.32,-262.154 2975.36,-265.752 2985.39,-269.153 2985.32,-262.154"/>
</g>
<!-- Node36 -->
<g id="node22" class="node"><title>Node36</title>
<g id="a_node22"><a xlink:href="exterior__loops_8h.html" target="_top" xlink:title="Energy evaluation of exterior loops for MFE and partition function calculations. ">
<polygon fill="none" stroke="black" points="171.664,-123.5 171.664,-153.5 281.664,-153.5 281.664,-123.5 171.664,-123.5"/>
<text text-anchor="start" x="179.664" y="-141.5" font-family="Helvetica,sans-Serif" font-size="10.00">ViennaRNA/exterior</text>
<text text-anchor="middle" x="226.664" y="-130.5" font-family="Helvetica,sans-Serif" font-size="10.00">_loops.h</text>
</a>
</g>
</g>
<!-- Node17&#45;&gt;Node36 -->
<g id="edge31" class="edge"><title>Node17&#45;&gt;Node36</title>
<path fill="none" stroke="midnightblue" d="M2809.74,-265.462C2328.75,-262.416 36.8359,-246.567 11.664,-221 -39.5161,-169.016 91.9408,-149.718 171.359,-142.931"/>
<polygon fill="midnightblue" stroke="midnightblue" points="2810.06,-268.964 2820.09,-265.527 2810.11,-261.964 2810.06,-268.964"/>
</g>
<!-- Node38 -->
<g id="node24" class="node"><title>Node38</title>
<g id="a_node24"><a xlink:href="file__formats_8h.html" target="_top" xlink:title="Read and write different file formats for RNA sequences, structures. ">
<polygon fill="none" stroke="black" points="1273.16,-196 1273.16,-215 1410.16,-215 1410.16,-196 1273.16,-196"/>
<text text-anchor="middle" x="1341.66" y="-203" font-family="Helvetica,sans-Serif" font-size="10.00">ViennaRNA/file_formats.h</text>
</a>
</g>
</g>
<!-- Node17&#45;&gt;Node38 -->
<g id="edge33" class="edge"><title>Node17&#45;&gt;Node38</title>
<path fill="none" stroke="midnightblue" d="M2809.56,-265.121C2534,-262.085 1690.66,-250.566 1418.66,-221 1406.22,-219.648 1392.78,-217.395 1380.66,-215.063"/>
<polygon fill="midnightblue" stroke="midnightblue" points="2809.87,-268.624 2819.91,-265.233 2809.95,-261.624 2809.87,-268.624"/>
</g>
<!-- Node39 -->
<g id="node25" class="node"><title>Node39</title>
<g id="a_node25"><a xlink:href="findpath_8h.html" target="_top" xlink:title="A breadth&#45;first search heuristic for optimal direct folding paths. ">
<polygon fill="none" stroke="black" points="1428.16,-196 1428.16,-215 1549.16,-215 1549.16,-196 1428.16,-196"/>
<text text-anchor="middle" x="1488.66" y="-203" font-family="Helvetica,sans-Serif" font-size="10.00">ViennaRNA/findpath.h</text>
</a>
</g>
</g>
<!-- Node17&#45;&gt;Node39 -->
<g id="edge34" class="edge"><title>Node17&#45;&gt;Node39</title>
<path fill="none" stroke="midnightblue" d="M2809.91,-265.042C2552.32,-261.915 1801.24,-250.457 1557.66,-221 1546.48,-219.648 1534.43,-217.395 1523.57,-215.063"/>
<polygon fill="midnightblue" stroke="midnightblue" points="2809.92,-268.542 2819.96,-265.163 2810.01,-261.543 2809.92,-268.542"/>
</g>
<!-- Node40 -->
<g id="node26" class="node"><title>Node40</title>
<g id="a_node26"><a xlink:href="fold__vars_8h.html" target="_top" xlink:title="Here all all declarations of the global variables used throughout RNAlib. ">
<polygon fill="none" stroke="black" points="4629.66,-129 4629.66,-148 4755.66,-148 4755.66,-129 4629.66,-129"/>
<text text-anchor="middle" x="4692.66" y="-136" font-family="Helvetica,sans-Serif" font-size="10.00">ViennaRNA/fold_vars.h</text>
</a>
</g>
</g>
<!-- Node17&#45;&gt;Node40 -->
<g id="edge36" class="edge"><title>Node17&#45;&gt;Node40</title>
<path fill="none" stroke="midnightblue" d="M2985.55,-265.182C3224.2,-262.553 3872.53,-252.562 3963.66,-221 3985.93,-213.29 3984.53,-198.058 4006.66,-190 4120.14,-148.697 4482.49,-141.136 4629.65,-139.782"/>
<polygon fill="midnightblue" stroke="midnightblue" points="2985.48,-261.682 2975.52,-265.29 2985.56,-268.682 2985.48,-261.682"/>
</g>
<!-- Node42 -->
<g id="node28" class="node"><title>Node42</title>
<g id="a_node28"><a xlink:href="gquad_8h.html" target="_top" xlink:title="G&#45;quadruplexes. ">
<polygon fill="none" stroke="black" points="2494.66,-129 2494.66,-148 2606.66,-148 2606.66,-129 2494.66,-129"/>
<text text-anchor="middle" x="2550.66" y="-136" font-family="Helvetica,sans-Serif" font-size="10.00">ViennaRNA/gquad.h</text>
</a>
</g>
</g>
<!-- Node17&#45;&gt;Node42 -->
<g id="edge38" class="edge"><title>Node17&#45;&gt;Node42</title>
<path fill="none" stroke="midnightblue" d="M2809.95,-265.986C2388.25,-265.714 588.025,-262.141 547.664,-221 538.015,-211.165 538.013,-199.832 547.664,-190 585.362,-151.595 2431.22,-160.305 2484.66,-154 2495.62,-152.708 2507.42,-150.41 2517.98,-148.019"/>
<polygon fill="midnightblue" stroke="midnightblue" points="2809.94,-269.486 2819.95,-265.992 2809.95,-262.486 2809.94,-269.486"/>
</g>
<!-- Node43 -->
<g id="node29" class="node"><title>Node43</title>
<g id="a_node29"><a xlink:href="grammar_8h.html" target="_top" xlink:title="Implementations for the RNA folding grammar. ">
<polygon fill="none" stroke="black" points="1567.16,-196 1567.16,-215 1692.16,-215 1692.16,-196 1567.16,-196"/>
<text text-anchor="middle" x="1629.66" y="-203" font-family="Helvetica,sans-Serif" font-size="10.00">ViennaRNA/grammar.h</text>
</a>
</g>
</g>
<!-- Node17&#45;&gt;Node43 -->
<g id="edge39" class="edge"><title>Node17&#45;&gt;Node43</title>
<path fill="none" stroke="midnightblue" d="M2810.07,-264.61C2570.54,-260.425 1908.54,-246.629 1692.66,-221 1681.01,-219.617 1668.44,-217.355 1657.53,-215.025"/>
<polygon fill="midnightblue" stroke="midnightblue" points="2810.07,-268.11 2820.13,-264.784 2810.19,-261.111 2810.07,-268.11"/>
</g>
<!-- Node44 -->
<g id="node30" class="node"><title>Node44</title>
<g id="a_node30"><a xlink:href="hairpin__loops_8h.html" target="_top" xlink:title="Energy evaluation of hairpin loops for MFE and partition function calculations. ">
<polygon fill="none" stroke="black" points="3781.66,-62 3781.66,-81 3927.66,-81 3927.66,-62 3781.66,-62"/>
<text text-anchor="middle" x="3854.66" y="-69" font-family="Helvetica,sans-Serif" font-size="10.00">ViennaRNA/hairpin_loops.h</text>
</a>
</g>
</g>
<!-- Node17&#45;&gt;Node44 -->
<g id="edge41" class="edge"><title>Node17&#45;&gt;Node44</title>
<path fill="none" stroke="midnightblue" d="M2985.55,-265.432C3229.14,-263.43 3897.25,-254.863 3929.66,-221 3946,-203.941 3925.42,-142.233 3913.66,-123 3902.55,-104.824 3882.68,-89.8473 3869.1,-81.0446"/>
<polygon fill="midnightblue" stroke="midnightblue" points="2985.29,-261.934 2975.32,-265.515 2985.34,-268.934 2985.29,-261.934"/>
</g>
<!-- Node17&#45;&gt;Node45 -->
<g id="edge43" class="edge"><title>Node17&#45;&gt;Node45</title>
<path fill="none" stroke="midnightblue" d="M2985.52,-266.408C3142.13,-266.096 3462.85,-260.46 3566.66,-221 3587.69,-213.009 3586.87,-200.68 3606.66,-190 3650.08,-166.574 3682.99,-194.144 3711.66,-154 3725.81,-134.19 3720.05,-104.21 3714.74,-86.6674"/>
<polygon fill="midnightblue" stroke="midnightblue" points="2985.44,-262.908 2975.44,-266.421 2985.45,-269.908 2985.44,-262.908"/>
</g>
<!-- Node46 -->
<g id="node32" class="node"><title>Node46</title>
<g id="a_node32"><a xlink:href="LPfold_8h.html" target="_top" xlink:title="Partition function implementation for the Lfold algorithm. ">
<polygon fill="none" stroke="black" points="2663.16,-129 2663.16,-148 2776.16,-148 2776.16,-129 2663.16,-129"/>
<text text-anchor="middle" x="2719.66" y="-136" font-family="Helvetica,sans-Serif" font-size="10.00">ViennaRNA/LPfold.h</text>
</a>
</g>
</g>
<!-- Node17&#45;&gt;Node46 -->
<g id="edge45" class="edge"><title>Node17&#45;&gt;Node46</title>
<path fill="none" stroke="midnightblue" d="M2961.92,-255.366C3013.4,-244.134 3072.61,-223.354 3043.66,-190 3006.44,-147.109 2846.62,-163.686 2790.66,-154 2780.5,-152.24 2769.56,-150.12 2759.39,-148.051"/>
<polygon fill="midnightblue" stroke="midnightblue" points="2961.17,-251.949 2952.09,-257.42 2962.6,-258.801 2961.17,-251.949"/>
</g>
<!-- Node47 -->
<g id="node33" class="node"><title>Node47</title>
<g id="a_node33"><a xlink:href="MEA_8h.html" target="_top" xlink:title="Computes a MEA (maximum expected accuracy) structure. ">
<polygon fill="none" stroke="black" points="3105.16,-129 3105.16,-148 3210.16,-148 3210.16,-129 3105.16,-129"/>
<text text-anchor="middle" x="3157.66" y="-136" font-family="Helvetica,sans-Serif" font-size="10.00">ViennaRNA/MEA.h</text>
</a>
</g>
</g>
<!-- Node17&#45;&gt;Node47 -->
<g id="edge46" class="edge"><title>Node17&#45;&gt;Node47</title>
<path fill="none" stroke="midnightblue" d="M2985.4,-260.432C3081.42,-253.424 3224.02,-239.967 3240.66,-221 3265.44,-192.764 3210.4,-162.535 3178.44,-148.115"/>
<polygon fill="midnightblue" stroke="midnightblue" points="2985.11,-256.943 2975.39,-261.151 2985.62,-263.925 2985.11,-256.943"/>
</g>
<!-- Node48 -->
<g id="node34" class="node"><title>Node48</title>
<g id="a_node34"><a xlink:href="mfe_8h.html" target="_top" xlink:title="MFE calculations for single RNA sequences. ">
<polygon fill="none" stroke="red" points="3421.66,-196 3421.66,-215 3521.66,-215 3521.66,-196 3421.66,-196"/>
<text text-anchor="middle" x="3471.66" y="-203" font-family="Helvetica,sans-Serif" font-size="10.00">ViennaRNA/mfe.h</text>
</a>
</g>
</g>
<!-- Node17&#45;&gt;Node48 -->
<g id="edge47" class="edge"><title>Node17&#45;&gt;Node48</title>
<path fill="none" stroke="midnightblue" d="M2985.64,-261.846C3087.64,-256.197 3260.58,-244.044 3407.66,-221 3417.57,-219.448 3428.23,-217.25 3437.95,-215.033"/>
<polygon fill="midnightblue" stroke="midnightblue" points="2985.18,-258.366 2975.39,-262.405 2985.56,-265.356 2985.18,-258.366"/>
</g>
<!-- Node50 -->
<g id="node35" class="node"><title>Node50</title>
<g id="a_node35"><a xlink:href="multibranch__loops_8h.html" target="_top" xlink:title="Energy evaluation of multibranch loops for MFE and partition function calculations. ">
<polygon fill="none" stroke="black" points="2946.66,-56.5 2946.66,-86.5 3074.66,-86.5 3074.66,-56.5 2946.66,-56.5"/>
<text text-anchor="start" x="2954.66" y="-74.5" font-family="Helvetica,sans-Serif" font-size="10.00">ViennaRNA/multibranch</text>
<text text-anchor="middle" x="3010.66" y="-63.5" font-family="Helvetica,sans-Serif" font-size="10.00">_loops.h</text>
</a>
</g>
</g>
<!-- Node17&#45;&gt;Node50 -->
<g id="edge51" class="edge"><title>Node17&#45;&gt;Node50</title>
<path fill="none" stroke="midnightblue" d="M2958.94,-254.207C2977.04,-247.563 2994.87,-237.189 3005.66,-221 3013.31,-209.536 3014.9,-200.226 3005.66,-190 2952.97,-131.64 2706.36,-212.36 2653.66,-154 2644.43,-143.774 2644.63,-133.402 2653.66,-123 2690.86,-80.1703 2854.34,-72.6737 2946.64,-71.9475"/>
<polygon fill="midnightblue" stroke="midnightblue" points="2957.58,-250.969 2949.19,-257.44 2959.79,-257.613 2957.58,-250.969"/>
</g>
<!-- Node51 -->
<g id="node36" class="node"><title>Node51</title>
<g id="a_node36"><a xlink:href="params_8h.html" target="_top" xlink:title="Functions to deal with sets of energy parameters. ">
<polygon fill="none" stroke="black" points="3095.66,-196 3095.66,-215 3213.66,-215 3213.66,-196 3095.66,-196"/>
<text text-anchor="middle" x="3154.66" y="-203" font-family="Helvetica,sans-Serif" font-size="10.00">ViennaRNA/params.h</text>
</a>
</g>
</g>
<!-- Node17&#45;&gt;Node51 -->
<g id="edge53" class="edge"><title>Node17&#45;&gt;Node51</title>
<path fill="none" stroke="midnightblue" d="M2939.33,-255.114C2987.21,-243.565 3065.13,-225.561 3113.01,-215.009"/>
<polygon fill="midnightblue" stroke="midnightblue" points="2938.48,-251.718 2929.59,-257.475 2940.13,-258.521 2938.48,-251.718"/>
</g>
<!-- Node52 -->
<g id="node37" class="node"><title>Node52</title>
<g id="a_node37"><a xlink:href="part__func__co_8h.html" target="_top" xlink:title="Partition function for two RNA sequences. ">
<polygon fill="none" stroke="black" points="3228.66,-129 3228.66,-148 3372.66,-148 3372.66,-129 3228.66,-129"/>
<text text-anchor="middle" x="3300.66" y="-136" font-family="Helvetica,sans-Serif" font-size="10.00">ViennaRNA/part_func_co.h</text>
</a>
</g>
</g>
<!-- Node17&#45;&gt;Node52 -->
<g id="edge71" class="edge"><title>Node17&#45;&gt;Node52</title>
<path fill="none" stroke="midnightblue" d="M2985.38,-264.31C3077.82,-260.937 3215.86,-250.883 3258.66,-221 3284.11,-203.232 3295.16,-165.245 3298.98,-148.15"/>
<polygon fill="midnightblue" stroke="midnightblue" points="2985.05,-260.819 2975.18,-264.662 2985.29,-267.814 2985.05,-260.819"/>
</g>
<!-- Node53 -->
<g id="node38" class="node"><title>Node53</title>
<g id="a_node38"><a xlink:href="subopt_8h.html" target="_top" xlink:title="RNAsubopt and density of states declarations. ">
<polygon fill="none" stroke="black" points="3391.16,-129 3391.16,-148 3504.16,-148 3504.16,-129 3391.16,-129"/>
<text text-anchor="middle" x="3447.66" y="-136" font-family="Helvetica,sans-Serif" font-size="10.00">ViennaRNA/subopt.h</text>
</a>
</g>
</g>
<!-- Node17&#45;&gt;Node53 -->
<g id="edge89" class="edge"><title>Node17&#45;&gt;Node53</title>
<path fill="none" stroke="midnightblue" d="M2985.48,-264.531C3065.29,-261.165 3185.51,-250.972 3285.66,-221 3344.48,-203.398 3407.69,-165.324 3434.47,-148.179"/>
<polygon fill="midnightblue" stroke="midnightblue" points="2985.32,-261.035 2975.46,-264.927 2985.59,-268.029 2985.32,-261.035"/>
</g>
<!-- Node54 -->
<g id="node39" class="node"><title>Node54</title>
<g id="a_node39"><a xlink:href="part__func__up_8h.html" target="_top" xlink:title="Implementations for accessibility and RNA&#45;RNA interaction as a stepwise process. ">
<polygon fill="none" stroke="black" points="1710.66,-196 1710.66,-215 1854.66,-215 1854.66,-196 1710.66,-196"/>
<text text-anchor="middle" x="1782.66" y="-203" font-family="Helvetica,sans-Serif" font-size="10.00">ViennaRNA/part_func_up.h</text>
</a>
</g>
</g>
<!-- Node17&#45;&gt;Node54 -->
<g id="edge72" class="edge"><title>Node17&#45;&gt;Node54</title>
<path fill="none" stroke="midnightblue" d="M2809.75,-266.126C2631,-265.513 2212.51,-259.64 1863.66,-221 1850.74,-219.569 1836.77,-217.323 1824.13,-215.022"/>
<polygon fill="midnightblue" stroke="midnightblue" points="2809.88,-269.627 2819.89,-266.156 2809.9,-262.627 2809.88,-269.627"/>
</g>
<!-- Node55 -->
<g id="node40" class="node"><title>Node55</title>
<g id="a_node40"><a xlink:href="PKplex_8h_source.html" target="_top" xlink:title="ViennaRNA/PKplex.h">
<polygon fill="none" stroke="black" points="1872.66,-196 1872.66,-215 1988.66,-215 1988.66,-196 1872.66,-196"/>
<text text-anchor="middle" x="1930.66" y="-203" font-family="Helvetica,sans-Serif" font-size="10.00">ViennaRNA/PKplex.h</text>
</a>
</g>
</g>
<!-- Node17&#45;&gt;Node55 -->
<g id="edge74" class="edge"><title>Node17&#45;&gt;Node55</title>
<path fill="none" stroke="midnightblue" d="M2809.56,-266.348C2647.92,-265.934 2293.41,-260.13 1997.66,-221 1986.93,-219.579 1975.36,-217.337 1964.9,-215.036"/>
<polygon fill="midnightblue" stroke="midnightblue" points="2809.92,-269.849 2819.93,-266.368 2809.94,-262.849 2809.92,-269.849"/>
</g>
<!-- Node56 -->
<g id="node41" class="node"><title>Node56</title>
<g id="a_node41"><a xlink:href="plex_8h_source.html" target="_top" xlink:title="ViennaRNA/plex.h">
<polygon fill="none" stroke="black" points="2006.66,-196 2006.66,-215 2108.66,-215 2108.66,-196 2006.66,-196"/>
<text text-anchor="middle" x="2057.66" y="-203" font-family="Helvetica,sans-Serif" font-size="10.00">ViennaRNA/plex.h</text>
</a>
</g>
</g>
<!-- Node17&#45;&gt;Node56 -->
<g id="edge75" class="edge"><title>Node17&#45;&gt;Node56</title>
<path fill="none" stroke="midnightblue" d="M2809.8,-266.051C2664.84,-264.99 2366.78,-257.981 2117.66,-221 2108.02,-219.568 2097.65,-217.322 2088.29,-215.021"/>
<polygon fill="midnightblue" stroke="midnightblue" points="2809.95,-269.551 2819.97,-266.117 2810,-262.552 2809.95,-269.551"/>
</g>
<!-- Node57 -->
<g id="node42" class="node"><title>Node57</title>
<g id="a_node42"><a xlink:href="plot__layouts_8h.html" target="_top" xlink:title="Secondary structure plot layout algorithms. ">
<polygon fill="none" stroke="red" points="2127.16,-196 2127.16,-215 2266.16,-215 2266.16,-196 2127.16,-196"/>
<text text-anchor="middle" x="2196.66" y="-203" font-family="Helvetica,sans-Serif" font-size="10.00">ViennaRNA/plot_layouts.h</text>
</a>
</g>
</g>
<!-- Node17&#45;&gt;Node57 -->
<g id="edge76" class="edge"><title>Node17&#45;&gt;Node57</title>
<path fill="none" stroke="midnightblue" d="M2809.52,-262.659C2688.71,-257.389 2465.07,-245.16 2275.66,-221 2263.49,-219.447 2250.35,-217.249 2238.35,-215.032"/>
<polygon fill="midnightblue" stroke="midnightblue" points="2809.68,-266.169 2819.82,-263.102 2809.98,-259.175 2809.68,-266.169"/>
</g>
<!-- Node60 -->
<g id="node43" class="node"><title>Node60</title>
<g id="a_node43"><a xlink:href="profiledist_8h.html" target="_top" xlink:title="ViennaRNA/profiledist.h">
<polygon fill="none" stroke="black" points="2284.66,-196 2284.66,-215 2412.66,-215 2412.66,-196 2284.66,-196"/>
<text text-anchor="middle" x="2348.66" y="-203" font-family="Helvetica,sans-Serif" font-size="10.00">ViennaRNA/profiledist.h</text>
</a>
</g>
</g>
<!-- Node17&#45;&gt;Node60 -->
<g id="edge77" class="edge"><title>Node17&#45;&gt;Node60</title>
<path fill="none" stroke="midnightblue" d="M2809.65,-260.375C2713.88,-253.626 2556.38,-240.695 2421.66,-221 2410.67,-219.393 2398.82,-217.229 2387.94,-215.064"/>
<polygon fill="midnightblue" stroke="midnightblue" points="2809.65,-263.883 2819.87,-261.088 2810.14,-256.9 2809.65,-263.883"/>
</g>
<!-- Node59 -->
<g id="node44" class="node"><title>Node59</title>
<g id="a_node44"><a xlink:href="PS__dot_8h.html" target="_top" xlink:title="Various functions for plotting RNA secondary structures, dot&#45;plots and other visualizations. ">
<polygon fill="none" stroke="black" points="2431.16,-196 2431.16,-215 2548.16,-215 2548.16,-196 2431.16,-196"/>
<text text-anchor="middle" x="2489.66" y="-203" font-family="Helvetica,sans-Serif" font-size="10.00">ViennaRNA/PS_dot.h</text>
</a>
</g>
</g>
<!-- Node17&#45;&gt;Node59 -->
<g id="edge78" class="edge"><title>Node17&#45;&gt;Node59</title>
<path fill="none" stroke="midnightblue" d="M2809.89,-256.42C2740.84,-248.402 2642.32,-235.894 2556.66,-221 2546.81,-219.287 2536.22,-217.137 2526.42,-215.022"/>
<polygon fill="midnightblue" stroke="midnightblue" points="2809.52,-259.901 2819.85,-257.57 2810.32,-252.947 2809.52,-259.901"/>
</g>
<!-- Node61 -->
<g id="node45" class="node"><title>Node61</title>
<g id="a_node45"><a xlink:href="snofold_8h_source.html" target="_top" xlink:title="ViennaRNA/snofold.h">
<polygon fill="none" stroke="black" points="2566.16,-196 2566.16,-215 2683.16,-215 2683.16,-196 2566.16,-196"/>
<text text-anchor="middle" x="2624.66" y="-203" font-family="Helvetica,sans-Serif" font-size="10.00">ViennaRNA/snofold.h</text>
</a>
</g>
</g>
<!-- Node17&#45;&gt;Node61 -->
<g id="edge79" class="edge"><title>Node17&#45;&gt;Node61</title>
<path fill="none" stroke="midnightblue" d="M2848.71,-255.33C2795.77,-243.792 2712.43,-225.628 2663.71,-215.009"/>
<polygon fill="midnightblue" stroke="midnightblue" points="2848.03,-258.765 2858.55,-257.475 2849.52,-251.926 2848.03,-258.765"/>
</g>
<!-- Node62 -->
<g id="node46" class="node"><title>Node62</title>
<g id="a_node46"><a xlink:href="snoop_8h_source.html" target="_top" xlink:title="ViennaRNA/snoop.h">
<polygon fill="none" stroke="black" points="2701.66,-196 2701.66,-215 2813.66,-215 2813.66,-196 2701.66,-196"/>
<text text-anchor="middle" x="2757.66" y="-203" font-family="Helvetica,sans-Serif" font-size="10.00">ViennaRNA/snoop.h</text>
</a>
</g>
</g>
<!-- Node17&#45;&gt;Node62 -->
<g id="edge80" class="edge"><title>Node17&#45;&gt;Node62</title>
<path fill="none" stroke="midnightblue" d="M2868.2,-253.48C2841.01,-241.924 2801.37,-225.076 2777.69,-215.009"/>
<polygon fill="midnightblue" stroke="midnightblue" points="2867.03,-256.785 2877.61,-257.475 2869.77,-250.342 2867.03,-256.785"/>
</g>
<!-- Node63 -->
<g id="node47" class="node"><title>Node63</title>
<g id="a_node47"><a xlink:href="string__utils_8h.html" target="_top" xlink:title="General utility&#45; and helper&#45;functions for RNA sequence and structure strings used throughout the Vien...">
<polygon fill="none" stroke="black" points="3788.16,-196 3788.16,-215 3921.16,-215 3921.16,-196 3788.16,-196"/>
<text text-anchor="middle" x="3854.66" y="-203" font-family="Helvetica,sans-Serif" font-size="10.00">ViennaRNA/string_utils.h</text>
</a>
</g>
</g>
<!-- Node17&#45;&gt;Node63 -->
<g id="edge81" class="edge"><title>Node17&#45;&gt;Node63</title>
<path fill="none" stroke="midnightblue" d="M2985.42,-265.139C3143.51,-262.777 3486.46,-253.95 3773.66,-221 3786.44,-219.534 3800.24,-217.307 3812.77,-215.035"/>
<polygon fill="midnightblue" stroke="midnightblue" points="2985.22,-261.641 2975.27,-265.285 2985.32,-268.641 2985.22,-261.641"/>
</g>
<!-- Node64 -->
<g id="node48" class="node"><title>Node64</title>
<g id="a_node48"><a xlink:href="utils_8h.html" target="_top" xlink:title="General utility&#45; and helper&#45;functions used throughout the ViennaRNA Package. ">
<polygon fill="none" stroke="black" points="3804.16,-129 3804.16,-148 3905.16,-148 3905.16,-129 3804.16,-129"/>
<text text-anchor="middle" x="3854.66" y="-136" font-family="Helvetica,sans-Serif" font-size="10.00">ViennaRNA/utils.h</text>
</a>
</g>
</g>
<!-- Node17&#45;&gt;Node64 -->
<g id="edge92" class="edge"><title>Node17&#45;&gt;Node64</title>
<path fill="none" stroke="midnightblue" d="M2985.43,-264.329C3186.9,-260.06 3670.59,-247.198 3739.66,-221 3760.37,-213.148 3760.76,-203.028 3778.66,-190 3799.93,-174.527 3825.57,-157.887 3840.97,-148.099"/>
<polygon fill="midnightblue" stroke="midnightblue" points="2985.1,-260.835 2975.18,-264.544 2985.25,-267.833 2985.1,-260.835"/>
</g>
<!-- Node65 -->
<g id="node49" class="node"><title>Node65</title>
<g id="a_node49"><a xlink:href="structure__utils_8h.html" target="_top" xlink:title="Various utility&#45; and helper&#45;functions for secondary structure parsing, converting, etc. ">
<polygon fill="none" stroke="black" points="3616.16,-190.5 3616.16,-220.5 3731.16,-220.5 3731.16,-190.5 3616.16,-190.5"/>
<text text-anchor="start" x="3624.16" y="-208.5" font-family="Helvetica,sans-Serif" font-size="10.00">ViennaRNA/structure</text>
<text text-anchor="middle" x="3673.66" y="-197.5" font-family="Helvetica,sans-Serif" font-size="10.00">_utils.h</text>
</a>
</g>
</g>
<!-- Node17&#45;&gt;Node65 -->
<g id="edge87" class="edge"><title>Node17&#45;&gt;Node65</title>
<path fill="none" stroke="midnightblue" d="M2985.52,-264.187C3119.12,-260.572 3381.12,-250.121 3601.66,-221 3606.34,-220.382 3611.17,-219.64 3616.01,-218.823"/>
<polygon fill="midnightblue" stroke="midnightblue" points="2985.25,-260.692 2975.35,-264.455 2985.43,-267.69 2985.25,-260.692"/>
</g>
<!-- Node66 -->
<g id="node50" class="node"><title>Node66</title>
<g id="a_node50"><a xlink:href="unstructured__domains_8h.html" target="_top" xlink:title="Functions to modify unstructured domains, e.g. to incorporate ligands binding to unpaired stretches...">
<polygon fill="none" stroke="black" points="2831.66,-190.5 2831.66,-220.5 2963.66,-220.5 2963.66,-190.5 2831.66,-190.5"/>
<text text-anchor="start" x="2839.66" y="-208.5" font-family="Helvetica,sans-Serif" font-size="10.00">ViennaRNA/unstructured</text>
<text text-anchor="middle" x="2897.66" y="-197.5" font-family="Helvetica,sans-Serif" font-size="10.00">_domains.h</text>
</a>
</g>
</g>
<!-- Node17&#45;&gt;Node66 -->
<g id="edge90" class="edge"><title>Node17&#45;&gt;Node66</title>
<path fill="none" stroke="midnightblue" d="M2891.36,-247.526C2890.63,-238.813 2890.79,-228.586 2891.83,-220.523"/>
<polygon fill="midnightblue" stroke="midnightblue" points="2887.91,-248.06 2892.76,-257.475 2894.84,-247.085 2887.91,-248.06"/>
</g>
<!-- Node22&#45;&gt;Node21 -->
<g id="edge8" class="edge"><title>Node22&#45;&gt;Node21</title>
<path fill="none" stroke="midnightblue" d="M152.522,-189.012C208.093,-176.593 278.086,-160.243 290.664,-154 310.188,-144.31 308.225,-130.571 328.664,-123 375.689,-105.582 1961.73,-78.6306 2279.55,-73.3972"/>
<polygon fill="midnightblue" stroke="midnightblue" points="151.684,-185.613 142.684,-191.203 153.206,-192.445 151.684,-185.613"/>
</g>
<!-- Node22&#45;&gt;Node23 -->
<g id="edge9" class="edge"><title>Node22&#45;&gt;Node23</title>
<path fill="none" stroke="midnightblue" d="M152.822,-189.768C231.449,-173.701 311.476,-157.592 359.186,-148.014"/>
<polygon fill="midnightblue" stroke="midnightblue" points="151.84,-186.397 142.744,-191.829 153.242,-193.255 151.84,-186.397"/>
</g>
<!-- Node23&#45;&gt;Node21 -->
<g id="edge10" class="edge"><title>Node23&#45;&gt;Node21</title>
<path fill="none" stroke="midnightblue" d="M475.769,-135.008C789.576,-124.456 2005.42,-83.5713 2279.55,-74.3534"/>
<polygon fill="midnightblue" stroke="midnightblue" points="475.304,-131.522 465.428,-135.356 475.54,-138.518 475.304,-131.522"/>
</g>
<!-- Node24&#45;&gt;Node23 -->
<g id="edge12" class="edge"><title>Node24&#45;&gt;Node23</title>
<path fill="none" stroke="midnightblue" d="M401.664,-185.537C401.664,-173.17 401.664,-157.62 401.664,-148.127"/>
<polygon fill="midnightblue" stroke="midnightblue" points="398.164,-185.734 401.664,-195.734 405.164,-185.734 398.164,-185.734"/>
</g>
<!-- Node27&#45;&gt;Node16 -->
<g id="edge17" class="edge"><title>Node27&#45;&gt;Node16</title>
<path fill="none" stroke="midnightblue" d="M4459.35,-223.83C4385,-248.94 4250.09,-294.5 4194.09,-313.413"/>
<polygon fill="midnightblue" stroke="midnightblue" points="4460.63,-227.091 4468.99,-220.575 4458.39,-220.459 4460.63,-227.091"/>
</g>
<!-- Node28&#45;&gt;Node16 -->
<g id="edge19" class="edge"><title>Node28&#45;&gt;Node16</title>
<path fill="none" stroke="midnightblue" d="M4095.9,-228.615C4115.93,-254.324 4148.02,-295.502 4161.9,-313.319"/>
<polygon fill="midnightblue" stroke="midnightblue" points="4098.52,-226.282 4089.61,-220.545 4092.99,-230.585 4098.52,-226.282"/>
</g>
<!-- Node29&#45;&gt;Node16 -->
<g id="edge21" class="edge"><title>Node29&#45;&gt;Node16</title>
<path fill="none" stroke="midnightblue" d="M4211.85,-229.629C4199.8,-255.394 4180.94,-295.734 4172.72,-313.319"/>
<polygon fill="midnightblue" stroke="midnightblue" points="4215.03,-231.087 4216.1,-220.545 4208.69,-228.122 4215.03,-231.087"/>
</g>
<!-- Node30&#45;&gt;Node16 -->
<g id="edge23" class="edge"><title>Node30&#45;&gt;Node16</title>
<path fill="none" stroke="midnightblue" d="M4333.8,-225.67C4290.27,-251.066 4215.28,-294.805 4183.55,-313.319"/>
<polygon fill="midnightblue" stroke="midnightblue" points="4335.71,-228.607 4342.59,-220.545 4332.18,-222.561 4335.71,-228.607"/>
</g>
<!-- Node31&#45;&gt;Node17 -->
<g id="edge25" class="edge"><title>Node31&#45;&gt;Node17</title>
<path fill="none" stroke="midnightblue" d="M1111.72,-216.762C1121.72,-218.461 1131.99,-219.995 1141.66,-221 1474.75,-255.6 2525.03,-263.919 2819.99,-265.613"/>
<polygon fill="midnightblue" stroke="midnightblue" points="1112.3,-213.309 1101.84,-215.02 1111.08,-220.203 1112.3,-213.309"/>
</g>
<!-- Node33&#45;&gt;Node23 -->
<g id="edge28" class="edge"><title>Node33&#45;&gt;Node23</title>
<path fill="none" stroke="midnightblue" d="M271.005,-186.946C305.771,-174.321 351.13,-157.85 378.237,-148.007"/>
<polygon fill="midnightblue" stroke="midnightblue" points="269.709,-183.693 261.504,-190.396 272.098,-190.273 269.709,-183.693"/>
</g>
<!-- Node34&#45;&gt;Node35 -->
<g id="edge30" class="edge"><title>Node34&#45;&gt;Node35</title>
<path fill="none" stroke="midnightblue" d="M3080.96,-126.516C3085.92,-125.324 3090.9,-124.133 3095.66,-123 3158.42,-108.081 3231.53,-91.0655 3274.57,-81.084"/>
<polygon fill="midnightblue" stroke="midnightblue" points="3079.77,-123.201 3070.87,-128.945 3081.41,-130.007 3079.77,-123.201"/>
</g>
<!-- Node37 -->
<g id="node23" class="node"><title>Node37</title>
<g id="a_node23"><a xlink:href="loop__energies_8h.html" target="_top" xlink:title="Energy evaluation for MFE and partition function calculations. ">
<polygon fill="none" stroke="black" points="3284.66,-0.5 3284.66,-19.5 3434.66,-19.5 3434.66,-0.5 3284.66,-0.5"/>
<text text-anchor="middle" x="3359.66" y="-7.5" font-family="Helvetica,sans-Serif" font-size="10.00">ViennaRNA/loop_energies.h</text>
</a>
</g>
</g>
<!-- Node36&#45;&gt;Node37 -->
<g id="edge32" class="edge"><title>Node36&#45;&gt;Node37</title>
<path fill="none" stroke="midnightblue" d="M291.79,-122.377C913.463,-39.398 2875.58,-15.7762 3284.53,-11.6934"/>
<polygon fill="midnightblue" stroke="midnightblue" points="291.275,-118.914 281.836,-123.726 292.216,-125.851 291.275,-118.914"/>
</g>
<!-- Node41 -->
<g id="node27" class="node"><title>Node41</title>
<g id="a_node27"><a xlink:href="pair__mat_8h_source.html" target="_top" xlink:title="ViennaRNA/pair_mat.h">
<polygon fill="none" stroke="black" points="4287.66,-62 4287.66,-81 4411.66,-81 4411.66,-62 4287.66,-62"/>
<text text-anchor="middle" x="4349.66" y="-69" font-family="Helvetica,sans-Serif" font-size="10.00">ViennaRNA/pair_mat.h</text>
</a>
</g>
</g>
<!-- Node40&#45;&gt;Node41 -->
<g id="edge37" class="edge"><title>Node40&#45;&gt;Node41</title>
<path fill="none" stroke="midnightblue" d="M4637.45,-127.037C4569.99,-114.253 4457.14,-92.8677 4394.69,-81.0317"/>
<polygon fill="midnightblue" stroke="midnightblue" points="4636.99,-130.512 4647.47,-128.936 4638.3,-123.635 4636.99,-130.512"/>
</g>
<!-- Node43&#45;&gt;Node17 -->
<g id="edge40" class="edge"><title>Node43&#45;&gt;Node17</title>
<path fill="none" stroke="midnightblue" d="M1684.76,-216.957C1693.44,-218.558 1702.29,-220.006 1710.66,-221 1927.06,-246.691 2591.74,-260.492 2819.9,-264.64"/>
<polygon fill="midnightblue" stroke="midnightblue" points="1685.17,-213.472 1674.69,-215.025 1683.85,-220.347 1685.17,-213.472"/>
</g>
<!-- Node44&#45;&gt;Node37 -->
<g id="edge42" class="edge"><title>Node44&#45;&gt;Node37</title>
<path fill="none" stroke="midnightblue" d="M3798.95,-60.2606C3789.85,-58.7335 3780.5,-57.2535 3771.66,-56 3654.47,-39.381 3517.77,-25.5392 3435.03,-17.7676"/>
<polygon fill="midnightblue" stroke="midnightblue" points="3798.64,-63.7582 3809.08,-61.9954 3799.82,-56.8585 3798.64,-63.7582"/>
</g>
<!-- Node45&#45;&gt;Node37 -->
<g id="edge44" class="edge"><title>Node45&#45;&gt;Node37</title>
<path fill="none" stroke="midnightblue" d="M3645.98,-59.6743C3578.09,-48.1328 3471.98,-30.0943 3409.79,-19.5217"/>
<polygon fill="midnightblue" stroke="midnightblue" points="3645.68,-63.1729 3656.13,-61.3985 3646.85,-56.2719 3645.68,-63.1729"/>
</g>
<!-- Node48&#45;&gt;Node21 -->
<g id="edge48" class="edge"><title>Node48&#45;&gt;Node21</title>
<path fill="none" stroke="midnightblue" d="M3518.55,-193.607C3566.21,-182.065 3634.1,-164.137 3641.66,-154 3649.9,-142.957 3651.22,-132.929 3641.66,-123 3630.64,-111.539 2637.13,-81.4387 2389.89,-74.1207"/>
<polygon fill="midnightblue" stroke="midnightblue" points="3517.63,-190.23 3508.72,-195.968 3519.26,-197.037 3517.63,-190.23"/>
</g>
<!-- Node48&#45;&gt;Node25 -->
<g id="edge49" class="edge"><title>Node48&#45;&gt;Node25</title>
<path fill="none" stroke="midnightblue" d="M3494.59,-190.442C3515.58,-177.57 3545.98,-158.927 3563.59,-148.127"/>
<polygon fill="midnightblue" stroke="midnightblue" points="3492.65,-187.523 3485.96,-195.734 3496.31,-193.49 3492.65,-187.523"/>
</g>
<!-- Node48&#45;&gt;Node35 -->
<g id="edge50" class="edge"><title>Node48&#45;&gt;Node35</title>
<path fill="none" stroke="midnightblue" d="M3518.43,-193.673C3577.88,-179.8 3673.19,-157.157 3675.66,-154 3684.16,-143.15 3684.71,-133.39 3675.66,-123 3635.55,-76.9316 3451.76,-71.5274 3361.7,-71.7286"/>
<polygon fill="midnightblue" stroke="midnightblue" points="3517.44,-190.309 3508.49,-195.987 3519.03,-197.127 3517.44,-190.309"/>
</g>
<!-- Node50&#45;&gt;Node37 -->
<g id="edge52" class="edge"><title>Node50&#45;&gt;Node37</title>
<path fill="none" stroke="midnightblue" d="M3084.85,-57.8519C3152.56,-46.3091 3250.77,-29.5652 3309.61,-19.5328"/>
<polygon fill="midnightblue" stroke="midnightblue" points="3083.95,-54.4559 3074.68,-59.5868 3085.12,-61.3563 3083.95,-54.4559"/>
</g>
<!-- Node51&#45;&gt;Node17 -->
<g id="edge57" class="edge"><title>Node51&#45;&gt;Node17</title>
<path fill="none" stroke="midnightblue" d="M3113.07,-217.369C3065.22,-228.911 2987.3,-246.915 2939.39,-257.475"/>
<polygon fill="midnightblue" stroke="midnightblue" points="3113.91,-220.767 3122.81,-215.009 3112.26,-213.964 3113.91,-220.767"/>
</g>
<!-- Node51&#45;&gt;Node18 -->
<g id="edge54" class="edge"><title>Node51&#45;&gt;Node18</title>
<path fill="none" stroke="midnightblue" d="M3085.44,-197.358C3060.33,-194.875 3031.73,-192.17 3005.66,-190 2774.8,-170.779 2714.97,-186.944 2485.66,-154 2475.33,-152.515 2464.2,-150.31 2454.09,-148.065"/>
<polygon fill="midnightblue" stroke="midnightblue" points="3085.31,-200.862 3095.6,-198.37 3086,-193.897 3085.31,-200.862"/>
</g>
<!-- Node51&#45;&gt;Node21 -->
<g id="edge55" class="edge"><title>Node51&#45;&gt;Node21</title>
<path fill="none" stroke="midnightblue" d="M3089.79,-194.405C3008.66,-181.647 2877.68,-160.557 2855.66,-154 2822.66,-144.171 2817.92,-131.909 2784.66,-123 2645.7,-85.7767 2475.46,-75.9655 2389.67,-73.3968"/>
<polygon fill="midnightblue" stroke="midnightblue" points="3089.49,-197.901 3099.91,-195.995 3090.58,-190.986 3089.49,-197.901"/>
</g>
<!-- Node51&#45;&gt;Node23 -->
<g id="edge67" class="edge"><title>Node51&#45;&gt;Node23</title>
<path fill="none" stroke="midnightblue" d="M3085.03,-197.97C3051.16,-195.044 3009.82,-191.843 2972.66,-190 1973.87,-140.448 754.543,-138.948 465.318,-139.347"/>
<polygon fill="midnightblue" stroke="midnightblue" points="3085.03,-201.483 3095.3,-198.867 3085.64,-194.509 3085.03,-201.483"/>
</g>
<!-- Node51&#45;&gt;Node25 -->
<g id="edge56" class="edge"><title>Node51&#45;&gt;Node25</title>
<path fill="none" stroke="midnightblue" d="M3224.15,-196.356C3296.47,-187.493 3412.89,-172.136 3512.66,-154 3522.11,-152.284 3532.26,-150.156 3541.67,-148.064"/>
<polygon fill="midnightblue" stroke="midnightblue" points="3223.31,-192.933 3213.81,-197.617 3224.16,-199.881 3223.31,-192.933"/>
</g>
<!-- Node51&#45;&gt;Node34 -->
<g id="edge58" class="edge"><title>Node51&#45;&gt;Node34</title>
<path fill="none" stroke="midnightblue" d="M3129.56,-190.787C3105.97,-177.905 3071.41,-159.024 3051.46,-148.127"/>
<polygon fill="midnightblue" stroke="midnightblue" points="3128.16,-194.012 3138.62,-195.734 3131.52,-187.868 3128.16,-194.012"/>
</g>
<!-- Node51&#45;&gt;Node35 -->
<g id="edge60" class="edge"><title>Node51&#45;&gt;Node35</title>
<path fill="none" stroke="midnightblue" d="M3102.08,-193.984C3028.87,-179.327 2905.06,-154.483 2904.66,-154 2895.94,-143.337 2895.54,-133.325 2904.66,-123 2927.97,-96.6217 3158.13,-80.8627 3261.66,-75.0568"/>
<polygon fill="midnightblue" stroke="midnightblue" points="3101.56,-197.45 3112.06,-195.981 3102.94,-190.586 3101.56,-197.45"/>
</g>
<!-- Node51&#45;&gt;Node36 -->
<g id="edge59" class="edge"><title>Node51&#45;&gt;Node36</title>
<path fill="none" stroke="midnightblue" d="M3085.04,-197.871C3051.16,-194.923 3009.82,-191.731 2972.66,-190 2385.69,-162.652 914.514,-199.443 328.664,-154 313.417,-152.817 296.977,-150.807 281.841,-148.654"/>
<polygon fill="midnightblue" stroke="midnightblue" points="3085.03,-201.384 3095.3,-198.777 3085.65,-194.411 3085.03,-201.384"/>
</g>
<!-- Node51&#45;&gt;Node42 -->
<g id="edge61" class="edge"><title>Node51&#45;&gt;Node42</title>
<path fill="none" stroke="midnightblue" d="M3085.26,-197.658C2957.76,-185.066 2695.44,-159.044 2653.66,-154 2638.43,-152.16 2621.95,-149.943 2606.74,-147.803"/>
<polygon fill="midnightblue" stroke="midnightblue" points="3085.02,-201.151 3095.32,-198.651 3085.71,-194.185 3085.02,-201.151"/>
</g>
<!-- Node51&#45;&gt;Node44 -->
<g id="edge62" class="edge"><title>Node51&#45;&gt;Node44</title>
<path fill="none" stroke="midnightblue" d="M3087.37,-194.128C3042.54,-185.687 2989.43,-172.191 2975.66,-154 2967.35,-143.014 2966.14,-132.96 2975.66,-123 3006.25,-90.9989 3727.66,-91.8189 3771.66,-87 3784.9,-85.5509 3799.21,-83.2999 3812.16,-81.0001"/>
<polygon fill="midnightblue" stroke="midnightblue" points="3086.91,-197.602 3097.37,-195.956 3088.17,-190.716 3086.91,-197.602"/>
</g>
<!-- Node51&#45;&gt;Node45 -->
<g id="edge63" class="edge"><title>Node51&#45;&gt;Node45</title>
<path fill="none" stroke="midnightblue" d="M3094.91,-194.152C3035.62,-183.278 2952.22,-166.104 2942.66,-154 2934.12,-143.188 2933.25,-133.057 2942.66,-123 2954.88,-109.956 3483.87,-83.3739 3656.09,-75.0505"/>
<polygon fill="midnightblue" stroke="midnightblue" points="3094.48,-197.63 3104.94,-195.974 3095.73,-190.743 3094.48,-197.63"/>
</g>
<!-- Node51&#45;&gt;Node46 -->
<g id="edge64" class="edge"><title>Node51&#45;&gt;Node46</title>
<path fill="none" stroke="midnightblue" d="M3104.65,-194.063C3096.97,-192.606 3089.11,-191.199 3081.66,-190 2953,-169.292 2919.27,-175.054 2790.66,-154 2780.23,-152.293 2769.01,-150.145 2758.62,-148.029"/>
<polygon fill="midnightblue" stroke="midnightblue" points="3104.11,-197.525 3114.6,-195.995 3105.45,-190.653 3104.11,-197.525"/>
</g>
<!-- Node51&#45;&gt;Node47 -->
<g id="edge65" class="edge"><title>Node51&#45;&gt;Node47</title>
<path fill="none" stroke="midnightblue" d="M3155.54,-185.537C3156.11,-173.17 3156.83,-157.62 3157.27,-148.127"/>
<polygon fill="midnightblue" stroke="midnightblue" points="3152.03,-185.583 3155.07,-195.734 3159.03,-185.906 3152.03,-185.583"/>
</g>
<!-- Node51&#45;&gt;Node50 -->
<g id="edge66" class="edge"><title>Node51&#45;&gt;Node50</title>
<path fill="none" stroke="midnightblue" d="M3102.49,-193.939C3095.5,-192.58 3088.41,-191.235 3081.66,-190 3034.01,-181.28 2897.96,-190.975 2866.66,-154 2838.17,-120.344 2895.62,-97.747 2946.19,-85.0474"/>
<polygon fill="midnightblue" stroke="midnightblue" points="3102.14,-197.436 3112.63,-195.925 3103.49,-190.567 3102.14,-197.436"/>
</g>
<!-- Node51&#45;&gt;Node52 -->
<g id="edge68" class="edge"><title>Node51&#45;&gt;Node52</title>
<path fill="none" stroke="midnightblue" d="M3183.23,-191.781C3212.15,-178.909 3256.07,-159.355 3281.2,-148.167"/>
<polygon fill="midnightblue" stroke="midnightblue" points="3181.76,-188.604 3174.05,-195.869 3184.61,-194.999 3181.76,-188.604"/>
</g>
<!-- Node51&#45;&gt;Node53 -->
<g id="edge69" class="edge"><title>Node51&#45;&gt;Node53</title>
<path fill="none" stroke="midnightblue" d="M3203.24,-193.724C3260.94,-180.924 3356.01,-159.833 3408.97,-148.083"/>
<polygon fill="midnightblue" stroke="midnightblue" points="3202.27,-190.353 3193.27,-195.936 3203.79,-197.187 3202.27,-190.353"/>
</g>
<!-- Node63&#45;&gt;Node64 -->
<g id="edge82" class="edge"><title>Node63&#45;&gt;Node64</title>
<path fill="none" stroke="midnightblue" d="M3854.66,-185.537C3854.66,-173.17 3854.66,-157.62 3854.66,-148.127"/>
<polygon fill="midnightblue" stroke="midnightblue" points="3851.16,-185.734 3854.66,-195.734 3858.16,-185.734 3851.16,-185.734"/>
</g>
<!-- Node64&#45;&gt;Node41 -->
<g id="edge86" class="edge"><title>Node64&#45;&gt;Node41</title>
<path fill="none" stroke="midnightblue" d="M3915.3,-129.537C4009.98,-117.105 4191.94,-93.2115 4287.52,-80.6597"/>
<polygon fill="midnightblue" stroke="midnightblue" points="3914.77,-126.077 3905.31,-130.849 3915.68,-133.017 3914.77,-126.077"/>
</g>
<!-- Node64&#45;&gt;Node44 -->
<g id="edge83" class="edge"><title>Node64&#45;&gt;Node44</title>
<path fill="none" stroke="midnightblue" d="M3854.66,-118.537C3854.66,-106.17 3854.66,-90.6198 3854.66,-81.1273"/>
<polygon fill="midnightblue" stroke="midnightblue" points="3851.16,-118.734 3854.66,-128.734 3858.16,-118.734 3851.16,-118.734"/>
</g>
<!-- Node64&#45;&gt;Node45 -->
<g id="edge84" class="edge"><title>Node64&#45;&gt;Node45</title>
<path fill="none" stroke="midnightblue" d="M3826.26,-124.767C3801.72,-113.766 3766.31,-97.8916 3740.96,-86.5281"/>
<polygon fill="midnightblue" stroke="midnightblue" points="3824.85,-127.972 3835.41,-128.869 3827.72,-121.584 3824.85,-127.972"/>
</g>
<!-- Node64&#45;&gt;Node50 -->
<g id="edge85" class="edge"><title>Node64&#45;&gt;Node50</title>
<path fill="none" stroke="midnightblue" d="M3794.16,-132.523C3759.48,-129.689 3715.13,-126.097 3675.66,-123 3455.19,-105.699 3193.53,-86.1034 3074.87,-77.2677"/>
<polygon fill="midnightblue" stroke="midnightblue" points="3793.88,-136.011 3804.13,-133.338 3794.45,-129.035 3793.88,-136.011"/>
</g>
<!-- Node65&#45;&gt;Node64 -->
<g id="edge88" class="edge"><title>Node65&#45;&gt;Node64</title>
<path fill="none" stroke="midnightblue" d="M3722.55,-186.946C3757.7,-174.321 3803.57,-157.85 3830.98,-148.007"/>
<polygon fill="midnightblue" stroke="midnightblue" points="3721.17,-183.722 3712.94,-190.396 3723.53,-190.31 3721.17,-183.722"/>
</g>
<!-- Node66&#45;&gt;Node17 -->
<g id="edge91" class="edge"><title>Node66&#45;&gt;Node17</title>
<path fill="none" stroke="midnightblue" d="M2904.31,-230.696C2904.67,-240.192 2904.09,-250.471 2902.56,-257.475"/>
<polygon fill="midnightblue" stroke="midnightblue" points="2907.78,-230.212 2903.49,-220.523 2900.8,-230.77 2907.78,-230.212"/>
</g>
</g>
</svg>
        <g id="navigator" transform="translate(0 0)" fill="#404254">
                <rect fill="#f2f5e9" fill-opacity="0.5" stroke="#606060" stroke-width=".5" x="0" y="0" width="60" height="60"/>
                <use id="zoomplus" xlink:href="#zoomPlus" x="17" y="9" onmousedown="handleZoom(evt,'in')"/>
                <use id="zoomminus" xlink:href="#zoomMin" x="42" y="9" onmousedown="handleZoom(evt,'out')"/>
                <use id="reset" xlink:href="#resetDef" x="30" y="36" onmousedown="handleReset()"/>
                <g id="arrowUp" xlink:href="#dirArrow" transform="translate(30 24)" onmousedown="handlePan(0,-1)">
                  <use xlink:href="#rim" fill="#404040">
                        <set attributeName="fill" to="#808080" begin="arrowUp.mouseover" end="arrowUp.mouseout"/>
                  </use>
                  <path fill="none" stroke="white" stroke-width="1.5" d="M0,-3.0v7 M-2.5,-0.5L0,-3.0L2.5,-0.5"/>
                </g>
                <g id="arrowRight" xlink:href="#dirArrow" transform="rotate(90) translate(36 -43)" onmousedown="handlePan(1,0)">
                  <use xlink:href="#rim" fill="#404040">
                        <set attributeName="fill" to="#808080" begin="arrowRight.mouseover" end="arrowRight.mouseout"/>
                  </use>
                  <path fill="none" stroke="white" stroke-width="1.5" d="M0,-3.0v7 M-2.5,-0.5L0,-3.0L2.5,-0.5"/>
                </g>
                <g id="arrowDown" xlink:href="#dirArrow" transform="rotate(180) translate(-30 -48)" onmousedown="handlePan(0,1)">
                  <use xlink:href="#rim" fill="#404040">
                        <set attributeName="fill" to="#808080" begin="arrowDown.mouseover" end="arrowDown.mouseout"/>
                  </use>
                  <path fill="none" stroke="white" stroke-width="1.5" d="M0,-3.0v7 M-2.5,-0.5L0,-3.0L2.5,-0.5"/>
                </g>
                <g id="arrowLeft" xlink:href="#dirArrow" transform="rotate(270) translate(-36 17)" onmousedown="handlePan(-1,0)">
                  <use xlink:href="#rim" fill="#404040">
                        <set attributeName="fill" to="#808080" begin="arrowLeft.mouseover" end="arrowLeft.mouseout"/>
                  </use>
                  <path fill="none" stroke="white" stroke-width="1.5" d="M0,-3.0v7 M-2.5,-0.5L0,-3.0L2.5,-0.5"/>
                </g>
        </g>
        <svg viewBox="0 0 15 15" width="100%" height="30px" preserveAspectRatio="xMaxYMin meet">
         <g id="arrow_out" transform="scale(0.3 0.3)">
          <a xlink:href="perturbation__fold_8h__dep__incl_org.svg" target="_base">
           <rect id="button" ry="5" rx="5" y="6" x="6" height="38" width="38"
                fill="#f2f5e9" fill-opacity="0.5" stroke="#606060" stroke-width="1.0"/>
           <path id="arrow"
             d="M 11.500037,31.436501 C 11.940474,20.09759 22.043105,11.32322 32.158766,21.979434 L 37.068811,17.246167 C 37.068811,17.246167 37.088388,32 37.088388,32 L 22.160133,31.978069 C 22.160133,31.978069 26.997745,27.140456 26.997745,27.140456 C 18.528582,18.264221 13.291696,25.230495 11.500037,31.436501 z"
             style="fill:#404040;"/>
          </a>
         </g>
        </svg>
</svg>
