<?xml version="1.0" encoding="UTF-8" standalone="no"?>
<!DOCTYPE svg PUBLIC "-//W3C//DTD SVG 1.1//EN"
 "http://www.w3.org/Graphics/SVG/1.1/DTD/svg11.dtd">
<!-- Generated by graphviz version 2.38.0 (20140413.2041)
 -->
<!-- Title: ViennaRNA/plot_structure.h Pages: 1 -->
<!--zoomable 330 -->
<svg id="main" version="1.1" xmlns="http://www.w3.org/2000/svg" xmlns:xlink="http://www.w3.org/1999/xlink" xml:space="preserve" onload="init(evt)">
<style type="text/css"><![CDATA[
.edge:hover path { stroke: red; }
.edge:hover polygon { stroke: red; fill: red; }
]]></style>
<script type="text/javascript"><![CDATA[
var edges = document.getElementsByTagName('g');
if (edges && edges.length) {
  for (var i=0;i<edges.length;i++) {
    if (edges[i].id.substr(0,4)=='edge') {
      edges[i].setAttribute('class','edge');
    }
  }
}
]]></script>
        <defs>
                <circle id="rim" cx="0" cy="0" r="7"/>
                <circle id="rim2" cx="0" cy="0" r="3.5"/>
                <g id="zoomPlus">
                        <use xlink:href="#rim" fill="#404040">
                                <set attributeName="fill" to="#808080" begin="zoomplus.mouseover" end="zoomplus.mouseout"/>
                        </use>
                        <path d="M-4,0h8M0,-4v8" fill="none" stroke="white" stroke-width="1.5" pointer-events="none"/>
                </g>
                <g id="zoomMin">
                        <use xlink:href="#rim" fill="#404040">
                                <set attributeName="fill" to="#808080" begin="zoomminus.mouseover" end="zoomminus.mouseout"/>
                        </use>
                        <path d="M-4,0h8" fill="none" stroke="white" stroke-width="1.5" pointer-events="none"/>
                </g>
                <g id="dirArrow">
                        <path fill="none" stroke="white" stroke-width="1.5" d="M0,-3.0v7 M-2.5,-0.5L0,-3.0L2.5,-0.5"/>
                </g>
               <g id="resetDef">
                       <use xlink:href="#rim2" fill="#404040">
                               <set attributeName="fill" to="#808080" begin="reset.mouseover" end="reset.mouseout"/>
                       </use>
               </g>
        </defs>

<script type="text/javascript">
var viewWidth = 1192;
var viewHeight = 330;
var sectionId = 'dynsection-0';
</script>
<script xlink:href="svgpan.js"/>
<svg id="graph" class="graph">
<g id="viewport">
<title>ViennaRNA/plot_structure.h</title>
<!-- Node0 -->
<g id="node1" class="node"><title>Node0</title>
<polygon fill="#bfbfbf" stroke="black" points="40.3733,-302.5 40.3733,-321.5 186.373,-321.5 186.373,-302.5 40.3733,-302.5"/>
<text text-anchor="middle" x="113.373" y="-309.5" font-family="Helvetica,sans-Serif" font-size="10.00">ViennaRNA/plot_structure.h</text>
</g>
<!-- Node1 -->
<g id="node2" class="node"><title>Node1</title>
<g id="a_node2"><a xlink:href="model_8h.html" target="_top" xlink:title="The model details data structure and its corresponding modifiers. ">
<polygon fill="none" stroke="black" points="72.8733,-62 72.8733,-81 183.873,-81 183.873,-62 72.8733,-62"/>
<text text-anchor="middle" x="128.373" y="-69" font-family="Helvetica,sans-Serif" font-size="10.00">ViennaRNA/model.h</text>
</a>
</g>
</g>
<!-- Node0&#45;&gt;Node1 -->
<g id="edge1" class="edge"><title>Node0&#45;&gt;Node1</title>
<path fill="none" stroke="midnightblue" d="M102.029,-302.463C67.3871,-275.349 -32.0822,-189.087 11.3733,-123 24.1803,-103.523 46.2644,-91.5241 67.8196,-84.147"/>
<polygon fill="midnightblue" stroke="midnightblue" points="69.1514,-87.3977 77.6509,-81.0725 67.0621,-80.7168 69.1514,-87.3977"/>
</g>
<!-- Node2 -->
<g id="node3" class="node"><title>Node2</title>
<g id="a_node3"><a xlink:href="plot__layouts_8h.html" target="_top" xlink:title="Secondary structure plot layout algorithms. ">
<polygon fill="none" stroke="black" points="164.873,-246.5 164.873,-265.5 303.873,-265.5 303.873,-246.5 164.873,-246.5"/>
<text text-anchor="middle" x="234.373" y="-253.5" font-family="Helvetica,sans-Serif" font-size="10.00">ViennaRNA/plot_layouts.h</text>
</a>
</g>
</g>
<!-- Node0&#45;&gt;Node2 -->
<g id="edge2" class="edge"><title>Node0&#45;&gt;Node2</title>
<path fill="none" stroke="midnightblue" d="M132.546,-302.444C152.282,-293.636 183.258,-279.812 205.867,-269.722"/>
<polygon fill="midnightblue" stroke="midnightblue" points="207.585,-272.788 215.29,-265.516 204.732,-266.396 207.585,-272.788"/>
</g>
<!-- Node3 -->
<g id="node4" class="node"><title>Node3</title>
<g id="a_node4"><a xlink:href="data__structures_8h.html" target="_top" xlink:title="Various data structures and pre&#45;processor macros. ">
<polygon fill="none" stroke="black" points="455.873,-190.5 455.873,-209.5 610.873,-209.5 610.873,-190.5 455.873,-190.5"/>
<text text-anchor="middle" x="533.373" y="-197.5" font-family="Helvetica,sans-Serif" font-size="10.00">ViennaRNA/data_structures.h</text>
</a>
</g>
</g>
<!-- Node2&#45;&gt;Node3 -->
<g id="edge3" class="edge"><title>Node2&#45;&gt;Node3</title>
<path fill="none" stroke="midnightblue" d="M281.751,-246.444C334.457,-236.925 419.603,-221.547 476.03,-211.356"/>
<polygon fill="midnightblue" stroke="midnightblue" points="476.999,-214.738 486.217,-209.516 475.755,-207.849 476.999,-214.738"/>
</g>
<!-- Node17 -->
<g id="node18" class="node"><title>Node17</title>
<g id="a_node18"><a xlink:href="naview_8h.html" target="_top" xlink:title="ViennaRNA/naview.h">
<polygon fill="none" stroke="black" points="176.373,-190.5 176.373,-209.5 292.373,-209.5 292.373,-190.5 176.373,-190.5"/>
<text text-anchor="middle" x="234.373" y="-197.5" font-family="Helvetica,sans-Serif" font-size="10.00">ViennaRNA/naview.h</text>
</a>
</g>
</g>
<!-- Node2&#45;&gt;Node17 -->
<g id="edge30" class="edge"><title>Node2&#45;&gt;Node17</title>
<path fill="none" stroke="midnightblue" d="M234.373,-246.083C234.373,-239.006 234.373,-228.861 234.373,-219.986"/>
<polygon fill="midnightblue" stroke="midnightblue" points="237.873,-219.751 234.373,-209.751 230.873,-219.751 237.873,-219.751"/>
</g>
<!-- Node3&#45;&gt;Node1 -->
<g id="edge6" class="edge"><title>Node3&#45;&gt;Node1</title>
<path fill="none" stroke="midnightblue" d="M455.766,-194.118C373.439,-187.918 249.545,-175.373 207.373,-154 191.856,-146.136 160.164,-110.351 141.99,-88.9005"/>
<polygon fill="midnightblue" stroke="midnightblue" points="144.648,-86.6225 135.537,-81.2147 139.287,-91.1237 144.648,-86.6225"/>
</g>
<!-- Node4 -->
<g id="node5" class="node"><title>Node4</title>
<g id="a_node5"><a xlink:href="energy__const_8h.html" target="_top" xlink:title="Energy parameter constants. ">
<polygon fill="none" stroke="black" points="201.873,-62 201.873,-81 348.873,-81 348.873,-62 201.873,-62"/>
<text text-anchor="middle" x="275.373" y="-69" font-family="Helvetica,sans-Serif" font-size="10.00">ViennaRNA/energy_const.h</text>
</a>
</g>
</g>
<!-- Node3&#45;&gt;Node4 -->
<g id="edge4" class="edge"><title>Node3&#45;&gt;Node4</title>
<path fill="none" stroke="midnightblue" d="M512.873,-190.426C492.146,-181.649 459.279,-167.427 431.373,-154 384.414,-131.405 330.789,-102.745 300.22,-86.1287"/>
<polygon fill="midnightblue" stroke="midnightblue" points="301.598,-82.8937 291.143,-81.1798 298.247,-89.0396 301.598,-82.8937"/>
</g>
<!-- Node6 -->
<g id="node7" class="node"><title>Node6</title>
<g id="a_node7"><a xlink:href="params_8h.html" target="_top" xlink:title="Functions to deal with sets of energy parameters. ">
<polygon fill="none" stroke="black" points="216.373,-129 216.373,-148 334.373,-148 334.373,-129 216.373,-129"/>
<text text-anchor="middle" x="275.373" y="-136" font-family="Helvetica,sans-Serif" font-size="10.00">ViennaRNA/params.h</text>
</a>
</g>
</g>
<!-- Node3&#45;&gt;Node6 -->
<g id="edge7" class="edge"><title>Node3&#45;&gt;Node6</title>
<path fill="none" stroke="midnightblue" d="M491.508,-190.475C443.416,-179.915 365.195,-161.911 317.146,-150.369"/>
<polygon fill="midnightblue" stroke="midnightblue" points="317.915,-146.954 307.373,-148.009 316.272,-153.759 317.915,-146.954"/>
</g>
<!-- Node7 -->
<g id="node8" class="node"><title>Node7</title>
<g id="a_node8"><a xlink:href="dp__matrices_8h.html" target="_top" xlink:title="Functions to deal with standard dynamic programming (DP) matrices. ">
<polygon fill="none" stroke="black" points="20.3733,-129 20.3733,-148 160.373,-148 160.373,-129 20.3733,-129"/>
<text text-anchor="middle" x="90.3733" y="-136" font-family="Helvetica,sans-Serif" font-size="10.00">ViennaRNA/dp_matrices.h</text>
</a>
</g>
</g>
<!-- Node3&#45;&gt;Node7 -->
<g id="edge11" class="edge"><title>Node3&#45;&gt;Node7</title>
<path fill="none" stroke="midnightblue" d="M455.617,-191.084C380.884,-182.766 265.091,-168.848 165.373,-154 156.746,-152.715 147.639,-151.254 138.84,-149.765"/>
<polygon fill="midnightblue" stroke="midnightblue" points="139.15,-146.266 128.7,-148.013 137.958,-153.164 139.15,-146.266"/>
</g>
<!-- Node8 -->
<g id="node9" class="node"><title>Node8</title>
<g id="a_node9"><a xlink:href="constraints_8h.html" target="_top" xlink:title="Functions and data structures for constraining secondary structure predictions and evaluation...">
<polygon fill="none" stroke="black" points="466.373,-129 466.373,-148 600.373,-148 600.373,-129 466.373,-129"/>
<text text-anchor="middle" x="533.373" y="-136" font-family="Helvetica,sans-Serif" font-size="10.00">ViennaRNA/constraints.h</text>
</a>
</g>
</g>
<!-- Node3&#45;&gt;Node8 -->
<g id="edge13" class="edge"><title>Node3&#45;&gt;Node8</title>
<path fill="none" stroke="midnightblue" d="M528.473,-190.475C526.642,-182.08 526.17,-168.981 527.058,-158.163"/>
<polygon fill="midnightblue" stroke="midnightblue" points="530.56,-158.397 528.476,-148.009 523.627,-157.429 530.56,-158.397"/>
</g>
<!-- Node14 -->
<g id="node15" class="node"><title>Node14</title>
<g id="a_node15"><a xlink:href="grammar_8h.html" target="_top" xlink:title="Implementations for the RNA folding grammar. ">
<polygon fill="none" stroke="black" points="618.873,-129 618.873,-148 743.873,-148 743.873,-129 618.873,-129"/>
<text text-anchor="middle" x="681.373" y="-136" font-family="Helvetica,sans-Serif" font-size="10.00">ViennaRNA/grammar.h</text>
</a>
</g>
</g>
<!-- Node3&#45;&gt;Node14 -->
<g id="edge25" class="edge"><title>Node3&#45;&gt;Node14</title>
<path fill="none" stroke="midnightblue" d="M549.677,-190.475C572.839,-180.269 615.308,-163.108 645.852,-151.549"/>
<polygon fill="midnightblue" stroke="midnightblue" points="647.172,-154.792 655.311,-148.009 644.718,-148.237 647.172,-154.792"/>
</g>
<!-- Node15 -->
<g id="node16" class="node"><title>Node15</title>
<g id="a_node16"><a xlink:href="structured__domains_8h.html" target="_top" xlink:title="This module provides interfaces that deal with additional structured domains in the folding grammar...">
<polygon fill="none" stroke="black" points="761.873,-123.5 761.873,-153.5 882.873,-153.5 882.873,-123.5 761.873,-123.5"/>
<text text-anchor="start" x="769.873" y="-141.5" font-family="Helvetica,sans-Serif" font-size="10.00">ViennaRNA/structured</text>
<text text-anchor="middle" x="822.373" y="-130.5" font-family="Helvetica,sans-Serif" font-size="10.00">_domains.h</text>
</a>
</g>
</g>
<!-- Node3&#45;&gt;Node15 -->
<g id="edge27" class="edge"><title>Node3&#45;&gt;Node15</title>
<path fill="none" stroke="midnightblue" d="M574.954,-190.477C616.943,-181.865 683.948,-168.11 751.674,-154.143"/>
<polygon fill="midnightblue" stroke="midnightblue" points="752.581,-157.529 761.668,-152.081 751.167,-150.673 752.581,-157.529"/>
</g>
<!-- Node16 -->
<g id="node17" class="node"><title>Node16</title>
<g id="a_node17"><a xlink:href="unstructured__domains_8h.html" target="_top" xlink:title="Functions to modify unstructured domains, e.g. to incorporate ligands binding to unpaired stretches...">
<polygon fill="none" stroke="black" points="901.373,-123.5 901.373,-153.5 1033.37,-153.5 1033.37,-123.5 901.373,-123.5"/>
<text text-anchor="start" x="909.373" y="-141.5" font-family="Helvetica,sans-Serif" font-size="10.00">ViennaRNA/unstructured</text>
<text text-anchor="middle" x="967.373" y="-130.5" font-family="Helvetica,sans-Serif" font-size="10.00">_domains.h</text>
</a>
</g>
</g>
<!-- Node3&#45;&gt;Node16 -->
<g id="edge28" class="edge"><title>Node3&#45;&gt;Node16</title>
<path fill="none" stroke="midnightblue" d="M605.819,-190.475C676.533,-182.331 786.933,-169.087 882.373,-154 885.234,-153.548 888.152,-153.069 891.103,-152.571"/>
<polygon fill="midnightblue" stroke="midnightblue" points="891.971,-155.973 901.226,-150.816 890.775,-149.076 891.971,-155.973"/>
</g>
<!-- Node5 -->
<g id="node6" class="node"><title>Node5</title>
<polygon fill="none" stroke="#bfbfbf" points="251.373,-0.5 251.373,-19.5 299.373,-19.5 299.373,-0.5 251.373,-0.5"/>
<text text-anchor="middle" x="275.373" y="-7.5" font-family="Helvetica,sans-Serif" font-size="10.00">limits.h</text>
</g>
<!-- Node4&#45;&gt;Node5 -->
<g id="edge5" class="edge"><title>Node4&#45;&gt;Node5</title>
<path fill="none" stroke="midnightblue" d="M275.373,-61.9751C275.373,-53.5803 275.373,-40.4806 275.373,-29.6631"/>
<polygon fill="midnightblue" stroke="midnightblue" points="278.873,-29.5091 275.373,-19.5091 271.873,-29.5091 278.873,-29.5091"/>
</g>
<!-- Node6&#45;&gt;Node1 -->
<g id="edge10" class="edge"><title>Node6&#45;&gt;Node1</title>
<path fill="none" stroke="midnightblue" d="M255.853,-128.869C230.593,-117.699 186.374,-98.1468 157.231,-85.2602"/>
<polygon fill="midnightblue" stroke="midnightblue" points="158.536,-82.0103 147.974,-81.1672 155.705,-88.4123 158.536,-82.0103"/>
</g>
<!-- Node6&#45;&gt;Node3 -->
<g id="edge9" class="edge"><title>Node6&#45;&gt;Node3</title>
<path fill="none" stroke="midnightblue" d="M317.167,-148.009C365.229,-158.561 443.45,-176.565 491.528,-188.114"/>
<polygon fill="midnightblue" stroke="midnightblue" points="490.767,-191.53 501.309,-190.475 492.409,-184.726 490.767,-191.53"/>
</g>
<!-- Node6&#45;&gt;Node4 -->
<g id="edge8" class="edge"><title>Node6&#45;&gt;Node4</title>
<path fill="none" stroke="midnightblue" d="M275.373,-128.734C275.373,-119.183 275.373,-103.618 275.373,-91.2829"/>
<polygon fill="midnightblue" stroke="midnightblue" points="278.873,-91.1273 275.373,-81.1273 271.873,-91.1273 278.873,-91.1273"/>
</g>
<!-- Node7&#45;&gt;Node3 -->
<g id="edge12" class="edge"><title>Node7&#45;&gt;Node3</title>
<path fill="none" stroke="midnightblue" d="M146.108,-148.013C158.438,-150.083 171.37,-152.213 183.373,-154 276.196,-167.821 382.948,-180.837 453.967,-189.28"/>
<polygon fill="midnightblue" stroke="midnightblue" points="453.838,-192.789 464.18,-190.492 454.663,-185.838 453.838,-192.789"/>
</g>
<!-- Node8&#45;&gt;Node3 -->
<g id="edge14" class="edge"><title>Node8&#45;&gt;Node3</title>
<path fill="none" stroke="midnightblue" d="M538.27,-148.009C540.103,-156.398 540.576,-169.496 539.69,-180.317"/>
<polygon fill="midnightblue" stroke="midnightblue" points="536.188,-180.088 538.274,-190.475 543.121,-181.054 536.188,-180.088"/>
</g>
<!-- Node9 -->
<g id="node10" class="node"><title>Node9</title>
<g id="a_node10"><a xlink:href="constraints__hard_8h.html" target="_top" xlink:title="Functions and data structures for handling of secondary structure hard constraints. ">
<polygon fill="none" stroke="black" points="367.373,-56.5 367.373,-86.5 493.373,-86.5 493.373,-56.5 367.373,-56.5"/>
<text text-anchor="start" x="375.373" y="-74.5" font-family="Helvetica,sans-Serif" font-size="10.00">ViennaRNA/constraints</text>
<text text-anchor="middle" x="430.373" y="-63.5" font-family="Helvetica,sans-Serif" font-size="10.00">_hard.h</text>
</a>
</g>
</g>
<!-- Node8&#45;&gt;Node9 -->
<g id="edge15" class="edge"><title>Node8&#45;&gt;Node9</title>
<path fill="none" stroke="midnightblue" d="M519.482,-128.734C504.625,-119.358 480.587,-104.188 461.219,-91.9658"/>
<polygon fill="midnightblue" stroke="midnightblue" points="463.024,-88.966 452.699,-86.589 459.288,-94.8858 463.024,-88.966"/>
</g>
<!-- Node10 -->
<g id="node11" class="node"><title>Node10</title>
<g id="a_node11"><a xlink:href="constraints__soft_8h.html" target="_top" xlink:title="Functions and data structures for secondary structure soft constraints. ">
<polygon fill="none" stroke="black" points="511.373,-56.5 511.373,-86.5 637.373,-86.5 637.373,-56.5 511.373,-56.5"/>
<text text-anchor="start" x="519.373" y="-74.5" font-family="Helvetica,sans-Serif" font-size="10.00">ViennaRNA/constraints</text>
<text text-anchor="middle" x="574.373" y="-63.5" font-family="Helvetica,sans-Serif" font-size="10.00">_soft.h</text>
</a>
</g>
</g>
<!-- Node8&#45;&gt;Node10 -->
<g id="edge17" class="edge"><title>Node8&#45;&gt;Node10</title>
<path fill="none" stroke="midnightblue" d="M538.903,-128.734C544.284,-120.203 552.691,-106.874 559.97,-95.3345"/>
<polygon fill="midnightblue" stroke="midnightblue" points="563.112,-96.9143 565.486,-86.589 557.191,-93.1797 563.112,-96.9143"/>
</g>
<!-- Node11 -->
<g id="node12" class="node"><title>Node11</title>
<g id="a_node12"><a xlink:href="constraints__SHAPE_8h.html" target="_top" xlink:title="This module provides function to incorporate SHAPE reactivity data into the folding recursions by mea...">
<polygon fill="none" stroke="black" points="717.373,-56.5 717.373,-86.5 843.373,-86.5 843.373,-56.5 717.373,-56.5"/>
<text text-anchor="start" x="725.373" y="-74.5" font-family="Helvetica,sans-Serif" font-size="10.00">ViennaRNA/constraints</text>
<text text-anchor="middle" x="780.373" y="-63.5" font-family="Helvetica,sans-Serif" font-size="10.00">_SHAPE.h</text>
</a>
</g>
</g>
<!-- Node8&#45;&gt;Node11 -->
<g id="edge19" class="edge"><title>Node8&#45;&gt;Node11</title>
<path fill="none" stroke="midnightblue" d="M565.918,-128.936C604.278,-118.841 668.908,-101.833 717.211,-89.1215"/>
<polygon fill="midnightblue" stroke="midnightblue" points="718.168,-92.4889 726.948,-86.5592 716.387,-85.7194 718.168,-92.4889"/>
</g>
<!-- Node12 -->
<g id="node13" class="node"><title>Node12</title>
<g id="a_node13"><a xlink:href="perturbation__fold_8h.html" target="_top" xlink:title="Find a vector of perturbation energies that minimizes the discripancies between predicted and observe...">
<polygon fill="none" stroke="black" points="892.873,-56.5 892.873,-86.5 1023.87,-86.5 1023.87,-56.5 892.873,-56.5"/>
<text text-anchor="start" x="900.873" y="-74.5" font-family="Helvetica,sans-Serif" font-size="10.00">ViennaRNA/perturbation</text>
<text text-anchor="middle" x="958.373" y="-63.5" font-family="Helvetica,sans-Serif" font-size="10.00">_fold.h</text>
</a>
</g>
</g>
<!-- Node8&#45;&gt;Node12 -->
<g id="edge21" class="edge"><title>Node8&#45;&gt;Node12</title>
<path fill="none" stroke="midnightblue" d="M576.319,-128.958C587.094,-126.911 598.643,-124.799 609.373,-123 660.41,-114.443 796.238,-95.165 882.612,-83.0572"/>
<polygon fill="midnightblue" stroke="midnightblue" points="883.212,-86.5073 892.63,-81.6538 882.241,-79.575 883.212,-86.5073"/>
</g>
<!-- Node13 -->
<g id="node14" class="node"><title>Node13</title>
<g id="a_node14"><a xlink:href="constraints__ligand_8h.html" target="_top" xlink:title="Functions for incorporation of ligands binding to hairpin and interior loop motifs using the soft con...">
<polygon fill="none" stroke="black" points="1058.37,-56.5 1058.37,-86.5 1184.37,-86.5 1184.37,-56.5 1058.37,-56.5"/>
<text text-anchor="start" x="1066.37" y="-74.5" font-family="Helvetica,sans-Serif" font-size="10.00">ViennaRNA/constraints</text>
<text text-anchor="middle" x="1121.37" y="-63.5" font-family="Helvetica,sans-Serif" font-size="10.00">_ligand.h</text>
</a>
</g>
</g>
<!-- Node8&#45;&gt;Node13 -->
<g id="edge23" class="edge"><title>Node8&#45;&gt;Node13</title>
<path fill="none" stroke="midnightblue" d="M573.87,-128.967C585.31,-126.776 597.796,-124.592 609.373,-123 796.734,-97.2437 845.703,-110.392 1033.37,-87 1038.12,-86.4087 1043,-85.7491 1047.91,-85.0463"/>
<polygon fill="midnightblue" stroke="midnightblue" points="1048.63,-88.4778 1058.01,-83.5511 1047.61,-81.5532 1048.63,-88.4778"/>
</g>
<!-- Node9&#45;&gt;Node3 -->
<g id="edge16" class="edge"><title>Node9&#45;&gt;Node3</title>
<path fill="none" stroke="midnightblue" d="M430.039,-86.6604C430.341,-104.195 433.277,-134.169 448.373,-154 459.786,-168.994 477.655,-179.513 494.07,-186.589"/>
<polygon fill="midnightblue" stroke="midnightblue" points="492.922,-189.899 503.507,-190.365 495.523,-183.4 492.922,-189.899"/>
</g>
<!-- Node10&#45;&gt;Node3 -->
<g id="edge18" class="edge"><title>Node10&#45;&gt;Node3</title>
<path fill="none" stroke="midnightblue" d="M511.14,-85.0875C490.451,-92.5307 469.65,-104.33 457.373,-123 449.804,-134.512 450.55,-142.03 457.373,-154 465.783,-168.753 481.139,-179.162 495.857,-186.226"/>
<polygon fill="midnightblue" stroke="midnightblue" points="494.795,-189.582 505.358,-190.397 497.608,-183.173 494.795,-189.582"/>
</g>
<!-- Node11&#45;&gt;Node3 -->
<g id="edge20" class="edge"><title>Node11&#45;&gt;Node3</title>
<path fill="none" stroke="midnightblue" d="M843.453,-82.6009C918.926,-94.9875 1036,-115.286 1042.37,-123 1051.15,-133.624 1051.68,-143.838 1042.37,-154 1014.56,-184.382 759.193,-194.365 621.092,-197.557"/>
<polygon fill="midnightblue" stroke="midnightblue" points="620.868,-194.061 610.949,-197.784 621.025,-201.059 620.868,-194.061"/>
</g>
<!-- Node12&#45;&gt;Node3 -->
<g id="edge22" class="edge"><title>Node12&#45;&gt;Node3</title>
<path fill="none" stroke="midnightblue" d="M999.21,-86.52C1037.06,-101.618 1084.06,-127.112 1059.37,-154 1030.39,-185.565 763.053,-195.027 621.069,-197.834"/>
<polygon fill="midnightblue" stroke="midnightblue" points="620.999,-194.335 611.068,-198.025 621.133,-201.334 620.999,-194.335"/>
</g>
<!-- Node13&#45;&gt;Node3 -->
<g id="edge24" class="edge"><title>Node13&#45;&gt;Node3</title>
<path fill="none" stroke="midnightblue" d="M1118.02,-86.5523C1112.71,-105.445 1100.39,-138.454 1076.37,-154 1039.15,-178.095 765.165,-191.035 621.206,-196.234"/>
<polygon fill="midnightblue" stroke="midnightblue" points="620.939,-192.741 611.07,-196.595 621.189,-199.737 620.939,-192.741"/>
</g>
<!-- Node14&#45;&gt;Node3 -->
<g id="edge26" class="edge"><title>Node14&#45;&gt;Node3</title>
<path fill="none" stroke="midnightblue" d="M665.105,-148.009C641.964,-158.208 599.498,-175.368 568.942,-186.933"/>
<polygon fill="midnightblue" stroke="midnightblue" points="567.617,-183.691 559.479,-190.475 570.071,-190.247 567.617,-183.691"/>
</g>
<!-- Node16&#45;&gt;Node3 -->
<g id="edge29" class="edge"><title>Node16&#45;&gt;Node3</title>
<path fill="none" stroke="midnightblue" d="M903.176,-153.551C902.237,-153.704 901.302,-153.853 900.373,-154 805.527,-168.993 695.906,-182.166 621.279,-190.322"/>
<polygon fill="midnightblue" stroke="midnightblue" points="620.551,-186.88 610.987,-191.439 621.306,-193.84 620.551,-186.88"/>
</g>
</g>
</svg>
        <g id="navigator" transform="translate(0 0)" fill="#404254">
                <rect fill="#f2f5e9" fill-opacity="0.5" stroke="#606060" stroke-width=".5" x="0" y="0" width="60" height="60"/>
                <use id="zoomplus" xlink:href="#zoomPlus" x="17" y="9" onmousedown="handleZoom(evt,'in')"/>
                <use id="zoomminus" xlink:href="#zoomMin" x="42" y="9" onmousedown="handleZoom(evt,'out')"/>
                <use id="reset" xlink:href="#resetDef" x="30" y="36" onmousedown="handleReset()"/>
                <g id="arrowUp" xlink:href="#dirArrow" transform="translate(30 24)" onmousedown="handlePan(0,-1)">
                  <use xlink:href="#rim" fill="#404040">
                        <set attributeName="fill" to="#808080" begin="arrowUp.mouseover" end="arrowUp.mouseout"/>
                  </use>
                  <path fill="none" stroke="white" stroke-width="1.5" d="M0,-3.0v7 M-2.5,-0.5L0,-3.0L2.5,-0.5"/>
                </g>
                <g id="arrowRight" xlink:href="#dirArrow" transform="rotate(90) translate(36 -43)" onmousedown="handlePan(1,0)">
                  <use xlink:href="#rim" fill="#404040">
                        <set attributeName="fill" to="#808080" begin="arrowRight.mouseover" end="arrowRight.mouseout"/>
                  </use>
                  <path fill="none" stroke="white" stroke-width="1.5" d="M0,-3.0v7 M-2.5,-0.5L0,-3.0L2.5,-0.5"/>
                </g>
                <g id="arrowDown" xlink:href="#dirArrow" transform="rotate(180) translate(-30 -48)" onmousedown="handlePan(0,1)">
                  <use xlink:href="#rim" fill="#404040">
                        <set attributeName="fill" to="#808080" begin="arrowDown.mouseover" end="arrowDown.mouseout"/>
                  </use>
                  <path fill="none" stroke="white" stroke-width="1.5" d="M0,-3.0v7 M-2.5,-0.5L0,-3.0L2.5,-0.5"/>
                </g>
                <g id="arrowLeft" xlink:href="#dirArrow" transform="rotate(270) translate(-36 17)" onmousedown="handlePan(-1,0)">
                  <use xlink:href="#rim" fill="#404040">
                        <set attributeName="fill" to="#808080" begin="arrowLeft.mouseover" end="arrowLeft.mouseout"/>
                  </use>
                  <path fill="none" stroke="white" stroke-width="1.5" d="M0,-3.0v7 M-2.5,-0.5L0,-3.0L2.5,-0.5"/>
                </g>
        </g>
        <svg viewBox="0 0 15 15" width="100%" height="30px" preserveAspectRatio="xMaxYMin meet">
         <g id="arrow_out" transform="scale(0.3 0.3)">
          <a xlink:href="plot__structure_8h__incl_org.svg" target="_base">
           <rect id="button" ry="5" rx="5" y="6" x="6" height="38" width="38"
                fill="#f2f5e9" fill-opacity="0.5" stroke="#606060" stroke-width="1.0"/>
           <path id="arrow"
             d="M 11.500037,31.436501 C 11.940474,20.09759 22.043105,11.32322 32.158766,21.979434 L 37.068811,17.246167 C 37.068811,17.246167 37.088388,32 37.088388,32 L 22.160133,31.978069 C 22.160133,31.978069 26.997745,27.140456 26.997745,27.140456 C 18.528582,18.264221 13.291696,25.230495 11.500037,31.436501 z"
             style="fill:#404040;"/>
          </a>
         </g>
        </svg>
</svg>
