<?xml version="1.0" encoding="UTF-8" standalone="no"?>
<!DOCTYPE svg PUBLIC "-//W3C//DTD SVG 1.1//EN"
 "http://www.w3.org/Graphics/SVG/1.1/DTD/svg11.dtd">
<!-- Generated by graphviz version 2.38.0 (20140413.2041)
 -->
<!-- Title: ViennaRNA/PS_dot.h Pages: 1 -->
<!--zoomable 386 -->
<svg id="main" version="1.1" xmlns="http://www.w3.org/2000/svg" xmlns:xlink="http://www.w3.org/1999/xlink" xml:space="preserve" onload="init(evt)">
<style type="text/css"><![CDATA[
.edge:hover path { stroke: red; }
.edge:hover polygon { stroke: red; fill: red; }
]]></style>
<script type="text/javascript"><![CDATA[
var edges = document.getElementsByTagName('g');
if (edges && edges.length) {
  for (var i=0;i<edges.length;i++) {
    if (edges[i].id.substr(0,4)=='edge') {
      edges[i].setAttribute('class','edge');
    }
  }
}
]]></script>
        <defs>
                <circle id="rim" cx="0" cy="0" r="7"/>
                <circle id="rim2" cx="0" cy="0" r="3.5"/>
                <g id="zoomPlus">
                        <use xlink:href="#rim" fill="#404040">
                                <set attributeName="fill" to="#808080" begin="zoomplus.mouseover" end="zoomplus.mouseout"/>
                        </use>
                        <path d="M-4,0h8M0,-4v8" fill="none" stroke="white" stroke-width="1.5" pointer-events="none"/>
                </g>
                <g id="zoomMin">
                        <use xlink:href="#rim" fill="#404040">
                                <set attributeName="fill" to="#808080" begin="zoomminus.mouseover" end="zoomminus.mouseout"/>
                        </use>
                        <path d="M-4,0h8" fill="none" stroke="white" stroke-width="1.5" pointer-events="none"/>
                </g>
                <g id="dirArrow">
                        <path fill="none" stroke="white" stroke-width="1.5" d="M0,-3.0v7 M-2.5,-0.5L0,-3.0L2.5,-0.5"/>
                </g>
               <g id="resetDef">
                       <use xlink:href="#rim2" fill="#404040">
                               <set attributeName="fill" to="#808080" begin="reset.mouseover" end="reset.mouseout"/>
                       </use>
               </g>
        </defs>

<script type="text/javascript">
var viewWidth = 1236;
var viewHeight = 386;
var sectionId = 'dynsection-0';
</script>
<script xlink:href="svgpan.js"/>
<svg id="graph" class="graph">
<g id="viewport">
<title>ViennaRNA/PS_dot.h</title>
<!-- Node0 -->
<g id="node1" class="node"><title>Node0</title>
<polygon fill="#bfbfbf" stroke="black" points="504,-358.5 504,-377.5 621,-377.5 621,-358.5 504,-358.5"/>
<text text-anchor="middle" x="562.5" y="-365.5" font-family="Helvetica,sans-Serif" font-size="10.00">ViennaRNA/PS_dot.h</text>
</g>
<!-- Node1 -->
<g id="node2" class="node"><title>Node1</title>
<g id="a_node2"><a xlink:href="data__structures_8h.html" target="_top" xlink:title="Various data structures and pre&#45;processor macros. ">
<polygon fill="none" stroke="black" points="499,-190.5 499,-209.5 654,-209.5 654,-190.5 499,-190.5"/>
<text text-anchor="middle" x="576.5" y="-197.5" font-family="Helvetica,sans-Serif" font-size="10.00">ViennaRNA/data_structures.h</text>
</a>
</g>
</g>
<!-- Node0&#45;&gt;Node1 -->
<g id="edge1" class="edge"><title>Node0&#45;&gt;Node1</title>
<path fill="none" stroke="midnightblue" d="M563.253,-358.075C565.456,-331.945 571.928,-255.211 574.933,-219.577"/>
<polygon fill="midnightblue" stroke="midnightblue" points="578.425,-219.827 575.777,-209.568 571.449,-219.239 578.425,-219.827"/>
</g>
<!-- Node16 -->
<g id="node17" class="node"><title>Node16</title>
<g id="a_node17"><a xlink:href="plot__structure_8h.html" target="_top" xlink:title="Various functions for plotting RNA secondary structures. ">
<polygon fill="none" stroke="black" points="375.5,-302.5 375.5,-321.5 521.5,-321.5 521.5,-302.5 375.5,-302.5"/>
<text text-anchor="middle" x="448.5" y="-309.5" font-family="Helvetica,sans-Serif" font-size="10.00">ViennaRNA/plot_structure.h</text>
</a>
</g>
</g>
<!-- Node0&#45;&gt;Node16 -->
<g id="edge28" class="edge"><title>Node0&#45;&gt;Node16</title>
<path fill="none" stroke="midnightblue" d="M544.436,-358.444C525.925,-349.675 496.919,-335.935 475.645,-325.858"/>
<polygon fill="midnightblue" stroke="midnightblue" points="477.015,-322.634 466.479,-321.516 474.018,-328.96 477.015,-322.634"/>
</g>
<!-- Node19 -->
<g id="node20" class="node"><title>Node19</title>
<g id="a_node20"><a xlink:href="plot__aln_8h.html" target="_top" xlink:title="Various functions for plotting Sequence / Structure Alignments. ">
<polygon fill="none" stroke="black" points="590.5,-302.5 590.5,-321.5 710.5,-321.5 710.5,-302.5 590.5,-302.5"/>
<text text-anchor="middle" x="650.5" y="-309.5" font-family="Helvetica,sans-Serif" font-size="10.00">ViennaRNA/plot_aln.h</text>
</a>
</g>
</g>
<!-- Node0&#45;&gt;Node19 -->
<g id="edge33" class="edge"><title>Node0&#45;&gt;Node19</title>
<path fill="none" stroke="midnightblue" d="M576.639,-358.324C590.366,-349.9 611.436,-336.971 627.564,-327.074"/>
<polygon fill="midnightblue" stroke="midnightblue" points="629.704,-329.868 636.396,-321.655 626.043,-323.902 629.704,-329.868"/>
</g>
<!-- Node2 -->
<g id="node3" class="node"><title>Node2</title>
<g id="a_node3"><a xlink:href="energy__const_8h.html" target="_top" xlink:title="Energy parameter constants. ">
<polygon fill="none" stroke="black" points="0,-62 0,-81 147,-81 147,-62 0,-62"/>
<text text-anchor="middle" x="73.5" y="-69" font-family="Helvetica,sans-Serif" font-size="10.00">ViennaRNA/energy_const.h</text>
</a>
</g>
</g>
<!-- Node1&#45;&gt;Node2 -->
<g id="edge2" class="edge"><title>Node1&#45;&gt;Node2</title>
<path fill="none" stroke="midnightblue" d="M498.717,-190.904C495.604,-190.596 492.523,-190.293 489.5,-190 445.415,-185.721 125.913,-183.075 92.5,-154 74.7177,-138.526 71.8436,-109.93 72.1234,-91.0602"/>
<polygon fill="midnightblue" stroke="midnightblue" points="75.6225,-91.1582 72.5818,-81.0091 68.6298,-90.8393 75.6225,-91.1582"/>
</g>
<!-- Node4 -->
<g id="node5" class="node"><title>Node4</title>
<g id="a_node5"><a xlink:href="model_8h.html" target="_top" xlink:title="The model details data structure and its corresponding modifiers. ">
<polygon fill="none" stroke="black" points="165,-62 165,-81 276,-81 276,-62 165,-62"/>
<text text-anchor="middle" x="220.5" y="-69" font-family="Helvetica,sans-Serif" font-size="10.00">ViennaRNA/model.h</text>
</a>
</g>
</g>
<!-- Node1&#45;&gt;Node4 -->
<g id="edge4" class="edge"><title>Node1&#45;&gt;Node4</title>
<path fill="none" stroke="midnightblue" d="M507.116,-190.497C418.787,-179.442 276.357,-160.751 266.5,-154 244.547,-138.964 231.857,-109.812 225.562,-90.7582"/>
<polygon fill="midnightblue" stroke="midnightblue" points="228.892,-89.6796 222.638,-81.1273 222.194,-91.7128 228.892,-89.6796"/>
</g>
<!-- Node5 -->
<g id="node6" class="node"><title>Node5</title>
<g id="a_node6"><a xlink:href="params_8h.html" target="_top" xlink:title="Functions to deal with sets of energy parameters. ">
<polygon fill="none" stroke="black" points="101.5,-129 101.5,-148 219.5,-148 219.5,-129 101.5,-129"/>
<text text-anchor="middle" x="160.5" y="-136" font-family="Helvetica,sans-Serif" font-size="10.00">ViennaRNA/params.h</text>
</a>
</g>
</g>
<!-- Node1&#45;&gt;Node5 -->
<g id="edge5" class="edge"><title>Node1&#45;&gt;Node5</title>
<path fill="none" stroke="midnightblue" d="M498.808,-191.085C427.186,-182.993 318.279,-169.448 224.5,-154 217.225,-152.802 209.566,-151.417 202.156,-149.989"/>
<polygon fill="midnightblue" stroke="midnightblue" points="202.754,-146.539 192.264,-148.028 201.392,-153.406 202.754,-146.539"/>
</g>
<!-- Node6 -->
<g id="node7" class="node"><title>Node6</title>
<g id="a_node7"><a xlink:href="dp__matrices_8h.html" target="_top" xlink:title="Functions to deal with standard dynamic programming (DP) matrices. ">
<polygon fill="none" stroke="black" points="275.5,-129 275.5,-148 415.5,-148 415.5,-129 275.5,-129"/>
<text text-anchor="middle" x="345.5" y="-136" font-family="Helvetica,sans-Serif" font-size="10.00">ViennaRNA/dp_matrices.h</text>
</a>
</g>
</g>
<!-- Node1&#45;&gt;Node6 -->
<g id="edge9" class="edge"><title>Node1&#45;&gt;Node6</title>
<path fill="none" stroke="midnightblue" d="M538.503,-190.475C495.565,-180.004 426.322,-162.212 383.421,-150.66"/>
<polygon fill="midnightblue" stroke="midnightblue" points="384.205,-147.246 373.638,-148.009 382.375,-154.003 384.205,-147.246"/>
</g>
<!-- Node7 -->
<g id="node8" class="node"><title>Node7</title>
<g id="a_node8"><a xlink:href="constraints_8h.html" target="_top" xlink:title="Functions and data structures for constraining secondary structure predictions and evaluation...">
<polygon fill="none" stroke="black" points="509.5,-129 509.5,-148 643.5,-148 643.5,-129 509.5,-129"/>
<text text-anchor="middle" x="576.5" y="-136" font-family="Helvetica,sans-Serif" font-size="10.00">ViennaRNA/constraints.h</text>
</a>
</g>
</g>
<!-- Node1&#45;&gt;Node7 -->
<g id="edge11" class="edge"><title>Node1&#45;&gt;Node7</title>
<path fill="none" stroke="midnightblue" d="M571.599,-190.475C569.768,-182.08 569.297,-168.981 570.185,-158.163"/>
<polygon fill="midnightblue" stroke="midnightblue" points="573.686,-158.397 571.603,-148.009 566.754,-157.429 573.686,-158.397"/>
</g>
<!-- Node13 -->
<g id="node14" class="node"><title>Node13</title>
<g id="a_node14"><a xlink:href="grammar_8h.html" target="_top" xlink:title="Implementations for the RNA folding grammar. ">
<polygon fill="none" stroke="black" points="662,-129 662,-148 787,-148 787,-129 662,-129"/>
<text text-anchor="middle" x="724.5" y="-136" font-family="Helvetica,sans-Serif" font-size="10.00">ViennaRNA/grammar.h</text>
</a>
</g>
</g>
<!-- Node1&#45;&gt;Node13 -->
<g id="edge23" class="edge"><title>Node1&#45;&gt;Node13</title>
<path fill="none" stroke="midnightblue" d="M592.804,-190.475C615.965,-180.269 658.435,-163.108 688.979,-151.549"/>
<polygon fill="midnightblue" stroke="midnightblue" points="690.299,-154.792 698.437,-148.009 687.845,-148.237 690.299,-154.792"/>
</g>
<!-- Node14 -->
<g id="node15" class="node"><title>Node14</title>
<g id="a_node15"><a xlink:href="structured__domains_8h.html" target="_top" xlink:title="This module provides interfaces that deal with additional structured domains in the folding grammar...">
<polygon fill="none" stroke="black" points="805,-123.5 805,-153.5 926,-153.5 926,-123.5 805,-123.5"/>
<text text-anchor="start" x="813" y="-141.5" font-family="Helvetica,sans-Serif" font-size="10.00">ViennaRNA/structured</text>
<text text-anchor="middle" x="865.5" y="-130.5" font-family="Helvetica,sans-Serif" font-size="10.00">_domains.h</text>
</a>
</g>
</g>
<!-- Node1&#45;&gt;Node14 -->
<g id="edge25" class="edge"><title>Node1&#45;&gt;Node14</title>
<path fill="none" stroke="midnightblue" d="M618.08,-190.477C660.07,-181.865 727.075,-168.11 794.8,-154.143"/>
<polygon fill="midnightblue" stroke="midnightblue" points="795.708,-157.529 804.795,-152.081 794.294,-150.673 795.708,-157.529"/>
</g>
<!-- Node15 -->
<g id="node16" class="node"><title>Node15</title>
<g id="a_node16"><a xlink:href="unstructured__domains_8h.html" target="_top" xlink:title="Functions to modify unstructured domains, e.g. to incorporate ligands binding to unpaired stretches...">
<polygon fill="none" stroke="black" points="944.5,-123.5 944.5,-153.5 1076.5,-153.5 1076.5,-123.5 944.5,-123.5"/>
<text text-anchor="start" x="952.5" y="-141.5" font-family="Helvetica,sans-Serif" font-size="10.00">ViennaRNA/unstructured</text>
<text text-anchor="middle" x="1010.5" y="-130.5" font-family="Helvetica,sans-Serif" font-size="10.00">_domains.h</text>
</a>
</g>
</g>
<!-- Node1&#45;&gt;Node15 -->
<g id="edge26" class="edge"><title>Node1&#45;&gt;Node15</title>
<path fill="none" stroke="midnightblue" d="M648.946,-190.475C719.66,-182.331 830.06,-169.087 925.5,-154 928.361,-153.548 931.279,-153.069 934.23,-152.571"/>
<polygon fill="midnightblue" stroke="midnightblue" points="935.097,-155.973 944.353,-150.816 933.902,-149.076 935.097,-155.973"/>
</g>
<!-- Node3 -->
<g id="node4" class="node"><title>Node3</title>
<polygon fill="none" stroke="#bfbfbf" points="49.5,-0.5 49.5,-19.5 97.5,-19.5 97.5,-0.5 49.5,-0.5"/>
<text text-anchor="middle" x="73.5" y="-7.5" font-family="Helvetica,sans-Serif" font-size="10.00">limits.h</text>
</g>
<!-- Node2&#45;&gt;Node3 -->
<g id="edge3" class="edge"><title>Node2&#45;&gt;Node3</title>
<path fill="none" stroke="midnightblue" d="M73.5,-61.9751C73.5,-53.5803 73.5,-40.4806 73.5,-29.6631"/>
<polygon fill="midnightblue" stroke="midnightblue" points="77.0001,-29.5091 73.5,-19.5091 70.0001,-29.5091 77.0001,-29.5091"/>
</g>
<!-- Node5&#45;&gt;Node1 -->
<g id="edge7" class="edge"><title>Node5&#45;&gt;Node1</title>
<path fill="none" stroke="midnightblue" d="M209.651,-148.028C220.524,-150.12 231.918,-152.257 242.5,-154 329.446,-168.323 429.394,-181.009 497.189,-189.23"/>
<polygon fill="midnightblue" stroke="midnightblue" points="497.021,-192.735 507.369,-190.461 497.861,-185.786 497.021,-192.735"/>
</g>
<!-- Node5&#45;&gt;Node2 -->
<g id="edge6" class="edge"><title>Node5&#45;&gt;Node2</title>
<path fill="none" stroke="midnightblue" d="M148.767,-128.734C134.548,-118.111 110.373,-100.049 93.2614,-87.2642"/>
<polygon fill="midnightblue" stroke="midnightblue" points="95.1532,-84.3087 85.0473,-81.1273 90.9635,-89.9165 95.1532,-84.3087"/>
</g>
<!-- Node5&#45;&gt;Node4 -->
<g id="edge8" class="edge"><title>Node5&#45;&gt;Node4</title>
<path fill="none" stroke="midnightblue" d="M168.592,-128.734C178.038,-118.5 193.856,-101.364 205.553,-88.6924"/>
<polygon fill="midnightblue" stroke="midnightblue" points="208.325,-90.8494 212.536,-81.1273 203.182,-86.1014 208.325,-90.8494"/>
</g>
<!-- Node6&#45;&gt;Node1 -->
<g id="edge10" class="edge"><title>Node6&#45;&gt;Node1</title>
<path fill="none" stroke="midnightblue" d="M383.432,-148.009C426.344,-158.473 495.586,-176.264 538.514,-187.822"/>
<polygon fill="midnightblue" stroke="midnightblue" points="537.737,-191.238 548.304,-190.475 539.567,-184.482 537.737,-191.238"/>
</g>
<!-- Node7&#45;&gt;Node1 -->
<g id="edge12" class="edge"><title>Node7&#45;&gt;Node1</title>
<path fill="none" stroke="midnightblue" d="M581.397,-148.009C583.23,-156.398 583.703,-169.496 582.817,-180.317"/>
<polygon fill="midnightblue" stroke="midnightblue" points="579.315,-180.088 581.401,-190.475 586.248,-181.054 579.315,-180.088"/>
</g>
<!-- Node8 -->
<g id="node9" class="node"><title>Node8</title>
<g id="a_node9"><a xlink:href="constraints__hard_8h.html" target="_top" xlink:title="Functions and data structures for handling of secondary structure hard constraints. ">
<polygon fill="none" stroke="black" points="374.5,-56.5 374.5,-86.5 500.5,-86.5 500.5,-56.5 374.5,-56.5"/>
<text text-anchor="start" x="382.5" y="-74.5" font-family="Helvetica,sans-Serif" font-size="10.00">ViennaRNA/constraints</text>
<text text-anchor="middle" x="437.5" y="-63.5" font-family="Helvetica,sans-Serif" font-size="10.00">_hard.h</text>
</a>
</g>
</g>
<!-- Node7&#45;&gt;Node8 -->
<g id="edge13" class="edge"><title>Node7&#45;&gt;Node8</title>
<path fill="none" stroke="midnightblue" d="M558.042,-128.869C537.365,-119.199 503.255,-103.249 476.587,-90.778"/>
<polygon fill="midnightblue" stroke="midnightblue" points="478.04,-87.5936 467.498,-86.5281 475.074,-93.9346 478.04,-87.5936"/>
</g>
<!-- Node9 -->
<g id="node10" class="node"><title>Node9</title>
<g id="a_node10"><a xlink:href="constraints__soft_8h.html" target="_top" xlink:title="Functions and data structures for secondary structure soft constraints. ">
<polygon fill="none" stroke="black" points="518.5,-56.5 518.5,-86.5 644.5,-86.5 644.5,-56.5 518.5,-56.5"/>
<text text-anchor="start" x="526.5" y="-74.5" font-family="Helvetica,sans-Serif" font-size="10.00">ViennaRNA/constraints</text>
<text text-anchor="middle" x="581.5" y="-63.5" font-family="Helvetica,sans-Serif" font-size="10.00">_soft.h</text>
</a>
</g>
</g>
<!-- Node7&#45;&gt;Node9 -->
<g id="edge15" class="edge"><title>Node7&#45;&gt;Node9</title>
<path fill="none" stroke="midnightblue" d="M577.174,-128.734C577.805,-120.541 578.775,-107.923 579.637,-96.7136"/>
<polygon fill="midnightblue" stroke="midnightblue" points="583.139,-96.828 580.416,-86.589 576.159,-96.2911 583.139,-96.828"/>
</g>
<!-- Node10 -->
<g id="node11" class="node"><title>Node10</title>
<g id="a_node11"><a xlink:href="constraints__SHAPE_8h.html" target="_top" xlink:title="This module provides function to incorporate SHAPE reactivity data into the folding recursions by mea...">
<polygon fill="none" stroke="black" points="683.5,-56.5 683.5,-86.5 809.5,-86.5 809.5,-56.5 683.5,-56.5"/>
<text text-anchor="start" x="691.5" y="-74.5" font-family="Helvetica,sans-Serif" font-size="10.00">ViennaRNA/constraints</text>
<text text-anchor="middle" x="746.5" y="-63.5" font-family="Helvetica,sans-Serif" font-size="10.00">_SHAPE.h</text>
</a>
</g>
</g>
<!-- Node7&#45;&gt;Node10 -->
<g id="edge17" class="edge"><title>Node7&#45;&gt;Node10</title>
<path fill="none" stroke="midnightblue" d="M599.075,-128.869C624.805,-119.031 667.543,-102.689 700.397,-90.1277"/>
<polygon fill="midnightblue" stroke="midnightblue" points="701.721,-93.3687 709.811,-86.5281 699.221,-86.8303 701.721,-93.3687"/>
</g>
<!-- Node11 -->
<g id="node12" class="node"><title>Node11</title>
<g id="a_node12"><a xlink:href="perturbation__fold_8h.html" target="_top" xlink:title="Find a vector of perturbation energies that minimizes the discripancies between predicted and observe...">
<polygon fill="none" stroke="black" points="869,-56.5 869,-86.5 1000,-86.5 1000,-56.5 869,-56.5"/>
<text text-anchor="start" x="877" y="-74.5" font-family="Helvetica,sans-Serif" font-size="10.00">ViennaRNA/perturbation</text>
<text text-anchor="middle" x="934.5" y="-63.5" font-family="Helvetica,sans-Serif" font-size="10.00">_fold.h</text>
</a>
</g>
</g>
<!-- Node7&#45;&gt;Node11 -->
<g id="edge19" class="edge"><title>Node7&#45;&gt;Node11</title>
<path fill="none" stroke="midnightblue" d="M620.69,-128.981C631.118,-126.996 642.197,-124.905 652.5,-123 722.399,-110.074 802.144,-95.8409 858.955,-85.7891"/>
<polygon fill="midnightblue" stroke="midnightblue" points="859.695,-89.2126 868.933,-84.0249 858.477,-82.3195 859.695,-89.2126"/>
</g>
<!-- Node12 -->
<g id="node13" class="node"><title>Node12</title>
<g id="a_node13"><a xlink:href="constraints__ligand_8h.html" target="_top" xlink:title="Functions for incorporation of ligands binding to hairpin and interior loop motifs using the soft con...">
<polygon fill="none" stroke="black" points="1101.5,-56.5 1101.5,-86.5 1227.5,-86.5 1227.5,-56.5 1101.5,-56.5"/>
<text text-anchor="start" x="1109.5" y="-74.5" font-family="Helvetica,sans-Serif" font-size="10.00">ViennaRNA/constraints</text>
<text text-anchor="middle" x="1164.5" y="-63.5" font-family="Helvetica,sans-Serif" font-size="10.00">_ligand.h</text>
</a>
</g>
</g>
<!-- Node7&#45;&gt;Node12 -->
<g id="edge21" class="edge"><title>Node7&#45;&gt;Node12</title>
<path fill="none" stroke="midnightblue" d="M617.406,-128.994C628.738,-126.829 641.067,-124.651 652.5,-123 694.825,-116.888 960.359,-91.6589 1091.45,-79.3358"/>
<polygon fill="midnightblue" stroke="midnightblue" points="1091.79,-82.8197 1101.42,-78.3996 1091.14,-75.8504 1091.79,-82.8197"/>
</g>
<!-- Node8&#45;&gt;Node1 -->
<g id="edge14" class="edge"><title>Node8&#45;&gt;Node1</title>
<path fill="none" stroke="midnightblue" d="M444.139,-86.7337C452.927,-104.344 469.868,-134.395 491.5,-154 506.704,-167.778 526.896,-178.698 543.785,-186.328"/>
<polygon fill="midnightblue" stroke="midnightblue" points="542.717,-189.679 553.285,-190.437 545.497,-183.255 542.717,-189.679"/>
</g>
<!-- Node9&#45;&gt;Node1 -->
<g id="edge16" class="edge"><title>Node9&#45;&gt;Node1</title>
<path fill="none" stroke="midnightblue" d="M542.844,-86.629C526.733,-94.6606 509.667,-106.482 500.5,-123 493.814,-135.047 493.677,-142.03 500.5,-154 508.91,-168.753 524.265,-179.162 538.984,-186.226"/>
<polygon fill="midnightblue" stroke="midnightblue" points="537.921,-189.582 548.485,-190.397 540.735,-183.173 537.921,-189.582"/>
</g>
<!-- Node10&#45;&gt;Node1 -->
<g id="edge18" class="edge"><title>Node10&#45;&gt;Node1</title>
<path fill="none" stroke="midnightblue" d="M809.619,-80.8487C906.444,-93.8017 1081.01,-117.796 1085.5,-123 1094.5,-133.435 1094.8,-143.838 1085.5,-154 1057.69,-184.382 802.32,-194.365 664.218,-197.557"/>
<polygon fill="midnightblue" stroke="midnightblue" points="663.995,-194.061 654.076,-197.784 664.152,-201.059 663.995,-194.061"/>
</g>
<!-- Node11&#45;&gt;Node1 -->
<g id="edge20" class="edge"><title>Node11&#45;&gt;Node1</title>
<path fill="none" stroke="midnightblue" d="M1000.28,-81.6224C1061.8,-92.7502 1139.25,-115.071 1103.5,-154 1074.44,-185.643 806.266,-195.07 664.084,-197.852"/>
<polygon fill="midnightblue" stroke="midnightblue" points="664.002,-194.353 654.07,-198.041 664.134,-201.352 664.002,-194.353"/>
</g>
<!-- Node12&#45;&gt;Node1 -->
<g id="edge22" class="edge"><title>Node12&#45;&gt;Node1</title>
<path fill="none" stroke="midnightblue" d="M1161.66,-86.5248C1157.04,-105.385 1145.93,-138.358 1122.5,-154 1085.37,-178.785 809.04,-191.419 664.327,-196.395"/>
<polygon fill="midnightblue" stroke="midnightblue" points="664.016,-192.903 654.14,-196.74 664.253,-199.899 664.016,-192.903"/>
</g>
<!-- Node13&#45;&gt;Node1 -->
<g id="edge24" class="edge"><title>Node13&#45;&gt;Node1</title>
<path fill="none" stroke="midnightblue" d="M708.232,-148.009C685.091,-158.208 642.625,-175.368 612.068,-186.933"/>
<polygon fill="midnightblue" stroke="midnightblue" points="610.744,-183.691 602.605,-190.475 613.198,-190.247 610.744,-183.691"/>
</g>
<!-- Node15&#45;&gt;Node1 -->
<g id="edge27" class="edge"><title>Node15&#45;&gt;Node1</title>
<path fill="none" stroke="midnightblue" d="M946.303,-153.551C945.364,-153.704 944.429,-153.853 943.5,-154 848.654,-168.993 739.033,-182.166 664.406,-190.322"/>
<polygon fill="midnightblue" stroke="midnightblue" points="663.677,-186.88 654.113,-191.439 664.433,-193.84 663.677,-186.88"/>
</g>
<!-- Node16&#45;&gt;Node4 -->
<g id="edge29" class="edge"><title>Node16&#45;&gt;Node4</title>
<path fill="none" stroke="midnightblue" d="M376.942,-302.446C292.426,-288.087 155.397,-250.48 92.5,-154 69.5798,-118.842 124.756,-95.8798 169.706,-83.55"/>
<polygon fill="midnightblue" stroke="midnightblue" points="170.615,-86.9299 179.4,-81.007 168.839,-80.159 170.615,-86.9299"/>
</g>
<!-- Node17 -->
<g id="node18" class="node"><title>Node17</title>
<g id="a_node18"><a xlink:href="plot__layouts_8h.html" target="_top" xlink:title="Secondary structure plot layout algorithms. ">
<polygon fill="none" stroke="black" points="379,-246.5 379,-265.5 518,-265.5 518,-246.5 379,-246.5"/>
<text text-anchor="middle" x="448.5" y="-253.5" font-family="Helvetica,sans-Serif" font-size="10.00">ViennaRNA/plot_layouts.h</text>
</a>
</g>
</g>
<!-- Node16&#45;&gt;Node17 -->
<g id="edge30" class="edge"><title>Node16&#45;&gt;Node17</title>
<path fill="none" stroke="midnightblue" d="M448.5,-302.083C448.5,-295.006 448.5,-284.861 448.5,-275.986"/>
<polygon fill="midnightblue" stroke="midnightblue" points="452,-275.751 448.5,-265.751 445,-275.751 452,-275.751"/>
</g>
<!-- Node17&#45;&gt;Node1 -->
<g id="edge31" class="edge"><title>Node17&#45;&gt;Node1</title>
<path fill="none" stroke="midnightblue" d="M468.782,-246.444C489.847,-237.557 523.017,-223.563 546.986,-213.451"/>
<polygon fill="midnightblue" stroke="midnightblue" points="548.46,-216.628 556.313,-209.516 545.739,-210.179 548.46,-216.628"/>
</g>
<!-- Node18 -->
<g id="node19" class="node"><title>Node18</title>
<g id="a_node19"><a xlink:href="naview_8h.html" target="_top" xlink:title="ViennaRNA/naview.h">
<polygon fill="none" stroke="black" points="364.5,-190.5 364.5,-209.5 480.5,-209.5 480.5,-190.5 364.5,-190.5"/>
<text text-anchor="middle" x="422.5" y="-197.5" font-family="Helvetica,sans-Serif" font-size="10.00">ViennaRNA/naview.h</text>
</a>
</g>
</g>
<!-- Node17&#45;&gt;Node18 -->
<g id="edge32" class="edge"><title>Node17&#45;&gt;Node18</title>
<path fill="none" stroke="midnightblue" d="M444.207,-246.083C440.648,-238.691 435.478,-227.953 431.076,-218.811"/>
<polygon fill="midnightblue" stroke="midnightblue" points="434.205,-217.243 426.713,-209.751 427.898,-220.279 434.205,-217.243"/>
</g>
</g>
</svg>
        <g id="navigator" transform="translate(0 0)" fill="#404254">
                <rect fill="#f2f5e9" fill-opacity="0.5" stroke="#606060" stroke-width=".5" x="0" y="0" width="60" height="60"/>
                <use id="zoomplus" xlink:href="#zoomPlus" x="17" y="9" onmousedown="handleZoom(evt,'in')"/>
                <use id="zoomminus" xlink:href="#zoomMin" x="42" y="9" onmousedown="handleZoom(evt,'out')"/>
                <use id="reset" xlink:href="#resetDef" x="30" y="36" onmousedown="handleReset()"/>
                <g id="arrowUp" xlink:href="#dirArrow" transform="translate(30 24)" onmousedown="handlePan(0,-1)">
                  <use xlink:href="#rim" fill="#404040">
                        <set attributeName="fill" to="#808080" begin="arrowUp.mouseover" end="arrowUp.mouseout"/>
                  </use>
                  <path fill="none" stroke="white" stroke-width="1.5" d="M0,-3.0v7 M-2.5,-0.5L0,-3.0L2.5,-0.5"/>
                </g>
                <g id="arrowRight" xlink:href="#dirArrow" transform="rotate(90) translate(36 -43)" onmousedown="handlePan(1,0)">
                  <use xlink:href="#rim" fill="#404040">
                        <set attributeName="fill" to="#808080" begin="arrowRight.mouseover" end="arrowRight.mouseout"/>
                  </use>
                  <path fill="none" stroke="white" stroke-width="1.5" d="M0,-3.0v7 M-2.5,-0.5L0,-3.0L2.5,-0.5"/>
                </g>
                <g id="arrowDown" xlink:href="#dirArrow" transform="rotate(180) translate(-30 -48)" onmousedown="handlePan(0,1)">
                  <use xlink:href="#rim" fill="#404040">
                        <set attributeName="fill" to="#808080" begin="arrowDown.mouseover" end="arrowDown.mouseout"/>
                  </use>
                  <path fill="none" stroke="white" stroke-width="1.5" d="M0,-3.0v7 M-2.5,-0.5L0,-3.0L2.5,-0.5"/>
                </g>
                <g id="arrowLeft" xlink:href="#dirArrow" transform="rotate(270) translate(-36 17)" onmousedown="handlePan(-1,0)">
                  <use xlink:href="#rim" fill="#404040">
                        <set attributeName="fill" to="#808080" begin="arrowLeft.mouseover" end="arrowLeft.mouseout"/>
                  </use>
                  <path fill="none" stroke="white" stroke-width="1.5" d="M0,-3.0v7 M-2.5,-0.5L0,-3.0L2.5,-0.5"/>
                </g>
        </g>
        <svg viewBox="0 0 15 15" width="100%" height="30px" preserveAspectRatio="xMaxYMin meet">
         <g id="arrow_out" transform="scale(0.3 0.3)">
          <a xlink:href="PS__dot_8h__incl_org.svg" target="_base">
           <rect id="button" ry="5" rx="5" y="6" x="6" height="38" width="38"
                fill="#f2f5e9" fill-opacity="0.5" stroke="#606060" stroke-width="1.0"/>
           <path id="arrow"
             d="M 11.500037,31.436501 C 11.940474,20.09759 22.043105,11.32322 32.158766,21.979434 L 37.068811,17.246167 C 37.068811,17.246167 37.088388,32 37.088388,32 L 22.160133,31.978069 C 22.160133,31.978069 26.997745,27.140456 26.997745,27.140456 C 18.528582,18.264221 13.291696,25.230495 11.500037,31.436501 z"
             style="fill:#404040;"/>
          </a>
         </g>
        </svg>
</svg>
