<?xml version="1.0" encoding="UTF-8" standalone="no"?>
<!DOCTYPE svg PUBLIC "-//W3C//DTD SVG 1.1//EN"
 "http://www.w3.org/Graphics/SVG/1.1/DTD/svg11.dtd">
<!-- Generated by graphviz version 2.38.0 (20140413.2041)
 -->
<!-- Title: vrna_dotplot_auxdata_t Pages: 1 -->
<svg width="136pt" height="195pt"
 viewBox="0.00 0.00 136.00 195.00" xmlns="http://www.w3.org/2000/svg" xmlns:xlink="http://www.w3.org/1999/xlink">
<g id="graph0" class="graph" transform="scale(1 1) rotate(0) translate(4 191)">
<title>vrna_dotplot_auxdata_t</title>
<!-- Node1 -->
<g id="node1" class="node"><title>Node1</title>
<polygon fill="#bfbfbf" stroke="black" points="0,-0.5 0,-19.5 128,-19.5 128,-0.5 0,-0.5"/>
<text text-anchor="middle" x="64" y="-7.5" font-family="Helvetica,sans-Serif" font-size="10.00">vrna_dotplot_auxdata_t</text>
</g>
<!-- Node2 -->
<g id="node2" class="node"><title>Node2</title>
<g id="a_node2"><a xlink:href="group__data__structures.html#structvrna__data__linear__s" target="_top" xlink:title="vrna_data_linear_s">
<polygon fill="none" stroke="black" points="10,-100.5 10,-119.5 118,-119.5 118,-100.5 10,-100.5"/>
<text text-anchor="middle" x="64" y="-107.5" font-family="Helvetica,sans-Serif" font-size="10.00">vrna_data_linear_s</text>
</a>
</g>
</g>
<!-- Node2&#45;&gt;Node1 -->
<g id="edge1" class="edge"><title>Node2&#45;&gt;Node1</title>
<path fill="none" stroke="#9a32cd" stroke-dasharray="5,2" d="M64,-90.2203C64,-68.9514 64,-35.2197 64,-19.5374"/>
<polygon fill="#9a32cd" stroke="#9a32cd" points="60.5001,-90.3031 64,-100.303 67.5001,-90.3032 60.5001,-90.3031"/>
<text text-anchor="middle" x="80" y="-74" font-family="Helvetica,sans-Serif" font-size="10.00"> right</text>
<text text-anchor="middle" x="80" y="-63" font-family="Helvetica,sans-Serif" font-size="10.00">left</text>
<text text-anchor="middle" x="80" y="-52" font-family="Helvetica,sans-Serif" font-size="10.00">bottom</text>
<text text-anchor="middle" x="80" y="-41" font-family="Helvetica,sans-Serif" font-size="10.00">top</text>
</g>
<!-- Node3 -->
<g id="node3" class="node"><title>Node3</title>
<g id="a_node3"><a xlink:href="group__data__structures.html#structvrna__color__s" target="_top" xlink:title="vrna_color_s">
<polygon fill="none" stroke="black" points="25,-167.5 25,-186.5 103,-186.5 103,-167.5 25,-167.5"/>
<text text-anchor="middle" x="64" y="-174.5" font-family="Helvetica,sans-Serif" font-size="10.00">vrna_color_s</text>
</a>
</g>
</g>
<!-- Node3&#45;&gt;Node2 -->
<g id="edge2" class="edge"><title>Node3&#45;&gt;Node2</title>
<path fill="none" stroke="#9a32cd" stroke-dasharray="5,2" d="M64,-157.037C64,-144.67 64,-129.12 64,-119.627"/>
<polygon fill="#9a32cd" stroke="#9a32cd" points="60.5001,-157.234 64,-167.234 67.5001,-157.234 60.5001,-157.234"/>
<text text-anchor="middle" x="77.5" y="-141" font-family="Helvetica,sans-Serif" font-size="10.00"> color</text>
</g>
</g>
</svg>
