<?xml version="1.0" encoding="UTF-8" standalone="no"?>
<!DOCTYPE svg PUBLIC "-//W3C//DTD SVG 1.1//EN"
 "http://www.w3.org/Graphics/SVG/1.1/DTD/svg11.dtd">
<!-- Generated by graphviz version 2.38.0 (20140413.2041)
 -->
<!-- Title: ViennaRNA/structure_utils.h Pages: 1 -->
<svg width="568pt" height="218pt"
 viewBox="0.00 0.00 568.00 218.00" xmlns="http://www.w3.org/2000/svg" xmlns:xlink="http://www.w3.org/1999/xlink">
<g id="graph0" class="graph" transform="scale(1 1) rotate(0) translate(4 214)">
<title>ViennaRNA/structure_utils.h</title>
<!-- Node17 -->
<g id="node1" class="node"><title>Node17</title>
<polygon fill="#bfbfbf" stroke="black" points="228.5,-179.5 228.5,-209.5 343.5,-209.5 343.5,-179.5 228.5,-179.5"/>
<text text-anchor="start" x="236.5" y="-197.5" font-family="Helvetica,sans-Serif" font-size="10.00">ViennaRNA/structure</text>
<text text-anchor="middle" x="286" y="-186.5" font-family="Helvetica,sans-Serif" font-size="10.00">_utils.h</text>
</g>
<!-- Node18 -->
<g id="node2" class="node"><title>Node18</title>
<g id="a_node2"><a xlink:href="utils_8h.html" target="_top" xlink:title="General utility&#45; and helper&#45;functions used throughout the ViennaRNA Package. ">
<polygon fill="none" stroke="black" points="235.5,-123.5 235.5,-142.5 336.5,-142.5 336.5,-123.5 235.5,-123.5"/>
<text text-anchor="middle" x="286" y="-130.5" font-family="Helvetica,sans-Serif" font-size="10.00">ViennaRNA/utils.h</text>
</a>
</g>
</g>
<!-- Node17&#45;&gt;Node18 -->
<g id="edge1" class="edge"><title>Node17&#45;&gt;Node18</title>
<path fill="none" stroke="midnightblue" d="M286,-169.289C286,-159.857 286,-149.655 286,-142.658"/>
<polygon fill="midnightblue" stroke="midnightblue" points="282.5,-169.399 286,-179.399 289.5,-169.399 282.5,-169.399"/>
</g>
<!-- Node19 -->
<g id="node3" class="node"><title>Node19</title>
<g id="a_node3"><a xlink:href="hairpin__loops_8h.html" target="_top" xlink:title="Energy evaluation of hairpin loops for MFE and partition function calculations. ">
<polygon fill="none" stroke="black" points="0,-62 0,-81 146,-81 146,-62 0,-62"/>
<text text-anchor="middle" x="73" y="-69" font-family="Helvetica,sans-Serif" font-size="10.00">ViennaRNA/hairpin_loops.h</text>
</a>
</g>
</g>
<!-- Node18&#45;&gt;Node19 -->
<g id="edge2" class="edge"><title>Node18&#45;&gt;Node19</title>
<path fill="none" stroke="midnightblue" d="M245.724,-120.749C204.342,-109.189 140.842,-91.4511 103.461,-81.0091"/>
<polygon fill="midnightblue" stroke="midnightblue" points="244.909,-124.156 255.482,-123.475 246.793,-117.414 244.909,-124.156"/>
</g>
<!-- Node21 -->
<g id="node5" class="node"><title>Node21</title>
<g id="a_node5"><a xlink:href="interior__loops_8h.html" target="_top" xlink:title="Energy evaluation of interior loops for MFE and partition function calculations. ">
<polygon fill="none" stroke="black" points="164.5,-56.5 164.5,-86.5 271.5,-86.5 271.5,-56.5 164.5,-56.5"/>
<text text-anchor="start" x="172.5" y="-74.5" font-family="Helvetica,sans-Serif" font-size="10.00">ViennaRNA/interior</text>
<text text-anchor="middle" x="218" y="-63.5" font-family="Helvetica,sans-Serif" font-size="10.00">_loops.h</text>
</a>
</g>
</g>
<!-- Node18&#45;&gt;Node21 -->
<g id="edge4" class="edge"><title>Node18&#45;&gt;Node21</title>
<path fill="none" stroke="midnightblue" d="M268.453,-116.646C257.824,-107.346 244.368,-95.572 234.026,-86.523"/>
<polygon fill="midnightblue" stroke="midnightblue" points="266.427,-119.524 276.257,-123.475 271.036,-114.256 266.427,-119.524"/>
</g>
<!-- Node22 -->
<g id="node6" class="node"><title>Node22</title>
<g id="a_node6"><a xlink:href="multibranch__loops_8h.html" target="_top" xlink:title="Energy evaluation of multibranch loops for MFE and partition function calculations. ">
<polygon fill="none" stroke="black" points="290,-56.5 290,-86.5 418,-86.5 418,-56.5 290,-56.5"/>
<text text-anchor="start" x="298" y="-74.5" font-family="Helvetica,sans-Serif" font-size="10.00">ViennaRNA/multibranch</text>
<text text-anchor="middle" x="354" y="-63.5" font-family="Helvetica,sans-Serif" font-size="10.00">_loops.h</text>
</a>
</g>
</g>
<!-- Node18&#45;&gt;Node22 -->
<g id="edge6" class="edge"><title>Node18&#45;&gt;Node22</title>
<path fill="none" stroke="midnightblue" d="M303.547,-116.646C314.176,-107.346 327.632,-95.572 337.974,-86.523"/>
<polygon fill="midnightblue" stroke="midnightblue" points="300.964,-114.256 295.743,-123.475 305.573,-119.524 300.964,-114.256"/>
</g>
<!-- Node23 -->
<g id="node7" class="node"><title>Node23</title>
<g id="a_node7"><a xlink:href="pair__mat_8h_source.html" target="_top" xlink:title="ViennaRNA/pair_mat.h">
<polygon fill="none" stroke="black" points="436,-62 436,-81 560,-81 560,-62 436,-62"/>
<text text-anchor="middle" x="498" y="-69" font-family="Helvetica,sans-Serif" font-size="10.00">ViennaRNA/pair_mat.h</text>
</a>
</g>
</g>
<!-- Node18&#45;&gt;Node23 -->
<g id="edge8" class="edge"><title>Node18&#45;&gt;Node23</title>
<path fill="none" stroke="midnightblue" d="M326.087,-120.749C367.275,-109.189 430.477,-91.4511 467.682,-81.0091"/>
<polygon fill="midnightblue" stroke="midnightblue" points="325.057,-117.403 316.374,-123.475 326.948,-124.143 325.057,-117.403"/>
</g>
<!-- Node20 -->
<g id="node4" class="node"><title>Node20</title>
<g id="a_node4"><a xlink:href="loop__energies_8h.html" target="_top" xlink:title="Energy evaluation for MFE and partition function calculations. ">
<polygon fill="none" stroke="black" points="143,-0.5 143,-19.5 293,-19.5 293,-0.5 143,-0.5"/>
<text text-anchor="middle" x="218" y="-7.5" font-family="Helvetica,sans-Serif" font-size="10.00">ViennaRNA/loop_energies.h</text>
</a>
</g>
</g>
<!-- Node19&#45;&gt;Node20 -->
<g id="edge3" class="edge"><title>Node19&#45;&gt;Node20</title>
<path fill="none" stroke="midnightblue" d="M103.142,-58.1313C131.313,-46.5717 172.624,-29.62 197.264,-19.5091"/>
<polygon fill="midnightblue" stroke="midnightblue" points="101.698,-54.9408 93.775,-61.9751 104.355,-61.4168 101.698,-54.9408"/>
</g>
<!-- Node21&#45;&gt;Node20 -->
<g id="edge5" class="edge"><title>Node21&#45;&gt;Node20</title>
<path fill="none" stroke="midnightblue" d="M218,-46.2892C218,-36.857 218,-26.6548 218,-19.6578"/>
<polygon fill="midnightblue" stroke="midnightblue" points="214.5,-46.3993 218,-56.3993 221.5,-46.3994 214.5,-46.3993"/>
</g>
<!-- Node22&#45;&gt;Node20 -->
<g id="edge7" class="edge"><title>Node22&#45;&gt;Node20</title>
<path fill="none" stroke="midnightblue" d="M312.564,-52.3718C287.738,-41.5105 257.308,-28.1972 237.789,-19.6578"/>
<polygon fill="midnightblue" stroke="midnightblue" points="311.205,-55.5976 321.77,-56.3993 314.011,-49.1845 311.205,-55.5976"/>
</g>
</g>
</svg>
