<?xml version="1.0" encoding="UTF-8" standalone="no"?>
<!DOCTYPE svg PUBLIC "-//W3C//DTD SVG 1.1//EN"
 "http://www.w3.org/Graphics/SVG/1.1/DTD/svg11.dtd">
<!-- Generated by graphviz version 2.38.0 (20140413.2041)
 -->
<!-- Title: ViennaRNA/unstructured_domains.h Pages: 1 -->
<!--zoomable 285 -->
<svg id="main" version="1.1" xmlns="http://www.w3.org/2000/svg" xmlns:xlink="http://www.w3.org/1999/xlink" xml:space="preserve" onload="init(evt)">
<style type="text/css"><![CDATA[
.edge:hover path { stroke: red; }
.edge:hover polygon { stroke: red; fill: red; }
]]></style>
<script type="text/javascript"><![CDATA[
var edges = document.getElementsByTagName('g');
if (edges && edges.length) {
  for (var i=0;i<edges.length;i++) {
    if (edges[i].id.substr(0,4)=='edge') {
      edges[i].setAttribute('class','edge');
    }
  }
}
]]></script>
        <defs>
                <circle id="rim" cx="0" cy="0" r="7"/>
                <circle id="rim2" cx="0" cy="0" r="3.5"/>
                <g id="zoomPlus">
                        <use xlink:href="#rim" fill="#404040">
                                <set attributeName="fill" to="#808080" begin="zoomplus.mouseover" end="zoomplus.mouseout"/>
                        </use>
                        <path d="M-4,0h8M0,-4v8" fill="none" stroke="white" stroke-width="1.5" pointer-events="none"/>
                </g>
                <g id="zoomMin">
                        <use xlink:href="#rim" fill="#404040">
                                <set attributeName="fill" to="#808080" begin="zoomminus.mouseover" end="zoomminus.mouseout"/>
                        </use>
                        <path d="M-4,0h8" fill="none" stroke="white" stroke-width="1.5" pointer-events="none"/>
                </g>
                <g id="dirArrow">
                        <path fill="none" stroke="white" stroke-width="1.5" d="M0,-3.0v7 M-2.5,-0.5L0,-3.0L2.5,-0.5"/>
                </g>
               <g id="resetDef">
                       <use xlink:href="#rim2" fill="#404040">
                               <set attributeName="fill" to="#808080" begin="reset.mouseover" end="reset.mouseout"/>
                       </use>
               </g>
        </defs>

<script type="text/javascript">
var viewWidth = 1063;
var viewHeight = 285;
var sectionId = 'dynsection-0';
</script>
<script xlink:href="svgpan.js"/>
<svg id="graph" class="graph">
<g id="viewport">
<title>ViennaRNA/unstructured_domains.h</title>
<!-- Node0 -->
<g id="node1" class="node"><title>Node0</title>
<polygon fill="#bfbfbf" stroke="black" points="477.5,-246.5 477.5,-276.5 609.5,-276.5 609.5,-246.5 477.5,-246.5"/>
<text text-anchor="start" x="485.5" y="-264.5" font-family="Helvetica,sans-Serif" font-size="10.00">ViennaRNA/unstructured</text>
<text text-anchor="middle" x="543.5" y="-253.5" font-family="Helvetica,sans-Serif" font-size="10.00">_domains.h</text>
</g>
<!-- Node1 -->
<g id="node2" class="node"><title>Node1</title>
<g id="a_node2"><a xlink:href="data__structures_8h.html" target="_top" xlink:title="Various data structures and pre&#45;processor macros. ">
<polygon fill="none" stroke="black" points="466,-190.5 466,-209.5 621,-209.5 621,-190.5 466,-190.5"/>
<text text-anchor="middle" x="543.5" y="-197.5" font-family="Helvetica,sans-Serif" font-size="10.00">ViennaRNA/data_structures.h</text>
</a>
</g>
</g>
<!-- Node0&#45;&gt;Node1 -->
<g id="edge1" class="edge"><title>Node0&#45;&gt;Node1</title>
<path fill="none" stroke="midnightblue" d="M537.66,-246.399C536.63,-238.377 536.474,-228.233 537.193,-219.569"/>
<polygon fill="midnightblue" stroke="midnightblue" points="540.66,-220.044 538.571,-209.658 533.727,-219.081 540.66,-220.044"/>
</g>
<!-- Node1&#45;&gt;Node0 -->
<g id="edge26" class="edge"><title>Node1&#45;&gt;Node0</title>
<path fill="none" stroke="midnightblue" d="M548.429,-209.658C549.935,-216.655 550.507,-226.857 550.145,-236.289"/>
<polygon fill="midnightblue" stroke="midnightblue" points="546.645,-236.153 549.34,-246.399 553.623,-236.709 546.645,-236.153"/>
</g>
<!-- Node2 -->
<g id="node3" class="node"><title>Node2</title>
<g id="a_node3"><a xlink:href="energy__const_8h.html" target="_top" xlink:title="Energy parameter constants. ">
<polygon fill="none" stroke="black" points="0,-62 0,-81 147,-81 147,-62 0,-62"/>
<text text-anchor="middle" x="73.5" y="-69" font-family="Helvetica,sans-Serif" font-size="10.00">ViennaRNA/energy_const.h</text>
</a>
</g>
</g>
<!-- Node1&#45;&gt;Node2 -->
<g id="edge2" class="edge"><title>Node1&#45;&gt;Node2</title>
<path fill="none" stroke="midnightblue" d="M465.622,-195.253C347.963,-188.955 135.555,-174.854 107.5,-154 87.443,-139.091 79.1433,-110.125 75.76,-91.0476"/>
<polygon fill="midnightblue" stroke="midnightblue" points="79.2193,-90.5145 74.2845,-81.1391 72.2957,-91.5456 79.2193,-90.5145"/>
</g>
<!-- Node4 -->
<g id="node5" class="node"><title>Node4</title>
<g id="a_node5"><a xlink:href="model_8h.html" target="_top" xlink:title="The model details data structure and its corresponding modifiers. ">
<polygon fill="none" stroke="black" points="165,-62 165,-81 276,-81 276,-62 165,-62"/>
<text text-anchor="middle" x="220.5" y="-69" font-family="Helvetica,sans-Serif" font-size="10.00">ViennaRNA/model.h</text>
</a>
</g>
</g>
<!-- Node1&#45;&gt;Node4 -->
<g id="edge4" class="edge"><title>Node1&#45;&gt;Node4</title>
<path fill="none" stroke="midnightblue" d="M465.98,-192.062C400.179,-185.026 311.762,-172.52 281.5,-154 256.583,-138.751 238.412,-109.217 228.663,-90.2017"/>
<polygon fill="midnightblue" stroke="midnightblue" points="231.76,-88.5681 224.233,-81.1127 225.468,-91.6353 231.76,-88.5681"/>
</g>
<!-- Node5 -->
<g id="node6" class="node"><title>Node5</title>
<g id="a_node6"><a xlink:href="params_8h.html" target="_top" xlink:title="Functions to deal with sets of energy parameters. ">
<polygon fill="none" stroke="black" points="116.5,-129 116.5,-148 234.5,-148 234.5,-129 116.5,-129"/>
<text text-anchor="middle" x="175.5" y="-136" font-family="Helvetica,sans-Serif" font-size="10.00">ViennaRNA/params.h</text>
</a>
</g>
</g>
<!-- Node1&#45;&gt;Node5 -->
<g id="edge5" class="edge"><title>Node1&#45;&gt;Node5</title>
<path fill="none" stroke="midnightblue" d="M475.467,-190.486C413.599,-181.974 320.124,-168.149 239.5,-154 232.574,-152.784 225.293,-151.43 218.209,-150.052"/>
<polygon fill="midnightblue" stroke="midnightblue" points="218.524,-146.546 208.033,-148.027 217.158,-153.411 218.524,-146.546"/>
</g>
<!-- Node6 -->
<g id="node7" class="node"><title>Node6</title>
<g id="a_node7"><a xlink:href="dp__matrices_8h.html" target="_top" xlink:title="Functions to deal with standard dynamic programming (DP) matrices. ">
<polygon fill="none" stroke="black" points="290.5,-129 290.5,-148 430.5,-148 430.5,-129 290.5,-129"/>
<text text-anchor="middle" x="360.5" y="-136" font-family="Helvetica,sans-Serif" font-size="10.00">ViennaRNA/dp_matrices.h</text>
</a>
</g>
</g>
<!-- Node1&#45;&gt;Node6 -->
<g id="edge9" class="edge"><title>Node1&#45;&gt;Node6</title>
<path fill="none" stroke="midnightblue" d="M512.38,-190.475C478.617,-180.225 425.307,-162.959 391.572,-151.399"/>
<polygon fill="midnightblue" stroke="midnightblue" points="392.368,-147.972 381.774,-148.009 390.079,-154.587 392.368,-147.972"/>
</g>
<!-- Node7 -->
<g id="node8" class="node"><title>Node7</title>
<g id="a_node8"><a xlink:href="constraints_8h.html" target="_top" xlink:title="Functions and data structures for constraining secondary structure predictions and evaluation...">
<polygon fill="none" stroke="black" points="524.5,-129 524.5,-148 658.5,-148 658.5,-129 524.5,-129"/>
<text text-anchor="middle" x="591.5" y="-136" font-family="Helvetica,sans-Serif" font-size="10.00">ViennaRNA/constraints.h</text>
</a>
</g>
</g>
<!-- Node1&#45;&gt;Node7 -->
<g id="edge11" class="edge"><title>Node1&#45;&gt;Node7</title>
<path fill="none" stroke="midnightblue" d="M545.477,-190.475C550.834,-181.373 562.251,-166.741 572.545,-155.483"/>
<polygon fill="midnightblue" stroke="midnightblue" points="575.325,-157.641 579.738,-148.009 570.282,-152.787 575.325,-157.641"/>
</g>
<!-- Node13 -->
<g id="node14" class="node"><title>Node13</title>
<g id="a_node14"><a xlink:href="grammar_8h.html" target="_top" xlink:title="Implementations for the RNA folding grammar. ">
<polygon fill="none" stroke="black" points="791,-129 791,-148 916,-148 916,-129 791,-129"/>
<text text-anchor="middle" x="853.5" y="-136" font-family="Helvetica,sans-Serif" font-size="10.00">ViennaRNA/grammar.h</text>
</a>
</g>
</g>
<!-- Node1&#45;&gt;Node13 -->
<g id="edge23" class="edge"><title>Node1&#45;&gt;Node13</title>
<path fill="none" stroke="midnightblue" d="M583.015,-190.475C636.501,-179.761 732.133,-161.382 794.225,-149.866"/>
<polygon fill="midnightblue" stroke="midnightblue" points="795.073,-153.269 804.27,-148.009 793.8,-146.385 795.073,-153.269"/>
</g>
<!-- Node14 -->
<g id="node15" class="node"><title>Node14</title>
<g id="a_node15"><a xlink:href="structured__domains_8h.html" target="_top" xlink:title="This module provides interfaces that deal with additional structured domains in the folding grammar...">
<polygon fill="none" stroke="black" points="934,-123.5 934,-153.5 1055,-153.5 1055,-123.5 934,-123.5"/>
<text text-anchor="start" x="942" y="-141.5" font-family="Helvetica,sans-Serif" font-size="10.00">ViennaRNA/structured</text>
<text text-anchor="middle" x="994.5" y="-130.5" font-family="Helvetica,sans-Serif" font-size="10.00">_domains.h</text>
</a>
</g>
</g>
<!-- Node1&#45;&gt;Node14 -->
<g id="edge25" class="edge"><title>Node1&#45;&gt;Node14</title>
<path fill="none" stroke="midnightblue" d="M621.339,-191.899C696.467,-184.574 813.607,-171.915 924,-154.161"/>
<polygon fill="midnightblue" stroke="midnightblue" points="924.667,-157.599 933.976,-152.54 923.544,-150.69 924.667,-157.599"/>
</g>
<!-- Node3 -->
<g id="node4" class="node"><title>Node3</title>
<polygon fill="none" stroke="#bfbfbf" points="49.5,-0.5 49.5,-19.5 97.5,-19.5 97.5,-0.5 49.5,-0.5"/>
<text text-anchor="middle" x="73.5" y="-7.5" font-family="Helvetica,sans-Serif" font-size="10.00">limits.h</text>
</g>
<!-- Node2&#45;&gt;Node3 -->
<g id="edge3" class="edge"><title>Node2&#45;&gt;Node3</title>
<path fill="none" stroke="midnightblue" d="M73.5,-61.9751C73.5,-53.5803 73.5,-40.4806 73.5,-29.6631"/>
<polygon fill="midnightblue" stroke="midnightblue" points="77.0001,-29.5091 73.5,-19.5091 70.0001,-29.5091 77.0001,-29.5091"/>
</g>
<!-- Node5&#45;&gt;Node1 -->
<g id="edge7" class="edge"><title>Node5&#45;&gt;Node1</title>
<path fill="none" stroke="midnightblue" d="M225.463,-148.027C236.098,-150.075 247.191,-152.191 257.5,-154 333.557,-167.348 421.052,-180.407 479.106,-188.989"/>
<polygon fill="midnightblue" stroke="midnightblue" points="478.831,-192.487 489.235,-190.486 479.854,-185.562 478.831,-192.487"/>
</g>
<!-- Node5&#45;&gt;Node2 -->
<g id="edge6" class="edge"><title>Node5&#45;&gt;Node2</title>
<path fill="none" stroke="midnightblue" d="M161.744,-128.734C144.768,-117.916 115.686,-99.3832 95.5727,-86.5659"/>
<polygon fill="midnightblue" stroke="midnightblue" points="97.3524,-83.5498 87.0382,-81.1273 93.5905,-89.4531 97.3524,-83.5498"/>
</g>
<!-- Node5&#45;&gt;Node4 -->
<g id="edge8" class="edge"><title>Node5&#45;&gt;Node4</title>
<path fill="none" stroke="midnightblue" d="M181.569,-128.734C188.519,-118.695 200.067,-102.014 208.785,-89.4213"/>
<polygon fill="midnightblue" stroke="midnightblue" points="211.713,-91.3415 214.527,-81.1273 205.957,-87.357 211.713,-91.3415"/>
</g>
<!-- Node6&#45;&gt;Node1 -->
<g id="edge10" class="edge"><title>Node6&#45;&gt;Node1</title>
<path fill="none" stroke="midnightblue" d="M391.568,-148.009C425.31,-158.252 478.621,-175.517 512.376,-187.083"/>
<polygon fill="midnightblue" stroke="midnightblue" points="511.586,-190.513 522.181,-190.475 513.875,-183.898 511.586,-190.513"/>
</g>
<!-- Node7&#45;&gt;Node1 -->
<g id="edge12" class="edge"><title>Node7&#45;&gt;Node1</title>
<path fill="none" stroke="midnightblue" d="M589.533,-148.009C584.182,-157.104 572.768,-171.736 562.473,-182.997"/>
<polygon fill="midnightblue" stroke="midnightblue" points="559.69,-180.843 555.278,-190.475 564.734,-185.696 559.69,-180.843"/>
</g>
<!-- Node8 -->
<g id="node9" class="node"><title>Node8</title>
<g id="a_node9"><a xlink:href="constraints__hard_8h.html" target="_top" xlink:title="Functions and data structures for handling of secondary structure hard constraints. ">
<polygon fill="none" stroke="black" points="294.5,-56.5 294.5,-86.5 420.5,-86.5 420.5,-56.5 294.5,-56.5"/>
<text text-anchor="start" x="302.5" y="-74.5" font-family="Helvetica,sans-Serif" font-size="10.00">ViennaRNA/constraints</text>
<text text-anchor="middle" x="357.5" y="-63.5" font-family="Helvetica,sans-Serif" font-size="10.00">_hard.h</text>
</a>
</g>
</g>
<!-- Node7&#45;&gt;Node8 -->
<g id="edge13" class="edge"><title>Node7&#45;&gt;Node8</title>
<path fill="none" stroke="midnightblue" d="M560.427,-128.869C524.174,-118.798 463.392,-101.914 417.781,-89.2446"/>
<polygon fill="midnightblue" stroke="midnightblue" points="418.573,-85.8323 408.001,-86.5281 416.699,-92.5769 418.573,-85.8323"/>
</g>
<!-- Node9 -->
<g id="node10" class="node"><title>Node9</title>
<g id="a_node10"><a xlink:href="constraints__soft_8h.html" target="_top" xlink:title="Functions and data structures for secondary structure soft constraints. ">
<polygon fill="none" stroke="black" points="438.5,-56.5 438.5,-86.5 564.5,-86.5 564.5,-56.5 438.5,-56.5"/>
<text text-anchor="start" x="446.5" y="-74.5" font-family="Helvetica,sans-Serif" font-size="10.00">ViennaRNA/constraints</text>
<text text-anchor="middle" x="501.5" y="-63.5" font-family="Helvetica,sans-Serif" font-size="10.00">_soft.h</text>
</a>
</g>
</g>
<!-- Node7&#45;&gt;Node9 -->
<g id="edge15" class="edge"><title>Node7&#45;&gt;Node9</title>
<path fill="none" stroke="midnightblue" d="M579.362,-128.734C566.614,-119.527 546.13,-104.733 529.371,-92.6293"/>
<polygon fill="midnightblue" stroke="midnightblue" points="531.164,-89.6066 521.008,-86.589 527.065,-95.2813 531.164,-89.6066"/>
</g>
<!-- Node10 -->
<g id="node11" class="node"><title>Node10</title>
<g id="a_node11"><a xlink:href="constraints__SHAPE_8h.html" target="_top" xlink:title="This module provides function to incorporate SHAPE reactivity data into the folding recursions by mea...">
<polygon fill="none" stroke="black" points="582.5,-56.5 582.5,-86.5 708.5,-86.5 708.5,-56.5 582.5,-56.5"/>
<text text-anchor="start" x="590.5" y="-74.5" font-family="Helvetica,sans-Serif" font-size="10.00">ViennaRNA/constraints</text>
<text text-anchor="middle" x="645.5" y="-63.5" font-family="Helvetica,sans-Serif" font-size="10.00">_SHAPE.h</text>
</a>
</g>
</g>
<!-- Node7&#45;&gt;Node10 -->
<g id="edge17" class="edge"><title>Node7&#45;&gt;Node10</title>
<path fill="none" stroke="midnightblue" d="M598.783,-128.734C606.081,-119.949 617.604,-106.078 627.38,-94.3111"/>
<polygon fill="midnightblue" stroke="midnightblue" points="630.097,-96.5175 633.795,-86.589 624.713,-92.0444 630.097,-96.5175"/>
</g>
<!-- Node11 -->
<g id="node12" class="node"><title>Node11</title>
<g id="a_node12"><a xlink:href="perturbation__fold_8h.html" target="_top" xlink:title="Find a vector of perturbation energies that minimizes the discripancies between predicted and observe...">
<polygon fill="none" stroke="black" points="727,-56.5 727,-86.5 858,-86.5 858,-56.5 727,-56.5"/>
<text text-anchor="start" x="735" y="-74.5" font-family="Helvetica,sans-Serif" font-size="10.00">ViennaRNA/perturbation</text>
<text text-anchor="middle" x="792.5" y="-63.5" font-family="Helvetica,sans-Serif" font-size="10.00">_fold.h</text>
</a>
</g>
</g>
<!-- Node7&#45;&gt;Node11 -->
<g id="edge19" class="edge"><title>Node7&#45;&gt;Node11</title>
<path fill="none" stroke="midnightblue" d="M618.191,-128.869C649.005,-118.904 700.449,-102.268 739.484,-89.6444"/>
<polygon fill="midnightblue" stroke="midnightblue" points="740.683,-92.9353 749.121,-86.5281 738.529,-86.2749 740.683,-92.9353"/>
</g>
<!-- Node12 -->
<g id="node13" class="node"><title>Node12</title>
<g id="a_node13"><a xlink:href="constraints__ligand_8h.html" target="_top" xlink:title="Functions for incorporation of ligands binding to hairpin and interior loop motifs using the soft con...">
<polygon fill="none" stroke="black" points="876.5,-56.5 876.5,-86.5 1002.5,-86.5 1002.5,-56.5 876.5,-56.5"/>
<text text-anchor="start" x="884.5" y="-74.5" font-family="Helvetica,sans-Serif" font-size="10.00">ViennaRNA/constraints</text>
<text text-anchor="middle" x="939.5" y="-63.5" font-family="Helvetica,sans-Serif" font-size="10.00">_ligand.h</text>
</a>
</g>
</g>
<!-- Node7&#45;&gt;Node12 -->
<g id="edge21" class="edge"><title>Node7&#45;&gt;Node12</title>
<path fill="none" stroke="midnightblue" d="M639.415,-128.999C692.456,-119.529 780.754,-103.59 866.407,-87.1921"/>
<polygon fill="midnightblue" stroke="midnightblue" points="867.135,-90.6164 876.296,-85.2945 865.816,-83.7418 867.135,-90.6164"/>
</g>
<!-- Node8&#45;&gt;Node1 -->
<g id="edge14" class="edge"><title>Node8&#45;&gt;Node1</title>
<path fill="none" stroke="midnightblue" d="M381.498,-86.5963C398.016,-96.4643 420.348,-110.134 439.5,-123 469.874,-143.405 503.907,-168.774 524.513,-184.425"/>
<polygon fill="midnightblue" stroke="midnightblue" points="522.398,-187.214 532.472,-190.495 526.643,-181.648 522.398,-187.214"/>
</g>
<!-- Node9&#45;&gt;Node1 -->
<g id="edge16" class="edge"><title>Node9&#45;&gt;Node1</title>
<path fill="none" stroke="midnightblue" d="M502.287,-86.7785C503.577,-103.402 506.928,-131.456 515.5,-154 519.254,-163.873 525.272,-173.94 530.768,-182.042"/>
<polygon fill="midnightblue" stroke="midnightblue" points="527.953,-184.123 536.603,-190.24 533.655,-180.063 527.953,-184.123"/>
</g>
<!-- Node10&#45;&gt;Node1 -->
<g id="edge18" class="edge"><title>Node10&#45;&gt;Node1</title>
<path fill="none" stroke="midnightblue" d="M655.923,-86.7009C667.236,-104.008 681.884,-133.478 667.5,-154 656.087,-170.284 638.15,-180.698 619.429,-187.352"/>
<polygon fill="midnightblue" stroke="midnightblue" points="618.351,-184.022 609.9,-190.412 620.492,-190.686 618.351,-184.022"/>
</g>
<!-- Node11&#45;&gt;Node1 -->
<g id="edge20" class="edge"><title>Node11&#45;&gt;Node1</title>
<path fill="none" stroke="midnightblue" d="M777.184,-86.7546C757.222,-104.666 720.588,-135.318 684.5,-154 655.234,-169.15 619.904,-180.415 591.93,-187.884"/>
<polygon fill="midnightblue" stroke="midnightblue" points="590.782,-184.566 581.981,-190.465 592.54,-191.342 590.782,-184.566"/>
</g>
<!-- Node12&#45;&gt;Node1 -->
<g id="edge22" class="edge"><title>Node12&#45;&gt;Node1</title>
<path fill="none" stroke="midnightblue" d="M888.531,-86.5624C857.433,-95.7132 817.134,-108.599 782.5,-123 754.785,-134.524 750.575,-143.382 722.5,-154 682.537,-169.115 635.643,-180.692 599.88,-188.317"/>
<polygon fill="midnightblue" stroke="midnightblue" points="598.704,-184.987 589.632,-190.459 600.137,-191.839 598.704,-184.987"/>
</g>
<!-- Node13&#45;&gt;Node1 -->
<g id="edge24" class="edge"><title>Node13&#45;&gt;Node1</title>
<path fill="none" stroke="midnightblue" d="M814.064,-148.009C760.619,-158.716 664.992,-177.094 602.867,-188.617"/>
<polygon fill="midnightblue" stroke="midnightblue" points="602.013,-185.215 592.816,-190.475 603.286,-192.099 602.013,-185.215"/>
</g>
</g>
</svg>
        <g id="navigator" transform="translate(0 0)" fill="#404254">
                <rect fill="#f2f5e9" fill-opacity="0.5" stroke="#606060" stroke-width=".5" x="0" y="0" width="60" height="60"/>
                <use id="zoomplus" xlink:href="#zoomPlus" x="17" y="9" onmousedown="handleZoom(evt,'in')"/>
                <use id="zoomminus" xlink:href="#zoomMin" x="42" y="9" onmousedown="handleZoom(evt,'out')"/>
                <use id="reset" xlink:href="#resetDef" x="30" y="36" onmousedown="handleReset()"/>
                <g id="arrowUp" xlink:href="#dirArrow" transform="translate(30 24)" onmousedown="handlePan(0,-1)">
                  <use xlink:href="#rim" fill="#404040">
                        <set attributeName="fill" to="#808080" begin="arrowUp.mouseover" end="arrowUp.mouseout"/>
                  </use>
                  <path fill="none" stroke="white" stroke-width="1.5" d="M0,-3.0v7 M-2.5,-0.5L0,-3.0L2.5,-0.5"/>
                </g>
                <g id="arrowRight" xlink:href="#dirArrow" transform="rotate(90) translate(36 -43)" onmousedown="handlePan(1,0)">
                  <use xlink:href="#rim" fill="#404040">
                        <set attributeName="fill" to="#808080" begin="arrowRight.mouseover" end="arrowRight.mouseout"/>
                  </use>
                  <path fill="none" stroke="white" stroke-width="1.5" d="M0,-3.0v7 M-2.5,-0.5L0,-3.0L2.5,-0.5"/>
                </g>
                <g id="arrowDown" xlink:href="#dirArrow" transform="rotate(180) translate(-30 -48)" onmousedown="handlePan(0,1)">
                  <use xlink:href="#rim" fill="#404040">
                        <set attributeName="fill" to="#808080" begin="arrowDown.mouseover" end="arrowDown.mouseout"/>
                  </use>
                  <path fill="none" stroke="white" stroke-width="1.5" d="M0,-3.0v7 M-2.5,-0.5L0,-3.0L2.5,-0.5"/>
                </g>
                <g id="arrowLeft" xlink:href="#dirArrow" transform="rotate(270) translate(-36 17)" onmousedown="handlePan(-1,0)">
                  <use xlink:href="#rim" fill="#404040">
                        <set attributeName="fill" to="#808080" begin="arrowLeft.mouseover" end="arrowLeft.mouseout"/>
                  </use>
                  <path fill="none" stroke="white" stroke-width="1.5" d="M0,-3.0v7 M-2.5,-0.5L0,-3.0L2.5,-0.5"/>
                </g>
        </g>
        <svg viewBox="0 0 15 15" width="100%" height="30px" preserveAspectRatio="xMaxYMin meet">
         <g id="arrow_out" transform="scale(0.3 0.3)">
          <a xlink:href="unstructured__domains_8h__incl_org.svg" target="_base">
           <rect id="button" ry="5" rx="5" y="6" x="6" height="38" width="38"
                fill="#f2f5e9" fill-opacity="0.5" stroke="#606060" stroke-width="1.0"/>
           <path id="arrow"
             d="M 11.500037,31.436501 C 11.940474,20.09759 22.043105,11.32322 32.158766,21.979434 L 37.068811,17.246167 C 37.068811,17.246167 37.088388,32 37.088388,32 L 22.160133,31.978069 C 22.160133,31.978069 26.997745,27.140456 26.997745,27.140456 C 18.528582,18.264221 13.291696,25.230495 11.500037,31.436501 z"
             style="fill:#404040;"/>
          </a>
         </g>
        </svg>
</svg>
