\relax 
\providecommand\hyper@newdestlabel[2]{}
\@writefile{toc}{\contentsline {section}{\numberline {15.61}Functions to convert between various units}{413}{section.15.61}}
\newlabel{group__units}{{15.61}{413}{Functions to convert between various units}{section.15.61}{}}
\@writefile{toc}{\contentsline {subsection}{\numberline {15.61.1}Detailed Description}{413}{subsection.15.61.1}}
\@writefile{toc}{\contentsline {subsection}{\numberline {15.61.2}Enumeration Type Documentation}{413}{subsection.15.61.2}}
\newlabel{group__units_ga1d2fd1e73caf995e4dc69072b33e6ba5}{{15.61.2}{413}{Enumeration Type Documentation}{subsection.15.61.2}{}}
\@writefile{toc}{\contentsline {subsubsection}{\numberline {15.61.2.1}vrna\discretionary {\unhbox \voidb@x \hbox {\relax \fontsize  {7}{8}\selectfont  $\DOTSB \leftarrow \joinrel  \rhook $}}{}{}\_\discretionary {\unhbox \voidb@x \hbox {\relax \fontsize  {7}{8}\selectfont  $\DOTSB \leftarrow \joinrel  \rhook $}}{}{}unit\discretionary {\unhbox \voidb@x \hbox {\relax \fontsize  {7}{8}\selectfont  $\DOTSB \leftarrow \joinrel  \rhook $}}{}{}\_\discretionary {\unhbox \voidb@x \hbox {\relax \fontsize  {7}{8}\selectfont  $\DOTSB \leftarrow \joinrel  \rhook $}}{}{}energy\discretionary {\unhbox \voidb@x \hbox {\relax \fontsize  {7}{8}\selectfont  $\DOTSB \leftarrow \joinrel  \rhook $}}{}{}\_\discretionary {\unhbox \voidb@x \hbox {\relax \fontsize  {7}{8}\selectfont  $\DOTSB \leftarrow \joinrel  \rhook $}}{}{}e}{413}{subsubsection.15.61.2.1}}
\gdef \LT@cclxxxv {\LT@entry 
    {3}{114.31827pt}\LT@entry 
    {3}{323.83629pt}}
\gdef \LT@cclxxxvi {\LT@entry 
    {3}{109.1344pt}\LT@entry 
    {3}{250.3923pt}}
\newlabel{group__units_gga1d2fd1e73caf995e4dc69072b33e6ba5a0120f465758c5d3f0c416bb6b68ac008}{{15.284}{414}{\texorpdfstring {vrna\+\_\+unit\+\_\+energy\+\_\+e}{vrna\_unit\_energy\_e}}{table.15.284}{}}
\newlabel{group__units_gga1d2fd1e73caf995e4dc69072b33e6ba5af992c2a5505ac9e419ea906752810141}{{15.284}{414}{\texorpdfstring {vrna\+\_\+unit\+\_\+energy\+\_\+e}{vrna\_unit\_energy\_e}}{table.15.284}{}}
\newlabel{group__units_gga1d2fd1e73caf995e4dc69072b33e6ba5a9aa5cffe20a1407ad113a9cd10a28287}{{15.284}{414}{\texorpdfstring {vrna\+\_\+unit\+\_\+energy\+\_\+e}{vrna\_unit\_energy\_e}}{table.15.284}{}}
\newlabel{group__units_gga1d2fd1e73caf995e4dc69072b33e6ba5a16f8d3c98e6baf1662c33f082e50e3aa}{{15.284}{414}{\texorpdfstring {vrna\+\_\+unit\+\_\+energy\+\_\+e}{vrna\_unit\_energy\_e}}{table.15.284}{}}
\newlabel{group__units_gga1d2fd1e73caf995e4dc69072b33e6ba5aafecefeb1301d0d40ce7d4c60f5aaeeb}{{15.284}{414}{\texorpdfstring {vrna\+\_\+unit\+\_\+energy\+\_\+e}{vrna\_unit\_energy\_e}}{table.15.284}{}}
\newlabel{group__units_gga1d2fd1e73caf995e4dc69072b33e6ba5af9b9e10348e63083965843e9c4bd285b}{{15.284}{414}{\texorpdfstring {vrna\+\_\+unit\+\_\+energy\+\_\+e}{vrna\_unit\_energy\_e}}{table.15.284}{}}
\newlabel{group__units_gga1d2fd1e73caf995e4dc69072b33e6ba5a579ddb9fef9ec4b1a198b556715b549c}{{15.284}{414}{\texorpdfstring {vrna\+\_\+unit\+\_\+energy\+\_\+e}{vrna\_unit\_energy\_e}}{table.15.284}{}}
\newlabel{group__units_gga1d2fd1e73caf995e4dc69072b33e6ba5a5a231fa4f1f62a1d6e5f9af020014b79}{{15.284}{414}{\texorpdfstring {vrna\+\_\+unit\+\_\+energy\+\_\+e}{vrna\_unit\_energy\_e}}{table.15.284}{}}
\newlabel{group__units_gga1d2fd1e73caf995e4dc69072b33e6ba5a40325b8627e91b92dc5481961e2193d5}{{15.284}{414}{\texorpdfstring {vrna\+\_\+unit\+\_\+energy\+\_\+e}{vrna\_unit\_energy\_e}}{table.15.284}{}}
\newlabel{group__units_gga1d2fd1e73caf995e4dc69072b33e6ba5a32711a912cf18203c635a49ccf104a7a}{{15.284}{414}{\texorpdfstring {vrna\+\_\+unit\+\_\+energy\+\_\+e}{vrna\_unit\_energy\_e}}{table.15.284}{}}
\newlabel{group__units_gga1d2fd1e73caf995e4dc69072b33e6ba5a5186dbc0bc2a6fcce080753389e2759c}{{15.284}{414}{\texorpdfstring {vrna\+\_\+unit\+\_\+energy\+\_\+e}{vrna\_unit\_energy\_e}}{table.15.284}{}}
\newlabel{group__units_gga1d2fd1e73caf995e4dc69072b33e6ba5ad1e56199abf591432c1d75ecd3bd9702}{{15.284}{414}{\texorpdfstring {vrna\+\_\+unit\+\_\+energy\+\_\+e}{vrna\_unit\_energy\_e}}{table.15.284}{}}
\newlabel{group__units_gga1d2fd1e73caf995e4dc69072b33e6ba5a94309db45738a94c6a78ed1434346a7d}{{15.284}{414}{\texorpdfstring {vrna\+\_\+unit\+\_\+energy\+\_\+e}{vrna\_unit\_energy\_e}}{table.15.284}{}}
\newlabel{group__units_gga1d2fd1e73caf995e4dc69072b33e6ba5a57b033a1f079079cac03c0866ab69ec9}{{15.284}{414}{\texorpdfstring {vrna\+\_\+unit\+\_\+energy\+\_\+e}{vrna\_unit\_energy\_e}}{table.15.284}{}}
\newlabel{group__units_gadeca8d9e91ef85f1b652cc8aef63d7e4}{{15.61.2.1}{414}{\texorpdfstring {vrna\+\_\+unit\+\_\+energy\+\_\+e}{vrna\_unit\_energy\_e}}{table.15.284}{}}
\@writefile{toc}{\contentsline {subsubsection}{\numberline {15.61.2.2}vrna\discretionary {\unhbox \voidb@x \hbox {\relax \fontsize  {7}{8}\selectfont  $\DOTSB \leftarrow \joinrel  \rhook $}}{}{}\_\discretionary {\unhbox \voidb@x \hbox {\relax \fontsize  {7}{8}\selectfont  $\DOTSB \leftarrow \joinrel  \rhook $}}{}{}unit\discretionary {\unhbox \voidb@x \hbox {\relax \fontsize  {7}{8}\selectfont  $\DOTSB \leftarrow \joinrel  \rhook $}}{}{}\_\discretionary {\unhbox \voidb@x \hbox {\relax \fontsize  {7}{8}\selectfont  $\DOTSB \leftarrow \joinrel  \rhook $}}{}{}temperature\discretionary {\unhbox \voidb@x \hbox {\relax \fontsize  {7}{8}\selectfont  $\DOTSB \leftarrow \joinrel  \rhook $}}{}{}\_\discretionary {\unhbox \voidb@x \hbox {\relax \fontsize  {7}{8}\selectfont  $\DOTSB \leftarrow \joinrel  \rhook $}}{}{}e}{414}{subsubsection.15.61.2.2}}
\newlabel{group__units_gadeca8d9e91ef85f1b652cc8aef63d7e4a9b970a8dd20a98af000ac43e393a1d2d}{{15.285}{414}{\texorpdfstring {vrna\+\_\+unit\+\_\+temperature\+\_\+e}{vrna\_unit\_temperature\_e}}{table.15.285}{}}
\newlabel{group__units_gadeca8d9e91ef85f1b652cc8aef63d7e4a64b03f220d7256def88b3ed4a78440b2}{{15.285}{414}{\texorpdfstring {vrna\+\_\+unit\+\_\+temperature\+\_\+e}{vrna\_unit\_temperature\_e}}{table.15.285}{}}
\newlabel{group__units_gadeca8d9e91ef85f1b652cc8aef63d7e4a56a659dc1a1e6c01a62c67ed8799fea9}{{15.285}{414}{\texorpdfstring {vrna\+\_\+unit\+\_\+temperature\+\_\+e}{vrna\_unit\_temperature\_e}}{table.15.285}{}}
\newlabel{group__units_gadeca8d9e91ef85f1b652cc8aef63d7e4a71335b199e50c9ac773d4090018984bc}{{15.285}{414}{\texorpdfstring {vrna\+\_\+unit\+\_\+temperature\+\_\+e}{vrna\_unit\_temperature\_e}}{table.15.285}{}}
\newlabel{group__units_gadeca8d9e91ef85f1b652cc8aef63d7e4ac3c83c399df537d213671bf6537bd400}{{15.285}{414}{\texorpdfstring {vrna\+\_\+unit\+\_\+temperature\+\_\+e}{vrna\_unit\_temperature\_e}}{table.15.285}{}}
\newlabel{group__units_gadeca8d9e91ef85f1b652cc8aef63d7e4a8b047fe5980c99270a587e668c2a2d8b}{{15.285}{414}{\texorpdfstring {vrna\+\_\+unit\+\_\+temperature\+\_\+e}{vrna\_unit\_temperature\_e}}{table.15.285}{}}
\newlabel{group__units_gadeca8d9e91ef85f1b652cc8aef63d7e4a94dce0a5f2e13a3a3fd554d6b0cd6395}{{15.285}{414}{\texorpdfstring {vrna\+\_\+unit\+\_\+temperature\+\_\+e}{vrna\_unit\_temperature\_e}}{table.15.285}{}}
\newlabel{group__units_gadeca8d9e91ef85f1b652cc8aef63d7e4a405589efa7e654a6cfe148a992adc1d0}{{15.285}{414}{\texorpdfstring {vrna\+\_\+unit\+\_\+temperature\+\_\+e}{vrna\_unit\_temperature\_e}}{table.15.285}{}}
\@writefile{toc}{\contentsline {subsection}{\numberline {15.61.3}Function Documentation}{414}{subsection.15.61.3}}
\newlabel{group__units_gada3216e97b410928ba19a4487e5fe6f2}{{15.61.3}{414}{Function Documentation}{subsection.15.61.3}{}}
\gdef \LT@cclxxxvii {\LT@entry 
    {3}{40.31252pt}\LT@entry 
    {3}{86.21645pt}}
\gdef \LT@cclxxxviii {\LT@entry 
    {3}{32.8066pt}\LT@entry 
    {3}{107.13191pt}}
\@writefile{toc}{\contentsline {subsubsection}{\numberline {15.61.3.1}vrna\discretionary {\unhbox \voidb@x \hbox {\relax \fontsize  {7}{8}\selectfont  $\DOTSB \leftarrow \joinrel  \rhook $}}{}{}\_\discretionary {\unhbox \voidb@x \hbox {\relax \fontsize  {7}{8}\selectfont  $\DOTSB \leftarrow \joinrel  \rhook $}}{}{}convert\discretionary {\unhbox \voidb@x \hbox {\relax \fontsize  {7}{8}\selectfont  $\DOTSB \leftarrow \joinrel  \rhook $}}{}{}\_\discretionary {\unhbox \voidb@x \hbox {\relax \fontsize  {7}{8}\selectfont  $\DOTSB \leftarrow \joinrel  \rhook $}}{}{}energy()}{415}{subsubsection.15.61.3.1}}
\newlabel{group__units_gaf1bb1db32eba33b9f306214f5955d0c2}{{15.61.3.1}{415}{\texorpdfstring {vrna\+\_\+convert\+\_\+energy()}{vrna\_convert\_energy()}}{table.15.286}{}}
\@writefile{toc}{\contentsline {subsubsection}{\numberline {15.61.3.2}vrna\discretionary {\unhbox \voidb@x \hbox {\relax \fontsize  {7}{8}\selectfont  $\DOTSB \leftarrow \joinrel  \rhook $}}{}{}\_\discretionary {\unhbox \voidb@x \hbox {\relax \fontsize  {7}{8}\selectfont  $\DOTSB \leftarrow \joinrel  \rhook $}}{}{}convert\discretionary {\unhbox \voidb@x \hbox {\relax \fontsize  {7}{8}\selectfont  $\DOTSB \leftarrow \joinrel  \rhook $}}{}{}\_\discretionary {\unhbox \voidb@x \hbox {\relax \fontsize  {7}{8}\selectfont  $\DOTSB \leftarrow \joinrel  \rhook $}}{}{}temperature()}{415}{subsubsection.15.61.3.2}}
\@setckpt{group__units}{
\setcounter{page}{416}
\setcounter{equation}{0}
\setcounter{enumi}{2}
\setcounter{enumii}{0}
\setcounter{enumiii}{0}
\setcounter{enumiv}{0}
\setcounter{footnote}{0}
\setcounter{mpfootnote}{0}
\setcounter{part}{0}
\setcounter{chapter}{15}
\setcounter{section}{61}
\setcounter{subsection}{3}
\setcounter{subsubsection}{2}
\setcounter{paragraph}{0}
\setcounter{subparagraph}{0}
\setcounter{figure}{0}
\setcounter{table}{287}
\setcounter{float@type}{4}
\setcounter{LT@tables}{288}
\setcounter{LT@chunks}{3}
\setcounter{NAT@ctr}{0}
\setcounter{lofdepth}{1}
\setcounter{lotdepth}{1}
\setcounter{parentequation}{0}
\setcounter{Item}{12}
\setcounter{Hfootnote}{0}
\setcounter{bookmark@seq@number}{820}
\setcounter{ContinuedFloat}{0}
\setcounter{section@level}{3}
}
