\relax 
\providecommand\hyper@newdestlabel[2]{}
\@writefile{toc}{\contentsline {section}{\numberline {15.30}Stochastic Backtracking of Structures from Distance Based Partitioning}{257}{section.15.30}}
\newlabel{group__kl__neighborhood__stochbt}{{15.30}{257}{Stochastic Backtracking of Structures from Distance Based Partitioning}{section.15.30}{}}
\@writefile{toc}{\contentsline {subsection}{\numberline {15.30.1}Detailed Description}{257}{subsection.15.30.1}}
\@writefile{toc}{\contentsline {subsection}{\numberline {15.30.2}Function Documentation}{257}{subsection.15.30.2}}
\newlabel{group__kl__neighborhood__stochbt_ga14aceef73f83bbde77bb3a0ca06c9d13}{{15.30.2}{257}{Function Documentation}{subsection.15.30.2}{}}
\@writefile{toc}{\contentsline {subsubsection}{\numberline {15.30.2.1}vrna\discretionary {\unhbox \voidb@x \hbox {\relax \fontsize  {7}{8}\selectfont  $\DOTSB \leftarrow \joinrel  \rhook $}}{}{}\_\discretionary {\unhbox \voidb@x \hbox {\relax \fontsize  {7}{8}\selectfont  $\DOTSB \leftarrow \joinrel  \rhook $}}{}{}pbacktrack\discretionary {\unhbox \voidb@x \hbox {\relax \fontsize  {7}{8}\selectfont  $\DOTSB \leftarrow \joinrel  \rhook $}}{}{}\_\discretionary {\unhbox \voidb@x \hbox {\relax \fontsize  {7}{8}\selectfont  $\DOTSB \leftarrow \joinrel  \rhook $}}{}{}\discretionary {\unhbox \voidb@x \hbox {\relax \fontsize  {7}{8}\selectfont  $\DOTSB \leftarrow \joinrel  \rhook $}}{}{}Two\discretionary {\unhbox \voidb@x \hbox {\relax \fontsize  {7}{8}\selectfont  $\DOTSB \leftarrow \joinrel  \rhook $}}{}{}D()}{257}{subsubsection.15.30.2.1}}
\gdef \LT@clviii {\LT@entry 
    {3}{48.79999pt}\LT@entry 
    {3}{22.4078pt}\LT@entry 
    {3}{398.24898pt}}
\gdef \LT@clix {\LT@entry 
    {3}{48.79999pt}\LT@entry 
    {3}{36.91547pt}\LT@entry 
    {3}{369.52866pt}}
\newlabel{group__kl__neighborhood__stochbt_ga6504913303bc325659c365d5f59b41e0}{{15.30.2.1}{258}{\texorpdfstring {vrna\+\_\+pbacktrack\+\_\+\+Two\+D()}{vrna\_pbacktrack\_TwoD()}}{table.15.157}{}}
\@writefile{toc}{\contentsline {subsubsection}{\numberline {15.30.2.2}vrna\discretionary {\unhbox \voidb@x \hbox {\relax \fontsize  {7}{8}\selectfont  $\DOTSB \leftarrow \joinrel  \rhook $}}{}{}\_\discretionary {\unhbox \voidb@x \hbox {\relax \fontsize  {7}{8}\selectfont  $\DOTSB \leftarrow \joinrel  \rhook $}}{}{}pbacktrack5\discretionary {\unhbox \voidb@x \hbox {\relax \fontsize  {7}{8}\selectfont  $\DOTSB \leftarrow \joinrel  \rhook $}}{}{}\_\discretionary {\unhbox \voidb@x \hbox {\relax \fontsize  {7}{8}\selectfont  $\DOTSB \leftarrow \joinrel  \rhook $}}{}{}\discretionary {\unhbox \voidb@x \hbox {\relax \fontsize  {7}{8}\selectfont  $\DOTSB \leftarrow \joinrel  \rhook $}}{}{}Two\discretionary {\unhbox \voidb@x \hbox {\relax \fontsize  {7}{8}\selectfont  $\DOTSB \leftarrow \joinrel  \rhook $}}{}{}D()}{258}{subsubsection.15.30.2.2}}
\@setckpt{group__kl__neighborhood__stochbt}{
\setcounter{page}{260}
\setcounter{equation}{0}
\setcounter{enumi}{2}
\setcounter{enumii}{0}
\setcounter{enumiii}{0}
\setcounter{enumiv}{0}
\setcounter{footnote}{0}
\setcounter{mpfootnote}{0}
\setcounter{part}{0}
\setcounter{chapter}{15}
\setcounter{section}{30}
\setcounter{subsection}{2}
\setcounter{subsubsection}{2}
\setcounter{paragraph}{0}
\setcounter{subparagraph}{0}
\setcounter{figure}{0}
\setcounter{table}{158}
\setcounter{float@type}{4}
\setcounter{LT@tables}{159}
\setcounter{LT@chunks}{3}
\setcounter{NAT@ctr}{0}
\setcounter{lofdepth}{1}
\setcounter{lotdepth}{1}
\setcounter{parentequation}{0}
\setcounter{Item}{12}
\setcounter{Hfootnote}{0}
\setcounter{bookmark@seq@number}{461}
\setcounter{ContinuedFloat}{0}
\setcounter{section@level}{3}
}
