\relax 
\providecommand\hyper@newdestlabel[2]{}
\@writefile{toc}{\contentsline {section}{\numberline {15.32}Inverse Folding (Design)}{261}{section.15.32}}
\newlabel{group__inverse__fold}{{15.32}{261}{Inverse Folding (Design)}{section.15.32}{}}
\newlabel{group__inverse__fold_ga8f791e7740a5a28b9f6fafb4e60301d9}{{15.32}{261}{Variables}{section*.133}{}}
\@writefile{toc}{\contentsline {subsection}{\numberline {15.32.1}Detailed Description}{261}{subsection.15.32.1}}
\@writefile{toc}{\contentsline {subsection}{\numberline {15.32.2}Function Documentation}{261}{subsection.15.32.2}}
\newlabel{group__inverse__fold_ga7af026de55d4babad879f2c92559cbbc}{{15.32.2}{261}{Function Documentation}{subsection.15.32.2}{}}
\@writefile{toc}{\contentsline {subsubsection}{\numberline {15.32.2.1}inverse\discretionary {\unhbox \voidb@x \hbox {\relax \fontsize  {7}{8}\selectfont  $\DOTSB \leftarrow \joinrel  \rhook $}}{}{}\_\discretionary {\unhbox \voidb@x \hbox {\relax \fontsize  {7}{8}\selectfont  $\DOTSB \leftarrow \joinrel  \rhook $}}{}{}fold()}{261}{subsubsection.15.32.2.1}}
\gdef \LT@clx {\LT@entry 
    {3}{35.81242pt}\LT@entry 
    {3}{226.45139pt}}
\gdef \LT@clxi {\LT@entry 
    {3}{35.81242pt}\LT@entry 
    {3}{226.45139pt}}
\newlabel{group__inverse__fold_gaeef52ecbf2a2450ad585a344f9826806}{{15.32.2.1}{262}{\texorpdfstring {inverse\+\_\+fold()}{inverse\_fold()}}{table.15.159}{}}
\@writefile{toc}{\contentsline {subsubsection}{\numberline {15.32.2.2}inverse\discretionary {\unhbox \voidb@x \hbox {\relax \fontsize  {7}{8}\selectfont  $\DOTSB \leftarrow \joinrel  \rhook $}}{}{}\_\discretionary {\unhbox \voidb@x \hbox {\relax \fontsize  {7}{8}\selectfont  $\DOTSB \leftarrow \joinrel  \rhook $}}{}{}pf\discretionary {\unhbox \voidb@x \hbox {\relax \fontsize  {7}{8}\selectfont  $\DOTSB \leftarrow \joinrel  \rhook $}}{}{}\_\discretionary {\unhbox \voidb@x \hbox {\relax \fontsize  {7}{8}\selectfont  $\DOTSB \leftarrow \joinrel  \rhook $}}{}{}fold()}{262}{subsubsection.15.32.2.2}}
\@writefile{toc}{\contentsline {subsection}{\numberline {15.32.3}Variable Documentation}{262}{subsection.15.32.3}}
\newlabel{group__inverse__fold_ga7f17d3b169af048d32bb185039a9c09c}{{15.32.3}{262}{Variable Documentation}{subsection.15.32.3}{}}
\@writefile{toc}{\contentsline {subsubsection}{\numberline {15.32.3.1}final\discretionary {\unhbox \voidb@x \hbox {\relax \fontsize  {7}{8}\selectfont  $\DOTSB \leftarrow \joinrel  \rhook $}}{}{}\_\discretionary {\unhbox \voidb@x \hbox {\relax \fontsize  {7}{8}\selectfont  $\DOTSB \leftarrow \joinrel  \rhook $}}{}{}cost}{262}{subsubsection.15.32.3.1}}
\newlabel{group__inverse__fold_ga7ec4ba51f86e1717a1e174264e4a75ce}{{15.32.3.1}{262}{\texorpdfstring {final\+\_\+cost}{final\_cost}}{subsubsection.15.32.3.1}{}}
\@writefile{toc}{\contentsline {subsubsection}{\numberline {15.32.3.2}give\discretionary {\unhbox \voidb@x \hbox {\relax \fontsize  {7}{8}\selectfont  $\DOTSB \leftarrow \joinrel  \rhook $}}{}{}\_\discretionary {\unhbox \voidb@x \hbox {\relax \fontsize  {7}{8}\selectfont  $\DOTSB \leftarrow \joinrel  \rhook $}}{}{}up}{262}{subsubsection.15.32.3.2}}
\newlabel{group__inverse__fold_gafcfc65fba01b9cca5946726ed9057a63}{{15.32.3.2}{262}{\texorpdfstring {give\+\_\+up}{give\_up}}{subsubsection.15.32.3.2}{}}
\@writefile{toc}{\contentsline {subsubsection}{\numberline {15.32.3.3}inv\discretionary {\unhbox \voidb@x \hbox {\relax \fontsize  {7}{8}\selectfont  $\DOTSB \leftarrow \joinrel  \rhook $}}{}{}\_\discretionary {\unhbox \voidb@x \hbox {\relax \fontsize  {7}{8}\selectfont  $\DOTSB \leftarrow \joinrel  \rhook $}}{}{}verbose}{263}{subsubsection.15.32.3.3}}
\@setckpt{group__inverse__fold}{
\setcounter{page}{264}
\setcounter{equation}{0}
\setcounter{enumi}{2}
\setcounter{enumii}{0}
\setcounter{enumiii}{0}
\setcounter{enumiv}{0}
\setcounter{footnote}{0}
\setcounter{mpfootnote}{0}
\setcounter{part}{0}
\setcounter{chapter}{15}
\setcounter{section}{32}
\setcounter{subsection}{3}
\setcounter{subsubsection}{3}
\setcounter{paragraph}{0}
\setcounter{subparagraph}{0}
\setcounter{figure}{0}
\setcounter{table}{160}
\setcounter{float@type}{4}
\setcounter{LT@tables}{161}
\setcounter{LT@chunks}{3}
\setcounter{NAT@ctr}{0}
\setcounter{lofdepth}{1}
\setcounter{lotdepth}{1}
\setcounter{parentequation}{0}
\setcounter{Item}{12}
\setcounter{Hfootnote}{0}
\setcounter{bookmark@seq@number}{474}
\setcounter{ContinuedFloat}{0}
\setcounter{section@level}{3}
}
