\relax 
\providecommand\hyper@newdestlabel[2]{}
\@writefile{toc}{\contentsline {section}{\numberline {15.54}The Dynamic Programming Matrices}{358}{section.15.54}}
\newlabel{group__dp__matrices}{{15.54}{358}{The Dynamic Programming Matrices}{section.15.54}{}}
\newlabel{group__dp__matrices_gae5aef35d016475e758f619b7bcb534f9}{{15.54}{358}{Typedefs}{section*.209}{}}
\newlabel{group__dp__matrices_ga68729ab3fed26bdd1806fa814f172fc1}{{15.54}{358}{Typedefs}{section*.209}{}}
\@writefile{toc}{\contentsline {subsection}{\numberline {15.54.1}Detailed Description}{359}{subsection.15.54.1}}
\@writefile{toc}{\contentsline {subsection}{\numberline {15.54.2}Data Structure Documentation}{359}{subsection.15.54.2}}
\newlabel{structvrna__mx__mfe__s}{{15.54.2}{359}{Data Structure Documentation}{subsection.15.54.2}{}}
\@writefile{toc}{\contentsline {subsubsection}{\numberline {15.54.2.1}struct vrna\discretionary {\unhbox \voidb@x \hbox {\relax \fontsize  {7}{8}\selectfont  $\DOTSB \leftarrow \joinrel  \rhook $}}{}{}\_\discretionary {\unhbox \voidb@x \hbox {\relax \fontsize  {7}{8}\selectfont  $\DOTSB \leftarrow \joinrel  \rhook $}}{}{}mx\discretionary {\unhbox \voidb@x \hbox {\relax \fontsize  {7}{8}\selectfont  $\DOTSB \leftarrow \joinrel  \rhook $}}{}{}\_\discretionary {\unhbox \voidb@x \hbox {\relax \fontsize  {7}{8}\selectfont  $\DOTSB \leftarrow \joinrel  \rhook $}}{}{}mfe\discretionary {\unhbox \voidb@x \hbox {\relax \fontsize  {7}{8}\selectfont  $\DOTSB \leftarrow \joinrel  \rhook $}}{}{}\_\discretionary {\unhbox \voidb@x \hbox {\relax \fontsize  {7}{8}\selectfont  $\DOTSB \leftarrow \joinrel  \rhook $}}{}{}s}{359}{subsubsection.15.54.2.1}}
\newlabel{group__dp__matrices_a468680aa937b664d453075108d976ae2}{{15.54.2.1}{359}{Data Fields}{section*.212}{}}
\newlabel{group__dp__matrices_a1f92a8406fc1fb721dbf9193c34ad826}{{15.54.2.1}{359}{Data Fields}{section*.212}{}}
\newlabel{structvrna__mx__pf__s}{{15.54.2.1}{359}{Data Fields}{section*.212}{}}
\@writefile{toc}{\contentsline {subsubsection}{\numberline {15.54.2.2}struct vrna\discretionary {\unhbox \voidb@x \hbox {\relax \fontsize  {7}{8}\selectfont  $\DOTSB \leftarrow \joinrel  \rhook $}}{}{}\_\discretionary {\unhbox \voidb@x \hbox {\relax \fontsize  {7}{8}\selectfont  $\DOTSB \leftarrow \joinrel  \rhook $}}{}{}mx\discretionary {\unhbox \voidb@x \hbox {\relax \fontsize  {7}{8}\selectfont  $\DOTSB \leftarrow \joinrel  \rhook $}}{}{}\_\discretionary {\unhbox \voidb@x \hbox {\relax \fontsize  {7}{8}\selectfont  $\DOTSB \leftarrow \joinrel  \rhook $}}{}{}pf\discretionary {\unhbox \voidb@x \hbox {\relax \fontsize  {7}{8}\selectfont  $\DOTSB \leftarrow \joinrel  \rhook $}}{}{}\_\discretionary {\unhbox \voidb@x \hbox {\relax \fontsize  {7}{8}\selectfont  $\DOTSB \leftarrow \joinrel  \rhook $}}{}{}s}{359}{subsubsection.15.54.2.2}}
\gdef \LT@ccxxiii {\LT@entry 
    {3}{103.82454pt}\LT@entry 
    {3}{306.68501pt}}
\newlabel{group__dp__matrices_a74ba745d6fc4ac5d437bc24450ea789c}{{15.54.2.2}{360}{Data Fields}{section*.213}{}}
\newlabel{group__dp__matrices_a798f72ece3f3f970bb0de2120600ad63}{{15.54.2.2}{360}{Data Fields}{section*.213}{}}
\newlabel{group__dp__matrices_a133ac57938cb0969da254a594572baf8}{{15.54.2.2}{360}{Data Fields}{section*.213}{}}
\newlabel{group__dp__matrices_ae18e83833416f62943d5dd7be1cc038f}{{15.54.2.2}{360}{Data Fields}{section*.213}{}}
\@writefile{toc}{\contentsline {subsection}{\numberline {15.54.3}Enumeration Type Documentation}{360}{subsection.15.54.3}}
\newlabel{group__dp__matrices_ga6042ea1d58d01931e959791be6d89343}{{15.54.3}{360}{Enumeration Type Documentation}{subsection.15.54.3}{}}
\@writefile{toc}{\contentsline {subsubsection}{\numberline {15.54.3.1}vrna\discretionary {\unhbox \voidb@x \hbox {\relax \fontsize  {7}{8}\selectfont  $\DOTSB \leftarrow \joinrel  \rhook $}}{}{}\_\discretionary {\unhbox \voidb@x \hbox {\relax \fontsize  {7}{8}\selectfont  $\DOTSB \leftarrow \joinrel  \rhook $}}{}{}mx\discretionary {\unhbox \voidb@x \hbox {\relax \fontsize  {7}{8}\selectfont  $\DOTSB \leftarrow \joinrel  \rhook $}}{}{}\_\discretionary {\unhbox \voidb@x \hbox {\relax \fontsize  {7}{8}\selectfont  $\DOTSB \leftarrow \joinrel  \rhook $}}{}{}type\discretionary {\unhbox \voidb@x \hbox {\relax \fontsize  {7}{8}\selectfont  $\DOTSB \leftarrow \joinrel  \rhook $}}{}{}\_\discretionary {\unhbox \voidb@x \hbox {\relax \fontsize  {7}{8}\selectfont  $\DOTSB \leftarrow \joinrel  \rhook $}}{}{}e}{360}{subsubsection.15.54.3.1}}
\newlabel{group__dp__matrices_gga6042ea1d58d01931e959791be6d89343aafa2568956dab79595521e20c49a5f75}{{15.222}{360}{\texorpdfstring {vrna\+\_\+mx\+\_\+type\+\_\+e}{vrna\_mx\_type\_e}}{table.15.222}{}}
\newlabel{group__dp__matrices_gga6042ea1d58d01931e959791be6d89343a2ea5d5947f6ec02544934b0ff2785e99}{{15.222}{360}{\texorpdfstring {vrna\+\_\+mx\+\_\+type\+\_\+e}{vrna\_mx\_type\_e}}{table.15.222}{}}
\newlabel{group__dp__matrices_gga6042ea1d58d01931e959791be6d89343ae656f8391445ff71bed8a597a0a19417}{{15.222}{360}{\texorpdfstring {vrna\+\_\+mx\+\_\+type\+\_\+e}{vrna\_mx\_type\_e}}{table.15.222}{}}
\@writefile{toc}{\contentsline {subsection}{\numberline {15.54.4}Function Documentation}{360}{subsection.15.54.4}}
\newlabel{group__dp__matrices_ga08661f098008961dab0023bf300f0c33}{{15.54.4}{360}{Function Documentation}{subsection.15.54.4}{}}
\gdef \LT@ccxxiv {\LT@entry 
    {3}{41.81543pt}\LT@entry 
    {3}{423.81767pt}}
\@writefile{toc}{\contentsline {subsubsection}{\numberline {15.54.4.1}vrna\discretionary {\unhbox \voidb@x \hbox {\relax \fontsize  {7}{8}\selectfont  $\DOTSB \leftarrow \joinrel  \rhook $}}{}{}\_\discretionary {\unhbox \voidb@x \hbox {\relax \fontsize  {7}{8}\selectfont  $\DOTSB \leftarrow \joinrel  \rhook $}}{}{}mx\discretionary {\unhbox \voidb@x \hbox {\relax \fontsize  {7}{8}\selectfont  $\DOTSB \leftarrow \joinrel  \rhook $}}{}{}\_\discretionary {\unhbox \voidb@x \hbox {\relax \fontsize  {7}{8}\selectfont  $\DOTSB \leftarrow \joinrel  \rhook $}}{}{}add()}{361}{subsubsection.15.54.4.1}}
\newlabel{group__dp__matrices_ga6a9422feb5dfe5c64050cebf447672d0}{{15.54.4.1}{361}{\texorpdfstring {vrna\+\_\+mx\+\_\+add()}{vrna\_mx\_add()}}{table.15.223}{}}
\@writefile{toc}{\contentsline {subsubsection}{\numberline {15.54.4.2}vrna\discretionary {\unhbox \voidb@x \hbox {\relax \fontsize  {7}{8}\selectfont  $\DOTSB \leftarrow \joinrel  \rhook $}}{}{}\_\discretionary {\unhbox \voidb@x \hbox {\relax \fontsize  {7}{8}\selectfont  $\DOTSB \leftarrow \joinrel  \rhook $}}{}{}mx\discretionary {\unhbox \voidb@x \hbox {\relax \fontsize  {7}{8}\selectfont  $\DOTSB \leftarrow \joinrel  \rhook $}}{}{}\_\discretionary {\unhbox \voidb@x \hbox {\relax \fontsize  {7}{8}\selectfont  $\DOTSB \leftarrow \joinrel  \rhook $}}{}{}mfe\discretionary {\unhbox \voidb@x \hbox {\relax \fontsize  {7}{8}\selectfont  $\DOTSB \leftarrow \joinrel  \rhook $}}{}{}\_\discretionary {\unhbox \voidb@x \hbox {\relax \fontsize  {7}{8}\selectfont  $\DOTSB \leftarrow \joinrel  \rhook $}}{}{}free()}{361}{subsubsection.15.54.4.2}}
\gdef \LT@ccxxv {\LT@entry 
    {3}{21.79993pt}\LT@entry 
    {3}{380.94221pt}}
\gdef \LT@ccxxvi {\LT@entry 
    {3}{21.79993pt}\LT@entry 
    {3}{373.44531pt}}
\newlabel{group__dp__matrices_ga2283e69fd139fb8e58d7ade3b5773f9c}{{15.54.4.2}{362}{\texorpdfstring {vrna\+\_\+mx\+\_\+mfe\+\_\+free()}{vrna\_mx\_mfe\_free()}}{table.15.224}{}}
\@writefile{toc}{\contentsline {subsubsection}{\numberline {15.54.4.3}vrna\discretionary {\unhbox \voidb@x \hbox {\relax \fontsize  {7}{8}\selectfont  $\DOTSB \leftarrow \joinrel  \rhook $}}{}{}\_\discretionary {\unhbox \voidb@x \hbox {\relax \fontsize  {7}{8}\selectfont  $\DOTSB \leftarrow \joinrel  \rhook $}}{}{}mx\discretionary {\unhbox \voidb@x \hbox {\relax \fontsize  {7}{8}\selectfont  $\DOTSB \leftarrow \joinrel  \rhook $}}{}{}\_\discretionary {\unhbox \voidb@x \hbox {\relax \fontsize  {7}{8}\selectfont  $\DOTSB \leftarrow \joinrel  \rhook $}}{}{}pf\discretionary {\unhbox \voidb@x \hbox {\relax \fontsize  {7}{8}\selectfont  $\DOTSB \leftarrow \joinrel  \rhook $}}{}{}\_\discretionary {\unhbox \voidb@x \hbox {\relax \fontsize  {7}{8}\selectfont  $\DOTSB \leftarrow \joinrel  \rhook $}}{}{}free()}{362}{subsubsection.15.54.4.3}}
\@setckpt{group__dp__matrices}{
\setcounter{page}{363}
\setcounter{equation}{0}
\setcounter{enumi}{2}
\setcounter{enumii}{0}
\setcounter{enumiii}{0}
\setcounter{enumiv}{0}
\setcounter{footnote}{0}
\setcounter{mpfootnote}{0}
\setcounter{part}{0}
\setcounter{chapter}{15}
\setcounter{section}{54}
\setcounter{subsection}{4}
\setcounter{subsubsection}{3}
\setcounter{paragraph}{0}
\setcounter{subparagraph}{0}
\setcounter{figure}{0}
\setcounter{table}{225}
\setcounter{float@type}{4}
\setcounter{LT@tables}{226}
\setcounter{LT@chunks}{3}
\setcounter{NAT@ctr}{0}
\setcounter{lofdepth}{1}
\setcounter{lotdepth}{1}
\setcounter{parentequation}{0}
\setcounter{Item}{12}
\setcounter{Hfootnote}{0}
\setcounter{bookmark@seq@number}{700}
\setcounter{ContinuedFloat}{0}
\setcounter{section@level}{3}
}
