\relax 
\providecommand\hyper@newdestlabel[2]{}
\@writefile{toc}{\contentsline {section}{\numberline {15.18}Compute the structure with maximum expected accuracy (M\discretionary {\unhbox \voidb@x \hbox {\relax \fontsize  {7}{8}\selectfont  $\DOTSB \leftarrow \joinrel  \rhook $}}{}{}EA)}{220}{section.15.18}}
\newlabel{group__mea__fold}{{15.18}{220}{Compute the structure with maximum expected accuracy (M\+EA)}{section.15.18}{}}
\@writefile{toc}{\contentsline {subsection}{\numberline {15.18.1}Detailed Description}{220}{subsection.15.18.1}}
\@writefile{toc}{\contentsline {subsection}{\numberline {15.18.2}Function Documentation}{220}{subsection.15.18.2}}
\newlabel{group__mea__fold_ga396ec6144c6a74fcbab4cea6b42d76c3}{{15.18.2}{220}{Function Documentation}{subsection.15.18.2}{}}
\@writefile{toc}{\contentsline {subsubsection}{\numberline {15.18.2.1}M\discretionary {\unhbox \voidb@x \hbox {\relax \fontsize  {7}{8}\selectfont  $\DOTSB \leftarrow \joinrel  \rhook $}}{}{}E\discretionary {\unhbox \voidb@x \hbox {\relax \fontsize  {7}{8}\selectfont  $\DOTSB \leftarrow \joinrel  \rhook $}}{}{}A()}{220}{subsubsection.15.18.2.1}}
\@setckpt{group__mea__fold}{
\setcounter{page}{221}
\setcounter{equation}{0}
\setcounter{enumi}{2}
\setcounter{enumii}{0}
\setcounter{enumiii}{0}
\setcounter{enumiv}{0}
\setcounter{footnote}{0}
\setcounter{mpfootnote}{0}
\setcounter{part}{0}
\setcounter{chapter}{15}
\setcounter{section}{18}
\setcounter{subsection}{2}
\setcounter{subsubsection}{1}
\setcounter{paragraph}{0}
\setcounter{subparagraph}{0}
\setcounter{figure}{0}
\setcounter{table}{129}
\setcounter{float@type}{4}
\setcounter{LT@tables}{130}
\setcounter{LT@chunks}{3}
\setcounter{NAT@ctr}{0}
\setcounter{lofdepth}{1}
\setcounter{lotdepth}{1}
\setcounter{parentequation}{0}
\setcounter{Item}{12}
\setcounter{Hfootnote}{0}
\setcounter{bookmark@seq@number}{383}
\setcounter{ContinuedFloat}{0}
\setcounter{section@level}{3}
}
