\relax 
\providecommand\hyper@newdestlabel[2]{}
\@writefile{toc}{\contentsline {section}{\numberline {15.43}Utilities}{291}{section.15.43}}
\newlabel{group__utils}{{15.43}{291}{Utilities}{section.15.43}{}}
\newlabel{group__utils_ga636e7d6f888fd639587296a5eddea660}{{15.43}{292}{Files}{section*.171}{}}
\newlabel{group__utils_ga3cd79d21d53248ad2634c1c0d43e97d7}{{15.43}{292}{Files}{section*.171}{}}
\newlabel{group__utils_ga0ad1f40ea316e5c5918695c35613027a}{{15.43}{292}{Files}{section*.171}{}}
\newlabel{group__utils_gad403c9ea58f1836689404c2931419c8c}{{15.43}{293}{Files}{section*.171}{}}
\newlabel{group__utils_ga72f3c6ca5c83d2b9baed2922d19c403d}{{15.43}{293}{Files}{section*.171}{}}
\newlabel{group__utils_ga8e3241b321c9c1a78a69e59e2e019a71}{{15.43}{293}{Files}{section*.171}{}}
\newlabel{group__utils_ga086742158293217a46ae2f71bb296937}{{15.43}{293}{Files}{section*.171}{}}
\newlabel{group__utils_ga7a2e8c50a0c7ce82e60da1016e1367fd}{{15.43}{293}{Files}{section*.171}{}}
\newlabel{group__utils_ga0de536599b881c787b0943a2671da476}{{15.43}{293}{Files}{section*.171}{}}
\newlabel{group__utils_gab4db885222b3b69608310d7c7e63e286}{{15.43}{293}{Files}{section*.171}{}}
\newlabel{group__utils_ga305474b93ccb79ae4c7754016a8ddd84}{{15.43}{293}{Files}{section*.171}{}}
\newlabel{group__utils_ga0f6311f11bed1842e3a527ab27b294c6}{{15.43}{293}{Files}{section*.171}{}}
\newlabel{group__utils_gaf2062e0eeefffd3ed639af460b3d4fab}{{15.43}{293}{Files}{section*.171}{}}
\newlabel{group__utils_gae0b9cd0ce090bd69b951aa73e8fa4f7d}{{15.43}{293}{Files}{section*.171}{}}
\newlabel{group__utils_ga33297b3679c713b0c4d897cd0fe3b122}{{15.43}{293}{Files}{section*.171}{}}
\newlabel{group__utils_ga721b8d5f3abef17f10293f1f7f8c958e}{{15.43}{293}{Files}{section*.171}{}}
\newlabel{group__utils_ga8d577123d2e66d2b7d0bf9af6e172b93}{{15.43}{293}{Files}{section*.171}{}}
\@writefile{toc}{\contentsline {subsection}{\numberline {15.43.1}Detailed Description}{293}{subsection.15.43.1}}
\@writefile{toc}{\contentsline {subsection}{\numberline {15.43.2}Macro Definition Documentation}{293}{subsection.15.43.2}}
\newlabel{group__utils_ga2f0d8069e93d3ac54d9320d6bdb8e7e7}{{15.43.2}{293}{Macro Definition Documentation}{subsection.15.43.2}{}}
\@writefile{toc}{\contentsline {subsubsection}{\numberline {15.43.2.1}V\discretionary {\unhbox \voidb@x \hbox {\relax \fontsize  {7}{8}\selectfont  $\DOTSB \leftarrow \joinrel  \rhook $}}{}{}R\discretionary {\unhbox \voidb@x \hbox {\relax \fontsize  {7}{8}\selectfont  $\DOTSB \leftarrow \joinrel  \rhook $}}{}{}N\discretionary {\unhbox \voidb@x \hbox {\relax \fontsize  {7}{8}\selectfont  $\DOTSB \leftarrow \joinrel  \rhook $}}{}{}A\discretionary {\unhbox \voidb@x \hbox {\relax \fontsize  {7}{8}\selectfont  $\DOTSB \leftarrow \joinrel  \rhook $}}{}{}\_\discretionary {\unhbox \voidb@x \hbox {\relax \fontsize  {7}{8}\selectfont  $\DOTSB \leftarrow \joinrel  \rhook $}}{}{}\discretionary {\unhbox \voidb@x \hbox {\relax \fontsize  {7}{8}\selectfont  $\DOTSB \leftarrow \joinrel  \rhook $}}{}{}I\discretionary {\unhbox \voidb@x \hbox {\relax \fontsize  {7}{8}\selectfont  $\DOTSB \leftarrow \joinrel  \rhook $}}{}{}N\discretionary {\unhbox \voidb@x \hbox {\relax \fontsize  {7}{8}\selectfont  $\DOTSB \leftarrow \joinrel  \rhook $}}{}{}P\discretionary {\unhbox \voidb@x \hbox {\relax \fontsize  {7}{8}\selectfont  $\DOTSB \leftarrow \joinrel  \rhook $}}{}{}U\discretionary {\unhbox \voidb@x \hbox {\relax \fontsize  {7}{8}\selectfont  $\DOTSB \leftarrow \joinrel  \rhook $}}{}{}T\discretionary {\unhbox \voidb@x \hbox {\relax \fontsize  {7}{8}\selectfont  $\DOTSB \leftarrow \joinrel  \rhook $}}{}{}\_\discretionary {\unhbox \voidb@x \hbox {\relax \fontsize  {7}{8}\selectfont  $\DOTSB \leftarrow \joinrel  \rhook $}}{}{}\discretionary {\unhbox \voidb@x \hbox {\relax \fontsize  {7}{8}\selectfont  $\DOTSB \leftarrow \joinrel  \rhook $}}{}{}F\discretionary {\unhbox \voidb@x \hbox {\relax \fontsize  {7}{8}\selectfont  $\DOTSB \leftarrow \joinrel  \rhook $}}{}{}A\discretionary {\unhbox \voidb@x \hbox {\relax \fontsize  {7}{8}\selectfont  $\DOTSB \leftarrow \joinrel  \rhook $}}{}{}S\discretionary {\unhbox \voidb@x \hbox {\relax \fontsize  {7}{8}\selectfont  $\DOTSB \leftarrow \joinrel  \rhook $}}{}{}T\discretionary {\unhbox \voidb@x \hbox {\relax \fontsize  {7}{8}\selectfont  $\DOTSB \leftarrow \joinrel  \rhook $}}{}{}A\discretionary {\unhbox \voidb@x \hbox {\relax \fontsize  {7}{8}\selectfont  $\DOTSB \leftarrow \joinrel  \rhook $}}{}{}\_\discretionary {\unhbox \voidb@x \hbox {\relax \fontsize  {7}{8}\selectfont  $\DOTSB \leftarrow \joinrel  \rhook $}}{}{}\discretionary {\unhbox \voidb@x \hbox {\relax \fontsize  {7}{8}\selectfont  $\DOTSB \leftarrow \joinrel  \rhook $}}{}{}H\discretionary {\unhbox \voidb@x \hbox {\relax \fontsize  {7}{8}\selectfont  $\DOTSB \leftarrow \joinrel  \rhook $}}{}{}E\discretionary {\unhbox \voidb@x \hbox {\relax \fontsize  {7}{8}\selectfont  $\DOTSB \leftarrow \joinrel  \rhook $}}{}{}A\discretionary {\unhbox \voidb@x \hbox {\relax \fontsize  {7}{8}\selectfont  $\DOTSB \leftarrow \joinrel  \rhook $}}{}{}D\discretionary {\unhbox \voidb@x \hbox {\relax \fontsize  {7}{8}\selectfont  $\DOTSB \leftarrow \joinrel  \rhook $}}{}{}ER}{293}{subsubsection.15.43.2.1}}
\newlabel{group__utils_gac08a9df45b9721b97a47dbfe7a6e5f85}{{15.43.2.1}{293}{\texorpdfstring {V\+R\+N\+A\+\_\+\+I\+N\+P\+U\+T\+\_\+\+F\+A\+S\+T\+A\+\_\+\+H\+E\+A\+D\+ER}{VRNA\_INPUT\_FASTA\_HEADER}}{subsubsection.15.43.2.1}{}}
\gdef \LT@clxxii {\LT@entry 
    {3}{25.3008pt}\LT@entry 
    {3}{226.73036pt}}
\@writefile{toc}{\contentsline {subsubsection}{\numberline {15.43.2.2}V\discretionary {\unhbox \voidb@x \hbox {\relax \fontsize  {7}{8}\selectfont  $\DOTSB \leftarrow \joinrel  \rhook $}}{}{}R\discretionary {\unhbox \voidb@x \hbox {\relax \fontsize  {7}{8}\selectfont  $\DOTSB \leftarrow \joinrel  \rhook $}}{}{}N\discretionary {\unhbox \voidb@x \hbox {\relax \fontsize  {7}{8}\selectfont  $\DOTSB \leftarrow \joinrel  \rhook $}}{}{}A\discretionary {\unhbox \voidb@x \hbox {\relax \fontsize  {7}{8}\selectfont  $\DOTSB \leftarrow \joinrel  \rhook $}}{}{}\_\discretionary {\unhbox \voidb@x \hbox {\relax \fontsize  {7}{8}\selectfont  $\DOTSB \leftarrow \joinrel  \rhook $}}{}{}\discretionary {\unhbox \voidb@x \hbox {\relax \fontsize  {7}{8}\selectfont  $\DOTSB \leftarrow \joinrel  \rhook $}}{}{}I\discretionary {\unhbox \voidb@x \hbox {\relax \fontsize  {7}{8}\selectfont  $\DOTSB \leftarrow \joinrel  \rhook $}}{}{}N\discretionary {\unhbox \voidb@x \hbox {\relax \fontsize  {7}{8}\selectfont  $\DOTSB \leftarrow \joinrel  \rhook $}}{}{}P\discretionary {\unhbox \voidb@x \hbox {\relax \fontsize  {7}{8}\selectfont  $\DOTSB \leftarrow \joinrel  \rhook $}}{}{}U\discretionary {\unhbox \voidb@x \hbox {\relax \fontsize  {7}{8}\selectfont  $\DOTSB \leftarrow \joinrel  \rhook $}}{}{}T\discretionary {\unhbox \voidb@x \hbox {\relax \fontsize  {7}{8}\selectfont  $\DOTSB \leftarrow \joinrel  \rhook $}}{}{}\_\discretionary {\unhbox \voidb@x \hbox {\relax \fontsize  {7}{8}\selectfont  $\DOTSB \leftarrow \joinrel  \rhook $}}{}{}\discretionary {\unhbox \voidb@x \hbox {\relax \fontsize  {7}{8}\selectfont  $\DOTSB \leftarrow \joinrel  \rhook $}}{}{}C\discretionary {\unhbox \voidb@x \hbox {\relax \fontsize  {7}{8}\selectfont  $\DOTSB \leftarrow \joinrel  \rhook $}}{}{}O\discretionary {\unhbox \voidb@x \hbox {\relax \fontsize  {7}{8}\selectfont  $\DOTSB \leftarrow \joinrel  \rhook $}}{}{}N\discretionary {\unhbox \voidb@x \hbox {\relax \fontsize  {7}{8}\selectfont  $\DOTSB \leftarrow \joinrel  \rhook $}}{}{}S\discretionary {\unhbox \voidb@x \hbox {\relax \fontsize  {7}{8}\selectfont  $\DOTSB \leftarrow \joinrel  \rhook $}}{}{}T\discretionary {\unhbox \voidb@x \hbox {\relax \fontsize  {7}{8}\selectfont  $\DOTSB \leftarrow \joinrel  \rhook $}}{}{}R\discretionary {\unhbox \voidb@x \hbox {\relax \fontsize  {7}{8}\selectfont  $\DOTSB \leftarrow \joinrel  \rhook $}}{}{}A\discretionary {\unhbox \voidb@x \hbox {\relax \fontsize  {7}{8}\selectfont  $\DOTSB \leftarrow \joinrel  \rhook $}}{}{}I\discretionary {\unhbox \voidb@x \hbox {\relax \fontsize  {7}{8}\selectfont  $\DOTSB \leftarrow \joinrel  \rhook $}}{}{}NT}{294}{subsubsection.15.43.2.2}}
\@writefile{toc}{\contentsline {subsection}{\numberline {15.43.3}Function Documentation}{294}{subsection.15.43.3}}
\newlabel{group__utils_ga51a9e86a5f731f5f2f5584ee67cee4a8}{{15.43.3}{294}{Function Documentation}{subsection.15.43.3}{}}
\@writefile{toc}{\contentsline {subsubsection}{\numberline {15.43.3.1}vrna\discretionary {\unhbox \voidb@x \hbox {\relax \fontsize  {7}{8}\selectfont  $\DOTSB \leftarrow \joinrel  \rhook $}}{}{}\_\discretionary {\unhbox \voidb@x \hbox {\relax \fontsize  {7}{8}\selectfont  $\DOTSB \leftarrow \joinrel  \rhook $}}{}{}ptypes()}{294}{subsubsection.15.43.3.1}}
\newlabel{group__utils_gac12bf00123f88621c9be847b0879c1fb}{{15.43.3.1}{294}{\texorpdfstring {vrna\+\_\+ptypes()}{vrna\_ptypes()}}{subsubsection.15.43.3.1}{}}
\@writefile{toc}{\contentsline {subsubsection}{\numberline {15.43.3.2}vrna\discretionary {\unhbox \voidb@x \hbox {\relax \fontsize  {7}{8}\selectfont  $\DOTSB \leftarrow \joinrel  \rhook $}}{}{}\_\discretionary {\unhbox \voidb@x \hbox {\relax \fontsize  {7}{8}\selectfont  $\DOTSB \leftarrow \joinrel  \rhook $}}{}{}nucleotide\discretionary {\unhbox \voidb@x \hbox {\relax \fontsize  {7}{8}\selectfont  $\DOTSB \leftarrow \joinrel  \rhook $}}{}{}\_\discretionary {\unhbox \voidb@x \hbox {\relax \fontsize  {7}{8}\selectfont  $\DOTSB \leftarrow \joinrel  \rhook $}}{}{}encode()}{294}{subsubsection.15.43.3.2}}
\gdef \LT@clxxiii {\LT@entry 
    {3}{27.30777pt}\LT@entry 
    {3}{226.73036pt}}
\gdef \LT@clxxiv {\LT@entry 
    {3}{28.66687pt}\LT@entry 
    {3}{200.93707pt}}
\newlabel{group__utils_ga48ef585e697be9c8a08ed68c655e29b6}{{15.43.3.2}{295}{\texorpdfstring {vrna\+\_\+nucleotide\+\_\+encode()}{vrna\_nucleotide\_encode()}}{table.15.171}{}}
\@writefile{toc}{\contentsline {subsubsection}{\numberline {15.43.3.3}vrna\discretionary {\unhbox \voidb@x \hbox {\relax \fontsize  {7}{8}\selectfont  $\DOTSB \leftarrow \joinrel  \rhook $}}{}{}\_\discretionary {\unhbox \voidb@x \hbox {\relax \fontsize  {7}{8}\selectfont  $\DOTSB \leftarrow \joinrel  \rhook $}}{}{}nucleotide\discretionary {\unhbox \voidb@x \hbox {\relax \fontsize  {7}{8}\selectfont  $\DOTSB \leftarrow \joinrel  \rhook $}}{}{}\_\discretionary {\unhbox \voidb@x \hbox {\relax \fontsize  {7}{8}\selectfont  $\DOTSB \leftarrow \joinrel  \rhook $}}{}{}decode()}{295}{subsubsection.15.43.3.3}}
\newlabel{group__utils_gaf37a0979367c977edfb9da6614eebe99}{{15.43.3.3}{295}{\texorpdfstring {vrna\+\_\+nucleotide\+\_\+decode()}{vrna\_nucleotide\_decode()}}{table.15.172}{}}
\@writefile{toc}{\contentsline {subsubsection}{\numberline {15.43.3.4}vrna\discretionary {\unhbox \voidb@x \hbox {\relax \fontsize  {7}{8}\selectfont  $\DOTSB \leftarrow \joinrel  \rhook $}}{}{}\_\discretionary {\unhbox \voidb@x \hbox {\relax \fontsize  {7}{8}\selectfont  $\DOTSB \leftarrow \joinrel  \rhook $}}{}{}alloc()}{295}{subsubsection.15.43.3.4}}
\newlabel{group__utils_ga27f4719a66c6f90d1cca3d1e6e696c6a}{{15.43.3.4}{295}{\texorpdfstring {vrna\+\_\+alloc()}{vrna\_alloc()}}{table.15.173}{}}
\gdef \LT@clxxv {\LT@entry 
    {3}{28.66687pt}\LT@entry 
    {3}{205.25664pt}}
\gdef \LT@clxxvi {\LT@entry 
    {3}{38.26047pt}\LT@entry 
    {3}{222.80647pt}}
\@writefile{toc}{\contentsline {subsubsection}{\numberline {15.43.3.5}vrna\discretionary {\unhbox \voidb@x \hbox {\relax \fontsize  {7}{8}\selectfont  $\DOTSB \leftarrow \joinrel  \rhook $}}{}{}\_\discretionary {\unhbox \voidb@x \hbox {\relax \fontsize  {7}{8}\selectfont  $\DOTSB \leftarrow \joinrel  \rhook $}}{}{}realloc()}{296}{subsubsection.15.43.3.5}}
\newlabel{group__utils_ga36b35be01d7f36cf7f59c245eee628d1}{{15.43.3.5}{296}{\texorpdfstring {vrna\+\_\+realloc()}{vrna\_realloc()}}{table.15.174}{}}
\@writefile{toc}{\contentsline {subsubsection}{\numberline {15.43.3.6}vrna\discretionary {\unhbox \voidb@x \hbox {\relax \fontsize  {7}{8}\selectfont  $\DOTSB \leftarrow \joinrel  \rhook $}}{}{}\_\discretionary {\unhbox \voidb@x \hbox {\relax \fontsize  {7}{8}\selectfont  $\DOTSB \leftarrow \joinrel  \rhook $}}{}{}message\discretionary {\unhbox \voidb@x \hbox {\relax \fontsize  {7}{8}\selectfont  $\DOTSB \leftarrow \joinrel  \rhook $}}{}{}\_\discretionary {\unhbox \voidb@x \hbox {\relax \fontsize  {7}{8}\selectfont  $\DOTSB \leftarrow \joinrel  \rhook $}}{}{}error()}{296}{subsubsection.15.43.3.6}}
\newlabel{group__utils_gabc1a08dea0d84b5c33701732172a8b18}{{15.43.3.6}{296}{\texorpdfstring {vrna\+\_\+message\+\_\+error()}{vrna\_message\_error()}}{table.15.175}{}}
\@writefile{toc}{\contentsline {subsubsection}{\numberline {15.43.3.7}vrna\discretionary {\unhbox \voidb@x \hbox {\relax \fontsize  {7}{8}\selectfont  $\DOTSB \leftarrow \joinrel  \rhook $}}{}{}\_\discretionary {\unhbox \voidb@x \hbox {\relax \fontsize  {7}{8}\selectfont  $\DOTSB \leftarrow \joinrel  \rhook $}}{}{}message\discretionary {\unhbox \voidb@x \hbox {\relax \fontsize  {7}{8}\selectfont  $\DOTSB \leftarrow \joinrel  \rhook $}}{}{}\_\discretionary {\unhbox \voidb@x \hbox {\relax \fontsize  {7}{8}\selectfont  $\DOTSB \leftarrow \joinrel  \rhook $}}{}{}verror()}{296}{subsubsection.15.43.3.7}}
\gdef \LT@clxxvii {\LT@entry 
    {3}{38.26047pt}\LT@entry 
    {3}{213.79764pt}}
\gdef \LT@clxxviii {\LT@entry 
    {3}{38.26047pt}\LT@entry 
    {3}{222.80647pt}}
\newlabel{group__utils_ga6e07ed24add60693ba886d54d0a46635}{{15.43.3.7}{297}{\texorpdfstring {vrna\+\_\+message\+\_\+verror()}{vrna\_message\_verror()}}{table.15.176}{}}
\@writefile{toc}{\contentsline {subsubsection}{\numberline {15.43.3.8}vrna\discretionary {\unhbox \voidb@x \hbox {\relax \fontsize  {7}{8}\selectfont  $\DOTSB \leftarrow \joinrel  \rhook $}}{}{}\_\discretionary {\unhbox \voidb@x \hbox {\relax \fontsize  {7}{8}\selectfont  $\DOTSB \leftarrow \joinrel  \rhook $}}{}{}message\discretionary {\unhbox \voidb@x \hbox {\relax \fontsize  {7}{8}\selectfont  $\DOTSB \leftarrow \joinrel  \rhook $}}{}{}\_\discretionary {\unhbox \voidb@x \hbox {\relax \fontsize  {7}{8}\selectfont  $\DOTSB \leftarrow \joinrel  \rhook $}}{}{}warning()}{297}{subsubsection.15.43.3.8}}
\newlabel{group__utils_ga377aa8ec8a49d343063adb22e6311f26}{{15.43.3.8}{297}{\texorpdfstring {vrna\+\_\+message\+\_\+warning()}{vrna\_message\_warning()}}{table.15.177}{}}
\@writefile{toc}{\contentsline {subsubsection}{\numberline {15.43.3.9}vrna\discretionary {\unhbox \voidb@x \hbox {\relax \fontsize  {7}{8}\selectfont  $\DOTSB \leftarrow \joinrel  \rhook $}}{}{}\_\discretionary {\unhbox \voidb@x \hbox {\relax \fontsize  {7}{8}\selectfont  $\DOTSB \leftarrow \joinrel  \rhook $}}{}{}message\discretionary {\unhbox \voidb@x \hbox {\relax \fontsize  {7}{8}\selectfont  $\DOTSB \leftarrow \joinrel  \rhook $}}{}{}\_\discretionary {\unhbox \voidb@x \hbox {\relax \fontsize  {7}{8}\selectfont  $\DOTSB \leftarrow \joinrel  \rhook $}}{}{}vwarning()}{297}{subsubsection.15.43.3.9}}
\gdef \LT@clxxix {\LT@entry 
    {3}{38.26047pt}\LT@entry 
    {3}{213.79764pt}}
\gdef \LT@clxxx {\LT@entry 
    {3}{38.26047pt}\LT@entry 
    {3}{222.80647pt}}
\gdef \LT@clxxxi {\LT@entry 
    {3}{38.26047pt}\LT@entry 
    {3}{213.79764pt}}
\newlabel{group__utils_ga039bae6153a6415b054dbe6045f83d03}{{15.43.3.9}{298}{\texorpdfstring {vrna\+\_\+message\+\_\+vwarning()}{vrna\_message\_vwarning()}}{table.15.178}{}}
\@writefile{toc}{\contentsline {subsubsection}{\numberline {15.43.3.10}vrna\discretionary {\unhbox \voidb@x \hbox {\relax \fontsize  {7}{8}\selectfont  $\DOTSB \leftarrow \joinrel  \rhook $}}{}{}\_\discretionary {\unhbox \voidb@x \hbox {\relax \fontsize  {7}{8}\selectfont  $\DOTSB \leftarrow \joinrel  \rhook $}}{}{}message\discretionary {\unhbox \voidb@x \hbox {\relax \fontsize  {7}{8}\selectfont  $\DOTSB \leftarrow \joinrel  \rhook $}}{}{}\_\discretionary {\unhbox \voidb@x \hbox {\relax \fontsize  {7}{8}\selectfont  $\DOTSB \leftarrow \joinrel  \rhook $}}{}{}info()}{298}{subsubsection.15.43.3.10}}
\newlabel{group__utils_gad8b8139bd04fbfb51e398e9fcd6908dc}{{15.43.3.10}{298}{\texorpdfstring {vrna\+\_\+message\+\_\+info()}{vrna\_message\_info()}}{table.15.179}{}}
\@writefile{toc}{\contentsline {subsubsection}{\numberline {15.43.3.11}vrna\discretionary {\unhbox \voidb@x \hbox {\relax \fontsize  {7}{8}\selectfont  $\DOTSB \leftarrow \joinrel  \rhook $}}{}{}\_\discretionary {\unhbox \voidb@x \hbox {\relax \fontsize  {7}{8}\selectfont  $\DOTSB \leftarrow \joinrel  \rhook $}}{}{}message\discretionary {\unhbox \voidb@x \hbox {\relax \fontsize  {7}{8}\selectfont  $\DOTSB \leftarrow \joinrel  \rhook $}}{}{}\_\discretionary {\unhbox \voidb@x \hbox {\relax \fontsize  {7}{8}\selectfont  $\DOTSB \leftarrow \joinrel  \rhook $}}{}{}vinfo()}{298}{subsubsection.15.43.3.11}}
\gdef \LT@clxxxii {\LT@entry 
    {3}{30.79962pt}\LT@entry 
    {3}{112.75697pt}}
\newlabel{group__utils_ga384e256ebb295d04a14426179db0dd6e}{{15.43.3.11}{299}{\texorpdfstring {vrna\+\_\+message\+\_\+vinfo()}{vrna\_message\_vinfo()}}{table.15.180}{}}
\@writefile{toc}{\contentsline {subsubsection}{\numberline {15.43.3.12}vrna\discretionary {\unhbox \voidb@x \hbox {\relax \fontsize  {7}{8}\selectfont  $\DOTSB \leftarrow \joinrel  \rhook $}}{}{}\_\discretionary {\unhbox \voidb@x \hbox {\relax \fontsize  {7}{8}\selectfont  $\DOTSB \leftarrow \joinrel  \rhook $}}{}{}urn()}{299}{subsubsection.15.43.3.12}}
\newlabel{group__utils_ga46111bb3747dbcf4609f0d40ae169ad9}{{15.43.3.12}{299}{\texorpdfstring {vrna\+\_\+urn()}{vrna\_urn()}}{subsubsection.15.43.3.12}{}}
\@writefile{toc}{\contentsline {subsubsection}{\numberline {15.43.3.13}vrna\discretionary {\unhbox \voidb@x \hbox {\relax \fontsize  {7}{8}\selectfont  $\DOTSB \leftarrow \joinrel  \rhook $}}{}{}\_\discretionary {\unhbox \voidb@x \hbox {\relax \fontsize  {7}{8}\selectfont  $\DOTSB \leftarrow \joinrel  \rhook $}}{}{}int\discretionary {\unhbox \voidb@x \hbox {\relax \fontsize  {7}{8}\selectfont  $\DOTSB \leftarrow \joinrel  \rhook $}}{}{}\_\discretionary {\unhbox \voidb@x \hbox {\relax \fontsize  {7}{8}\selectfont  $\DOTSB \leftarrow \joinrel  \rhook $}}{}{}urn()}{299}{subsubsection.15.43.3.13}}
\newlabel{group__utils_gad3bbe8d01afb1310609cb018d5290550}{{15.43.3.13}{299}{\texorpdfstring {vrna\+\_\+int\+\_\+urn()}{vrna\_int\_urn()}}{table.15.181}{}}
\@writefile{toc}{\contentsline {subsubsection}{\numberline {15.43.3.14}vrna\discretionary {\unhbox \voidb@x \hbox {\relax \fontsize  {7}{8}\selectfont  $\DOTSB \leftarrow \joinrel  \rhook $}}{}{}\_\discretionary {\unhbox \voidb@x \hbox {\relax \fontsize  {7}{8}\selectfont  $\DOTSB \leftarrow \joinrel  \rhook $}}{}{}time\discretionary {\unhbox \voidb@x \hbox {\relax \fontsize  {7}{8}\selectfont  $\DOTSB \leftarrow \joinrel  \rhook $}}{}{}\_\discretionary {\unhbox \voidb@x \hbox {\relax \fontsize  {7}{8}\selectfont  $\DOTSB \leftarrow \joinrel  \rhook $}}{}{}stamp()}{299}{subsubsection.15.43.3.14}}
\gdef \LT@clxxxiii {\LT@entry 
    {3}{41.81543pt}\LT@entry 
    {3}{242.28224pt}}
\newlabel{group__utils_ga8ef1835eb83f542396f59f0b205965e5}{{15.43.3.14}{300}{\texorpdfstring {vrna\+\_\+time\+\_\+stamp()}{vrna\_time\_stamp()}}{subsubsection.15.43.3.14}{}}
\@writefile{toc}{\contentsline {subsubsection}{\numberline {15.43.3.15}get\discretionary {\unhbox \voidb@x \hbox {\relax \fontsize  {7}{8}\selectfont  $\DOTSB \leftarrow \joinrel  \rhook $}}{}{}\_\discretionary {\unhbox \voidb@x \hbox {\relax \fontsize  {7}{8}\selectfont  $\DOTSB \leftarrow \joinrel  \rhook $}}{}{}input\discretionary {\unhbox \voidb@x \hbox {\relax \fontsize  {7}{8}\selectfont  $\DOTSB \leftarrow \joinrel  \rhook $}}{}{}\_\discretionary {\unhbox \voidb@x \hbox {\relax \fontsize  {7}{8}\selectfont  $\DOTSB \leftarrow \joinrel  \rhook $}}{}{}line()}{300}{subsubsection.15.43.3.15}}
\newlabel{group__utils_gaee1dd652ca5b9e56b096963a1576f73b}{{15.43.3.15}{300}{\texorpdfstring {get\+\_\+input\+\_\+line()}{get\_input\_line()}}{table.15.182}{}}
\@writefile{toc}{\contentsline {subsubsection}{\numberline {15.43.3.16}vrna\discretionary {\unhbox \voidb@x \hbox {\relax \fontsize  {7}{8}\selectfont  $\DOTSB \leftarrow \joinrel  \rhook $}}{}{}\_\discretionary {\unhbox \voidb@x \hbox {\relax \fontsize  {7}{8}\selectfont  $\DOTSB \leftarrow \joinrel  \rhook $}}{}{}message\discretionary {\unhbox \voidb@x \hbox {\relax \fontsize  {7}{8}\selectfont  $\DOTSB \leftarrow \joinrel  \rhook $}}{}{}\_\discretionary {\unhbox \voidb@x \hbox {\relax \fontsize  {7}{8}\selectfont  $\DOTSB \leftarrow \joinrel  \rhook $}}{}{}input\discretionary {\unhbox \voidb@x \hbox {\relax \fontsize  {7}{8}\selectfont  $\DOTSB \leftarrow \joinrel  \rhook $}}{}{}\_\discretionary {\unhbox \voidb@x \hbox {\relax \fontsize  {7}{8}\selectfont  $\DOTSB \leftarrow \joinrel  \rhook $}}{}{}seq\discretionary {\unhbox \voidb@x \hbox {\relax \fontsize  {7}{8}\selectfont  $\DOTSB \leftarrow \joinrel  \rhook $}}{}{}\_\discretionary {\unhbox \voidb@x \hbox {\relax \fontsize  {7}{8}\selectfont  $\DOTSB \leftarrow \joinrel  \rhook $}}{}{}simple()}{300}{subsubsection.15.43.3.16}}
\newlabel{group__utils_gaf4d194d558b0c975f269de01dea52460}{{15.43.3.16}{300}{\texorpdfstring {vrna\+\_\+message\+\_\+input\+\_\+seq\+\_\+simple()}{vrna\_message\_input\_seq\_simple()}}{subsubsection.15.43.3.16}{}}
\gdef \LT@clxxxiv {\LT@entry 
    {3}{17.29996pt}\LT@entry 
    {3}{207.26337pt}}
\gdef \LT@clxxxv {\LT@entry 
    {3}{37.31546pt}\LT@entry 
    {3}{142.9693pt}}
\@writefile{toc}{\contentsline {subsubsection}{\numberline {15.43.3.17}vrna\discretionary {\unhbox \voidb@x \hbox {\relax \fontsize  {7}{8}\selectfont  $\DOTSB \leftarrow \joinrel  \rhook $}}{}{}\_\discretionary {\unhbox \voidb@x \hbox {\relax \fontsize  {7}{8}\selectfont  $\DOTSB \leftarrow \joinrel  \rhook $}}{}{}message\discretionary {\unhbox \voidb@x \hbox {\relax \fontsize  {7}{8}\selectfont  $\DOTSB \leftarrow \joinrel  \rhook $}}{}{}\_\discretionary {\unhbox \voidb@x \hbox {\relax \fontsize  {7}{8}\selectfont  $\DOTSB \leftarrow \joinrel  \rhook $}}{}{}input\discretionary {\unhbox \voidb@x \hbox {\relax \fontsize  {7}{8}\selectfont  $\DOTSB \leftarrow \joinrel  \rhook $}}{}{}\_\discretionary {\unhbox \voidb@x \hbox {\relax \fontsize  {7}{8}\selectfont  $\DOTSB \leftarrow \joinrel  \rhook $}}{}{}seq()}{301}{subsubsection.15.43.3.17}}
\newlabel{group__utils_ga70b180e9ea764218a82647a1cd347445}{{15.43.3.17}{301}{\texorpdfstring {vrna\+\_\+message\+\_\+input\+\_\+seq()}{vrna\_message\_input\_seq()}}{table.15.183}{}}
\@writefile{toc}{\contentsline {subsubsection}{\numberline {15.43.3.18}vrna\discretionary {\unhbox \voidb@x \hbox {\relax \fontsize  {7}{8}\selectfont  $\DOTSB \leftarrow \joinrel  \rhook $}}{}{}\_\discretionary {\unhbox \voidb@x \hbox {\relax \fontsize  {7}{8}\selectfont  $\DOTSB \leftarrow \joinrel  \rhook $}}{}{}idx\discretionary {\unhbox \voidb@x \hbox {\relax \fontsize  {7}{8}\selectfont  $\DOTSB \leftarrow \joinrel  \rhook $}}{}{}\_\discretionary {\unhbox \voidb@x \hbox {\relax \fontsize  {7}{8}\selectfont  $\DOTSB \leftarrow \joinrel  \rhook $}}{}{}row\discretionary {\unhbox \voidb@x \hbox {\relax \fontsize  {7}{8}\selectfont  $\DOTSB \leftarrow \joinrel  \rhook $}}{}{}\_\discretionary {\unhbox \voidb@x \hbox {\relax \fontsize  {7}{8}\selectfont  $\DOTSB \leftarrow \joinrel  \rhook $}}{}{}wise()}{301}{subsubsection.15.43.3.18}}
\newlabel{group__utils_ga89ebc69c52fa0c78c9e1974b0017746b}{{15.43.3.18}{301}{\texorpdfstring {vrna\+\_\+idx\+\_\+row\+\_\+wise()}{vrna\_idx\_row\_wise()}}{table.15.184}{}}
\@writefile{toc}{\contentsline {subsubsection}{\numberline {15.43.3.19}vrna\discretionary {\unhbox \voidb@x \hbox {\relax \fontsize  {7}{8}\selectfont  $\DOTSB \leftarrow \joinrel  \rhook $}}{}{}\_\discretionary {\unhbox \voidb@x \hbox {\relax \fontsize  {7}{8}\selectfont  $\DOTSB \leftarrow \joinrel  \rhook $}}{}{}idx\discretionary {\unhbox \voidb@x \hbox {\relax \fontsize  {7}{8}\selectfont  $\DOTSB \leftarrow \joinrel  \rhook $}}{}{}\_\discretionary {\unhbox \voidb@x \hbox {\relax \fontsize  {7}{8}\selectfont  $\DOTSB \leftarrow \joinrel  \rhook $}}{}{}col\discretionary {\unhbox \voidb@x \hbox {\relax \fontsize  {7}{8}\selectfont  $\DOTSB \leftarrow \joinrel  \rhook $}}{}{}\_\discretionary {\unhbox \voidb@x \hbox {\relax \fontsize  {7}{8}\selectfont  $\DOTSB \leftarrow \joinrel  \rhook $}}{}{}wise()}{301}{subsubsection.15.43.3.19}}
\gdef \LT@clxxxvi {\LT@entry 
    {3}{37.31546pt}\LT@entry 
    {3}{142.9693pt}}
\@writefile{toc}{\contentsline {subsection}{\numberline {15.43.4}Variable Documentation}{302}{subsection.15.43.4}}
\newlabel{group__utils_gaf9a866c8417afda7368bbac939ab3c47}{{15.43.4}{302}{Variable Documentation}{subsection.15.43.4}{}}
\@writefile{toc}{\contentsline {subsubsection}{\numberline {15.43.4.1}xsubi}{302}{subsubsection.15.43.4.1}}
\@setckpt{group__utils}{
\setcounter{page}{303}
\setcounter{equation}{0}
\setcounter{enumi}{2}
\setcounter{enumii}{0}
\setcounter{enumiii}{0}
\setcounter{enumiv}{0}
\setcounter{footnote}{0}
\setcounter{mpfootnote}{0}
\setcounter{part}{0}
\setcounter{chapter}{15}
\setcounter{section}{43}
\setcounter{subsection}{4}
\setcounter{subsubsection}{1}
\setcounter{paragraph}{0}
\setcounter{subparagraph}{0}
\setcounter{figure}{0}
\setcounter{table}{185}
\setcounter{float@type}{4}
\setcounter{LT@tables}{186}
\setcounter{LT@chunks}{3}
\setcounter{NAT@ctr}{0}
\setcounter{lofdepth}{1}
\setcounter{lotdepth}{1}
\setcounter{parentequation}{0}
\setcounter{Item}{12}
\setcounter{Hfootnote}{0}
\setcounter{bookmark@seq@number}{568}
\setcounter{ContinuedFloat}{0}
\setcounter{section@level}{3}
}
