\relax 
\providecommand\hyper@newdestlabel[2]{}
\@writefile{toc}{\contentsline {section}{\numberline {15.6}Extending the folding grammar with additional domains}{146}{section.15.6}}
\newlabel{group__domains}{{15.6}{146}{Extending the folding grammar with additional domains}{section.15.6}{}}
\@writefile{toc}{\contentsline {subsection}{\numberline {15.6.1}Detailed Description}{146}{subsection.15.6.1}}
\@setckpt{group__domains}{
\setcounter{page}{148}
\setcounter{equation}{0}
\setcounter{enumi}{2}
\setcounter{enumii}{0}
\setcounter{enumiii}{0}
\setcounter{enumiv}{0}
\setcounter{footnote}{0}
\setcounter{mpfootnote}{0}
\setcounter{part}{0}
\setcounter{chapter}{15}
\setcounter{section}{6}
\setcounter{subsection}{1}
\setcounter{subsubsection}{0}
\setcounter{paragraph}{0}
\setcounter{subparagraph}{0}
\setcounter{figure}{0}
\setcounter{table}{76}
\setcounter{float@type}{4}
\setcounter{LT@tables}{77}
\setcounter{LT@chunks}{3}
\setcounter{NAT@ctr}{0}
\setcounter{lofdepth}{1}
\setcounter{lotdepth}{1}
\setcounter{parentequation}{0}
\setcounter{Item}{12}
\setcounter{Hfootnote}{0}
\setcounter{bookmark@seq@number}{246}
\setcounter{ContinuedFloat}{0}
\setcounter{section@level}{2}
}
