\relax 
\providecommand\hyper@newdestlabel[2]{}
\@writefile{toc}{\contentsline {section}{\numberline {15.41}G-\/quadruplexes}{281}{section.15.41}}
\newlabel{group__gquads}{{15.41}{281}{G-\/quadruplexes}{section.15.41}{}}
\@writefile{toc}{\contentsline {subsection}{\numberline {15.41.1}Detailed Description}{281}{subsection.15.41.1}}
\@writefile{toc}{\contentsline {subsection}{\numberline {15.41.2}Function Documentation}{281}{subsection.15.41.2}}
\newlabel{group__gquads_ga392e45c9615aa123737671603fa4203c}{{15.41.2}{281}{Function Documentation}{subsection.15.41.2}{}}
\@writefile{toc}{\contentsline {subsubsection}{\numberline {15.41.2.1}get\discretionary {\unhbox \voidb@x \hbox {\relax \fontsize  {7}{8}\selectfont  $\DOTSB \leftarrow \joinrel  \rhook $}}{}{}\_\discretionary {\unhbox \voidb@x \hbox {\relax \fontsize  {7}{8}\selectfont  $\DOTSB \leftarrow \joinrel  \rhook $}}{}{}gquad\discretionary {\unhbox \voidb@x \hbox {\relax \fontsize  {7}{8}\selectfont  $\DOTSB \leftarrow \joinrel  \rhook $}}{}{}\_\discretionary {\unhbox \voidb@x \hbox {\relax \fontsize  {7}{8}\selectfont  $\DOTSB \leftarrow \joinrel  \rhook $}}{}{}matrix()}{281}{subsubsection.15.41.2.1}}
\gdef \LT@clxix {\LT@entry 
    {3}{18.80287pt}\LT@entry 
    {3}{328.14896pt}}
\gdef \LT@clxx {\LT@entry 
    {3}{34.03969pt}\LT@entry 
    {3}{244.97302pt}}
\newlabel{group__gquads_gae41763215b9c64d2a7b67f0df8a28078}{{15.41.2.1}{282}{\texorpdfstring {get\+\_\+gquad\+\_\+matrix()}{get\_gquad\_matrix()}}{table.15.168}{}}
\@writefile{toc}{\contentsline {subsubsection}{\numberline {15.41.2.2}parse\discretionary {\unhbox \voidb@x \hbox {\relax \fontsize  {7}{8}\selectfont  $\DOTSB \leftarrow \joinrel  \rhook $}}{}{}\_\discretionary {\unhbox \voidb@x \hbox {\relax \fontsize  {7}{8}\selectfont  $\DOTSB \leftarrow \joinrel  \rhook $}}{}{}gquad()}{282}{subsubsection.15.41.2.2}}
\newlabel{group__gquads_ga220c41e8dbcee940ac975b8ce88e55c5}{{15.41.2.2}{282}{\texorpdfstring {parse\+\_\+gquad()}{parse\_gquad()}}{subsubsection.15.41.2.2}{}}
\@writefile{toc}{\contentsline {subsubsection}{\numberline {15.41.2.3}backtrack\discretionary {\unhbox \voidb@x \hbox {\relax \fontsize  {7}{8}\selectfont  $\DOTSB \leftarrow \joinrel  \rhook $}}{}{}\_\discretionary {\unhbox \voidb@x \hbox {\relax \fontsize  {7}{8}\selectfont  $\DOTSB \leftarrow \joinrel  \rhook $}}{}{}\discretionary {\unhbox \voidb@x \hbox {\relax \fontsize  {7}{8}\selectfont  $\DOTSB \leftarrow \joinrel  \rhook $}}{}{}G\discretionary {\unhbox \voidb@x \hbox {\relax \fontsize  {7}{8}\selectfont  $\DOTSB \leftarrow \joinrel  \rhook $}}{}{}Quad\discretionary {\unhbox \voidb@x \hbox {\relax \fontsize  {7}{8}\selectfont  $\DOTSB \leftarrow \joinrel  \rhook $}}{}{}\_\discretionary {\unhbox \voidb@x \hbox {\relax \fontsize  {7}{8}\selectfont  $\DOTSB \leftarrow \joinrel  \rhook $}}{}{}\discretionary {\unhbox \voidb@x \hbox {\relax \fontsize  {7}{8}\selectfont  $\DOTSB \leftarrow \joinrel  \rhook $}}{}{}Int\discretionary {\unhbox \voidb@x \hbox {\relax \fontsize  {7}{8}\selectfont  $\DOTSB \leftarrow \joinrel  \rhook $}}{}{}Loop()}{282}{subsubsection.15.41.2.3}}
\gdef \LT@clxxi {\LT@entry 
    {3}{29.80966pt}\LT@entry 
    {3}{244.97302pt}}
\newlabel{group__gquads_ga7b371308fa5a45c7ac353ef6ed1014de}{{15.41.2.3}{283}{\texorpdfstring {backtrack\+\_\+\+G\+Quad\+\_\+\+Int\+Loop()}{backtrack\_GQuad\_IntLoop()}}{table.15.169}{}}
\@writefile{toc}{\contentsline {subsubsection}{\numberline {15.41.2.4}backtrack\discretionary {\unhbox \voidb@x \hbox {\relax \fontsize  {7}{8}\selectfont  $\DOTSB \leftarrow \joinrel  \rhook $}}{}{}\_\discretionary {\unhbox \voidb@x \hbox {\relax \fontsize  {7}{8}\selectfont  $\DOTSB \leftarrow \joinrel  \rhook $}}{}{}\discretionary {\unhbox \voidb@x \hbox {\relax \fontsize  {7}{8}\selectfont  $\DOTSB \leftarrow \joinrel  \rhook $}}{}{}G\discretionary {\unhbox \voidb@x \hbox {\relax \fontsize  {7}{8}\selectfont  $\DOTSB \leftarrow \joinrel  \rhook $}}{}{}Quad\discretionary {\unhbox \voidb@x \hbox {\relax \fontsize  {7}{8}\selectfont  $\DOTSB \leftarrow \joinrel  \rhook $}}{}{}\_\discretionary {\unhbox \voidb@x \hbox {\relax \fontsize  {7}{8}\selectfont  $\DOTSB \leftarrow \joinrel  \rhook $}}{}{}\discretionary {\unhbox \voidb@x \hbox {\relax \fontsize  {7}{8}\selectfont  $\DOTSB \leftarrow \joinrel  \rhook $}}{}{}Int\discretionary {\unhbox \voidb@x \hbox {\relax \fontsize  {7}{8}\selectfont  $\DOTSB \leftarrow \joinrel  \rhook $}}{}{}Loop\discretionary {\unhbox \voidb@x \hbox {\relax \fontsize  {7}{8}\selectfont  $\DOTSB \leftarrow \joinrel  \rhook $}}{}{}\_\discretionary {\unhbox \voidb@x \hbox {\relax \fontsize  {7}{8}\selectfont  $\DOTSB \leftarrow \joinrel  \rhook $}}{}{}\discretionary {\unhbox \voidb@x \hbox {\relax \fontsize  {7}{8}\selectfont  $\DOTSB \leftarrow \joinrel  \rhook $}}{}{}L()}{283}{subsubsection.15.41.2.4}}
\@setckpt{group__gquads}{
\setcounter{page}{284}
\setcounter{equation}{0}
\setcounter{enumi}{2}
\setcounter{enumii}{0}
\setcounter{enumiii}{0}
\setcounter{enumiv}{0}
\setcounter{footnote}{0}
\setcounter{mpfootnote}{0}
\setcounter{part}{0}
\setcounter{chapter}{15}
\setcounter{section}{41}
\setcounter{subsection}{2}
\setcounter{subsubsection}{4}
\setcounter{paragraph}{0}
\setcounter{subparagraph}{0}
\setcounter{figure}{0}
\setcounter{table}{170}
\setcounter{float@type}{4}
\setcounter{LT@tables}{171}
\setcounter{LT@chunks}{3}
\setcounter{NAT@ctr}{0}
\setcounter{lofdepth}{1}
\setcounter{lotdepth}{1}
\setcounter{parentequation}{0}
\setcounter{Item}{12}
\setcounter{Hfootnote}{0}
\setcounter{bookmark@seq@number}{515}
\setcounter{ContinuedFloat}{0}
\setcounter{section@level}{3}
}
