\relax 
\providecommand\hyper@newdestlabel[2]{}
\@writefile{toc}{\contentsline {section}{\numberline {15.40}Complex structured modules}{280}{section.15.40}}
\newlabel{group__paired__modules}{{15.40}{280}{Complex structured modules}{section.15.40}{}}
\@writefile{toc}{\contentsline {subsection}{\numberline {15.40.1}Detailed Description}{280}{subsection.15.40.1}}
\@setckpt{group__paired__modules}{
\setcounter{page}{281}
\setcounter{equation}{0}
\setcounter{enumi}{2}
\setcounter{enumii}{0}
\setcounter{enumiii}{0}
\setcounter{enumiv}{0}
\setcounter{footnote}{0}
\setcounter{mpfootnote}{0}
\setcounter{part}{0}
\setcounter{chapter}{15}
\setcounter{section}{40}
\setcounter{subsection}{1}
\setcounter{subsubsection}{0}
\setcounter{paragraph}{0}
\setcounter{subparagraph}{0}
\setcounter{figure}{0}
\setcounter{table}{167}
\setcounter{float@type}{4}
\setcounter{LT@tables}{168}
\setcounter{LT@chunks}{3}
\setcounter{NAT@ctr}{0}
\setcounter{lofdepth}{1}
\setcounter{lotdepth}{1}
\setcounter{parentequation}{0}
\setcounter{Item}{12}
\setcounter{Hfootnote}{0}
\setcounter{bookmark@seq@number}{508}
\setcounter{ContinuedFloat}{0}
\setcounter{section@level}{2}
}
