\relax 
\providecommand\hyper@newdestlabel[2]{}
\gdef \LT@cxxxi {\LT@entry 
    {3}{30.79999pt}\LT@entry 
    {3}{26.40372pt}\LT@entry 
    {3}{322.39795pt}}
\@writefile{toc}{\contentsline {section}{\numberline {15.19}Compute the centroid structure}{221}{section.15.19}}
\newlabel{group__centroid__fold}{{15.19}{221}{Compute the centroid structure}{section.15.19}{}}
\@writefile{toc}{\contentsline {subsection}{\numberline {15.19.1}Detailed Description}{221}{subsection.15.19.1}}
\@writefile{toc}{\contentsline {subsection}{\numberline {15.19.2}Function Documentation}{221}{subsection.15.19.2}}
\newlabel{group__centroid__fold_ga0e64bb67e51963dc71cbd4d30b80a018}{{15.19.2}{221}{Function Documentation}{subsection.15.19.2}{}}
\@writefile{toc}{\contentsline {subsubsection}{\numberline {15.19.2.1}vrna\discretionary {\unhbox \voidb@x \hbox {\relax \fontsize  {7}{8}\selectfont  $\DOTSB \leftarrow \joinrel  \rhook $}}{}{}\_\discretionary {\unhbox \voidb@x \hbox {\relax \fontsize  {7}{8}\selectfont  $\DOTSB \leftarrow \joinrel  \rhook $}}{}{}centroid()}{221}{subsubsection.15.19.2.1}}
\gdef \LT@cxxxii {\LT@entry 
    {3}{30.79999pt}\LT@entry 
    {3}{36.91547pt}\LT@entry 
    {3}{322.39795pt}}
\newlabel{group__centroid__fold_ga70525a53b879c1427f9ea546c96fa1c5}{{15.19.2.1}{222}{\texorpdfstring {vrna\+\_\+centroid()}{vrna\_centroid()}}{table.15.130}{}}
\@writefile{toc}{\contentsline {subsubsection}{\numberline {15.19.2.2}vrna\discretionary {\unhbox \voidb@x \hbox {\relax \fontsize  {7}{8}\selectfont  $\DOTSB \leftarrow \joinrel  \rhook $}}{}{}\_\discretionary {\unhbox \voidb@x \hbox {\relax \fontsize  {7}{8}\selectfont  $\DOTSB \leftarrow \joinrel  \rhook $}}{}{}centroid\discretionary {\unhbox \voidb@x \hbox {\relax \fontsize  {7}{8}\selectfont  $\DOTSB \leftarrow \joinrel  \rhook $}}{}{}\_\discretionary {\unhbox \voidb@x \hbox {\relax \fontsize  {7}{8}\selectfont  $\DOTSB \leftarrow \joinrel  \rhook $}}{}{}from\discretionary {\unhbox \voidb@x \hbox {\relax \fontsize  {7}{8}\selectfont  $\DOTSB \leftarrow \joinrel  \rhook $}}{}{}\_\discretionary {\unhbox \voidb@x \hbox {\relax \fontsize  {7}{8}\selectfont  $\DOTSB \leftarrow \joinrel  \rhook $}}{}{}plist()}{222}{subsubsection.15.19.2.2}}
\newlabel{group__centroid__fold_ga98193ede06778a9ea966cc8fc43d0804}{{15.19.2.2}{222}{\texorpdfstring {vrna\+\_\+centroid\+\_\+from\+\_\+plist()}{vrna\_centroid\_from\_plist()}}{table.15.131}{}}
\@writefile{toc}{\contentsline {subsubsection}{\numberline {15.19.2.3}vrna\discretionary {\unhbox \voidb@x \hbox {\relax \fontsize  {7}{8}\selectfont  $\DOTSB \leftarrow \joinrel  \rhook $}}{}{}\_\discretionary {\unhbox \voidb@x \hbox {\relax \fontsize  {7}{8}\selectfont  $\DOTSB \leftarrow \joinrel  \rhook $}}{}{}centroid\discretionary {\unhbox \voidb@x \hbox {\relax \fontsize  {7}{8}\selectfont  $\DOTSB \leftarrow \joinrel  \rhook $}}{}{}\_\discretionary {\unhbox \voidb@x \hbox {\relax \fontsize  {7}{8}\selectfont  $\DOTSB \leftarrow \joinrel  \rhook $}}{}{}from\discretionary {\unhbox \voidb@x \hbox {\relax \fontsize  {7}{8}\selectfont  $\DOTSB \leftarrow \joinrel  \rhook $}}{}{}\_\discretionary {\unhbox \voidb@x \hbox {\relax \fontsize  {7}{8}\selectfont  $\DOTSB \leftarrow \joinrel  \rhook $}}{}{}probs()}{222}{subsubsection.15.19.2.3}}
\gdef \LT@cxxxiii {\LT@entry 
    {3}{30.79999pt}\LT@entry 
    {3}{36.91547pt}\LT@entry 
    {3}{387.52866pt}}
\@setckpt{group__centroid__fold}{
\setcounter{page}{224}
\setcounter{equation}{0}
\setcounter{enumi}{2}
\setcounter{enumii}{0}
\setcounter{enumiii}{0}
\setcounter{enumiv}{0}
\setcounter{footnote}{0}
\setcounter{mpfootnote}{0}
\setcounter{part}{0}
\setcounter{chapter}{15}
\setcounter{section}{19}
\setcounter{subsection}{2}
\setcounter{subsubsection}{3}
\setcounter{paragraph}{0}
\setcounter{subparagraph}{0}
\setcounter{figure}{0}
\setcounter{table}{132}
\setcounter{float@type}{4}
\setcounter{LT@tables}{133}
\setcounter{LT@chunks}{3}
\setcounter{NAT@ctr}{0}
\setcounter{lofdepth}{1}
\setcounter{lotdepth}{1}
\setcounter{parentequation}{0}
\setcounter{Item}{12}
\setcounter{Hfootnote}{0}
\setcounter{bookmark@seq@number}{389}
\setcounter{ContinuedFloat}{0}
\setcounter{section@level}{3}
}
