\relax 
\providecommand\hyper@newdestlabel[2]{}
\citation{zuker:1989}
\@writefile{toc}{\contentsline {section}{\numberline {15.15}Suboptimal structures sensu Stiegler et al. 1984 / Zuker et al. 1989}{211}{section.15.15}}
\newlabel{group__subopt__zuker}{{15.15}{211}{Suboptimal structures sensu Stiegler et al. 1984 / Zuker et al. 1989}{section.15.15}{}}
\@writefile{toc}{\contentsline {subsection}{\numberline {15.15.1}Detailed Description}{211}{subsection.15.15.1}}
\@writefile{toc}{\contentsline {subsection}{\numberline {15.15.2}Function Documentation}{211}{subsection.15.15.2}}
\newlabel{group__subopt__zuker_gababde9d210eb433854f1e71da7815fbb}{{15.15.2}{211}{Function Documentation}{subsection.15.15.2}{}}
\@writefile{toc}{\contentsline {subsubsection}{\numberline {15.15.2.1}vrna\discretionary {\unhbox \voidb@x \hbox {\relax \fontsize  {7}{8}\selectfont  $\DOTSB \leftarrow \joinrel  \rhook $}}{}{}\_\discretionary {\unhbox \voidb@x \hbox {\relax \fontsize  {7}{8}\selectfont  $\DOTSB \leftarrow \joinrel  \rhook $}}{}{}subopt\discretionary {\unhbox \voidb@x \hbox {\relax \fontsize  {7}{8}\selectfont  $\DOTSB \leftarrow \joinrel  \rhook $}}{}{}\_\discretionary {\unhbox \voidb@x \hbox {\relax \fontsize  {7}{8}\selectfont  $\DOTSB \leftarrow \joinrel  \rhook $}}{}{}zuker()}{211}{subsubsection.15.15.2.1}}
\@writefile{brf}{\backcite{zuker:1989}{{211}{15.15.2.1}{subsubsection.15.15.2.1}}}
\gdef \LT@cxxi {\LT@entry 
    {3}{21.79993pt}\LT@entry 
    {3}{71.15991pt}}
\gdef \LT@cxxii {\LT@entry 
    {3}{34.93945pt}\LT@entry 
    {3}{72.924pt}}
\newlabel{group__subopt__zuker_ga0d5104e3ecf119d8eabd40aa5fe47f90}{{15.15.2.1}{212}{\texorpdfstring {vrna\+\_\+subopt\+\_\+zuker()}{vrna\_subopt\_zuker()}}{table.15.120}{}}
\@writefile{toc}{\contentsline {subsubsection}{\numberline {15.15.2.2}zukersubopt()}{212}{subsubsection.15.15.2.2}}
\newlabel{group__subopt__zuker_gab6d0ea8cc1d02f6dd831ca81043c9eb8}{{15.15.2.2}{212}{\texorpdfstring {zukersubopt()}{zukersubopt()}}{table.15.121}{}}
\@writefile{toc}{\contentsline {subsubsection}{\numberline {15.15.2.3}zukersubopt\discretionary {\unhbox \voidb@x \hbox {\relax \fontsize  {7}{8}\selectfont  $\DOTSB \leftarrow \joinrel  \rhook $}}{}{}\_\discretionary {\unhbox \voidb@x \hbox {\relax \fontsize  {7}{8}\selectfont  $\DOTSB \leftarrow \joinrel  \rhook $}}{}{}par()}{212}{subsubsection.15.15.2.3}}
\@setckpt{group__subopt__zuker}{
\setcounter{page}{213}
\setcounter{equation}{0}
\setcounter{enumi}{2}
\setcounter{enumii}{0}
\setcounter{enumiii}{0}
\setcounter{enumiv}{0}
\setcounter{footnote}{0}
\setcounter{mpfootnote}{0}
\setcounter{part}{0}
\setcounter{chapter}{15}
\setcounter{section}{15}
\setcounter{subsection}{2}
\setcounter{subsubsection}{3}
\setcounter{paragraph}{0}
\setcounter{subparagraph}{0}
\setcounter{figure}{0}
\setcounter{table}{121}
\setcounter{float@type}{4}
\setcounter{LT@tables}{122}
\setcounter{LT@chunks}{3}
\setcounter{NAT@ctr}{0}
\setcounter{lofdepth}{1}
\setcounter{lotdepth}{1}
\setcounter{parentequation}{0}
\setcounter{Item}{12}
\setcounter{Hfootnote}{0}
\setcounter{bookmark@seq@number}{363}
\setcounter{ContinuedFloat}{0}
\setcounter{section@level}{3}
}
