\relax 
\providecommand\hyper@newdestlabel[2]{}
\@writefile{toc}{\contentsline {section}{\numberline {15.7}Unstructured domains}{148}{section.15.7}}
\newlabel{group__domains__up}{{15.7}{148}{Unstructured domains}{section.15.7}{}}
\newlabel{group__domains__up_gaac911374e86236a51bfd42e1f098eaba}{{15.7}{148}{Macros}{section*.43}{}}
\newlabel{group__domains__up_ga23b610ea9564346c45cc1e2bbb62adf7}{{15.7}{148}{Macros}{section*.43}{}}
\newlabel{group__domains__up_gac4a0feccd9654c149203200248c2716b}{{15.7}{148}{Macros}{section*.43}{}}
\newlabel{group__domains__up_ga67b80796655e5227a4ed662bfbe398b0}{{15.7}{148}{Macros}{section*.43}{}}
\newlabel{group__domains__up_gaab12b58d59be76446a9f76fad2fe624c}{{15.7}{148}{Macros}{section*.43}{}}
\newlabel{group__domains__up_ga3c6be4cce70f1af9e885788856101699}{{15.7}{148}{Macros}{section*.43}{}}
\citation{lorenz:2016b}
\newlabel{group__domains__up_ga0009117b14d29143e8b18ab891f48c2d}{{15.7}{149}{Typedefs}{section*.44}{}}
\newlabel{group__domains__up_ga60a2244cf1415fd076cc0dba92c2a96d}{{15.7}{149}{Typedefs}{section*.44}{}}
\newlabel{group__domains__up_ga79eb0224b0b6e0a86c9e8c4a1b0cad04}{{15.7}{149}{Typedefs}{section*.44}{}}
\newlabel{group__domains__up_ga5cb14c4f2149c3df9842a709d6d64140}{{15.7}{149}{Typedefs}{section*.44}{}}
\newlabel{group__domains__up_gae4c18aa60c657a4a856a4b41a9fbc0dc}{{15.7}{149}{Typedefs}{section*.44}{}}
\newlabel{group__domains__up_gacf121219e336f14d288a304564307f67}{{15.7}{149}{Typedefs}{section*.44}{}}
\newlabel{group__domains__up_ga13eb77d5c404b08a8868e382a66ab8bb}{{15.7}{149}{Typedefs}{section*.44}{}}
\@writefile{toc}{\contentsline {subsection}{\numberline {15.7.1}Detailed Description}{149}{subsection.15.7.1}}
\@writefile{brf}{\backcite{lorenz:2016b}{{149}{15.7.1}{subsection.15.7.1}}}
\@writefile{toc}{\contentsline {subsection}{\numberline {15.7.2}Data Structure Documentation}{151}{subsection.15.7.2}}
\newlabel{structvrna__unstructured__domain__s}{{15.7.2}{151}{Data Structure Documentation}{subsection.15.7.2}{}}
\@writefile{toc}{\contentsline {subsubsection}{\numberline {15.7.2.1}struct vrna\discretionary {\unhbox \voidb@x \hbox {\relax \fontsize  {7}{8}\selectfont  $\DOTSB \leftarrow \joinrel  \rhook $}}{}{}\_\discretionary {\unhbox \voidb@x \hbox {\relax \fontsize  {7}{8}\selectfont  $\DOTSB \leftarrow \joinrel  \rhook $}}{}{}unstructured\discretionary {\unhbox \voidb@x \hbox {\relax \fontsize  {7}{8}\selectfont  $\DOTSB \leftarrow \joinrel  \rhook $}}{}{}\_\discretionary {\unhbox \voidb@x \hbox {\relax \fontsize  {7}{8}\selectfont  $\DOTSB \leftarrow \joinrel  \rhook $}}{}{}domain\discretionary {\unhbox \voidb@x \hbox {\relax \fontsize  {7}{8}\selectfont  $\DOTSB \leftarrow \joinrel  \rhook $}}{}{}\_\discretionary {\unhbox \voidb@x \hbox {\relax \fontsize  {7}{8}\selectfont  $\DOTSB \leftarrow \joinrel  \rhook $}}{}{}s}{151}{subsubsection.15.7.2.1}}
\newlabel{group__domains__up_ae17005ef8043aca2fc3864804cd5def6}{{15.7.2.1}{151}{Data Fields}{section*.46}{}}
\newlabel{group__domains__up_a2b484b0e19a47145db7055ada8b14159}{{15.7.2.1}{151}{Data Fields}{section*.46}{}}
\newlabel{group__domains__up_a5ad34148ea1d2e501f3e02029449546e}{{15.7.2.1}{151}{Data Fields}{section*.46}{}}
\newlabel{group__domains__up_af285436bbdea4436ad2cedec65d48c75}{{15.7.2.1}{151}{Data Fields}{section*.46}{}}
\newlabel{group__domains__up_a6a9f89ab7d147eb0ffd6cf8d77d178c0}{{15.7.2.1}{151}{Data Fields}{section*.46}{}}
\newlabel{group__domains__up_aae4f0a45419784fb7c244bce2781403d}{{15.7.2.1}{151}{Data Fields}{section*.46}{}}
\newlabel{group__domains__up_a3f0c026cced369ff176a66b2820f2057}{{15.7.2.1}{151}{Data Fields}{section*.46}{}}
\newlabel{group__domains__up_a181ae6ec67f77e68899ec6a0780f3e01}{{15.7.2.1}{151}{Data Fields}{section*.46}{}}
\newlabel{group__domains__up_a1efba765dd4ea893dc8bd7362761f99b}{{15.7.2.1}{151}{Data Fields}{section*.46}{}}
\newlabel{group__domains__up_ad5aaa2530557880ae89e297f8f09aa55}{{15.7.2.1}{151}{Data Fields}{section*.46}{}}
\newlabel{group__domains__up_a8802b1b0512999a9f35202031811ce17}{{15.7.2.1}{151}{Data Fields}{section*.46}{}}
\newlabel{group__domains__up_a21b3084846902172858bc53f113d05a4}{{15.7.2.1}{151}{Data Fields}{section*.46}{}}
\newlabel{group__domains__up_a457b43dfab7f4321b5d7a84e5deea5d7}{{15.7.2.1}{151}{Data Fields}{section*.46}{}}
\newlabel{group__domains__up_a0b155283bccf65c5253f31e0211ae8ff}{{15.7.2.1}{151}{Data Fields}{section*.46}{}}
\gdef \LT@lxxviii {\LT@entry 
    {3}{51.82324pt}\LT@entry 
    {3}{322.15532pt}}
\@writefile{toc}{\contentsline {paragraph}{\numberline {15.7.2.1.1}Field Documentation}{152}{paragraph.15.7.2.1.1}}
\newlabel{group__domains__up_ac2656d57130ac56e85212836482cbe80}{{15.7.2.1.1}{152}{Field Documentation}{paragraph.15.7.2.1.1}{}}
\@writefile{toc}{\contentsline {subparagraph}{\numberline {15.7.2.1.1.1}prod\discretionary {\unhbox \voidb@x \hbox {\relax \fontsize  {7}{8}\selectfont  $\DOTSB \leftarrow \joinrel  \rhook $}}{}{}\_\discretionary {\unhbox \voidb@x \hbox {\relax \fontsize  {7}{8}\selectfont  $\DOTSB \leftarrow \joinrel  \rhook $}}{}{}cb}{152}{subparagraph.15.7.2.1.1.1}}
\@writefile{toc}{\contentsline {subsection}{\numberline {15.7.3}Function Documentation}{152}{subsection.15.7.3}}
\newlabel{group__domains__up_gaec0c3313fb2951946614f920d289829a}{{15.7.3}{152}{Function Documentation}{subsection.15.7.3}{}}
\@writefile{toc}{\contentsline {subsubsection}{\numberline {15.7.3.1}vrna\discretionary {\unhbox \voidb@x \hbox {\relax \fontsize  {7}{8}\selectfont  $\DOTSB \leftarrow \joinrel  \rhook $}}{}{}\_\discretionary {\unhbox \voidb@x \hbox {\relax \fontsize  {7}{8}\selectfont  $\DOTSB \leftarrow \joinrel  \rhook $}}{}{}ud\discretionary {\unhbox \voidb@x \hbox {\relax \fontsize  {7}{8}\selectfont  $\DOTSB \leftarrow \joinrel  \rhook $}}{}{}\_\discretionary {\unhbox \voidb@x \hbox {\relax \fontsize  {7}{8}\selectfont  $\DOTSB \leftarrow \joinrel  \rhook $}}{}{}add\discretionary {\unhbox \voidb@x \hbox {\relax \fontsize  {7}{8}\selectfont  $\DOTSB \leftarrow \joinrel  \rhook $}}{}{}\_\discretionary {\unhbox \voidb@x \hbox {\relax \fontsize  {7}{8}\selectfont  $\DOTSB \leftarrow \joinrel  \rhook $}}{}{}motif()}{152}{subsubsection.15.7.3.1}}
\newlabel{group__domains__up_gada59cb0c498b812eadd010811af3f2d4}{{15.7.3.1}{152}{\texorpdfstring {vrna\+\_\+ud\+\_\+add\+\_\+motif()}{vrna\_ud\_add\_motif()}}{table.15.77}{}}
\@writefile{toc}{\contentsline {subsubsection}{\numberline {15.7.3.2}vrna\discretionary {\unhbox \voidb@x \hbox {\relax \fontsize  {7}{8}\selectfont  $\DOTSB \leftarrow \joinrel  \rhook $}}{}{}\_\discretionary {\unhbox \voidb@x \hbox {\relax \fontsize  {7}{8}\selectfont  $\DOTSB \leftarrow \joinrel  \rhook $}}{}{}ud\discretionary {\unhbox \voidb@x \hbox {\relax \fontsize  {7}{8}\selectfont  $\DOTSB \leftarrow \joinrel  \rhook $}}{}{}\_\discretionary {\unhbox \voidb@x \hbox {\relax \fontsize  {7}{8}\selectfont  $\DOTSB \leftarrow \joinrel  \rhook $}}{}{}remove()}{152}{subsubsection.15.7.3.2}}
\gdef \LT@lxxix {\LT@entry 
    {3}{21.79993pt}\LT@entry 
    {3}{362.29463pt}}
\gdef \LT@lxxx {\LT@entry 
    {3}{42.8144pt}\LT@entry 
    {3}{367.07333pt}}
\newlabel{group__domains__up_gac1f18c312b91d80089534a87d956e58b}{{15.7.3.2}{153}{\texorpdfstring {vrna\+\_\+ud\+\_\+remove()}{vrna\_ud\_remove()}}{table.15.78}{}}
\@writefile{toc}{\contentsline {subsubsection}{\numberline {15.7.3.3}vrna\discretionary {\unhbox \voidb@x \hbox {\relax \fontsize  {7}{8}\selectfont  $\DOTSB \leftarrow \joinrel  \rhook $}}{}{}\_\discretionary {\unhbox \voidb@x \hbox {\relax \fontsize  {7}{8}\selectfont  $\DOTSB \leftarrow \joinrel  \rhook $}}{}{}ud\discretionary {\unhbox \voidb@x \hbox {\relax \fontsize  {7}{8}\selectfont  $\DOTSB \leftarrow \joinrel  \rhook $}}{}{}\_\discretionary {\unhbox \voidb@x \hbox {\relax \fontsize  {7}{8}\selectfont  $\DOTSB \leftarrow \joinrel  \rhook $}}{}{}set\discretionary {\unhbox \voidb@x \hbox {\relax \fontsize  {7}{8}\selectfont  $\DOTSB \leftarrow \joinrel  \rhook $}}{}{}\_\discretionary {\unhbox \voidb@x \hbox {\relax \fontsize  {7}{8}\selectfont  $\DOTSB \leftarrow \joinrel  \rhook $}}{}{}data()}{153}{subsubsection.15.7.3.3}}
\newlabel{group__domains__up_ga745a99f0bc72898d54de16f6e538828a}{{15.7.3.3}{153}{\texorpdfstring {vrna\+\_\+ud\+\_\+set\+\_\+data()}{vrna\_ud\_set\_data()}}{table.15.79}{}}
\@writefile{toc}{\contentsline {subsubsection}{\numberline {15.7.3.4}vrna\discretionary {\unhbox \voidb@x \hbox {\relax \fontsize  {7}{8}\selectfont  $\DOTSB \leftarrow \joinrel  \rhook $}}{}{}\_\discretionary {\unhbox \voidb@x \hbox {\relax \fontsize  {7}{8}\selectfont  $\DOTSB \leftarrow \joinrel  \rhook $}}{}{}ud\discretionary {\unhbox \voidb@x \hbox {\relax \fontsize  {7}{8}\selectfont  $\DOTSB \leftarrow \joinrel  \rhook $}}{}{}\_\discretionary {\unhbox \voidb@x \hbox {\relax \fontsize  {7}{8}\selectfont  $\DOTSB \leftarrow \joinrel  \rhook $}}{}{}set\discretionary {\unhbox \voidb@x \hbox {\relax \fontsize  {7}{8}\selectfont  $\DOTSB \leftarrow \joinrel  \rhook $}}{}{}\_\discretionary {\unhbox \voidb@x \hbox {\relax \fontsize  {7}{8}\selectfont  $\DOTSB \leftarrow \joinrel  \rhook $}}{}{}prod\discretionary {\unhbox \voidb@x \hbox {\relax \fontsize  {7}{8}\selectfont  $\DOTSB \leftarrow \joinrel  \rhook $}}{}{}\_\discretionary {\unhbox \voidb@x \hbox {\relax \fontsize  {7}{8}\selectfont  $\DOTSB \leftarrow \joinrel  \rhook $}}{}{}rule\discretionary {\unhbox \voidb@x \hbox {\relax \fontsize  {7}{8}\selectfont  $\DOTSB \leftarrow \joinrel  \rhook $}}{}{}\_\discretionary {\unhbox \voidb@x \hbox {\relax \fontsize  {7}{8}\selectfont  $\DOTSB \leftarrow \joinrel  \rhook $}}{}{}cb()}{153}{subsubsection.15.7.3.4}}
\gdef \LT@lxxxi {\LT@entry 
    {3}{40.31252pt}\LT@entry 
    {3}{294.44516pt}}
\newlabel{group__domains__up_ga2fb1db2099da26c76247e1209ad4aa09}{{15.7.3.4}{154}{\texorpdfstring {vrna\+\_\+ud\+\_\+set\+\_\+prod\+\_\+rule\+\_\+cb()}{vrna\_ud\_set\_prod\_rule\_cb()}}{table.15.80}{}}
\@writefile{toc}{\contentsline {subsubsection}{\numberline {15.7.3.5}vrna\discretionary {\unhbox \voidb@x \hbox {\relax \fontsize  {7}{8}\selectfont  $\DOTSB \leftarrow \joinrel  \rhook $}}{}{}\_\discretionary {\unhbox \voidb@x \hbox {\relax \fontsize  {7}{8}\selectfont  $\DOTSB \leftarrow \joinrel  \rhook $}}{}{}ud\discretionary {\unhbox \voidb@x \hbox {\relax \fontsize  {7}{8}\selectfont  $\DOTSB \leftarrow \joinrel  \rhook $}}{}{}\_\discretionary {\unhbox \voidb@x \hbox {\relax \fontsize  {7}{8}\selectfont  $\DOTSB \leftarrow \joinrel  \rhook $}}{}{}set\discretionary {\unhbox \voidb@x \hbox {\relax \fontsize  {7}{8}\selectfont  $\DOTSB \leftarrow \joinrel  \rhook $}}{}{}\_\discretionary {\unhbox \voidb@x \hbox {\relax \fontsize  {7}{8}\selectfont  $\DOTSB \leftarrow \joinrel  \rhook $}}{}{}exp\discretionary {\unhbox \voidb@x \hbox {\relax \fontsize  {7}{8}\selectfont  $\DOTSB \leftarrow \joinrel  \rhook $}}{}{}\_\discretionary {\unhbox \voidb@x \hbox {\relax \fontsize  {7}{8}\selectfont  $\DOTSB \leftarrow \joinrel  \rhook $}}{}{}prod\discretionary {\unhbox \voidb@x \hbox {\relax \fontsize  {7}{8}\selectfont  $\DOTSB \leftarrow \joinrel  \rhook $}}{}{}\_\discretionary {\unhbox \voidb@x \hbox {\relax \fontsize  {7}{8}\selectfont  $\DOTSB \leftarrow \joinrel  \rhook $}}{}{}rule\discretionary {\unhbox \voidb@x \hbox {\relax \fontsize  {7}{8}\selectfont  $\DOTSB \leftarrow \joinrel  \rhook $}}{}{}\_\discretionary {\unhbox \voidb@x \hbox {\relax \fontsize  {7}{8}\selectfont  $\DOTSB \leftarrow \joinrel  \rhook $}}{}{}cb()}{154}{subsubsection.15.7.3.5}}
\gdef \LT@lxxxii {\LT@entry 
    {3}{51.55342pt}\LT@entry 
    {3}{403.69069pt}}
\@setckpt{group__domains__up}{
\setcounter{page}{156}
\setcounter{equation}{0}
\setcounter{enumi}{2}
\setcounter{enumii}{0}
\setcounter{enumiii}{0}
\setcounter{enumiv}{0}
\setcounter{footnote}{0}
\setcounter{mpfootnote}{0}
\setcounter{part}{0}
\setcounter{chapter}{15}
\setcounter{section}{7}
\setcounter{subsection}{3}
\setcounter{subsubsection}{5}
\setcounter{paragraph}{0}
\setcounter{subparagraph}{0}
\setcounter{figure}{0}
\setcounter{table}{81}
\setcounter{float@type}{4}
\setcounter{LT@tables}{82}
\setcounter{LT@chunks}{3}
\setcounter{NAT@ctr}{0}
\setcounter{lofdepth}{1}
\setcounter{lotdepth}{1}
\setcounter{parentequation}{0}
\setcounter{Item}{12}
\setcounter{Hfootnote}{0}
\setcounter{bookmark@seq@number}{256}
\setcounter{ContinuedFloat}{0}
\setcounter{section@level}{3}
}
