\relax 
\providecommand\hyper@newdestlabel[2]{}
\@writefile{toc}{\contentsline {section}{\numberline {15.22}Comparative structure prediction}{227}{section.15.22}}
\newlabel{group__consensus__fold}{{15.22}{227}{Comparative structure prediction}{section.15.22}{}}
\citation{hofacker:2002}
\citation{bernhart:2008}
\newlabel{group__consensus__fold_ga1116aed4b2dab5252cd23946d47d52c3}{{15.22}{228}{Variables}{section*.103}{}}
\newlabel{group__consensus__fold_ga5e125c9586fcd4e2e1559fe76f7289cc}{{15.22}{228}{Variables}{section*.103}{}}
\@writefile{toc}{\contentsline {subsection}{\numberline {15.22.1}Detailed Description}{228}{subsection.15.22.1}}
\@writefile{brf}{\backcite{hofacker:2002}{{228}{15.22.1}{subsection.15.22.1}}}
\@writefile{brf}{\backcite{bernhart:2008}{{228}{15.22.1}{subsection.15.22.1}}}
\@writefile{toc}{\contentsline {subsection}{\numberline {15.22.2}Function Documentation}{228}{subsection.15.22.2}}
\newlabel{group__consensus__fold_ga1c48869c03b49a342bf4cbdd61900081}{{15.22.2}{228}{Function Documentation}{subsection.15.22.2}{}}
\@writefile{toc}{\contentsline {subsubsection}{\numberline {15.22.2.1}energy\discretionary {\unhbox \voidb@x \hbox {\relax \fontsize  {7}{8}\selectfont  $\DOTSB \leftarrow \joinrel  \rhook $}}{}{}\_\discretionary {\unhbox \voidb@x \hbox {\relax \fontsize  {7}{8}\selectfont  $\DOTSB \leftarrow \joinrel  \rhook $}}{}{}of\discretionary {\unhbox \voidb@x \hbox {\relax \fontsize  {7}{8}\selectfont  $\DOTSB \leftarrow \joinrel  \rhook $}}{}{}\_\discretionary {\unhbox \voidb@x \hbox {\relax \fontsize  {7}{8}\selectfont  $\DOTSB \leftarrow \joinrel  \rhook $}}{}{}alistruct()}{228}{subsubsection.15.22.2.1}}
\gdef \LT@cxxxiv {\LT@entry 
    {3}{56.32333pt}\LT@entry 
    {3}{398.92078pt}}
\gdef \LT@cxxxv {\LT@entry 
    {3}{39.80858pt}\LT@entry 
    {3}{262.00029pt}}
\newlabel{group__consensus__fold_ga5349960075b1847720a2e9df021e2675}{{15.22.2.1}{229}{\texorpdfstring {energy\+\_\+of\+\_\+alistruct()}{energy\_of\_alistruct()}}{table.15.133}{}}
\@writefile{toc}{\contentsline {subsubsection}{\numberline {15.22.2.2}get\discretionary {\unhbox \voidb@x \hbox {\relax \fontsize  {7}{8}\selectfont  $\DOTSB \leftarrow \joinrel  \rhook $}}{}{}\_\discretionary {\unhbox \voidb@x \hbox {\relax \fontsize  {7}{8}\selectfont  $\DOTSB \leftarrow \joinrel  \rhook $}}{}{}alipf\discretionary {\unhbox \voidb@x \hbox {\relax \fontsize  {7}{8}\selectfont  $\DOTSB \leftarrow \joinrel  \rhook $}}{}{}\_\discretionary {\unhbox \voidb@x \hbox {\relax \fontsize  {7}{8}\selectfont  $\DOTSB \leftarrow \joinrel  \rhook $}}{}{}arrays()}{229}{subsubsection.15.22.2.2}}
\gdef \LT@cxxxvi {\LT@entry 
    {3}{51.81422pt}\LT@entry 
    {3}{88.43965pt}}
\newlabel{group__consensus__fold_gac484c6bd429bafbd353b91044508d8e9}{{15.22.2.2}{230}{\texorpdfstring {get\+\_\+alipf\+\_\+arrays()}{get\_alipf\_arrays()}}{table.15.134}{}}
\@writefile{toc}{\contentsline {subsubsection}{\numberline {15.22.2.3}update\discretionary {\unhbox \voidb@x \hbox {\relax \fontsize  {7}{8}\selectfont  $\DOTSB \leftarrow \joinrel  \rhook $}}{}{}\_\discretionary {\unhbox \voidb@x \hbox {\relax \fontsize  {7}{8}\selectfont  $\DOTSB \leftarrow \joinrel  \rhook $}}{}{}alifold\discretionary {\unhbox \voidb@x \hbox {\relax \fontsize  {7}{8}\selectfont  $\DOTSB \leftarrow \joinrel  \rhook $}}{}{}\_\discretionary {\unhbox \voidb@x \hbox {\relax \fontsize  {7}{8}\selectfont  $\DOTSB \leftarrow \joinrel  \rhook $}}{}{}params()}{230}{subsubsection.15.22.2.3}}
\newlabel{group__consensus__fold_gade5a1f2d16e7fd9a57b37d8514f08e8e}{{15.22.2.3}{230}{\texorpdfstring {update\+\_\+alifold\+\_\+params()}{update\_alifold\_params()}}{subsubsection.15.22.2.3}{}}
\@writefile{toc}{\contentsline {subsubsection}{\numberline {15.22.2.4}vrna\discretionary {\unhbox \voidb@x \hbox {\relax \fontsize  {7}{8}\selectfont  $\DOTSB \leftarrow \joinrel  \rhook $}}{}{}\_\discretionary {\unhbox \voidb@x \hbox {\relax \fontsize  {7}{8}\selectfont  $\DOTSB \leftarrow \joinrel  \rhook $}}{}{}aln\discretionary {\unhbox \voidb@x \hbox {\relax \fontsize  {7}{8}\selectfont  $\DOTSB \leftarrow \joinrel  \rhook $}}{}{}\_\discretionary {\unhbox \voidb@x \hbox {\relax \fontsize  {7}{8}\selectfont  $\DOTSB \leftarrow \joinrel  \rhook $}}{}{}mpi()}{230}{subsubsection.15.22.2.4}}
\newlabel{group__consensus__fold_gaa2d600be90844094ec145ea14a314d2f}{{15.22.2.4}{230}{\texorpdfstring {vrna\+\_\+aln\+\_\+mpi()}{vrna\_aln\_mpi()}}{table.15.135}{}}
\gdef \LT@cxxxvii {\LT@entry 
    {3}{37.31558pt}\LT@entry 
    {3}{182.89252pt}}
\gdef \LT@cxxxviii {\LT@entry 
    {3}{51.82336pt}\LT@entry 
    {3}{281.62888pt}}
\@writefile{toc}{\contentsline {subsubsection}{\numberline {15.22.2.5}get\discretionary {\unhbox \voidb@x \hbox {\relax \fontsize  {7}{8}\selectfont  $\DOTSB \leftarrow \joinrel  \rhook $}}{}{}\_\discretionary {\unhbox \voidb@x \hbox {\relax \fontsize  {7}{8}\selectfont  $\DOTSB \leftarrow \joinrel  \rhook $}}{}{}mpi()}{231}{subsubsection.15.22.2.5}}
\newlabel{group__consensus__fold_gaa3e40277c837d6f7603afe319884c786}{{15.22.2.5}{231}{\texorpdfstring {get\+\_\+mpi()}{get\_mpi()}}{table.15.136}{}}
\@writefile{toc}{\contentsline {subsubsection}{\numberline {15.22.2.6}encode\discretionary {\unhbox \voidb@x \hbox {\relax \fontsize  {7}{8}\selectfont  $\DOTSB \leftarrow \joinrel  \rhook $}}{}{}\_\discretionary {\unhbox \voidb@x \hbox {\relax \fontsize  {7}{8}\selectfont  $\DOTSB \leftarrow \joinrel  \rhook $}}{}{}ali\discretionary {\unhbox \voidb@x \hbox {\relax \fontsize  {7}{8}\selectfont  $\DOTSB \leftarrow \joinrel  \rhook $}}{}{}\_\discretionary {\unhbox \voidb@x \hbox {\relax \fontsize  {7}{8}\selectfont  $\DOTSB \leftarrow \joinrel  \rhook $}}{}{}sequence()}{231}{subsubsection.15.22.2.6}}
\gdef \LT@cxxxix {\LT@entry 
    {3}{56.32333pt}\LT@entry 
    {3}{329.07593pt}}
\newlabel{group__consensus__fold_ga8a560930f7f2582cc3967723a86cfdfa}{{15.22.2.6}{232}{\texorpdfstring {encode\+\_\+ali\+\_\+sequence()}{encode\_ali\_sequence()}}{table.15.137}{}}
\@writefile{toc}{\contentsline {subsubsection}{\numberline {15.22.2.7}alloc\discretionary {\unhbox \voidb@x \hbox {\relax \fontsize  {7}{8}\selectfont  $\DOTSB \leftarrow \joinrel  \rhook $}}{}{}\_\discretionary {\unhbox \voidb@x \hbox {\relax \fontsize  {7}{8}\selectfont  $\DOTSB \leftarrow \joinrel  \rhook $}}{}{}sequence\discretionary {\unhbox \voidb@x \hbox {\relax \fontsize  {7}{8}\selectfont  $\DOTSB \leftarrow \joinrel  \rhook $}}{}{}\_\discretionary {\unhbox \voidb@x \hbox {\relax \fontsize  {7}{8}\selectfont  $\DOTSB \leftarrow \joinrel  \rhook $}}{}{}arrays()}{232}{subsubsection.15.22.2.7}}
\newlabel{group__consensus__fold_ga298a420a8c879202e2617b3f724fde38}{{15.22.2.7}{232}{\texorpdfstring {alloc\+\_\+sequence\+\_\+arrays()}{alloc\_sequence\_arrays()}}{table.15.138}{}}
\@writefile{toc}{\contentsline {subsubsection}{\numberline {15.22.2.8}free\discretionary {\unhbox \voidb@x \hbox {\relax \fontsize  {7}{8}\selectfont  $\DOTSB \leftarrow \joinrel  \rhook $}}{}{}\_\discretionary {\unhbox \voidb@x \hbox {\relax \fontsize  {7}{8}\selectfont  $\DOTSB \leftarrow \joinrel  \rhook $}}{}{}sequence\discretionary {\unhbox \voidb@x \hbox {\relax \fontsize  {7}{8}\selectfont  $\DOTSB \leftarrow \joinrel  \rhook $}}{}{}\_\discretionary {\unhbox \voidb@x \hbox {\relax \fontsize  {7}{8}\selectfont  $\DOTSB \leftarrow \joinrel  \rhook $}}{}{}arrays()}{232}{subsubsection.15.22.2.8}}
\gdef \LT@cxl {\LT@entry 
    {3}{37.31558pt}\LT@entry 
    {3}{329.07593pt}}
\@writefile{toc}{\contentsline {subsection}{\numberline {15.22.3}Variable Documentation}{233}{subsection.15.22.3}}
\newlabel{group__consensus__fold_gaf3cbac6ff5d706d6e414677841ddf94c}{{15.22.3}{233}{Variable Documentation}{subsection.15.22.3}{}}
\@writefile{toc}{\contentsline {subsubsection}{\numberline {15.22.3.1}cv\discretionary {\unhbox \voidb@x \hbox {\relax \fontsize  {7}{8}\selectfont  $\DOTSB \leftarrow \joinrel  \rhook $}}{}{}\_\discretionary {\unhbox \voidb@x \hbox {\relax \fontsize  {7}{8}\selectfont  $\DOTSB \leftarrow \joinrel  \rhook $}}{}{}fact}{233}{subsubsection.15.22.3.1}}
\newlabel{group__consensus__fold_ga502948a122a2af5b914355b1f3ea2f61}{{15.22.3.1}{233}{\texorpdfstring {cv\+\_\+fact}{cv\_fact}}{subsubsection.15.22.3.1}{}}
\@writefile{toc}{\contentsline {subsubsection}{\numberline {15.22.3.2}nc\discretionary {\unhbox \voidb@x \hbox {\relax \fontsize  {7}{8}\selectfont  $\DOTSB \leftarrow \joinrel  \rhook $}}{}{}\_\discretionary {\unhbox \voidb@x \hbox {\relax \fontsize  {7}{8}\selectfont  $\DOTSB \leftarrow \joinrel  \rhook $}}{}{}fact}{233}{subsubsection.15.22.3.2}}
\@setckpt{group__consensus__fold}{
\setcounter{page}{234}
\setcounter{equation}{0}
\setcounter{enumi}{2}
\setcounter{enumii}{0}
\setcounter{enumiii}{0}
\setcounter{enumiv}{0}
\setcounter{footnote}{0}
\setcounter{mpfootnote}{0}
\setcounter{part}{0}
\setcounter{chapter}{15}
\setcounter{section}{22}
\setcounter{subsection}{3}
\setcounter{subsubsection}{2}
\setcounter{paragraph}{0}
\setcounter{subparagraph}{0}
\setcounter{figure}{0}
\setcounter{table}{139}
\setcounter{float@type}{4}
\setcounter{LT@tables}{140}
\setcounter{LT@chunks}{3}
\setcounter{NAT@ctr}{0}
\setcounter{lofdepth}{1}
\setcounter{lotdepth}{1}
\setcounter{parentequation}{0}
\setcounter{Item}{12}
\setcounter{Hfootnote}{0}
\setcounter{bookmark@seq@number}{407}
\setcounter{ContinuedFloat}{0}
\setcounter{section@level}{3}
}
