\relax 
\providecommand\hyper@newdestlabel[2]{}
\@writefile{toc}{\contentsline {section}{\numberline {15.39}Incorporating ligands binding to specific sequence/structure motifs using soft constraints}{277}{section.15.39}}
\newlabel{group__constraints__ligand}{{15.39}{277}{Incorporating ligands binding to specific sequence/structure motifs using soft constraints}{section.15.39}{}}
\@writefile{toc}{\contentsline {subsection}{\numberline {15.39.1}Detailed Description}{277}{subsection.15.39.1}}
\gdef \LT@clxviii {\LT@entry 
    {3}{47.9442pt}\LT@entry 
    {3}{238.88948pt}}
\@writefile{toc}{\contentsline {subsection}{\numberline {15.39.2}Function Documentation}{278}{subsection.15.39.2}}
\newlabel{group__constraints__ligand_gaa6ff0113a3a76dc0b8d62961f4e1dfa0}{{15.39.2}{278}{Function Documentation}{subsection.15.39.2}{}}
\@writefile{toc}{\contentsline {subsubsection}{\numberline {15.39.2.1}vrna\discretionary {\unhbox \voidb@x \hbox {\relax \fontsize  {7}{8}\selectfont  $\DOTSB \leftarrow \joinrel  \rhook $}}{}{}\_\discretionary {\unhbox \voidb@x \hbox {\relax \fontsize  {7}{8}\selectfont  $\DOTSB \leftarrow \joinrel  \rhook $}}{}{}sc\discretionary {\unhbox \voidb@x \hbox {\relax \fontsize  {7}{8}\selectfont  $\DOTSB \leftarrow \joinrel  \rhook $}}{}{}\_\discretionary {\unhbox \voidb@x \hbox {\relax \fontsize  {7}{8}\selectfont  $\DOTSB \leftarrow \joinrel  \rhook $}}{}{}add\discretionary {\unhbox \voidb@x \hbox {\relax \fontsize  {7}{8}\selectfont  $\DOTSB \leftarrow \joinrel  \rhook $}}{}{}\_\discretionary {\unhbox \voidb@x \hbox {\relax \fontsize  {7}{8}\selectfont  $\DOTSB \leftarrow \joinrel  \rhook $}}{}{}hi\discretionary {\unhbox \voidb@x \hbox {\relax \fontsize  {7}{8}\selectfont  $\DOTSB \leftarrow \joinrel  \rhook $}}{}{}\_\discretionary {\unhbox \voidb@x \hbox {\relax \fontsize  {7}{8}\selectfont  $\DOTSB \leftarrow \joinrel  \rhook $}}{}{}motif()}{278}{subsubsection.15.39.2.1}}
\@setckpt{group__constraints__ligand}{
\setcounter{page}{280}
\setcounter{equation}{0}
\setcounter{enumi}{2}
\setcounter{enumii}{0}
\setcounter{enumiii}{0}
\setcounter{enumiv}{0}
\setcounter{footnote}{0}
\setcounter{mpfootnote}{0}
\setcounter{part}{0}
\setcounter{chapter}{15}
\setcounter{section}{39}
\setcounter{subsection}{2}
\setcounter{subsubsection}{1}
\setcounter{paragraph}{0}
\setcounter{subparagraph}{0}
\setcounter{figure}{0}
\setcounter{table}{167}
\setcounter{float@type}{4}
\setcounter{LT@tables}{168}
\setcounter{LT@chunks}{3}
\setcounter{NAT@ctr}{0}
\setcounter{lofdepth}{1}
\setcounter{lotdepth}{1}
\setcounter{parentequation}{0}
\setcounter{Item}{12}
\setcounter{Hfootnote}{0}
\setcounter{bookmark@seq@number}{506}
\setcounter{ContinuedFloat}{0}
\setcounter{section@level}{3}
}
