\relax 
\providecommand\hyper@newdestlabel[2]{}
\@writefile{toc}{\contentsline {section}{\numberline {15.2}Process and evaluate individual loops}{87}{section.15.2}}
\newlabel{group__loops}{{15.2}{87}{Process and evaluate individual loops}{section.15.2}{}}
\newlabel{group__loops_gad3b92453a6b501856eec8fae39f3235d}{{15.2}{87}{Files}{section*.17}{}}
\gdef \LT@xxx {\LT@entry 
    {3}{29.80966pt}\LT@entry 
    {3}{235.54144pt}}
\newlabel{group__loops_gad320d5d721e33bed120168213d8f45e5}{{15.2}{88}{Files}{section*.17}{}}
\newlabel{group__loops_ga849b7dc373b6c0b029672e16a7e52053}{{15.2}{88}{Files}{section*.17}{}}
\@writefile{toc}{\contentsline {subsection}{\numberline {15.2.1}Detailed Description}{88}{subsection.15.2.1}}
\@writefile{toc}{\contentsline {subsection}{\numberline {15.2.2}Function Documentation}{88}{subsection.15.2.2}}
\newlabel{group__loops_ga05c6288c5a79d3bd5ad6d33c1bb34bd0}{{15.2.2}{88}{Function Documentation}{subsection.15.2.2}{}}
\@writefile{toc}{\contentsline {subsubsection}{\numberline {15.2.2.1}E\discretionary {\unhbox \voidb@x \hbox {\relax \fontsize  {7}{8}\selectfont  $\DOTSB \leftarrow \joinrel  \rhook $}}{}{}\_\discretionary {\unhbox \voidb@x \hbox {\relax \fontsize  {7}{8}\selectfont  $\DOTSB \leftarrow \joinrel  \rhook $}}{}{}\discretionary {\unhbox \voidb@x \hbox {\relax \fontsize  {7}{8}\selectfont  $\DOTSB \leftarrow \joinrel  \rhook $}}{}{}Ext\discretionary {\unhbox \voidb@x \hbox {\relax \fontsize  {7}{8}\selectfont  $\DOTSB \leftarrow \joinrel  \rhook $}}{}{}Loop()}{88}{subsubsection.15.2.2.1}}
\newlabel{group__loops_gadf943ee9a45b7f4cee9192c06210dace}{{15.2.2.1}{88}{Compute the Energy contribution of an Exterior loop stem}{table.15.29}{}}
\gdef \LT@xxxi {\LT@entry 
    {3}{34.93945pt}\LT@entry 
    {3}{233.03955pt}}
\@writefile{toc}{\contentsline {subsubsection}{\numberline {15.2.2.2}E\discretionary {\unhbox \voidb@x \hbox {\relax \fontsize  {7}{8}\selectfont  $\DOTSB \leftarrow \joinrel  \rhook $}}{}{}\_\discretionary {\unhbox \voidb@x \hbox {\relax \fontsize  {7}{8}\selectfont  $\DOTSB \leftarrow \joinrel  \rhook $}}{}{}\discretionary {\unhbox \voidb@x \hbox {\relax \fontsize  {7}{8}\selectfont  $\DOTSB \leftarrow \joinrel  \rhook $}}{}{}Hairpin()}{89}{subsubsection.15.2.2.2}}
\gdef \LT@xxxii {\LT@entry 
    {3}{21.79993pt}\LT@entry 
    {3}{262.5679pt}}
\newlabel{group__loops_gab3eb4651dc26dc2b653a57dd340d7e68}{{15.2.2.2}{90}{\texorpdfstring {E\+\_\+\+Hairpin()}{E\_Hairpin()}}{table.15.30}{}}
\@writefile{toc}{\contentsline {subsubsection}{\numberline {15.2.2.3}vrna\discretionary {\unhbox \voidb@x \hbox {\relax \fontsize  {7}{8}\selectfont  $\DOTSB \leftarrow \joinrel  \rhook $}}{}{}\_\discretionary {\unhbox \voidb@x \hbox {\relax \fontsize  {7}{8}\selectfont  $\DOTSB \leftarrow \joinrel  \rhook $}}{}{}eval\discretionary {\unhbox \voidb@x \hbox {\relax \fontsize  {7}{8}\selectfont  $\DOTSB \leftarrow \joinrel  \rhook $}}{}{}\_\discretionary {\unhbox \voidb@x \hbox {\relax \fontsize  {7}{8}\selectfont  $\DOTSB \leftarrow \joinrel  \rhook $}}{}{}hp\discretionary {\unhbox \voidb@x \hbox {\relax \fontsize  {7}{8}\selectfont  $\DOTSB \leftarrow \joinrel  \rhook $}}{}{}\_\discretionary {\unhbox \voidb@x \hbox {\relax \fontsize  {7}{8}\selectfont  $\DOTSB \leftarrow \joinrel  \rhook $}}{}{}loop()}{90}{subsubsection.15.2.2.3}}
\newlabel{group__loops_gaafbc187b7f78e8e82afb77dd6f3b8fc5}{{15.2.2.3}{90}{\texorpdfstring {vrna\+\_\+eval\+\_\+hp\+\_\+loop()}{vrna\_eval\_hp\_loop()}}{table.15.31}{}}
\@writefile{toc}{\contentsline {subsubsection}{\numberline {15.2.2.4}E\discretionary {\unhbox \voidb@x \hbox {\relax \fontsize  {7}{8}\selectfont  $\DOTSB \leftarrow \joinrel  \rhook $}}{}{}\_\discretionary {\unhbox \voidb@x \hbox {\relax \fontsize  {7}{8}\selectfont  $\DOTSB \leftarrow \joinrel  \rhook $}}{}{}\discretionary {\unhbox \voidb@x \hbox {\relax \fontsize  {7}{8}\selectfont  $\DOTSB \leftarrow \joinrel  \rhook $}}{}{}Int\discretionary {\unhbox \voidb@x \hbox {\relax \fontsize  {7}{8}\selectfont  $\DOTSB \leftarrow \joinrel  \rhook $}}{}{}Loop()}{90}{subsubsection.15.2.2.4}}
\gdef \LT@xxxiii {\LT@entry 
    {3}{39.81747pt}\LT@entry 
    {3}{249.25682pt}}
\newlabel{group__loops_ga446828a191c127861e76e2c84055f672}{{15.2.2.4}{92}{Compute the Energy of an interior-\/loop}{table.15.32}{}}
\@writefile{toc}{\contentsline {subsubsection}{\numberline {15.2.2.5}exp\discretionary {\unhbox \voidb@x \hbox {\relax \fontsize  {7}{8}\selectfont  $\DOTSB \leftarrow \joinrel  \rhook $}}{}{}\_\discretionary {\unhbox \voidb@x \hbox {\relax \fontsize  {7}{8}\selectfont  $\DOTSB \leftarrow \joinrel  \rhook $}}{}{}\discretionary {\unhbox \voidb@x \hbox {\relax \fontsize  {7}{8}\selectfont  $\DOTSB \leftarrow \joinrel  \rhook $}}{}{}E\discretionary {\unhbox \voidb@x \hbox {\relax \fontsize  {7}{8}\selectfont  $\DOTSB \leftarrow \joinrel  \rhook $}}{}{}\_\discretionary {\unhbox \voidb@x \hbox {\relax \fontsize  {7}{8}\selectfont  $\DOTSB \leftarrow \joinrel  \rhook $}}{}{}\discretionary {\unhbox \voidb@x \hbox {\relax \fontsize  {7}{8}\selectfont  $\DOTSB \leftarrow \joinrel  \rhook $}}{}{}Ext\discretionary {\unhbox \voidb@x \hbox {\relax \fontsize  {7}{8}\selectfont  $\DOTSB \leftarrow \joinrel  \rhook $}}{}{}Loop()}{92}{subsubsection.15.2.2.5}}
\newlabel{group__loops_ga51f9851f3500c2aae66674142a6a2dd5}{{15.2.2.5}{92}{\texorpdfstring {exp\+\_\+\+E\+\_\+\+Ext\+Loop()}{exp\_E\_ExtLoop()}}{subsubsection.15.2.2.5}{}}
\@writefile{toc}{\contentsline {subsubsection}{\numberline {15.2.2.6}E\discretionary {\unhbox \voidb@x \hbox {\relax \fontsize  {7}{8}\selectfont  $\DOTSB \leftarrow \joinrel  \rhook $}}{}{}\_\discretionary {\unhbox \voidb@x \hbox {\relax \fontsize  {7}{8}\selectfont  $\DOTSB \leftarrow \joinrel  \rhook $}}{}{}\discretionary {\unhbox \voidb@x \hbox {\relax \fontsize  {7}{8}\selectfont  $\DOTSB \leftarrow \joinrel  \rhook $}}{}{}Stem()}{92}{subsubsection.15.2.2.6}}
\gdef \LT@xxxiv {\LT@entry 
    {3}{44.55144pt}\LT@entry 
    {3}{353.39322pt}}
\newlabel{group__loops_gab0aa9833ab41875a91a9be8a5ffd7092}{{15.2.2.6}{93}{Compute the energy contribution of a stem branching off a loop-\/region}{table.15.33}{}}
\@writefile{toc}{\contentsline {subsubsection}{\numberline {15.2.2.7}exp\discretionary {\unhbox \voidb@x \hbox {\relax \fontsize  {7}{8}\selectfont  $\DOTSB \leftarrow \joinrel  \rhook $}}{}{}\_\discretionary {\unhbox \voidb@x \hbox {\relax \fontsize  {7}{8}\selectfont  $\DOTSB \leftarrow \joinrel  \rhook $}}{}{}\discretionary {\unhbox \voidb@x \hbox {\relax \fontsize  {7}{8}\selectfont  $\DOTSB \leftarrow \joinrel  \rhook $}}{}{}E\discretionary {\unhbox \voidb@x \hbox {\relax \fontsize  {7}{8}\selectfont  $\DOTSB \leftarrow \joinrel  \rhook $}}{}{}\_\discretionary {\unhbox \voidb@x \hbox {\relax \fontsize  {7}{8}\selectfont  $\DOTSB \leftarrow \joinrel  \rhook $}}{}{}\discretionary {\unhbox \voidb@x \hbox {\relax \fontsize  {7}{8}\selectfont  $\DOTSB \leftarrow \joinrel  \rhook $}}{}{}Stem()}{93}{subsubsection.15.2.2.7}}
\newlabel{group__loops_ga51fb555974f180b78d76142b2894851c}{{15.2.2.7}{93}{Compute the Boltzmann weighted energy contribution of a stem branching off a loop-\/region}{section*.21}{}}
\gdef \LT@xxxv {\LT@entry 
    {3}{34.93945pt}\LT@entry 
    {3}{335.99731pt}}
\@writefile{toc}{\contentsline {subsubsection}{\numberline {15.2.2.8}exp\discretionary {\unhbox \voidb@x \hbox {\relax \fontsize  {7}{8}\selectfont  $\DOTSB \leftarrow \joinrel  \rhook $}}{}{}\_\discretionary {\unhbox \voidb@x \hbox {\relax \fontsize  {7}{8}\selectfont  $\DOTSB \leftarrow \joinrel  \rhook $}}{}{}\discretionary {\unhbox \voidb@x \hbox {\relax \fontsize  {7}{8}\selectfont  $\DOTSB \leftarrow \joinrel  \rhook $}}{}{}E\discretionary {\unhbox \voidb@x \hbox {\relax \fontsize  {7}{8}\selectfont  $\DOTSB \leftarrow \joinrel  \rhook $}}{}{}\_\discretionary {\unhbox \voidb@x \hbox {\relax \fontsize  {7}{8}\selectfont  $\DOTSB \leftarrow \joinrel  \rhook $}}{}{}\discretionary {\unhbox \voidb@x \hbox {\relax \fontsize  {7}{8}\selectfont  $\DOTSB \leftarrow \joinrel  \rhook $}}{}{}Hairpin()}{94}{subsubsection.15.2.2.8}}
\newlabel{group__loops_ga999ba163a8148d72fd5f22819a681df7}{{15.2.2.8}{94}{\texorpdfstring {exp\+\_\+\+E\+\_\+\+Hairpin()}{exp\_E\_Hairpin()}}{table.15.34}{}}
\@writefile{toc}{\contentsline {subsubsection}{\numberline {15.2.2.9}vrna\discretionary {\unhbox \voidb@x \hbox {\relax \fontsize  {7}{8}\selectfont  $\DOTSB \leftarrow \joinrel  \rhook $}}{}{}\_\discretionary {\unhbox \voidb@x \hbox {\relax \fontsize  {7}{8}\selectfont  $\DOTSB \leftarrow \joinrel  \rhook $}}{}{}\discretionary {\unhbox \voidb@x \hbox {\relax \fontsize  {7}{8}\selectfont  $\DOTSB \leftarrow \joinrel  \rhook $}}{}{}E\discretionary {\unhbox \voidb@x \hbox {\relax \fontsize  {7}{8}\selectfont  $\DOTSB \leftarrow \joinrel  \rhook $}}{}{}\_\discretionary {\unhbox \voidb@x \hbox {\relax \fontsize  {7}{8}\selectfont  $\DOTSB \leftarrow \joinrel  \rhook $}}{}{}hp\discretionary {\unhbox \voidb@x \hbox {\relax \fontsize  {7}{8}\selectfont  $\DOTSB \leftarrow \joinrel  \rhook $}}{}{}\_\discretionary {\unhbox \voidb@x \hbox {\relax \fontsize  {7}{8}\selectfont  $\DOTSB \leftarrow \joinrel  \rhook $}}{}{}loop()}{94}{subsubsection.15.2.2.9}}
\gdef \LT@xxxvi {\LT@entry 
    {3}{21.79993pt}\LT@entry 
    {3}{332.54063pt}}
\newlabel{group__loops_gac3393ee309372eccae944e3a07f455f9}{{15.2.2.9}{95}{\texorpdfstring {vrna\+\_\+\+E\+\_\+hp\+\_\+loop()}{vrna\_E\_hp\_loop()}}{table.15.35}{}}
\@writefile{toc}{\contentsline {subsubsection}{\numberline {15.2.2.10}vrna\discretionary {\unhbox \voidb@x \hbox {\relax \fontsize  {7}{8}\selectfont  $\DOTSB \leftarrow \joinrel  \rhook $}}{}{}\_\discretionary {\unhbox \voidb@x \hbox {\relax \fontsize  {7}{8}\selectfont  $\DOTSB \leftarrow \joinrel  \rhook $}}{}{}\discretionary {\unhbox \voidb@x \hbox {\relax \fontsize  {7}{8}\selectfont  $\DOTSB \leftarrow \joinrel  \rhook $}}{}{}E\discretionary {\unhbox \voidb@x \hbox {\relax \fontsize  {7}{8}\selectfont  $\DOTSB \leftarrow \joinrel  \rhook $}}{}{}\_\discretionary {\unhbox \voidb@x \hbox {\relax \fontsize  {7}{8}\selectfont  $\DOTSB \leftarrow \joinrel  \rhook $}}{}{}ext\discretionary {\unhbox \voidb@x \hbox {\relax \fontsize  {7}{8}\selectfont  $\DOTSB \leftarrow \joinrel  \rhook $}}{}{}\_\discretionary {\unhbox \voidb@x \hbox {\relax \fontsize  {7}{8}\selectfont  $\DOTSB \leftarrow \joinrel  \rhook $}}{}{}hp\discretionary {\unhbox \voidb@x \hbox {\relax \fontsize  {7}{8}\selectfont  $\DOTSB \leftarrow \joinrel  \rhook $}}{}{}\_\discretionary {\unhbox \voidb@x \hbox {\relax \fontsize  {7}{8}\selectfont  $\DOTSB \leftarrow \joinrel  \rhook $}}{}{}loop()}{95}{subsubsection.15.2.2.10}}
\newlabel{group__loops_gac9f49b31d3ec1d9040798b05506c71da}{{15.2.2.10}{95}{\texorpdfstring {vrna\+\_\+\+E\+\_\+ext\+\_\+hp\+\_\+loop()}{vrna\_E\_ext\_hp\_loop()}}{subsubsection.15.2.2.10}{}}
\@writefile{toc}{\contentsline {subsubsection}{\numberline {15.2.2.11}vrna\discretionary {\unhbox \voidb@x \hbox {\relax \fontsize  {7}{8}\selectfont  $\DOTSB \leftarrow \joinrel  \rhook $}}{}{}\_\discretionary {\unhbox \voidb@x \hbox {\relax \fontsize  {7}{8}\selectfont  $\DOTSB \leftarrow \joinrel  \rhook $}}{}{}exp\discretionary {\unhbox \voidb@x \hbox {\relax \fontsize  {7}{8}\selectfont  $\DOTSB \leftarrow \joinrel  \rhook $}}{}{}\_\discretionary {\unhbox \voidb@x \hbox {\relax \fontsize  {7}{8}\selectfont  $\DOTSB \leftarrow \joinrel  \rhook $}}{}{}\discretionary {\unhbox \voidb@x \hbox {\relax \fontsize  {7}{8}\selectfont  $\DOTSB \leftarrow \joinrel  \rhook $}}{}{}E\discretionary {\unhbox \voidb@x \hbox {\relax \fontsize  {7}{8}\selectfont  $\DOTSB \leftarrow \joinrel  \rhook $}}{}{}\_\discretionary {\unhbox \voidb@x \hbox {\relax \fontsize  {7}{8}\selectfont  $\DOTSB \leftarrow \joinrel  \rhook $}}{}{}hp\discretionary {\unhbox \voidb@x \hbox {\relax \fontsize  {7}{8}\selectfont  $\DOTSB \leftarrow \joinrel  \rhook $}}{}{}\_\discretionary {\unhbox \voidb@x \hbox {\relax \fontsize  {7}{8}\selectfont  $\DOTSB \leftarrow \joinrel  \rhook $}}{}{}loop()}{95}{subsubsection.15.2.2.11}}
\newlabel{group__loops_ga6c4ba14d24f716d0ca9021771357e903}{{15.2.2.11}{95}{\texorpdfstring {vrna\+\_\+exp\+\_\+\+E\+\_\+hp\+\_\+loop()}{vrna\_exp\_E\_hp\_loop()}}{subsubsection.15.2.2.11}{}}
\gdef \LT@xxxvii {\LT@entry 
    {3}{34.81357pt}\LT@entry 
    {3}{335.99731pt}}
\@writefile{toc}{\contentsline {subsubsection}{\numberline {15.2.2.12}vrna\discretionary {\unhbox \voidb@x \hbox {\relax \fontsize  {7}{8}\selectfont  $\DOTSB \leftarrow \joinrel  \rhook $}}{}{}\_\discretionary {\unhbox \voidb@x \hbox {\relax \fontsize  {7}{8}\selectfont  $\DOTSB \leftarrow \joinrel  \rhook $}}{}{}\discretionary {\unhbox \voidb@x \hbox {\relax \fontsize  {7}{8}\selectfont  $\DOTSB \leftarrow \joinrel  \rhook $}}{}{}B\discretionary {\unhbox \voidb@x \hbox {\relax \fontsize  {7}{8}\selectfont  $\DOTSB \leftarrow \joinrel  \rhook $}}{}{}T\discretionary {\unhbox \voidb@x \hbox {\relax \fontsize  {7}{8}\selectfont  $\DOTSB \leftarrow \joinrel  \rhook $}}{}{}\_\discretionary {\unhbox \voidb@x \hbox {\relax \fontsize  {7}{8}\selectfont  $\DOTSB \leftarrow \joinrel  \rhook $}}{}{}hp\discretionary {\unhbox \voidb@x \hbox {\relax \fontsize  {7}{8}\selectfont  $\DOTSB \leftarrow \joinrel  \rhook $}}{}{}\_\discretionary {\unhbox \voidb@x \hbox {\relax \fontsize  {7}{8}\selectfont  $\DOTSB \leftarrow \joinrel  \rhook $}}{}{}loop()}{96}{subsubsection.15.2.2.12}}
\newlabel{group__loops_ga95de54d8a2a17645a95e0f34e189d9c9}{{15.2.2.12}{96}{\texorpdfstring {vrna\+\_\+\+B\+T\+\_\+hp\+\_\+loop()}{vrna\_BT\_hp\_loop()}}{subsubsection.15.2.2.12}{}}
\@writefile{toc}{\contentsline {subsubsection}{\numberline {15.2.2.13}exp\discretionary {\unhbox \voidb@x \hbox {\relax \fontsize  {7}{8}\selectfont  $\DOTSB \leftarrow \joinrel  \rhook $}}{}{}\_\discretionary {\unhbox \voidb@x \hbox {\relax \fontsize  {7}{8}\selectfont  $\DOTSB \leftarrow \joinrel  \rhook $}}{}{}\discretionary {\unhbox \voidb@x \hbox {\relax \fontsize  {7}{8}\selectfont  $\DOTSB \leftarrow \joinrel  \rhook $}}{}{}E\discretionary {\unhbox \voidb@x \hbox {\relax \fontsize  {7}{8}\selectfont  $\DOTSB \leftarrow \joinrel  \rhook $}}{}{}\_\discretionary {\unhbox \voidb@x \hbox {\relax \fontsize  {7}{8}\selectfont  $\DOTSB \leftarrow \joinrel  \rhook $}}{}{}\discretionary {\unhbox \voidb@x \hbox {\relax \fontsize  {7}{8}\selectfont  $\DOTSB \leftarrow \joinrel  \rhook $}}{}{}Int\discretionary {\unhbox \voidb@x \hbox {\relax \fontsize  {7}{8}\selectfont  $\DOTSB \leftarrow \joinrel  \rhook $}}{}{}Loop()}{96}{subsubsection.15.2.2.13}}
\newlabel{group__loops_ga018f1314dbbae42fdd27c94670b61721}{{15.2.2.13}{97}{Compute Boltzmann weight $e^{-\Delta G/kT} $ of interior loop}{table.15.36}{}}
\@writefile{toc}{\contentsline {subsubsection}{\numberline {15.2.2.14}vrna\discretionary {\unhbox \voidb@x \hbox {\relax \fontsize  {7}{8}\selectfont  $\DOTSB \leftarrow \joinrel  \rhook $}}{}{}\_\discretionary {\unhbox \voidb@x \hbox {\relax \fontsize  {7}{8}\selectfont  $\DOTSB \leftarrow \joinrel  \rhook $}}{}{}eval\discretionary {\unhbox \voidb@x \hbox {\relax \fontsize  {7}{8}\selectfont  $\DOTSB \leftarrow \joinrel  \rhook $}}{}{}\_\discretionary {\unhbox \voidb@x \hbox {\relax \fontsize  {7}{8}\selectfont  $\DOTSB \leftarrow \joinrel  \rhook $}}{}{}int\discretionary {\unhbox \voidb@x \hbox {\relax \fontsize  {7}{8}\selectfont  $\DOTSB \leftarrow \joinrel  \rhook $}}{}{}\_\discretionary {\unhbox \voidb@x \hbox {\relax \fontsize  {7}{8}\selectfont  $\DOTSB \leftarrow \joinrel  \rhook $}}{}{}loop()}{97}{subsubsection.15.2.2.14}}
\@setckpt{group__loops}{
\setcounter{page}{98}
\setcounter{equation}{0}
\setcounter{enumi}{10}
\setcounter{enumii}{0}
\setcounter{enumiii}{0}
\setcounter{enumiv}{0}
\setcounter{footnote}{0}
\setcounter{mpfootnote}{0}
\setcounter{part}{0}
\setcounter{chapter}{15}
\setcounter{section}{2}
\setcounter{subsection}{2}
\setcounter{subsubsection}{14}
\setcounter{paragraph}{0}
\setcounter{subparagraph}{0}
\setcounter{figure}{0}
\setcounter{table}{36}
\setcounter{float@type}{4}
\setcounter{LT@tables}{37}
\setcounter{LT@chunks}{3}
\setcounter{NAT@ctr}{0}
\setcounter{lofdepth}{1}
\setcounter{lotdepth}{1}
\setcounter{parentequation}{0}
\setcounter{Item}{10}
\setcounter{Hfootnote}{0}
\setcounter{bookmark@seq@number}{126}
\setcounter{ContinuedFloat}{0}
\setcounter{section@level}{3}
}
