\relax 
\providecommand\hyper@newdestlabel[2]{}
\@writefile{toc}{\contentsline {section}{\numberline {15.57}Parsing, converting, comparing secondary structures}{376}{section.15.57}}
\newlabel{group__struct__utils}{{15.57}{376}{Parsing, converting, comparing secondary structures}{section.15.57}{}}
\newlabel{group__struct__utils_ga3f31e0e48125601bfa57b52f8b038e8e}{{15.57}{377}{Variables}{section*.223}{}}
\newlabel{group__struct__utils_ga8218c0d581a3fba2a1a56a196abe19a5}{{15.57}{377}{Variables}{section*.223}{}}
\newlabel{group__struct__utils_gaef14e2f8ab3f61e8e659ba6b9003b08a}{{15.57}{377}{Variables}{section*.223}{}}
\newlabel{group__struct__utils_ga439fcb9f8d4f9f4d2227fde5fbfecb30}{{15.57}{377}{Variables}{section*.223}{}}
\newlabel{group__struct__utils_gadd2f952597e02d66e1116a9d11d252d6}{{15.57}{377}{Variables}{section*.223}{}}
\newlabel{group__struct__utils_ga6341cbb704924824e0236c1dce791032}{{15.57}{377}{Variables}{section*.223}{}}
\newlabel{group__struct__utils_ga877363f3a1703b53ecd025c6fcf897a0}{{15.57}{377}{Variables}{section*.223}{}}
\newlabel{group__struct__utils_ga1ee4cdcda1f57d32dcb38032116d335d}{{15.57}{377}{Variables}{section*.223}{}}
\newlabel{group__struct__utils_ga03e15af299be0866ff21da880c74b92e}{{15.57}{377}{Variables}{section*.223}{}}
\newlabel{group__struct__utils_ga0c28c410a5ab22d6ab9c77a84e8d5b44}{{15.57}{377}{Variables}{section*.223}{}}
\newlabel{group__struct__utils_ga025bff1b27fa46534c8fae6980f64bb5}{{15.57}{377}{Variables}{section*.223}{}}
\gdef \LT@ccxliii {\LT@entry 
    {3}{47.9442pt}\LT@entry 
    {3}{12.4pt}}
\@writefile{toc}{\contentsline {subsection}{\numberline {15.57.1}Detailed Description}{378}{subsection.15.57.1}}
\@writefile{toc}{\contentsline {subsection}{\numberline {15.57.2}Function Documentation}{378}{subsection.15.57.2}}
\newlabel{group__struct__utils_ga07b7e90e712559a1992fba3ac6d21bbd}{{15.57.2}{378}{Function Documentation}{subsection.15.57.2}{}}
\@writefile{toc}{\contentsline {subsubsection}{\numberline {15.57.2.1}b2\discretionary {\unhbox \voidb@x \hbox {\relax \fontsize  {7}{8}\selectfont  $\DOTSB \leftarrow \joinrel  \rhook $}}{}{}H\discretionary {\unhbox \voidb@x \hbox {\relax \fontsize  {7}{8}\selectfont  $\DOTSB \leftarrow \joinrel  \rhook $}}{}{}I\discretionary {\unhbox \voidb@x \hbox {\relax \fontsize  {7}{8}\selectfont  $\DOTSB \leftarrow \joinrel  \rhook $}}{}{}T()}{378}{subsubsection.15.57.2.1}}
\gdef \LT@ccxliv {\LT@entry 
    {3}{47.9442pt}\LT@entry 
    {3}{12.4pt}}
\gdef \LT@ccxlv {\LT@entry 
    {3}{47.9442pt}\LT@entry 
    {3}{12.4pt}}
\newlabel{group__struct__utils_ga9c80d92391f2833549a8b6dac92233f0}{{15.57.2.1}{379}{\texorpdfstring {b2\+H\+I\+T()}{b2HIT()}}{table.15.242}{}}
\@writefile{toc}{\contentsline {subsubsection}{\numberline {15.57.2.2}b2\discretionary {\unhbox \voidb@x \hbox {\relax \fontsize  {7}{8}\selectfont  $\DOTSB \leftarrow \joinrel  \rhook $}}{}{}C()}{379}{subsubsection.15.57.2.2}}
\newlabel{group__struct__utils_ga5cd2feb367feeacad0c03cb7ddba5f10}{{15.57.2.2}{379}{\texorpdfstring {b2\+C()}{b2C()}}{table.15.243}{}}
\@writefile{toc}{\contentsline {subsubsection}{\numberline {15.57.2.3}b2\discretionary {\unhbox \voidb@x \hbox {\relax \fontsize  {7}{8}\selectfont  $\DOTSB \leftarrow \joinrel  \rhook $}}{}{}Shapiro()}{379}{subsubsection.15.57.2.3}}
\newlabel{group__struct__utils_ga880d33066dd95441e5fbb73c57ed1c3e}{{15.57.2.3}{379}{\texorpdfstring {b2\+Shapiro()}{b2Shapiro()}}{table.15.244}{}}
\@writefile{toc}{\contentsline {subsubsection}{\numberline {15.57.2.4}add\discretionary {\unhbox \voidb@x \hbox {\relax \fontsize  {7}{8}\selectfont  $\DOTSB \leftarrow \joinrel  \rhook $}}{}{}\_\discretionary {\unhbox \voidb@x \hbox {\relax \fontsize  {7}{8}\selectfont  $\DOTSB \leftarrow \joinrel  \rhook $}}{}{}root()}{379}{subsubsection.15.57.2.4}}
\gdef \LT@ccxlvi {\LT@entry 
    {3}{47.9442pt}\LT@entry 
    {3}{12.4pt}}
\gdef \LT@ccxlvii {\LT@entry 
    {3}{39.80858pt}\LT@entry 
    {3}{12.4pt}}
\gdef \LT@ccxlviii {\LT@entry 
    {3}{47.9442pt}\LT@entry 
    {3}{12.4pt}}
\newlabel{group__struct__utils_gabe3d815b420dc4553bfb23511198b4c6}{{15.57.2.4}{380}{\texorpdfstring {add\+\_\+root()}{add\_root()}}{table.15.245}{}}
\@writefile{toc}{\contentsline {subsubsection}{\numberline {15.57.2.5}expand\discretionary {\unhbox \voidb@x \hbox {\relax \fontsize  {7}{8}\selectfont  $\DOTSB \leftarrow \joinrel  \rhook $}}{}{}\_\discretionary {\unhbox \voidb@x \hbox {\relax \fontsize  {7}{8}\selectfont  $\DOTSB \leftarrow \joinrel  \rhook $}}{}{}\discretionary {\unhbox \voidb@x \hbox {\relax \fontsize  {7}{8}\selectfont  $\DOTSB \leftarrow \joinrel  \rhook $}}{}{}Shapiro()}{380}{subsubsection.15.57.2.5}}
\newlabel{group__struct__utils_ga78d73cd54a068ef2812812771cdddc6f}{{15.57.2.5}{380}{\texorpdfstring {expand\+\_\+\+Shapiro()}{expand\_Shapiro()}}{table.15.246}{}}
\@writefile{toc}{\contentsline {subsubsection}{\numberline {15.57.2.6}expand\discretionary {\unhbox \voidb@x \hbox {\relax \fontsize  {7}{8}\selectfont  $\DOTSB \leftarrow \joinrel  \rhook $}}{}{}\_\discretionary {\unhbox \voidb@x \hbox {\relax \fontsize  {7}{8}\selectfont  $\DOTSB \leftarrow \joinrel  \rhook $}}{}{}\discretionary {\unhbox \voidb@x \hbox {\relax \fontsize  {7}{8}\selectfont  $\DOTSB \leftarrow \joinrel  \rhook $}}{}{}Full()}{380}{subsubsection.15.57.2.6}}
\newlabel{group__struct__utils_ga260c4b622093b76a883bf96628280de1}{{15.57.2.6}{380}{\texorpdfstring {expand\+\_\+\+Full()}{expand\_Full()}}{table.15.247}{}}
\@writefile{toc}{\contentsline {subsubsection}{\numberline {15.57.2.7}unexpand\discretionary {\unhbox \voidb@x \hbox {\relax \fontsize  {7}{8}\selectfont  $\DOTSB \leftarrow \joinrel  \rhook $}}{}{}\_\discretionary {\unhbox \voidb@x \hbox {\relax \fontsize  {7}{8}\selectfont  $\DOTSB \leftarrow \joinrel  \rhook $}}{}{}\discretionary {\unhbox \voidb@x \hbox {\relax \fontsize  {7}{8}\selectfont  $\DOTSB \leftarrow \joinrel  \rhook $}}{}{}Full()}{380}{subsubsection.15.57.2.7}}
\gdef \LT@ccxlix {\LT@entry 
    {3}{26.80371pt}\LT@entry 
    {1}{19.08347pt}}
\gdef \LT@ccl {\LT@entry 
    {3}{46.3065pt}\LT@entry 
    {3}{12.4pt}}
\gdef \LT@ccli {\LT@entry 
    {3}{31.80762pt}\LT@entry 
    {1}{14.07956pt}}
\newlabel{group__struct__utils_ga09a80253ac7b6bae606871ba7c6e5136}{{15.57.2.7}{382}{\texorpdfstring {unexpand\+\_\+\+Full()}{unexpand\_Full()}}{table.15.248}{}}
\@writefile{toc}{\contentsline {subsubsection}{\numberline {15.57.2.8}unweight()}{382}{subsubsection.15.57.2.8}}
\newlabel{group__struct__utils_ga1054c4477d53b31d79d4cb132100e87a}{{15.57.2.8}{382}{\texorpdfstring {unweight()}{unweight()}}{table.15.249}{}}
\@writefile{toc}{\contentsline {subsubsection}{\numberline {15.57.2.9}unexpand\discretionary {\unhbox \voidb@x \hbox {\relax \fontsize  {7}{8}\selectfont  $\DOTSB \leftarrow \joinrel  \rhook $}}{}{}\_\discretionary {\unhbox \voidb@x \hbox {\relax \fontsize  {7}{8}\selectfont  $\DOTSB \leftarrow \joinrel  \rhook $}}{}{}aligned\discretionary {\unhbox \voidb@x \hbox {\relax \fontsize  {7}{8}\selectfont  $\DOTSB \leftarrow \joinrel  \rhook $}}{}{}\_\discretionary {\unhbox \voidb@x \hbox {\relax \fontsize  {7}{8}\selectfont  $\DOTSB \leftarrow \joinrel  \rhook $}}{}{}\discretionary {\unhbox \voidb@x \hbox {\relax \fontsize  {7}{8}\selectfont  $\DOTSB \leftarrow \joinrel  \rhook $}}{}{}F()}{382}{subsubsection.15.57.2.9}}
\newlabel{group__struct__utils_ga3c79042e6bf6f01706bf30ec9e69e8ac}{{15.57.2.9}{382}{\texorpdfstring {unexpand\+\_\+aligned\+\_\+\+F()}{unexpand\_aligned\_F()}}{table.15.250}{}}
\@writefile{toc}{\contentsline {subsubsection}{\numberline {15.57.2.10}parse\discretionary {\unhbox \voidb@x \hbox {\relax \fontsize  {7}{8}\selectfont  $\DOTSB \leftarrow \joinrel  \rhook $}}{}{}\_\discretionary {\unhbox \voidb@x \hbox {\relax \fontsize  {7}{8}\selectfont  $\DOTSB \leftarrow \joinrel  \rhook $}}{}{}structure()}{382}{subsubsection.15.57.2.10}}
\gdef \LT@cclii {\LT@entry 
    {3}{47.9442pt}\LT@entry 
    {3}{12.4pt}}
\gdef \LT@ccliii {\LT@entry 
    {3}{32.43756pt}\LT@entry 
    {3}{200.93706pt}}
\newlabel{group__struct__utils_ga55c4783060a1464f862f858d5599c9e1}{{15.57.2.10}{383}{\texorpdfstring {parse\+\_\+structure()}{parse\_structure()}}{table.15.251}{}}
\@writefile{toc}{\contentsline {subsubsection}{\numberline {15.57.2.11}vrna\discretionary {\unhbox \voidb@x \hbox {\relax \fontsize  {7}{8}\selectfont  $\DOTSB \leftarrow \joinrel  \rhook $}}{}{}\_\discretionary {\unhbox \voidb@x \hbox {\relax \fontsize  {7}{8}\selectfont  $\DOTSB \leftarrow \joinrel  \rhook $}}{}{}db\discretionary {\unhbox \voidb@x \hbox {\relax \fontsize  {7}{8}\selectfont  $\DOTSB \leftarrow \joinrel  \rhook $}}{}{}\_\discretionary {\unhbox \voidb@x \hbox {\relax \fontsize  {7}{8}\selectfont  $\DOTSB \leftarrow \joinrel  \rhook $}}{}{}pack()}{383}{subsubsection.15.57.2.11}}
\newlabel{group__struct__utils_ga6490adff857d84ce06e6f379ae3a4512}{{15.57.2.11}{383}{\texorpdfstring {vrna\+\_\+db\+\_\+pack()}{vrna\_db\_pack()}}{table.15.252}{}}
\@writefile{toc}{\contentsline {subsubsection}{\numberline {15.57.2.12}vrna\discretionary {\unhbox \voidb@x \hbox {\relax \fontsize  {7}{8}\selectfont  $\DOTSB \leftarrow \joinrel  \rhook $}}{}{}\_\discretionary {\unhbox \voidb@x \hbox {\relax \fontsize  {7}{8}\selectfont  $\DOTSB \leftarrow \joinrel  \rhook $}}{}{}db\discretionary {\unhbox \voidb@x \hbox {\relax \fontsize  {7}{8}\selectfont  $\DOTSB \leftarrow \joinrel  \rhook $}}{}{}\_\discretionary {\unhbox \voidb@x \hbox {\relax \fontsize  {7}{8}\selectfont  $\DOTSB \leftarrow \joinrel  \rhook $}}{}{}unpack()}{383}{subsubsection.15.57.2.12}}
\gdef \LT@ccliv {\LT@entry 
    {3}{41.45563pt}\LT@entry 
    {3}{205.30228pt}}
\gdef \LT@cclv {\LT@entry 
    {3}{47.9442pt}\LT@entry 
    {3}{200.93706pt}}
\gdef \LT@cclvi {\LT@entry 
    {3}{47.9442pt}\LT@entry 
    {3}{246.18817pt}}
\newlabel{group__struct__utils_gae829fb8bb7f694c12a9c0bbc34c77c60}{{15.57.2.12}{384}{\texorpdfstring {vrna\+\_\+db\+\_\+unpack()}{vrna\_db\_unpack()}}{table.15.253}{}}
\@writefile{toc}{\contentsline {subsubsection}{\numberline {15.57.2.13}vrna\discretionary {\unhbox \voidb@x \hbox {\relax \fontsize  {7}{8}\selectfont  $\DOTSB \leftarrow \joinrel  \rhook $}}{}{}\_\discretionary {\unhbox \voidb@x \hbox {\relax \fontsize  {7}{8}\selectfont  $\DOTSB \leftarrow \joinrel  \rhook $}}{}{}ptable()}{384}{subsubsection.15.57.2.13}}
\newlabel{group__struct__utils_gacca520048b24ec5a8978f4dafb4e4bf8}{{15.57.2.13}{384}{\texorpdfstring {vrna\+\_\+ptable()}{vrna\_ptable()}}{table.15.254}{}}
\@writefile{toc}{\contentsline {subsubsection}{\numberline {15.57.2.14}vrna\discretionary {\unhbox \voidb@x \hbox {\relax \fontsize  {7}{8}\selectfont  $\DOTSB \leftarrow \joinrel  \rhook $}}{}{}\_\discretionary {\unhbox \voidb@x \hbox {\relax \fontsize  {7}{8}\selectfont  $\DOTSB \leftarrow \joinrel  \rhook $}}{}{}pt\discretionary {\unhbox \voidb@x \hbox {\relax \fontsize  {7}{8}\selectfont  $\DOTSB \leftarrow \joinrel  \rhook $}}{}{}\_\discretionary {\unhbox \voidb@x \hbox {\relax \fontsize  {7}{8}\selectfont  $\DOTSB \leftarrow \joinrel  \rhook $}}{}{}pk\discretionary {\unhbox \voidb@x \hbox {\relax \fontsize  {7}{8}\selectfont  $\DOTSB \leftarrow \joinrel  \rhook $}}{}{}\_\discretionary {\unhbox \voidb@x \hbox {\relax \fontsize  {7}{8}\selectfont  $\DOTSB \leftarrow \joinrel  \rhook $}}{}{}get()}{384}{subsubsection.15.57.2.14}}
\gdef \LT@cclvii {\LT@entry 
    {3}{20.30579pt}\LT@entry 
    {3}{118.77768pt}}
\gdef \LT@cclviii {\LT@entry 
    {3}{20.30579pt}\LT@entry 
    {3}{118.77768pt}}
\newlabel{group__struct__utils_ga2daefbbd6d9f8803731651882f54332d}{{15.57.2.14}{385}{\texorpdfstring {vrna\+\_\+pt\+\_\+pk\+\_\+get()}{vrna\_pt\_pk\_get()}}{table.15.255}{}}
\@writefile{toc}{\contentsline {subsubsection}{\numberline {15.57.2.15}vrna\discretionary {\unhbox \voidb@x \hbox {\relax \fontsize  {7}{8}\selectfont  $\DOTSB \leftarrow \joinrel  \rhook $}}{}{}\_\discretionary {\unhbox \voidb@x \hbox {\relax \fontsize  {7}{8}\selectfont  $\DOTSB \leftarrow \joinrel  \rhook $}}{}{}ptable\discretionary {\unhbox \voidb@x \hbox {\relax \fontsize  {7}{8}\selectfont  $\DOTSB \leftarrow \joinrel  \rhook $}}{}{}\_\discretionary {\unhbox \voidb@x \hbox {\relax \fontsize  {7}{8}\selectfont  $\DOTSB \leftarrow \joinrel  \rhook $}}{}{}copy()}{385}{subsubsection.15.57.2.15}}
\newlabel{group__struct__utils_gaef0f7e1a6c00c81a349973de53039dda}{{15.57.2.15}{385}{\texorpdfstring {vrna\+\_\+ptable\+\_\+copy()}{vrna\_ptable\_copy()}}{table.15.256}{}}
\@writefile{toc}{\contentsline {subsubsection}{\numberline {15.57.2.16}vrna\discretionary {\unhbox \voidb@x \hbox {\relax \fontsize  {7}{8}\selectfont  $\DOTSB \leftarrow \joinrel  \rhook $}}{}{}\_\discretionary {\unhbox \voidb@x \hbox {\relax \fontsize  {7}{8}\selectfont  $\DOTSB \leftarrow \joinrel  \rhook $}}{}{}pt\discretionary {\unhbox \voidb@x \hbox {\relax \fontsize  {7}{8}\selectfont  $\DOTSB \leftarrow \joinrel  \rhook $}}{}{}\_\discretionary {\unhbox \voidb@x \hbox {\relax \fontsize  {7}{8}\selectfont  $\DOTSB \leftarrow \joinrel  \rhook $}}{}{}snoop\discretionary {\unhbox \voidb@x \hbox {\relax \fontsize  {7}{8}\selectfont  $\DOTSB \leftarrow \joinrel  \rhook $}}{}{}\_\discretionary {\unhbox \voidb@x \hbox {\relax \fontsize  {7}{8}\selectfont  $\DOTSB \leftarrow \joinrel  \rhook $}}{}{}get()}{385}{subsubsection.15.57.2.16}}
\newlabel{group__struct__utils_gaf9ecd0d7877fecdbb0292e24f40283d5}{{15.57.2.16}{385}{\texorpdfstring {vrna\+\_\+pt\+\_\+snoop\+\_\+get()}{vrna\_pt\_snoop\_get()}}{subsubsection.15.57.2.16}{}}
\@writefile{toc}{\contentsline {subsubsection}{\numberline {15.57.2.17}vrna\discretionary {\unhbox \voidb@x \hbox {\relax \fontsize  {7}{8}\selectfont  $\DOTSB \leftarrow \joinrel  \rhook $}}{}{}\_\discretionary {\unhbox \voidb@x \hbox {\relax \fontsize  {7}{8}\selectfont  $\DOTSB \leftarrow \joinrel  \rhook $}}{}{}db\discretionary {\unhbox \voidb@x \hbox {\relax \fontsize  {7}{8}\selectfont  $\DOTSB \leftarrow \joinrel  \rhook $}}{}{}\_\discretionary {\unhbox \voidb@x \hbox {\relax \fontsize  {7}{8}\selectfont  $\DOTSB \leftarrow \joinrel  \rhook $}}{}{}from\discretionary {\unhbox \voidb@x \hbox {\relax \fontsize  {7}{8}\selectfont  $\DOTSB \leftarrow \joinrel  \rhook $}}{}{}\_\discretionary {\unhbox \voidb@x \hbox {\relax \fontsize  {7}{8}\selectfont  $\DOTSB \leftarrow \joinrel  \rhook $}}{}{}ptable()}{385}{subsubsection.15.57.2.17}}
\gdef \LT@cclix {\LT@entry 
    {3}{27.80269pt}\LT@entry 
    {3}{171.66058pt}}
\newlabel{group__struct__utils_ga65bdfbac6a16bf30286e8a3f7d15f60a}{{15.57.2.17}{386}{\texorpdfstring {vrna\+\_\+db\+\_\+from\+\_\+ptable()}{vrna\_db\_from\_ptable()}}{table.15.257}{}}
\@writefile{toc}{\contentsline {subsubsection}{\numberline {15.57.2.18}vrna\discretionary {\unhbox \voidb@x \hbox {\relax \fontsize  {7}{8}\selectfont  $\DOTSB \leftarrow \joinrel  \rhook $}}{}{}\_\discretionary {\unhbox \voidb@x \hbox {\relax \fontsize  {7}{8}\selectfont  $\DOTSB \leftarrow \joinrel  \rhook $}}{}{}bp\discretionary {\unhbox \voidb@x \hbox {\relax \fontsize  {7}{8}\selectfont  $\DOTSB \leftarrow \joinrel  \rhook $}}{}{}\_\discretionary {\unhbox \voidb@x \hbox {\relax \fontsize  {7}{8}\selectfont  $\DOTSB \leftarrow \joinrel  \rhook $}}{}{}distance()}{386}{subsubsection.15.57.2.18}}
\newlabel{group__struct__utils_gab4c2a00c99ce1d612ffa5bde114eb96d}{{15.57.2.18}{386}{\texorpdfstring {vrna\+\_\+bp\+\_\+distance()}{vrna\_bp\_distance()}}{table.15.258}{}}
\@writefile{toc}{\contentsline {subsubsection}{\numberline {15.57.2.19}vrna\discretionary {\unhbox \voidb@x \hbox {\relax \fontsize  {7}{8}\selectfont  $\DOTSB \leftarrow \joinrel  \rhook $}}{}{}\_\discretionary {\unhbox \voidb@x \hbox {\relax \fontsize  {7}{8}\selectfont  $\DOTSB \leftarrow \joinrel  \rhook $}}{}{}ref\discretionary {\unhbox \voidb@x \hbox {\relax \fontsize  {7}{8}\selectfont  $\DOTSB \leftarrow \joinrel  \rhook $}}{}{}B\discretionary {\unhbox \voidb@x \hbox {\relax \fontsize  {7}{8}\selectfont  $\DOTSB \leftarrow \joinrel  \rhook $}}{}{}Pcnt\discretionary {\unhbox \voidb@x \hbox {\relax \fontsize  {7}{8}\selectfont  $\DOTSB \leftarrow \joinrel  \rhook $}}{}{}\_\discretionary {\unhbox \voidb@x \hbox {\relax \fontsize  {7}{8}\selectfont  $\DOTSB \leftarrow \joinrel  \rhook $}}{}{}matrix()}{386}{subsubsection.15.57.2.19}}
\newlabel{group__struct__utils_ga5a27bd058183170afd4716f5b8ff511a}{{15.57.2.19}{386}{\texorpdfstring {vrna\+\_\+ref\+B\+Pcnt\+\_\+matrix()}{vrna\_refBPcnt\_matrix()}}{subsubsection.15.57.2.19}{}}
\@writefile{toc}{\contentsline {subsubsection}{\numberline {15.57.2.20}vrna\discretionary {\unhbox \voidb@x \hbox {\relax \fontsize  {7}{8}\selectfont  $\DOTSB \leftarrow \joinrel  \rhook $}}{}{}\_\discretionary {\unhbox \voidb@x \hbox {\relax \fontsize  {7}{8}\selectfont  $\DOTSB \leftarrow \joinrel  \rhook $}}{}{}ref\discretionary {\unhbox \voidb@x \hbox {\relax \fontsize  {7}{8}\selectfont  $\DOTSB \leftarrow \joinrel  \rhook $}}{}{}B\discretionary {\unhbox \voidb@x \hbox {\relax \fontsize  {7}{8}\selectfont  $\DOTSB \leftarrow \joinrel  \rhook $}}{}{}Pdist\discretionary {\unhbox \voidb@x \hbox {\relax \fontsize  {7}{8}\selectfont  $\DOTSB \leftarrow \joinrel  \rhook $}}{}{}\_\discretionary {\unhbox \voidb@x \hbox {\relax \fontsize  {7}{8}\selectfont  $\DOTSB \leftarrow \joinrel  \rhook $}}{}{}matrix()}{386}{subsubsection.15.57.2.20}}
\newlabel{group__struct__utils_ga27bea2c241564af53a065982183389df}{{15.57.2.20}{386}{\texorpdfstring {vrna\+\_\+ref\+B\+Pdist\+\_\+matrix()}{vrna\_refBPdist\_matrix()}}{subsubsection.15.57.2.20}{}}
\gdef \LT@cclx {\LT@entry 
    {3}{37.31546pt}\LT@entry 
    {3}{203.71814pt}}
\gdef \LT@cclxi {\LT@entry 
    {3}{32.43756pt}\LT@entry 
    {3}{210.71977pt}}
\@writefile{toc}{\contentsline {subsubsection}{\numberline {15.57.2.21}vrna\discretionary {\unhbox \voidb@x \hbox {\relax \fontsize  {7}{8}\selectfont  $\DOTSB \leftarrow \joinrel  \rhook $}}{}{}\_\discretionary {\unhbox \voidb@x \hbox {\relax \fontsize  {7}{8}\selectfont  $\DOTSB \leftarrow \joinrel  \rhook $}}{}{}db\discretionary {\unhbox \voidb@x \hbox {\relax \fontsize  {7}{8}\selectfont  $\DOTSB \leftarrow \joinrel  \rhook $}}{}{}\_\discretionary {\unhbox \voidb@x \hbox {\relax \fontsize  {7}{8}\selectfont  $\DOTSB \leftarrow \joinrel  \rhook $}}{}{}from\discretionary {\unhbox \voidb@x \hbox {\relax \fontsize  {7}{8}\selectfont  $\DOTSB \leftarrow \joinrel  \rhook $}}{}{}\_\discretionary {\unhbox \voidb@x \hbox {\relax \fontsize  {7}{8}\selectfont  $\DOTSB \leftarrow \joinrel  \rhook $}}{}{}bp\discretionary {\unhbox \voidb@x \hbox {\relax \fontsize  {7}{8}\selectfont  $\DOTSB \leftarrow \joinrel  \rhook $}}{}{}\_\discretionary {\unhbox \voidb@x \hbox {\relax \fontsize  {7}{8}\selectfont  $\DOTSB \leftarrow \joinrel  \rhook $}}{}{}stack()}{387}{subsubsection.15.57.2.21}}
\newlabel{group__struct__utils_gad4448f5d2c2da0e4ab1731a3586b2542}{{15.57.2.21}{387}{\texorpdfstring {vrna\+\_\+db\+\_\+from\+\_\+bp\+\_\+stack()}{vrna\_db\_from\_bp\_stack()}}{table.15.259}{}}
\@writefile{toc}{\contentsline {subsubsection}{\numberline {15.57.2.22}vrna\discretionary {\unhbox \voidb@x \hbox {\relax \fontsize  {7}{8}\selectfont  $\DOTSB \leftarrow \joinrel  \rhook $}}{}{}\_\discretionary {\unhbox \voidb@x \hbox {\relax \fontsize  {7}{8}\selectfont  $\DOTSB \leftarrow \joinrel  \rhook $}}{}{}plist()}{387}{subsubsection.15.57.2.22}}
\newlabel{group__struct__utils_gaa3bf26a0ee2e9f2225afbaee44a37264}{{15.57.2.22}{387}{\texorpdfstring {vrna\+\_\+plist()}{vrna\_plist()}}{table.15.260}{}}
\@writefile{toc}{\contentsline {subsubsection}{\numberline {15.57.2.23}vrna\discretionary {\unhbox \voidb@x \hbox {\relax \fontsize  {7}{8}\selectfont  $\DOTSB \leftarrow \joinrel  \rhook $}}{}{}\_\discretionary {\unhbox \voidb@x \hbox {\relax \fontsize  {7}{8}\selectfont  $\DOTSB \leftarrow \joinrel  \rhook $}}{}{}plist\discretionary {\unhbox \voidb@x \hbox {\relax \fontsize  {7}{8}\selectfont  $\DOTSB \leftarrow \joinrel  \rhook $}}{}{}\_\discretionary {\unhbox \voidb@x \hbox {\relax \fontsize  {7}{8}\selectfont  $\DOTSB \leftarrow \joinrel  \rhook $}}{}{}from\discretionary {\unhbox \voidb@x \hbox {\relax \fontsize  {7}{8}\selectfont  $\DOTSB \leftarrow \joinrel  \rhook $}}{}{}\_\discretionary {\unhbox \voidb@x \hbox {\relax \fontsize  {7}{8}\selectfont  $\DOTSB \leftarrow \joinrel  \rhook $}}{}{}probs()}{387}{subsubsection.15.57.2.23}}
\gdef \LT@cclxii {\LT@entry 
    {3}{24.79999pt}\LT@entry 
    {3}{39.41748pt}\LT@entry 
    {3}{89.16856pt}}
\gdef \LT@cclxiii {\LT@entry 
    {3}{32.30266pt}\LT@entry 
    {3}{302.44562pt}}
\newlabel{group__struct__utils_gab6a7a36c90836880f7ab09b9f6baf1af}{{15.57.2.23}{388}{\texorpdfstring {vrna\+\_\+plist\+\_\+from\+\_\+probs()}{vrna\_plist\_from\_probs()}}{table.15.261}{}}
\@writefile{toc}{\contentsline {subsubsection}{\numberline {15.57.2.24}vrna\discretionary {\unhbox \voidb@x \hbox {\relax \fontsize  {7}{8}\selectfont  $\DOTSB \leftarrow \joinrel  \rhook $}}{}{}\_\discretionary {\unhbox \voidb@x \hbox {\relax \fontsize  {7}{8}\selectfont  $\DOTSB \leftarrow \joinrel  \rhook $}}{}{}db\discretionary {\unhbox \voidb@x \hbox {\relax \fontsize  {7}{8}\selectfont  $\DOTSB \leftarrow \joinrel  \rhook $}}{}{}\_\discretionary {\unhbox \voidb@x \hbox {\relax \fontsize  {7}{8}\selectfont  $\DOTSB \leftarrow \joinrel  \rhook $}}{}{}from\discretionary {\unhbox \voidb@x \hbox {\relax \fontsize  {7}{8}\selectfont  $\DOTSB \leftarrow \joinrel  \rhook $}}{}{}\_\discretionary {\unhbox \voidb@x \hbox {\relax \fontsize  {7}{8}\selectfont  $\DOTSB \leftarrow \joinrel  \rhook $}}{}{}plist()}{388}{subsubsection.15.57.2.24}}
\newlabel{group__struct__utils_ga6f3031d77de925a7b4ca72e1d52dec2f}{{15.57.2.24}{388}{\texorpdfstring {vrna\+\_\+db\+\_\+from\+\_\+plist()}{vrna\_db\_from\_plist()}}{table.15.262}{}}
\@writefile{toc}{\contentsline {subsubsection}{\numberline {15.57.2.25}assign\discretionary {\unhbox \voidb@x \hbox {\relax \fontsize  {7}{8}\selectfont  $\DOTSB \leftarrow \joinrel  \rhook $}}{}{}\_\discretionary {\unhbox \voidb@x \hbox {\relax \fontsize  {7}{8}\selectfont  $\DOTSB \leftarrow \joinrel  \rhook $}}{}{}plist\discretionary {\unhbox \voidb@x \hbox {\relax \fontsize  {7}{8}\selectfont  $\DOTSB \leftarrow \joinrel  \rhook $}}{}{}\_\discretionary {\unhbox \voidb@x \hbox {\relax \fontsize  {7}{8}\selectfont  $\DOTSB \leftarrow \joinrel  \rhook $}}{}{}from\discretionary {\unhbox \voidb@x \hbox {\relax \fontsize  {7}{8}\selectfont  $\DOTSB \leftarrow \joinrel  \rhook $}}{}{}\_\discretionary {\unhbox \voidb@x \hbox {\relax \fontsize  {7}{8}\selectfont  $\DOTSB \leftarrow \joinrel  \rhook $}}{}{}db()}{388}{subsubsection.15.57.2.25}}
\gdef \LT@cclxiv {\LT@entry 
    {3}{32.43756pt}\LT@entry 
    {3}{203.72646pt}}
\gdef \LT@cclxv {\LT@entry 
    {3}{32.43756pt}\LT@entry 
    {3}{200.93706pt}}
\newlabel{group__struct__utils_gac6dfa5e22928c087c6e09ff0054a7ced}{{15.57.2.25}{389}{\texorpdfstring {assign\+\_\+plist\+\_\+from\+\_\+db()}{assign\_plist\_from\_db()}}{table.15.263}{}}
\@writefile{toc}{\contentsline {subsubsection}{\numberline {15.57.2.26}pack\discretionary {\unhbox \voidb@x \hbox {\relax \fontsize  {7}{8}\selectfont  $\DOTSB \leftarrow \joinrel  \rhook $}}{}{}\_\discretionary {\unhbox \voidb@x \hbox {\relax \fontsize  {7}{8}\selectfont  $\DOTSB \leftarrow \joinrel  \rhook $}}{}{}structure()}{389}{subsubsection.15.57.2.26}}
\newlabel{group__struct__utils_ga071c6921efe1eb974f115ee6fefa3c39}{{15.57.2.26}{389}{\texorpdfstring {pack\+\_\+structure()}{pack\_structure()}}{table.15.264}{}}
\@writefile{toc}{\contentsline {subsubsection}{\numberline {15.57.2.27}unpack\discretionary {\unhbox \voidb@x \hbox {\relax \fontsize  {7}{8}\selectfont  $\DOTSB \leftarrow \joinrel  \rhook $}}{}{}\_\discretionary {\unhbox \voidb@x \hbox {\relax \fontsize  {7}{8}\selectfont  $\DOTSB \leftarrow \joinrel  \rhook $}}{}{}structure()}{389}{subsubsection.15.57.2.27}}
\gdef \LT@cclxvi {\LT@entry 
    {3}{41.45563pt}\LT@entry 
    {3}{205.30228pt}}
\gdef \LT@cclxvii {\LT@entry 
    {3}{47.9442pt}\LT@entry 
    {3}{200.93706pt}}
\gdef \LT@cclxviii {\LT@entry 
    {3}{20.30579pt}\LT@entry 
    {3}{118.77768pt}}
\newlabel{group__struct__utils_ga89c32307ee50a0026f4a3131fac0845a}{{15.57.2.27}{390}{\texorpdfstring {unpack\+\_\+structure()}{unpack\_structure()}}{table.15.265}{}}
\@writefile{toc}{\contentsline {subsubsection}{\numberline {15.57.2.28}make\discretionary {\unhbox \voidb@x \hbox {\relax \fontsize  {7}{8}\selectfont  $\DOTSB \leftarrow \joinrel  \rhook $}}{}{}\_\discretionary {\unhbox \voidb@x \hbox {\relax \fontsize  {7}{8}\selectfont  $\DOTSB \leftarrow \joinrel  \rhook $}}{}{}pair\discretionary {\unhbox \voidb@x \hbox {\relax \fontsize  {7}{8}\selectfont  $\DOTSB \leftarrow \joinrel  \rhook $}}{}{}\_\discretionary {\unhbox \voidb@x \hbox {\relax \fontsize  {7}{8}\selectfont  $\DOTSB \leftarrow \joinrel  \rhook $}}{}{}table()}{390}{subsubsection.15.57.2.28}}
\newlabel{group__struct__utils_gafeaa6d68eef3a99d0a7aa08aa91c6601}{{15.57.2.28}{390}{\texorpdfstring {make\+\_\+pair\+\_\+table()}{make\_pair\_table()}}{table.15.266}{}}
\@writefile{toc}{\contentsline {subsubsection}{\numberline {15.57.2.29}copy\discretionary {\unhbox \voidb@x \hbox {\relax \fontsize  {7}{8}\selectfont  $\DOTSB \leftarrow \joinrel  \rhook $}}{}{}\_\discretionary {\unhbox \voidb@x \hbox {\relax \fontsize  {7}{8}\selectfont  $\DOTSB \leftarrow \joinrel  \rhook $}}{}{}pair\discretionary {\unhbox \voidb@x \hbox {\relax \fontsize  {7}{8}\selectfont  $\DOTSB \leftarrow \joinrel  \rhook $}}{}{}\_\discretionary {\unhbox \voidb@x \hbox {\relax \fontsize  {7}{8}\selectfont  $\DOTSB \leftarrow \joinrel  \rhook $}}{}{}table()}{390}{subsubsection.15.57.2.29}}
\gdef \LT@cclxix {\LT@entry 
    {3}{27.80269pt}\LT@entry 
    {3}{171.66058pt}}
\newlabel{group__struct__utils_ga3c81b3967056c3888b8472b65fbb16f5}{{15.57.2.29}{391}{\texorpdfstring {copy\+\_\+pair\+\_\+table()}{copy\_pair\_table()}}{table.15.267}{}}
\@writefile{toc}{\contentsline {subsubsection}{\numberline {15.57.2.30}alimake\discretionary {\unhbox \voidb@x \hbox {\relax \fontsize  {7}{8}\selectfont  $\DOTSB \leftarrow \joinrel  \rhook $}}{}{}\_\discretionary {\unhbox \voidb@x \hbox {\relax \fontsize  {7}{8}\selectfont  $\DOTSB \leftarrow \joinrel  \rhook $}}{}{}pair\discretionary {\unhbox \voidb@x \hbox {\relax \fontsize  {7}{8}\selectfont  $\DOTSB \leftarrow \joinrel  \rhook $}}{}{}\_\discretionary {\unhbox \voidb@x \hbox {\relax \fontsize  {7}{8}\selectfont  $\DOTSB \leftarrow \joinrel  \rhook $}}{}{}table()}{391}{subsubsection.15.57.2.30}}
\newlabel{group__struct__utils_ga9aa3bf3b4346bb7fb88efc154dd07a79}{{15.57.2.30}{391}{\texorpdfstring {alimake\+\_\+pair\+\_\+table()}{alimake\_pair\_table()}}{subsubsection.15.57.2.30}{}}
\@writefile{toc}{\contentsline {subsubsection}{\numberline {15.57.2.31}make\discretionary {\unhbox \voidb@x \hbox {\relax \fontsize  {7}{8}\selectfont  $\DOTSB \leftarrow \joinrel  \rhook $}}{}{}\_\discretionary {\unhbox \voidb@x \hbox {\relax \fontsize  {7}{8}\selectfont  $\DOTSB \leftarrow \joinrel  \rhook $}}{}{}pair\discretionary {\unhbox \voidb@x \hbox {\relax \fontsize  {7}{8}\selectfont  $\DOTSB \leftarrow \joinrel  \rhook $}}{}{}\_\discretionary {\unhbox \voidb@x \hbox {\relax \fontsize  {7}{8}\selectfont  $\DOTSB \leftarrow \joinrel  \rhook $}}{}{}table\discretionary {\unhbox \voidb@x \hbox {\relax \fontsize  {7}{8}\selectfont  $\DOTSB \leftarrow \joinrel  \rhook $}}{}{}\_\discretionary {\unhbox \voidb@x \hbox {\relax \fontsize  {7}{8}\selectfont  $\DOTSB \leftarrow \joinrel  \rhook $}}{}{}snoop()}{391}{subsubsection.15.57.2.31}}
\newlabel{group__struct__utils_ga6ebbcd29a754f0e4f1a66d1fd84184db}{{15.57.2.31}{391}{\texorpdfstring {make\+\_\+pair\+\_\+table\+\_\+snoop()}{make\_pair\_table\_snoop()}}{subsubsection.15.57.2.31}{}}
\@writefile{toc}{\contentsline {subsubsection}{\numberline {15.57.2.32}bp\discretionary {\unhbox \voidb@x \hbox {\relax \fontsize  {7}{8}\selectfont  $\DOTSB \leftarrow \joinrel  \rhook $}}{}{}\_\discretionary {\unhbox \voidb@x \hbox {\relax \fontsize  {7}{8}\selectfont  $\DOTSB \leftarrow \joinrel  \rhook $}}{}{}distance()}{391}{subsubsection.15.57.2.32}}
\newlabel{group__struct__utils_ga578cd9712dee812fb1c58aa3cc489864}{{15.57.2.32}{392}{\texorpdfstring {bp\+\_\+distance()}{bp\_distance()}}{table.15.268}{}}
\@writefile{toc}{\contentsline {subsubsection}{\numberline {15.57.2.33}make\discretionary {\unhbox \voidb@x \hbox {\relax \fontsize  {7}{8}\selectfont  $\DOTSB \leftarrow \joinrel  \rhook $}}{}{}\_\discretionary {\unhbox \voidb@x \hbox {\relax \fontsize  {7}{8}\selectfont  $\DOTSB \leftarrow \joinrel  \rhook $}}{}{}reference\discretionary {\unhbox \voidb@x \hbox {\relax \fontsize  {7}{8}\selectfont  $\DOTSB \leftarrow \joinrel  \rhook $}}{}{}B\discretionary {\unhbox \voidb@x \hbox {\relax \fontsize  {7}{8}\selectfont  $\DOTSB \leftarrow \joinrel  \rhook $}}{}{}P\discretionary {\unhbox \voidb@x \hbox {\relax \fontsize  {7}{8}\selectfont  $\DOTSB \leftarrow \joinrel  \rhook $}}{}{}\_\discretionary {\unhbox \voidb@x \hbox {\relax \fontsize  {7}{8}\selectfont  $\DOTSB \leftarrow \joinrel  \rhook $}}{}{}array()}{392}{subsubsection.15.57.2.33}}
\newlabel{group__struct__utils_gadd463184355d0803b6ee6e09f29182f2}{{15.57.2.33}{392}{\texorpdfstring {make\+\_\+reference\+B\+P\+\_\+array()}{make\_referenceBP\_array()}}{subsubsection.15.57.2.33}{}}
\@writefile{toc}{\contentsline {subsubsection}{\numberline {15.57.2.34}compute\discretionary {\unhbox \voidb@x \hbox {\relax \fontsize  {7}{8}\selectfont  $\DOTSB \leftarrow \joinrel  \rhook $}}{}{}\_\discretionary {\unhbox \voidb@x \hbox {\relax \fontsize  {7}{8}\selectfont  $\DOTSB \leftarrow \joinrel  \rhook $}}{}{}\discretionary {\unhbox \voidb@x \hbox {\relax \fontsize  {7}{8}\selectfont  $\DOTSB \leftarrow \joinrel  \rhook $}}{}{}B\discretionary {\unhbox \voidb@x \hbox {\relax \fontsize  {7}{8}\selectfont  $\DOTSB \leftarrow \joinrel  \rhook $}}{}{}Pdifferences()}{392}{subsubsection.15.57.2.34}}
\newlabel{group__struct__utils_gacfdacc119b749bccf939de445afea07b}{{15.57.2.34}{392}{\texorpdfstring {compute\+\_\+\+B\+Pdifferences()}{compute\_BPdifferences()}}{subsubsection.15.57.2.34}{}}
\@writefile{toc}{\contentsline {subsubsection}{\numberline {15.57.2.35}assign\discretionary {\unhbox \voidb@x \hbox {\relax \fontsize  {7}{8}\selectfont  $\DOTSB \leftarrow \joinrel  \rhook $}}{}{}\_\discretionary {\unhbox \voidb@x \hbox {\relax \fontsize  {7}{8}\selectfont  $\DOTSB \leftarrow \joinrel  \rhook $}}{}{}plist\discretionary {\unhbox \voidb@x \hbox {\relax \fontsize  {7}{8}\selectfont  $\DOTSB \leftarrow \joinrel  \rhook $}}{}{}\_\discretionary {\unhbox \voidb@x \hbox {\relax \fontsize  {7}{8}\selectfont  $\DOTSB \leftarrow \joinrel  \rhook $}}{}{}from\discretionary {\unhbox \voidb@x \hbox {\relax \fontsize  {7}{8}\selectfont  $\DOTSB \leftarrow \joinrel  \rhook $}}{}{}\_\discretionary {\unhbox \voidb@x \hbox {\relax \fontsize  {7}{8}\selectfont  $\DOTSB \leftarrow \joinrel  \rhook $}}{}{}pr()}{392}{subsubsection.15.57.2.35}}
\gdef \LT@cclxx {\LT@entry 
    {3}{30.79999pt}\LT@entry 
    {3}{36.91547pt}\LT@entry 
    {3}{203.72646pt}}
\newlabel{group__struct__utils_gadf0ad2d46c9ca7b850437d1b79627a7e}{{15.57.2.35}{393}{\texorpdfstring {assign\+\_\+plist\+\_\+from\+\_\+pr()}{assign\_plist\_from\_pr()}}{table.15.269}{}}
\@writefile{toc}{\contentsline {subsubsection}{\numberline {15.57.2.36}parenthesis\discretionary {\unhbox \voidb@x \hbox {\relax \fontsize  {7}{8}\selectfont  $\DOTSB \leftarrow \joinrel  \rhook $}}{}{}\_\discretionary {\unhbox \voidb@x \hbox {\relax \fontsize  {7}{8}\selectfont  $\DOTSB \leftarrow \joinrel  \rhook $}}{}{}structure()}{393}{subsubsection.15.57.2.36}}
\newlabel{group__struct__utils_gab9c5c8311bd5120900585d4fa50c2df0}{{15.57.2.36}{393}{\texorpdfstring {parenthesis\+\_\+structure()}{parenthesis\_structure()}}{subsubsection.15.57.2.36}{}}
\@writefile{toc}{\contentsline {subsubsection}{\numberline {15.57.2.37}parenthesis\discretionary {\unhbox \voidb@x \hbox {\relax \fontsize  {7}{8}\selectfont  $\DOTSB \leftarrow \joinrel  \rhook $}}{}{}\_\discretionary {\unhbox \voidb@x \hbox {\relax \fontsize  {7}{8}\selectfont  $\DOTSB \leftarrow \joinrel  \rhook $}}{}{}zuker()}{393}{subsubsection.15.57.2.37}}
\newlabel{group__struct__utils_ga129d81c4a1ead793c5b2311333e03dfa}{{15.57.2.37}{393}{\texorpdfstring {parenthesis\+\_\+zuker()}{parenthesis\_zuker()}}{subsubsection.15.57.2.37}{}}
\@writefile{toc}{\contentsline {subsubsection}{\numberline {15.57.2.38}bppm\discretionary {\unhbox \voidb@x \hbox {\relax \fontsize  {7}{8}\selectfont  $\DOTSB \leftarrow \joinrel  \rhook $}}{}{}\_\discretionary {\unhbox \voidb@x \hbox {\relax \fontsize  {7}{8}\selectfont  $\DOTSB \leftarrow \joinrel  \rhook $}}{}{}to\discretionary {\unhbox \voidb@x \hbox {\relax \fontsize  {7}{8}\selectfont  $\DOTSB \leftarrow \joinrel  \rhook $}}{}{}\_\discretionary {\unhbox \voidb@x \hbox {\relax \fontsize  {7}{8}\selectfont  $\DOTSB \leftarrow \joinrel  \rhook $}}{}{}structure()}{394}{subsubsection.15.57.2.38}}
\newlabel{group__struct__utils_ga49962ad6242b8c628de6ca16bb831c1d}{{15.57.2.38}{394}{\texorpdfstring {bppm\+\_\+to\+\_\+structure()}{bppm\_to\_structure()}}{subsubsection.15.57.2.38}{}}
\@writefile{toc}{\contentsline {subsubsection}{\numberline {15.57.2.39}bppm\discretionary {\unhbox \voidb@x \hbox {\relax \fontsize  {7}{8}\selectfont  $\DOTSB \leftarrow \joinrel  \rhook $}}{}{}\_\discretionary {\unhbox \voidb@x \hbox {\relax \fontsize  {7}{8}\selectfont  $\DOTSB \leftarrow \joinrel  \rhook $}}{}{}symbol()}{394}{subsubsection.15.57.2.39}}
\@setckpt{group__struct__utils}{
\setcounter{page}{395}
\setcounter{equation}{0}
\setcounter{enumi}{2}
\setcounter{enumii}{0}
\setcounter{enumiii}{0}
\setcounter{enumiv}{0}
\setcounter{footnote}{0}
\setcounter{mpfootnote}{0}
\setcounter{part}{0}
\setcounter{chapter}{15}
\setcounter{section}{57}
\setcounter{subsection}{2}
\setcounter{subsubsection}{39}
\setcounter{paragraph}{0}
\setcounter{subparagraph}{0}
\setcounter{figure}{0}
\setcounter{table}{269}
\setcounter{float@type}{4}
\setcounter{LT@tables}{270}
\setcounter{LT@chunks}{3}
\setcounter{NAT@ctr}{0}
\setcounter{lofdepth}{1}
\setcounter{lotdepth}{1}
\setcounter{parentequation}{0}
\setcounter{Item}{12}
\setcounter{Hfootnote}{0}
\setcounter{bookmark@seq@number}{771}
\setcounter{ContinuedFloat}{0}
\setcounter{section@level}{3}
}
