\relax 
\providecommand\hyper@newdestlabel[2]{}
\@writefile{toc}{\contentsline {section}{\numberline {15.46}Partition Function for two hybridized Sequences}{318}{section.15.46}}
\newlabel{group__pf__cofold}{{15.46}{318}{Partition Function for two hybridized Sequences}{section.15.46}{}}
\newlabel{group__pf__cofold_ga444df1587c9a2ca15b8eb25188f629c3}{{15.46}{318}{Typedefs}{section*.179}{}}
\newlabel{group__pf__cofold_gac48c2723444ecfdceafcfd525ca98322}{{15.46}{318}{Typedefs}{section*.179}{}}
\newlabel{group__pf__cofold_ga5445d8d96a40e9e79b1fa5a7f1a6b7ea}{{15.46}{318}{Typedefs}{section*.179}{}}
\newlabel{group__pf__cofold_ga46244c7adf5040580291c45b465f4efa}{{15.46}{318}{Typedefs}{section*.179}{}}
\citation{bernhart:2006}
\newlabel{group__pf__cofold_gaff27888c4088cc1f60fd59cbd589474c}{{15.46}{319}{Variables}{section*.181}{}}
\newlabel{group__pf__cofold_gac2d1851a710a8561390861155ca988fe}{{15.46}{319}{Variables}{section*.181}{}}
\@writefile{toc}{\contentsline {subsection}{\numberline {15.46.1}Detailed Description}{319}{subsection.15.46.1}}
\@writefile{brf}{\backcite{bernhart:2006}{{319}{15.46.1}{subsection.15.46.1}}}
\@writefile{toc}{\contentsline {subsection}{\numberline {15.46.2}Data Structure Documentation}{319}{subsection.15.46.2}}
\newlabel{structvrna__dimer__pf__s}{{15.46.2}{319}{Data Structure Documentation}{subsection.15.46.2}{}}
\@writefile{toc}{\contentsline {subsubsection}{\numberline {15.46.2.1}struct vrna\discretionary {\unhbox \voidb@x \hbox {\relax \fontsize  {7}{8}\selectfont  $\DOTSB \leftarrow \joinrel  \rhook $}}{}{}\_\discretionary {\unhbox \voidb@x \hbox {\relax \fontsize  {7}{8}\selectfont  $\DOTSB \leftarrow \joinrel  \rhook $}}{}{}dimer\discretionary {\unhbox \voidb@x \hbox {\relax \fontsize  {7}{8}\selectfont  $\DOTSB \leftarrow \joinrel  \rhook $}}{}{}\_\discretionary {\unhbox \voidb@x \hbox {\relax \fontsize  {7}{8}\selectfont  $\DOTSB \leftarrow \joinrel  \rhook $}}{}{}pf\discretionary {\unhbox \voidb@x \hbox {\relax \fontsize  {7}{8}\selectfont  $\DOTSB \leftarrow \joinrel  \rhook $}}{}{}\_\discretionary {\unhbox \voidb@x \hbox {\relax \fontsize  {7}{8}\selectfont  $\DOTSB \leftarrow \joinrel  \rhook $}}{}{}s}{319}{subsubsection.15.46.2.1}}
\newlabel{group__pf__cofold_a82e31d1fb6e95923fab6036f52c370af}{{15.46.2.1}{319}{Data Fields}{section*.182}{}}
\newlabel{group__pf__cofold_a01a87f59db2b7fbf883b056e6f6c673a}{{15.46.2.1}{319}{Data Fields}{section*.182}{}}
\newlabel{group__pf__cofold_a7b01cea5721f61badebc29cf0a9c4266}{{15.46.2.1}{319}{Data Fields}{section*.182}{}}
\newlabel{group__pf__cofold_a1aca57247f2c023d08028b1919005b0a}{{15.46.2.1}{319}{Data Fields}{section*.182}{}}
\newlabel{group__pf__cofold_ab4d307be5400604d3c1d84d58a9981df}{{15.46.2.1}{319}{Data Fields}{section*.182}{}}
\newlabel{structvrna__dimer__conc__s}{{15.46.2.1}{319}{Data Fields}{section*.182}{}}
\gdef \LT@cxcviii {\LT@entry 
    {3}{47.9442pt}\LT@entry 
    {3}{155.48784pt}}
\@writefile{toc}{\contentsline {subsubsection}{\numberline {15.46.2.2}struct vrna\discretionary {\unhbox \voidb@x \hbox {\relax \fontsize  {7}{8}\selectfont  $\DOTSB \leftarrow \joinrel  \rhook $}}{}{}\_\discretionary {\unhbox \voidb@x \hbox {\relax \fontsize  {7}{8}\selectfont  $\DOTSB \leftarrow \joinrel  \rhook $}}{}{}dimer\discretionary {\unhbox \voidb@x \hbox {\relax \fontsize  {7}{8}\selectfont  $\DOTSB \leftarrow \joinrel  \rhook $}}{}{}\_\discretionary {\unhbox \voidb@x \hbox {\relax \fontsize  {7}{8}\selectfont  $\DOTSB \leftarrow \joinrel  \rhook $}}{}{}conc\discretionary {\unhbox \voidb@x \hbox {\relax \fontsize  {7}{8}\selectfont  $\DOTSB \leftarrow \joinrel  \rhook $}}{}{}\_\discretionary {\unhbox \voidb@x \hbox {\relax \fontsize  {7}{8}\selectfont  $\DOTSB \leftarrow \joinrel  \rhook $}}{}{}s}{320}{subsubsection.15.46.2.2}}
\newlabel{group__pf__cofold_a9722115f1a483583beaf7ef0f8180087}{{15.46.2.2}{320}{Data Fields}{section*.183}{}}
\newlabel{group__pf__cofold_a5231715f610413dd5a88bc9f958cf5f3}{{15.46.2.2}{320}{Data Fields}{section*.183}{}}
\newlabel{group__pf__cofold_aef56a1fe8d7f07e7b5d9a65417dda8a4}{{15.46.2.2}{320}{Data Fields}{section*.183}{}}
\@writefile{toc}{\contentsline {subsection}{\numberline {15.46.3}Function Documentation}{320}{subsection.15.46.3}}
\newlabel{group__pf__cofold_ga4e5c7d06c302a7c59fc0d64dc142ca63}{{15.46.3}{320}{Function Documentation}{subsection.15.46.3}{}}
\@writefile{toc}{\contentsline {subsubsection}{\numberline {15.46.3.1}vrna\discretionary {\unhbox \voidb@x \hbox {\relax \fontsize  {7}{8}\selectfont  $\DOTSB \leftarrow \joinrel  \rhook $}}{}{}\_\discretionary {\unhbox \voidb@x \hbox {\relax \fontsize  {7}{8}\selectfont  $\DOTSB \leftarrow \joinrel  \rhook $}}{}{}pf\discretionary {\unhbox \voidb@x \hbox {\relax \fontsize  {7}{8}\selectfont  $\DOTSB \leftarrow \joinrel  \rhook $}}{}{}\_\discretionary {\unhbox \voidb@x \hbox {\relax \fontsize  {7}{8}\selectfont  $\DOTSB \leftarrow \joinrel  \rhook $}}{}{}dimer()}{320}{subsubsection.15.46.3.1}}
\newlabel{group__pf__cofold_gaf04708a63d2385d5959db9f886741479}{{15.46.3.1}{320}{\texorpdfstring {vrna\+\_\+pf\+\_\+dimer()}{vrna\_pf\_dimer()}}{table.15.197}{}}
\@writefile{toc}{\contentsline {subsubsection}{\numberline {15.46.3.2}vrna\discretionary {\unhbox \voidb@x \hbox {\relax \fontsize  {7}{8}\selectfont  $\DOTSB \leftarrow \joinrel  \rhook $}}{}{}\_\discretionary {\unhbox \voidb@x \hbox {\relax \fontsize  {7}{8}\selectfont  $\DOTSB \leftarrow \joinrel  \rhook $}}{}{}pf\discretionary {\unhbox \voidb@x \hbox {\relax \fontsize  {7}{8}\selectfont  $\DOTSB \leftarrow \joinrel  \rhook $}}{}{}\_\discretionary {\unhbox \voidb@x \hbox {\relax \fontsize  {7}{8}\selectfont  $\DOTSB \leftarrow \joinrel  \rhook $}}{}{}dimer\discretionary {\unhbox \voidb@x \hbox {\relax \fontsize  {7}{8}\selectfont  $\DOTSB \leftarrow \joinrel  \rhook $}}{}{}\_\discretionary {\unhbox \voidb@x \hbox {\relax \fontsize  {7}{8}\selectfont  $\DOTSB \leftarrow \joinrel  \rhook $}}{}{}probs()}{320}{subsubsection.15.46.3.2}}
\gdef \LT@cxcix {\LT@entry 
    {3}{61.95726pt}\LT@entry 
    {3}{157.18922pt}}
\gdef \LT@cc {\LT@entry 
    {3}{61.95726pt}\LT@entry 
    {3}{255.3214pt}}
\newlabel{group__pf__cofold_ga83b8d5d0f7875d6d5013b208f23e3356}{{15.46.3.2}{321}{\texorpdfstring {vrna\+\_\+pf\+\_\+dimer\+\_\+probs()}{vrna\_pf\_dimer\_probs()}}{table.15.198}{}}
\@writefile{toc}{\contentsline {subsubsection}{\numberline {15.46.3.3}vrna\discretionary {\unhbox \voidb@x \hbox {\relax \fontsize  {7}{8}\selectfont  $\DOTSB \leftarrow \joinrel  \rhook $}}{}{}\_\discretionary {\unhbox \voidb@x \hbox {\relax \fontsize  {7}{8}\selectfont  $\DOTSB \leftarrow \joinrel  \rhook $}}{}{}pf\discretionary {\unhbox \voidb@x \hbox {\relax \fontsize  {7}{8}\selectfont  $\DOTSB \leftarrow \joinrel  \rhook $}}{}{}\_\discretionary {\unhbox \voidb@x \hbox {\relax \fontsize  {7}{8}\selectfont  $\DOTSB \leftarrow \joinrel  \rhook $}}{}{}dimer\discretionary {\unhbox \voidb@x \hbox {\relax \fontsize  {7}{8}\selectfont  $\DOTSB \leftarrow \joinrel  \rhook $}}{}{}\_\discretionary {\unhbox \voidb@x \hbox {\relax \fontsize  {7}{8}\selectfont  $\DOTSB \leftarrow \joinrel  \rhook $}}{}{}concentrations()}{321}{subsubsection.15.46.3.3}}
\@setckpt{group__pf__cofold}{
\setcounter{page}{323}
\setcounter{equation}{0}
\setcounter{enumi}{2}
\setcounter{enumii}{0}
\setcounter{enumiii}{0}
\setcounter{enumiv}{0}
\setcounter{footnote}{0}
\setcounter{mpfootnote}{0}
\setcounter{part}{0}
\setcounter{chapter}{15}
\setcounter{section}{46}
\setcounter{subsection}{3}
\setcounter{subsubsection}{3}
\setcounter{paragraph}{0}
\setcounter{subparagraph}{0}
\setcounter{figure}{0}
\setcounter{table}{199}
\setcounter{float@type}{4}
\setcounter{LT@tables}{200}
\setcounter{LT@chunks}{3}
\setcounter{NAT@ctr}{0}
\setcounter{lofdepth}{1}
\setcounter{lotdepth}{1}
\setcounter{parentequation}{0}
\setcounter{Item}{12}
\setcounter{Hfootnote}{0}
\setcounter{bookmark@seq@number}{609}
\setcounter{ContinuedFloat}{0}
\setcounter{section@level}{3}
}
