\relax 
\providecommand\hyper@newdestlabel[2]{}
\gdef \LT@ccxi {\LT@entry 
    {3}{47.9442pt}\LT@entry 
    {3}{12.4pt}}
\@writefile{toc}{\contentsline {section}{\numberline {15.50}Local M\discretionary {\unhbox \voidb@x \hbox {\relax \fontsize  {7}{8}\selectfont  $\DOTSB \leftarrow \joinrel  \rhook $}}{}{}FE consensus structures for Sequence Alignments}{333}{section.15.50}}
\newlabel{group__local__consensus__fold}{{15.50}{333}{Local M\+FE consensus structures for Sequence Alignments}{section.15.50}{}}
\@writefile{toc}{\contentsline {subsection}{\numberline {15.50.1}Detailed Description}{333}{subsection.15.50.1}}
\@writefile{toc}{\contentsline {subsection}{\numberline {15.50.2}Function Documentation}{333}{subsection.15.50.2}}
\newlabel{group__local__consensus__fold_ga20a173a3cdb83f5d1778e36c1a6b1f2b}{{15.50.2}{333}{Function Documentation}{subsection.15.50.2}{}}
\@writefile{toc}{\contentsline {subsubsection}{\numberline {15.50.2.1}ali\discretionary {\unhbox \voidb@x \hbox {\relax \fontsize  {7}{8}\selectfont  $\DOTSB \leftarrow \joinrel  \rhook $}}{}{}Lfold()}{333}{subsubsection.15.50.2.1}}
\@setckpt{group__local__consensus__fold}{
\setcounter{page}{334}
\setcounter{equation}{0}
\setcounter{enumi}{2}
\setcounter{enumii}{0}
\setcounter{enumiii}{0}
\setcounter{enumiv}{0}
\setcounter{footnote}{0}
\setcounter{mpfootnote}{0}
\setcounter{part}{0}
\setcounter{chapter}{15}
\setcounter{section}{50}
\setcounter{subsection}{2}
\setcounter{subsubsection}{1}
\setcounter{paragraph}{0}
\setcounter{subparagraph}{0}
\setcounter{figure}{0}
\setcounter{table}{210}
\setcounter{float@type}{4}
\setcounter{LT@tables}{211}
\setcounter{LT@chunks}{3}
\setcounter{NAT@ctr}{0}
\setcounter{lofdepth}{1}
\setcounter{lotdepth}{1}
\setcounter{parentequation}{0}
\setcounter{Item}{12}
\setcounter{Hfootnote}{0}
\setcounter{bookmark@seq@number}{634}
\setcounter{ContinuedFloat}{0}
\setcounter{section@level}{3}
}
