\relax 
\providecommand\hyper@newdestlabel[2]{}
\@writefile{toc}{\contentsline {section}{\numberline {15.24}Partition Function and Base Pair Probabilities for Sequence Alignment(s)}{238}{section.15.24}}
\newlabel{group__consensus__pf__fold}{{15.24}{238}{Partition Function and Base Pair Probabilities for Sequence Alignment(s)}{section.15.24}{}}
\@writefile{toc}{\contentsline {subsection}{\numberline {15.24.1}Detailed Description}{238}{subsection.15.24.1}}
\@writefile{toc}{\contentsline {subsection}{\numberline {15.24.2}Function Documentation}{238}{subsection.15.24.2}}
\newlabel{group__consensus__pf__fold_ga87296fe8e93bb5261783a8db901a5c64}{{15.24.2}{238}{Function Documentation}{subsection.15.24.2}{}}
\@writefile{toc}{\contentsline {subsubsection}{\numberline {15.24.2.1}vrna\discretionary {\unhbox \voidb@x \hbox {\relax \fontsize  {7}{8}\selectfont  $\DOTSB \leftarrow \joinrel  \rhook $}}{}{}\_\discretionary {\unhbox \voidb@x \hbox {\relax \fontsize  {7}{8}\selectfont  $\DOTSB \leftarrow \joinrel  \rhook $}}{}{}pf\discretionary {\unhbox \voidb@x \hbox {\relax \fontsize  {7}{8}\selectfont  $\DOTSB \leftarrow \joinrel  \rhook $}}{}{}\_\discretionary {\unhbox \voidb@x \hbox {\relax \fontsize  {7}{8}\selectfont  $\DOTSB \leftarrow \joinrel  \rhook $}}{}{}alifold()}{238}{subsubsection.15.24.2.1}}
\gdef \LT@cxlv {\LT@entry 
    {3}{56.32333pt}\LT@entry 
    {3}{410.0387pt}}
\citation{hofacker:2006}
\newlabel{group__consensus__pf__fold_ga017209394a4c1e68d96cd47e61d16d25}{{15.24.2.1}{239}{\texorpdfstring {vrna\+\_\+pf\+\_\+alifold()}{vrna\_pf\_alifold()}}{table.15.144}{}}
\@writefile{toc}{\contentsline {subsubsection}{\numberline {15.24.2.2}vrna\discretionary {\unhbox \voidb@x \hbox {\relax \fontsize  {7}{8}\selectfont  $\DOTSB \leftarrow \joinrel  \rhook $}}{}{}\_\discretionary {\unhbox \voidb@x \hbox {\relax \fontsize  {7}{8}\selectfont  $\DOTSB \leftarrow \joinrel  \rhook $}}{}{}pf\discretionary {\unhbox \voidb@x \hbox {\relax \fontsize  {7}{8}\selectfont  $\DOTSB \leftarrow \joinrel  \rhook $}}{}{}\_\discretionary {\unhbox \voidb@x \hbox {\relax \fontsize  {7}{8}\selectfont  $\DOTSB \leftarrow \joinrel  \rhook $}}{}{}circalifold()}{239}{subsubsection.15.24.2.2}}
\@writefile{brf}{\backcite{hofacker:2006}{{239}{15.24.2.2}{subsubsection.15.24.2.2}}}
\gdef \LT@cxlvi {\LT@entry 
    {3}{56.32333pt}\LT@entry 
    {3}{410.0387pt}}
\gdef \LT@cxlvii {\LT@entry 
    {3}{75.82588pt}\LT@entry 
    {3}{12.4pt}}
\newlabel{group__consensus__pf__fold_ga5e8d54e41bf3d5b6e535d5bdb33c416e}{{15.24.2.2}{240}{\texorpdfstring {vrna\+\_\+pf\+\_\+circalifold()}{vrna\_pf\_circalifold()}}{table.15.145}{}}
\@writefile{toc}{\contentsline {subsubsection}{\numberline {15.24.2.3}alipf\discretionary {\unhbox \voidb@x \hbox {\relax \fontsize  {7}{8}\selectfont  $\DOTSB \leftarrow \joinrel  \rhook $}}{}{}\_\discretionary {\unhbox \voidb@x \hbox {\relax \fontsize  {7}{8}\selectfont  $\DOTSB \leftarrow \joinrel  \rhook $}}{}{}fold\discretionary {\unhbox \voidb@x \hbox {\relax \fontsize  {7}{8}\selectfont  $\DOTSB \leftarrow \joinrel  \rhook $}}{}{}\_\discretionary {\unhbox \voidb@x \hbox {\relax \fontsize  {7}{8}\selectfont  $\DOTSB \leftarrow \joinrel  \rhook $}}{}{}par()}{240}{subsubsection.15.24.2.3}}
\newlabel{group__consensus__pf__fold_gaa150d3ba7b009a1c27cb6f0eb197f6b4}{{15.24.2.3}{240}{\texorpdfstring {alipf\+\_\+fold\+\_\+par()}{alipf\_fold\_par()}}{table.15.146}{}}
\@writefile{toc}{\contentsline {subsubsection}{\numberline {15.24.2.4}alipf\discretionary {\unhbox \voidb@x \hbox {\relax \fontsize  {7}{8}\selectfont  $\DOTSB \leftarrow \joinrel  \rhook $}}{}{}\_\discretionary {\unhbox \voidb@x \hbox {\relax \fontsize  {7}{8}\selectfont  $\DOTSB \leftarrow \joinrel  \rhook $}}{}{}fold()}{240}{subsubsection.15.24.2.4}}
\gdef \LT@cxlviii {\LT@entry 
    {3}{56.32333pt}\LT@entry 
    {3}{12.4pt}}
\gdef \LT@cxlix {\LT@entry 
    {3}{56.32333pt}\LT@entry 
    {3}{12.4pt}}
\newlabel{group__consensus__pf__fold_gaadd8d570442f86cbbc4978c8c62c9646}{{15.24.2.4}{241}{\texorpdfstring {alipf\+\_\+fold()}{alipf\_fold()}}{table.15.147}{}}
\@writefile{toc}{\contentsline {subsubsection}{\numberline {15.24.2.5}alipf\discretionary {\unhbox \voidb@x \hbox {\relax \fontsize  {7}{8}\selectfont  $\DOTSB \leftarrow \joinrel  \rhook $}}{}{}\_\discretionary {\unhbox \voidb@x \hbox {\relax \fontsize  {7}{8}\selectfont  $\DOTSB \leftarrow \joinrel  \rhook $}}{}{}circ\discretionary {\unhbox \voidb@x \hbox {\relax \fontsize  {7}{8}\selectfont  $\DOTSB \leftarrow \joinrel  \rhook $}}{}{}\_\discretionary {\unhbox \voidb@x \hbox {\relax \fontsize  {7}{8}\selectfont  $\DOTSB \leftarrow \joinrel  \rhook $}}{}{}fold()}{241}{subsubsection.15.24.2.5}}
\newlabel{group__consensus__pf__fold_ga11b6ab8bd9be1821fea352b190a01cab}{{15.24.2.5}{241}{\texorpdfstring {alipf\+\_\+circ\+\_\+fold()}{alipf\_circ\_fold()}}{table.15.148}{}}
\@writefile{toc}{\contentsline {subsubsection}{\numberline {15.24.2.6}export\discretionary {\unhbox \voidb@x \hbox {\relax \fontsize  {7}{8}\selectfont  $\DOTSB \leftarrow \joinrel  \rhook $}}{}{}\_\discretionary {\unhbox \voidb@x \hbox {\relax \fontsize  {7}{8}\selectfont  $\DOTSB \leftarrow \joinrel  \rhook $}}{}{}ali\discretionary {\unhbox \voidb@x \hbox {\relax \fontsize  {7}{8}\selectfont  $\DOTSB \leftarrow \joinrel  \rhook $}}{}{}\_\discretionary {\unhbox \voidb@x \hbox {\relax \fontsize  {7}{8}\selectfont  $\DOTSB \leftarrow \joinrel  \rhook $}}{}{}bppm()}{241}{subsubsection.15.24.2.6}}
\newlabel{group__consensus__pf__fold_ga0c0498f35686e26b38ee460d3db1a661}{{15.24.2.6}{242}{\texorpdfstring {export\+\_\+ali\+\_\+bppm()}{export\_ali\_bppm()}}{subsubsection.15.24.2.6}{}}
\@writefile{toc}{\contentsline {subsubsection}{\numberline {15.24.2.7}free\discretionary {\unhbox \voidb@x \hbox {\relax \fontsize  {7}{8}\selectfont  $\DOTSB \leftarrow \joinrel  \rhook $}}{}{}\_\discretionary {\unhbox \voidb@x \hbox {\relax \fontsize  {7}{8}\selectfont  $\DOTSB \leftarrow \joinrel  \rhook $}}{}{}alipf\discretionary {\unhbox \voidb@x \hbox {\relax \fontsize  {7}{8}\selectfont  $\DOTSB \leftarrow \joinrel  \rhook $}}{}{}\_\discretionary {\unhbox \voidb@x \hbox {\relax \fontsize  {7}{8}\selectfont  $\DOTSB \leftarrow \joinrel  \rhook $}}{}{}arrays()}{242}{subsubsection.15.24.2.7}}
\@setckpt{group__consensus__pf__fold}{
\setcounter{page}{243}
\setcounter{equation}{0}
\setcounter{enumi}{2}
\setcounter{enumii}{0}
\setcounter{enumiii}{0}
\setcounter{enumiv}{0}
\setcounter{footnote}{0}
\setcounter{mpfootnote}{0}
\setcounter{part}{0}
\setcounter{chapter}{15}
\setcounter{section}{24}
\setcounter{subsection}{2}
\setcounter{subsubsection}{7}
\setcounter{paragraph}{0}
\setcounter{subparagraph}{0}
\setcounter{figure}{0}
\setcounter{table}{148}
\setcounter{float@type}{4}
\setcounter{LT@tables}{149}
\setcounter{LT@chunks}{3}
\setcounter{NAT@ctr}{0}
\setcounter{lofdepth}{1}
\setcounter{lotdepth}{1}
\setcounter{parentequation}{0}
\setcounter{Item}{12}
\setcounter{Hfootnote}{0}
\setcounter{bookmark@seq@number}{425}
\setcounter{ContinuedFloat}{0}
\setcounter{section@level}{3}
}
