\relax 
\providecommand\hyper@newdestlabel[2]{}
\@writefile{toc}{\contentsline {section}{\numberline {15.5}Energy parameters}{132}{section.15.5}}
\newlabel{group__energy__parameters}{{15.5}{132}{Energy parameters}{section.15.5}{}}
\newlabel{group__energy__parameters_ga8a69ca7d787e4fd6079914f5343a1f35}{{15.5}{132}{Typedefs}{section*.32}{}}
\newlabel{group__energy__parameters_ga01d8b92fe734df8d79a6169482c7d8d8}{{15.5}{132}{Typedefs}{section*.32}{}}
\@writefile{toc}{\contentsline {subsection}{\numberline {15.5.1}Detailed Description}{133}{subsection.15.5.1}}
\@writefile{toc}{\contentsline {subsection}{\numberline {15.5.2}Data Structure Documentation}{134}{subsection.15.5.2}}
\newlabel{structvrna__param__s}{{15.5.2}{134}{Data Structure Documentation}{subsection.15.5.2}{}}
\@writefile{toc}{\contentsline {subsubsection}{\numberline {15.5.2.1}struct vrna\discretionary {\unhbox \voidb@x \hbox {\relax \fontsize  {7}{8}\selectfont  $\DOTSB \leftarrow \joinrel  \rhook $}}{}{}\_\discretionary {\unhbox \voidb@x \hbox {\relax \fontsize  {7}{8}\selectfont  $\DOTSB \leftarrow \joinrel  \rhook $}}{}{}param\discretionary {\unhbox \voidb@x \hbox {\relax \fontsize  {7}{8}\selectfont  $\DOTSB \leftarrow \joinrel  \rhook $}}{}{}\_\discretionary {\unhbox \voidb@x \hbox {\relax \fontsize  {7}{8}\selectfont  $\DOTSB \leftarrow \joinrel  \rhook $}}{}{}s}{134}{subsubsection.15.5.2.1}}
\newlabel{group__energy__parameters_aeed2cd83713012bcb52e431041e037c8}{{15.5.2.1}{134}{Data Fields}{section*.35}{}}
\newlabel{group__energy__parameters_a7b84353eb9075c595bad4ceb871bcae7}{{15.5.2.1}{134}{Data Fields}{section*.35}{}}
\newlabel{structvrna__exp__param__s}{{15.5.2.1}{134}{Data Fields}{section*.35}{}}
\@writefile{toc}{\contentsline {subsubsection}{\numberline {15.5.2.2}struct vrna\discretionary {\unhbox \voidb@x \hbox {\relax \fontsize  {7}{8}\selectfont  $\DOTSB \leftarrow \joinrel  \rhook $}}{}{}\_\discretionary {\unhbox \voidb@x \hbox {\relax \fontsize  {7}{8}\selectfont  $\DOTSB \leftarrow \joinrel  \rhook $}}{}{}exp\discretionary {\unhbox \voidb@x \hbox {\relax \fontsize  {7}{8}\selectfont  $\DOTSB \leftarrow \joinrel  \rhook $}}{}{}\_\discretionary {\unhbox \voidb@x \hbox {\relax \fontsize  {7}{8}\selectfont  $\DOTSB \leftarrow \joinrel  \rhook $}}{}{}param\discretionary {\unhbox \voidb@x \hbox {\relax \fontsize  {7}{8}\selectfont  $\DOTSB \leftarrow \joinrel  \rhook $}}{}{}\_\discretionary {\unhbox \voidb@x \hbox {\relax \fontsize  {7}{8}\selectfont  $\DOTSB \leftarrow \joinrel  \rhook $}}{}{}s}{134}{subsubsection.15.5.2.2}}
\newlabel{group__energy__parameters_a53c12f0d74f94ce371e0471a8ab5a377}{{15.5.2.2}{135}{Data Fields}{section*.37}{}}
\newlabel{group__energy__parameters_a674656d65ea957ddbeff8bd146b7fc16}{{15.5.2.2}{135}{Data Fields}{section*.37}{}}
\newlabel{group__energy__parameters_ac18055127bccc27c1223f1d2f3b01b53}{{15.5.2.2}{135}{Data Fields}{section*.37}{}}
\@writefile{toc}{\contentsline {paragraph}{\numberline {15.5.2.2.1}Field Documentation}{135}{paragraph.15.5.2.2.1}}
\newlabel{group__energy__parameters_a378d5bcf2bae1f3ec84c912c7d3908d2}{{15.5.2.2.1}{135}{Field Documentation}{paragraph.15.5.2.2.1}{}}
\@writefile{toc}{\contentsline {subparagraph}{\numberline {15.5.2.2.1.1}id}{135}{subparagraph.15.5.2.2.1.1}}
\newlabel{group__energy__parameters_a77145830b7bb01b36c3217b363310ef0}{{15.5.2.2.1.1}{135}{\texorpdfstring {id}{id}}{subparagraph.15.5.2.2.1.1}{}}
\@writefile{toc}{\contentsline {subparagraph}{\numberline {15.5.2.2.1.2}alpha}{135}{subparagraph.15.5.2.2.1.2}}
\@writefile{toc}{\contentsline {subsection}{\numberline {15.5.3}Typedef Documentation}{135}{subsection.15.5.3}}
\newlabel{group__energy__parameters_ga857dde86357d306cc902f0d8b2797659}{{15.5.3}{135}{Typedef Documentation}{subsection.15.5.3}{}}
\@writefile{toc}{\contentsline {subsubsection}{\numberline {15.5.3.1}paramT}{135}{subsubsection.15.5.3.1}}
\newlabel{group__energy__parameters_ga8bffe1828e2cbec101769f5cc0b1535b}{{15.5.3.1}{135}{\texorpdfstring {paramT}{paramT}}{subsubsection.15.5.3.1}{}}
\gdef \LT@lxv {\LT@entry 
    {3}{25.3008pt}\LT@entry 
    {3}{300.87965pt}}
\@writefile{toc}{\contentsline {subsubsection}{\numberline {15.5.3.2}pf\discretionary {\unhbox \voidb@x \hbox {\relax \fontsize  {7}{8}\selectfont  $\DOTSB \leftarrow \joinrel  \rhook $}}{}{}\_\discretionary {\unhbox \voidb@x \hbox {\relax \fontsize  {7}{8}\selectfont  $\DOTSB \leftarrow \joinrel  \rhook $}}{}{}paramT}{136}{subsubsection.15.5.3.2}}
\@writefile{toc}{\contentsline {subsection}{\numberline {15.5.4}Function Documentation}{136}{subsection.15.5.4}}
\newlabel{group__energy__parameters_gad0e3e7e74bdc50d1709d40c92993185e}{{15.5.4}{136}{Function Documentation}{subsection.15.5.4}{}}
\@writefile{toc}{\contentsline {subsubsection}{\numberline {15.5.4.1}vrna\discretionary {\unhbox \voidb@x \hbox {\relax \fontsize  {7}{8}\selectfont  $\DOTSB \leftarrow \joinrel  \rhook $}}{}{}\_\discretionary {\unhbox \voidb@x \hbox {\relax \fontsize  {7}{8}\selectfont  $\DOTSB \leftarrow \joinrel  \rhook $}}{}{}params()}{136}{subsubsection.15.5.4.1}}
\newlabel{group__energy__parameters_ga4bffa39f26e7746148444dd8a8426eca}{{15.5.4.1}{136}{\texorpdfstring {vrna\+\_\+params()}{vrna\_params()}}{table.15.64}{}}
\@writefile{toc}{\contentsline {subsubsection}{\numberline {15.5.4.2}vrna\discretionary {\unhbox \voidb@x \hbox {\relax \fontsize  {7}{8}\selectfont  $\DOTSB \leftarrow \joinrel  \rhook $}}{}{}\_\discretionary {\unhbox \voidb@x \hbox {\relax \fontsize  {7}{8}\selectfont  $\DOTSB \leftarrow \joinrel  \rhook $}}{}{}params\discretionary {\unhbox \voidb@x \hbox {\relax \fontsize  {7}{8}\selectfont  $\DOTSB \leftarrow \joinrel  \rhook $}}{}{}\_\discretionary {\unhbox \voidb@x \hbox {\relax \fontsize  {7}{8}\selectfont  $\DOTSB \leftarrow \joinrel  \rhook $}}{}{}copy()}{136}{subsubsection.15.5.4.2}}
\gdef \LT@lxvi {\LT@entry 
    {3}{25.80473pt}\LT@entry 
    {3}{269.14668pt}}
\gdef \LT@lxvii {\LT@entry 
    {3}{25.3008pt}\LT@entry 
    {3}{300.87965pt}}
\newlabel{group__energy__parameters_gab1f3016f96aa96bff020cdd904605afa}{{15.5.4.2}{137}{\texorpdfstring {vrna\+\_\+params\+\_\+copy()}{vrna\_params\_copy()}}{table.15.65}{}}
\@writefile{toc}{\contentsline {subsubsection}{\numberline {15.5.4.3}vrna\discretionary {\unhbox \voidb@x \hbox {\relax \fontsize  {7}{8}\selectfont  $\DOTSB \leftarrow \joinrel  \rhook $}}{}{}\_\discretionary {\unhbox \voidb@x \hbox {\relax \fontsize  {7}{8}\selectfont  $\DOTSB \leftarrow \joinrel  \rhook $}}{}{}exp\discretionary {\unhbox \voidb@x \hbox {\relax \fontsize  {7}{8}\selectfont  $\DOTSB \leftarrow \joinrel  \rhook $}}{}{}\_\discretionary {\unhbox \voidb@x \hbox {\relax \fontsize  {7}{8}\selectfont  $\DOTSB \leftarrow \joinrel  \rhook $}}{}{}params()}{137}{subsubsection.15.5.4.3}}
\newlabel{group__energy__parameters_gaf78c09e685e6eef4100b1a41d4042550}{{15.5.4.3}{137}{\texorpdfstring {vrna\+\_\+exp\+\_\+params()}{vrna\_exp\_params()}}{table.15.66}{}}
\@writefile{toc}{\contentsline {subsubsection}{\numberline {15.5.4.4}vrna\discretionary {\unhbox \voidb@x \hbox {\relax \fontsize  {7}{8}\selectfont  $\DOTSB \leftarrow \joinrel  \rhook $}}{}{}\_\discretionary {\unhbox \voidb@x \hbox {\relax \fontsize  {7}{8}\selectfont  $\DOTSB \leftarrow \joinrel  \rhook $}}{}{}exp\discretionary {\unhbox \voidb@x \hbox {\relax \fontsize  {7}{8}\selectfont  $\DOTSB \leftarrow \joinrel  \rhook $}}{}{}\_\discretionary {\unhbox \voidb@x \hbox {\relax \fontsize  {7}{8}\selectfont  $\DOTSB \leftarrow \joinrel  \rhook $}}{}{}params\discretionary {\unhbox \voidb@x \hbox {\relax \fontsize  {7}{8}\selectfont  $\DOTSB \leftarrow \joinrel  \rhook $}}{}{}\_\discretionary {\unhbox \voidb@x \hbox {\relax \fontsize  {7}{8}\selectfont  $\DOTSB \leftarrow \joinrel  \rhook $}}{}{}comparative()}{137}{subsubsection.15.5.4.4}}
\gdef \LT@lxviii {\LT@entry 
    {3}{37.31558pt}\LT@entry 
    {3}{300.87965pt}}
\gdef \LT@lxix {\LT@entry 
    {3}{25.80473pt}\LT@entry 
    {3}{269.14668pt}}
\newlabel{group__energy__parameters_ga70bc46be7cfa5434a71efe241c4f0609}{{15.5.4.4}{138}{\texorpdfstring {vrna\+\_\+exp\+\_\+params\+\_\+comparative()}{vrna\_exp\_params\_comparative()}}{table.15.67}{}}
\@writefile{toc}{\contentsline {subsubsection}{\numberline {15.5.4.5}vrna\discretionary {\unhbox \voidb@x \hbox {\relax \fontsize  {7}{8}\selectfont  $\DOTSB \leftarrow \joinrel  \rhook $}}{}{}\_\discretionary {\unhbox \voidb@x \hbox {\relax \fontsize  {7}{8}\selectfont  $\DOTSB \leftarrow \joinrel  \rhook $}}{}{}exp\discretionary {\unhbox \voidb@x \hbox {\relax \fontsize  {7}{8}\selectfont  $\DOTSB \leftarrow \joinrel  \rhook $}}{}{}\_\discretionary {\unhbox \voidb@x \hbox {\relax \fontsize  {7}{8}\selectfont  $\DOTSB \leftarrow \joinrel  \rhook $}}{}{}params\discretionary {\unhbox \voidb@x \hbox {\relax \fontsize  {7}{8}\selectfont  $\DOTSB \leftarrow \joinrel  \rhook $}}{}{}\_\discretionary {\unhbox \voidb@x \hbox {\relax \fontsize  {7}{8}\selectfont  $\DOTSB \leftarrow \joinrel  \rhook $}}{}{}copy()}{138}{subsubsection.15.5.4.5}}
\newlabel{group__energy__parameters_ga5d1909208f7ea3baa98b75afaa1f62ca}{{15.5.4.5}{138}{\texorpdfstring {vrna\+\_\+exp\+\_\+params\+\_\+copy()}{vrna\_exp\_params\_copy()}}{table.15.68}{}}
\@writefile{toc}{\contentsline {subsubsection}{\numberline {15.5.4.6}vrna\discretionary {\unhbox \voidb@x \hbox {\relax \fontsize  {7}{8}\selectfont  $\DOTSB \leftarrow \joinrel  \rhook $}}{}{}\_\discretionary {\unhbox \voidb@x \hbox {\relax \fontsize  {7}{8}\selectfont  $\DOTSB \leftarrow \joinrel  \rhook $}}{}{}params\discretionary {\unhbox \voidb@x \hbox {\relax \fontsize  {7}{8}\selectfont  $\DOTSB \leftarrow \joinrel  \rhook $}}{}{}\_\discretionary {\unhbox \voidb@x \hbox {\relax \fontsize  {7}{8}\selectfont  $\DOTSB \leftarrow \joinrel  \rhook $}}{}{}subst()}{138}{subsubsection.15.5.4.6}}
\gdef \LT@lxx {\LT@entry 
    {3}{25.80473pt}\LT@entry 
    {3}{327.69952pt}}
\gdef \LT@lxxi {\LT@entry 
    {3}{42.71552pt}\LT@entry 
    {3}{170.2026pt}}
\newlabel{group__energy__parameters_ga8e7ac4fab3b0cc03afbc134eaafb3525}{{15.5.4.6}{139}{\texorpdfstring {vrna\+\_\+params\+\_\+subst()}{vrna\_params\_subst()}}{table.15.69}{}}
\@writefile{toc}{\contentsline {subsubsection}{\numberline {15.5.4.7}vrna\discretionary {\unhbox \voidb@x \hbox {\relax \fontsize  {7}{8}\selectfont  $\DOTSB \leftarrow \joinrel  \rhook $}}{}{}\_\discretionary {\unhbox \voidb@x \hbox {\relax \fontsize  {7}{8}\selectfont  $\DOTSB \leftarrow \joinrel  \rhook $}}{}{}exp\discretionary {\unhbox \voidb@x \hbox {\relax \fontsize  {7}{8}\selectfont  $\DOTSB \leftarrow \joinrel  \rhook $}}{}{}\_\discretionary {\unhbox \voidb@x \hbox {\relax \fontsize  {7}{8}\selectfont  $\DOTSB \leftarrow \joinrel  \rhook $}}{}{}params\discretionary {\unhbox \voidb@x \hbox {\relax \fontsize  {7}{8}\selectfont  $\DOTSB \leftarrow \joinrel  \rhook $}}{}{}\_\discretionary {\unhbox \voidb@x \hbox {\relax \fontsize  {7}{8}\selectfont  $\DOTSB \leftarrow \joinrel  \rhook $}}{}{}subst()}{139}{subsubsection.15.5.4.7}}
\newlabel{group__energy__parameters_gad607bc3a5b5da16400e2ca4ea5560233}{{15.5.4.7}{139}{\texorpdfstring {vrna\+\_\+exp\+\_\+params\+\_\+subst()}{vrna\_exp\_params\_subst()}}{table.15.70}{}}
\@writefile{toc}{\contentsline {subsubsection}{\numberline {15.5.4.8}vrna\discretionary {\unhbox \voidb@x \hbox {\relax \fontsize  {7}{8}\selectfont  $\DOTSB \leftarrow \joinrel  \rhook $}}{}{}\_\discretionary {\unhbox \voidb@x \hbox {\relax \fontsize  {7}{8}\selectfont  $\DOTSB \leftarrow \joinrel  \rhook $}}{}{}exp\discretionary {\unhbox \voidb@x \hbox {\relax \fontsize  {7}{8}\selectfont  $\DOTSB \leftarrow \joinrel  \rhook $}}{}{}\_\discretionary {\unhbox \voidb@x \hbox {\relax \fontsize  {7}{8}\selectfont  $\DOTSB \leftarrow \joinrel  \rhook $}}{}{}params\discretionary {\unhbox \voidb@x \hbox {\relax \fontsize  {7}{8}\selectfont  $\DOTSB \leftarrow \joinrel  \rhook $}}{}{}\_\discretionary {\unhbox \voidb@x \hbox {\relax \fontsize  {7}{8}\selectfont  $\DOTSB \leftarrow \joinrel  \rhook $}}{}{}rescale()}{139}{subsubsection.15.5.4.8}}
\gdef \LT@lxxii {\LT@entry 
    {3}{27.53275pt}\LT@entry 
    {3}{181.94734pt}}
\newlabel{group__energy__parameters_gac40dc82e48a72a97cfc58b9da08a7792}{{15.5.4.8}{140}{\texorpdfstring {vrna\+\_\+exp\+\_\+params\+\_\+rescale()}{vrna\_exp\_params\_rescale()}}{table.15.71}{}}
\@writefile{toc}{\contentsline {subsubsection}{\numberline {15.5.4.9}vrna\discretionary {\unhbox \voidb@x \hbox {\relax \fontsize  {7}{8}\selectfont  $\DOTSB \leftarrow \joinrel  \rhook $}}{}{}\_\discretionary {\unhbox \voidb@x \hbox {\relax \fontsize  {7}{8}\selectfont  $\DOTSB \leftarrow \joinrel  \rhook $}}{}{}params\discretionary {\unhbox \voidb@x \hbox {\relax \fontsize  {7}{8}\selectfont  $\DOTSB \leftarrow \joinrel  \rhook $}}{}{}\_\discretionary {\unhbox \voidb@x \hbox {\relax \fontsize  {7}{8}\selectfont  $\DOTSB \leftarrow \joinrel  \rhook $}}{}{}reset()}{140}{subsubsection.15.5.4.9}}
\gdef \LT@lxxiii {\LT@entry 
    {3}{35.30861pt}\LT@entry 
    {3}{268.78629pt}}
\gdef \LT@lxxiv {\LT@entry 
    {3}{35.30861pt}\LT@entry 
    {3}{268.78629pt}}
\newlabel{group__energy__parameters_gaa5409218068be84d7b50c78fbdaa85a9}{{15.5.4.9}{141}{\texorpdfstring {vrna\+\_\+params\+\_\+reset()}{vrna\_params\_reset()}}{table.15.72}{}}
\@writefile{toc}{\contentsline {subsubsection}{\numberline {15.5.4.10}vrna\discretionary {\unhbox \voidb@x \hbox {\relax \fontsize  {7}{8}\selectfont  $\DOTSB \leftarrow \joinrel  \rhook $}}{}{}\_\discretionary {\unhbox \voidb@x \hbox {\relax \fontsize  {7}{8}\selectfont  $\DOTSB \leftarrow \joinrel  \rhook $}}{}{}exp\discretionary {\unhbox \voidb@x \hbox {\relax \fontsize  {7}{8}\selectfont  $\DOTSB \leftarrow \joinrel  \rhook $}}{}{}\_\discretionary {\unhbox \voidb@x \hbox {\relax \fontsize  {7}{8}\selectfont  $\DOTSB \leftarrow \joinrel  \rhook $}}{}{}params\discretionary {\unhbox \voidb@x \hbox {\relax \fontsize  {7}{8}\selectfont  $\DOTSB \leftarrow \joinrel  \rhook $}}{}{}\_\discretionary {\unhbox \voidb@x \hbox {\relax \fontsize  {7}{8}\selectfont  $\DOTSB \leftarrow \joinrel  \rhook $}}{}{}reset()}{141}{subsubsection.15.5.4.10}}
\newlabel{group__energy__parameters_gabf3b9271c41dd3fac02d56e0b02b3344}{{15.5.4.10}{142}{\texorpdfstring {vrna\+\_\+exp\+\_\+params\+\_\+reset()}{vrna\_exp\_params\_reset()}}{table.15.73}{}}
\@writefile{toc}{\contentsline {subsubsection}{\numberline {15.5.4.11}get\discretionary {\unhbox \voidb@x \hbox {\relax \fontsize  {7}{8}\selectfont  $\DOTSB \leftarrow \joinrel  \rhook $}}{}{}\_\discretionary {\unhbox \voidb@x \hbox {\relax \fontsize  {7}{8}\selectfont  $\DOTSB \leftarrow \joinrel  \rhook $}}{}{}scaled\discretionary {\unhbox \voidb@x \hbox {\relax \fontsize  {7}{8}\selectfont  $\DOTSB \leftarrow \joinrel  \rhook $}}{}{}\_\discretionary {\unhbox \voidb@x \hbox {\relax \fontsize  {7}{8}\selectfont  $\DOTSB \leftarrow \joinrel  \rhook $}}{}{}pf\discretionary {\unhbox \voidb@x \hbox {\relax \fontsize  {7}{8}\selectfont  $\DOTSB \leftarrow \joinrel  \rhook $}}{}{}\_\discretionary {\unhbox \voidb@x \hbox {\relax \fontsize  {7}{8}\selectfont  $\DOTSB \leftarrow \joinrel  \rhook $}}{}{}parameters()}{142}{subsubsection.15.5.4.11}}
\newlabel{group__energy__parameters_gaef2b931c7e9d4ffb0a5c33df50ec2068}{{15.5.4.11}{142}{\texorpdfstring {get\+\_\+scaled\+\_\+pf\+\_\+parameters()}{get\_scaled\_pf\_parameters()}}{subsubsection.15.5.4.11}{}}
\@writefile{toc}{\contentsline {subsubsection}{\numberline {15.5.4.12}get\discretionary {\unhbox \voidb@x \hbox {\relax \fontsize  {7}{8}\selectfont  $\DOTSB \leftarrow \joinrel  \rhook $}}{}{}\_\discretionary {\unhbox \voidb@x \hbox {\relax \fontsize  {7}{8}\selectfont  $\DOTSB \leftarrow \joinrel  \rhook $}}{}{}boltzmann\discretionary {\unhbox \voidb@x \hbox {\relax \fontsize  {7}{8}\selectfont  $\DOTSB \leftarrow \joinrel  \rhook $}}{}{}\_\discretionary {\unhbox \voidb@x \hbox {\relax \fontsize  {7}{8}\selectfont  $\DOTSB \leftarrow \joinrel  \rhook $}}{}{}factors()}{142}{subsubsection.15.5.4.12}}
\gdef \LT@lxxv {\LT@entry 
    {3}{61.22798pt}\LT@entry 
    {3}{391.12082pt}}
\gdef \LT@lxxvi {\LT@entry 
    {3}{58.22215pt}\LT@entry 
    {3}{187.62604pt}}
\newlabel{group__energy__parameters_ga665a446ba8ff211e551297a8fa36ec27}{{15.5.4.12}{143}{\texorpdfstring {get\+\_\+boltzmann\+\_\+factors()}{get\_boltzmann\_factors()}}{table.15.74}{}}
\@writefile{toc}{\contentsline {subsubsection}{\numberline {15.5.4.13}get\discretionary {\unhbox \voidb@x \hbox {\relax \fontsize  {7}{8}\selectfont  $\DOTSB \leftarrow \joinrel  \rhook $}}{}{}\_\discretionary {\unhbox \voidb@x \hbox {\relax \fontsize  {7}{8}\selectfont  $\DOTSB \leftarrow \joinrel  \rhook $}}{}{}boltzmann\discretionary {\unhbox \voidb@x \hbox {\relax \fontsize  {7}{8}\selectfont  $\DOTSB \leftarrow \joinrel  \rhook $}}{}{}\_\discretionary {\unhbox \voidb@x \hbox {\relax \fontsize  {7}{8}\selectfont  $\DOTSB \leftarrow \joinrel  \rhook $}}{}{}factor\discretionary {\unhbox \voidb@x \hbox {\relax \fontsize  {7}{8}\selectfont  $\DOTSB \leftarrow \joinrel  \rhook $}}{}{}\_\discretionary {\unhbox \voidb@x \hbox {\relax \fontsize  {7}{8}\selectfont  $\DOTSB \leftarrow \joinrel  \rhook $}}{}{}copy()}{143}{subsubsection.15.5.4.13}}
\newlabel{group__energy__parameters_ga0ccf4e1be085a573533fd6b9da2d8cf9}{{15.5.4.13}{143}{\texorpdfstring {get\+\_\+boltzmann\+\_\+factor\+\_\+copy()}{get\_boltzmann\_factor\_copy()}}{table.15.75}{}}
\@writefile{toc}{\contentsline {subsubsection}{\numberline {15.5.4.14}get\discretionary {\unhbox \voidb@x \hbox {\relax \fontsize  {7}{8}\selectfont  $\DOTSB \leftarrow \joinrel  \rhook $}}{}{}\_\discretionary {\unhbox \voidb@x \hbox {\relax \fontsize  {7}{8}\selectfont  $\DOTSB \leftarrow \joinrel  \rhook $}}{}{}scaled\discretionary {\unhbox \voidb@x \hbox {\relax \fontsize  {7}{8}\selectfont  $\DOTSB \leftarrow \joinrel  \rhook $}}{}{}\_\discretionary {\unhbox \voidb@x \hbox {\relax \fontsize  {7}{8}\selectfont  $\DOTSB \leftarrow \joinrel  \rhook $}}{}{}alipf\discretionary {\unhbox \voidb@x \hbox {\relax \fontsize  {7}{8}\selectfont  $\DOTSB \leftarrow \joinrel  \rhook $}}{}{}\_\discretionary {\unhbox \voidb@x \hbox {\relax \fontsize  {7}{8}\selectfont  $\DOTSB \leftarrow \joinrel  \rhook $}}{}{}parameters()}{143}{subsubsection.15.5.4.14}}
\newlabel{group__energy__parameters_ga2aa1d87c97f35d2e4121634a17556829}{{15.5.4.14}{143}{\texorpdfstring {get\+\_\+scaled\+\_\+alipf\+\_\+parameters()}{get\_scaled\_alipf\_parameters()}}{subsubsection.15.5.4.14}{}}
\@writefile{toc}{\contentsline {subsubsection}{\numberline {15.5.4.15}get\discretionary {\unhbox \voidb@x \hbox {\relax \fontsize  {7}{8}\selectfont  $\DOTSB \leftarrow \joinrel  \rhook $}}{}{}\_\discretionary {\unhbox \voidb@x \hbox {\relax \fontsize  {7}{8}\selectfont  $\DOTSB \leftarrow \joinrel  \rhook $}}{}{}boltzmann\discretionary {\unhbox \voidb@x \hbox {\relax \fontsize  {7}{8}\selectfont  $\DOTSB \leftarrow \joinrel  \rhook $}}{}{}\_\discretionary {\unhbox \voidb@x \hbox {\relax \fontsize  {7}{8}\selectfont  $\DOTSB \leftarrow \joinrel  \rhook $}}{}{}factors\discretionary {\unhbox \voidb@x \hbox {\relax \fontsize  {7}{8}\selectfont  $\DOTSB \leftarrow \joinrel  \rhook $}}{}{}\_\discretionary {\unhbox \voidb@x \hbox {\relax \fontsize  {7}{8}\selectfont  $\DOTSB \leftarrow \joinrel  \rhook $}}{}{}ali()}{144}{subsubsection.15.5.4.15}}
\newlabel{group__energy__parameters_ga541f2cf7436e9bc939b0a49b24baf987}{{15.5.4.15}{144}{\texorpdfstring {get\+\_\+boltzmann\+\_\+factors\+\_\+ali()}{get\_boltzmann\_factors\_ali()}}{subsubsection.15.5.4.15}{}}
\@writefile{toc}{\contentsline {subsubsection}{\numberline {15.5.4.16}scale\discretionary {\unhbox \voidb@x \hbox {\relax \fontsize  {7}{8}\selectfont  $\DOTSB \leftarrow \joinrel  \rhook $}}{}{}\_\discretionary {\unhbox \voidb@x \hbox {\relax \fontsize  {7}{8}\selectfont  $\DOTSB \leftarrow \joinrel  \rhook $}}{}{}parameters()}{144}{subsubsection.15.5.4.16}}
\newlabel{group__energy__parameters_ga7fa6a000d7c16feab939f2c4ee626197}{{15.5.4.16}{144}{\texorpdfstring {scale\+\_\+parameters()}{scale\_parameters()}}{subsubsection.15.5.4.16}{}}
\@writefile{toc}{\contentsline {subsubsection}{\numberline {15.5.4.17}get\discretionary {\unhbox \voidb@x \hbox {\relax \fontsize  {7}{8}\selectfont  $\DOTSB \leftarrow \joinrel  \rhook $}}{}{}\_\discretionary {\unhbox \voidb@x \hbox {\relax \fontsize  {7}{8}\selectfont  $\DOTSB \leftarrow \joinrel  \rhook $}}{}{}scaled\discretionary {\unhbox \voidb@x \hbox {\relax \fontsize  {7}{8}\selectfont  $\DOTSB \leftarrow \joinrel  \rhook $}}{}{}\_\discretionary {\unhbox \voidb@x \hbox {\relax \fontsize  {7}{8}\selectfont  $\DOTSB \leftarrow \joinrel  \rhook $}}{}{}parameters()}{144}{subsubsection.15.5.4.17}}
\gdef \LT@lxxvii {\LT@entry 
    {3}{61.22798pt}\LT@entry 
    {3}{155.2722pt}}
\@setckpt{group__energy__parameters}{
\setcounter{page}{146}
\setcounter{equation}{0}
\setcounter{enumi}{2}
\setcounter{enumii}{0}
\setcounter{enumiii}{0}
\setcounter{enumiv}{0}
\setcounter{footnote}{0}
\setcounter{mpfootnote}{0}
\setcounter{part}{0}
\setcounter{chapter}{15}
\setcounter{section}{5}
\setcounter{subsection}{4}
\setcounter{subsubsection}{17}
\setcounter{paragraph}{0}
\setcounter{subparagraph}{0}
\setcounter{figure}{0}
\setcounter{table}{76}
\setcounter{float@type}{4}
\setcounter{LT@tables}{77}
\setcounter{LT@chunks}{3}
\setcounter{NAT@ctr}{0}
\setcounter{lofdepth}{1}
\setcounter{lotdepth}{1}
\setcounter{parentequation}{0}
\setcounter{Item}{12}
\setcounter{Hfootnote}{0}
\setcounter{bookmark@seq@number}{244}
\setcounter{ContinuedFloat}{0}
\setcounter{section@level}{3}
}
