\relax 
\providecommand\hyper@newdestlabel[2]{}
\@writefile{toc}{\contentsline {section}{\numberline {15.21}Locally stable structures}{226}{section.15.21}}
\newlabel{group__local__fold}{{15.21}{226}{Locally stable structures}{section.15.21}{}}
\@writefile{toc}{\contentsline {subsection}{\numberline {15.21.1}Detailed Description}{226}{subsection.15.21.1}}
\@setckpt{group__local__fold}{
\setcounter{page}{227}
\setcounter{equation}{0}
\setcounter{enumi}{2}
\setcounter{enumii}{0}
\setcounter{enumiii}{0}
\setcounter{enumiv}{0}
\setcounter{footnote}{0}
\setcounter{mpfootnote}{0}
\setcounter{part}{0}
\setcounter{chapter}{15}
\setcounter{section}{21}
\setcounter{subsection}{1}
\setcounter{subsubsection}{0}
\setcounter{paragraph}{0}
\setcounter{subparagraph}{0}
\setcounter{figure}{0}
\setcounter{table}{132}
\setcounter{float@type}{4}
\setcounter{LT@tables}{133}
\setcounter{LT@chunks}{3}
\setcounter{NAT@ctr}{0}
\setcounter{lofdepth}{1}
\setcounter{lotdepth}{1}
\setcounter{parentequation}{0}
\setcounter{Item}{12}
\setcounter{Hfootnote}{0}
\setcounter{bookmark@seq@number}{393}
\setcounter{ContinuedFloat}{0}
\setcounter{section@level}{2}
}
