\relax 
\providecommand\hyper@newdestlabel[2]{}
\citation{wuchty:1999}
\@writefile{toc}{\contentsline {section}{\numberline {15.16}Suboptimal structures within an energy band arround the M\discretionary {\unhbox \voidb@x \hbox {\relax \fontsize  {7}{8}\selectfont  $\DOTSB \leftarrow \joinrel  \rhook $}}{}{}FE}{213}{section.15.16}}
\newlabel{group__subopt__wuchty}{{15.16}{213}{Suboptimal structures within an energy band arround the M\+FE}{section.15.16}{}}
\newlabel{group__subopt__wuchty_ga226e3803a826aba8159284d021c24d01}{{15.16}{213}{Typedefs}{section*.82}{}}
\newlabel{group__subopt__wuchty_gaa1e1e7031a948ebcb39a9d58d1e9842c}{{15.16}{213}{Functions}{section*.83}{}}
\newlabel{group__subopt__wuchty_ga5e57d914bcb5feeecdf520e25313fcfe}{{15.16}{213}{Variables}{section*.84}{}}
\newlabel{group__subopt__wuchty_ga873cf8ed69e0437f8efa8b1fec854a0e}{{15.16}{213}{Variables}{section*.84}{}}
\gdef \LT@cxxiii {\LT@entry 
    {3}{38.17041pt}\LT@entry 
    {3}{176.64662pt}}
\@writefile{toc}{\contentsline {subsection}{\numberline {15.16.1}Detailed Description}{214}{subsection.15.16.1}}
\@writefile{toc}{\contentsline {subsection}{\numberline {15.16.2}Function Documentation}{214}{subsection.15.16.2}}
\newlabel{group__subopt__wuchty_ga0f11d738fb8c8b1885a90c11c8931ff6}{{15.16.2}{214}{Function Documentation}{subsection.15.16.2}{}}
\@writefile{toc}{\contentsline {subsubsection}{\numberline {15.16.2.1}vrna\discretionary {\unhbox \voidb@x \hbox {\relax \fontsize  {7}{8}\selectfont  $\DOTSB \leftarrow \joinrel  \rhook $}}{}{}\_\discretionary {\unhbox \voidb@x \hbox {\relax \fontsize  {7}{8}\selectfont  $\DOTSB \leftarrow \joinrel  \rhook $}}{}{}subopt()}{214}{subsubsection.15.16.2.1}}
\@writefile{brf}{\backcite{wuchty:1999}{{214}{15.16.2.1}{subsubsection.15.16.2.1}}}
\newlabel{group__subopt__wuchty_ga1053837e6b6f158093508f8a70998352}{{15.16.2.1}{214}{\texorpdfstring {vrna\+\_\+subopt()}{vrna\_subopt()}}{table.15.122}{}}
\@writefile{toc}{\contentsline {subsubsection}{\numberline {15.16.2.2}vrna\discretionary {\unhbox \voidb@x \hbox {\relax \fontsize  {7}{8}\selectfont  $\DOTSB \leftarrow \joinrel  \rhook $}}{}{}\_\discretionary {\unhbox \voidb@x \hbox {\relax \fontsize  {7}{8}\selectfont  $\DOTSB \leftarrow \joinrel  \rhook $}}{}{}subopt\discretionary {\unhbox \voidb@x \hbox {\relax \fontsize  {7}{8}\selectfont  $\DOTSB \leftarrow \joinrel  \rhook $}}{}{}\_\discretionary {\unhbox \voidb@x \hbox {\relax \fontsize  {7}{8}\selectfont  $\DOTSB \leftarrow \joinrel  \rhook $}}{}{}cb()}{214}{subsubsection.15.16.2.2}}
\citation{wuchty:1999}
\gdef \LT@cxxiv {\LT@entry 
    {3}{32.31155pt}\LT@entry 
    {3}{403.4507pt}}
\@writefile{brf}{\backcite{wuchty:1999}{{215}{15.16.2.2}{subsubsection.15.16.2.2}}}
\newlabel{group__subopt__wuchty_ga700f662506a233e42dd7fda74fafd40e}{{15.16.2.2}{215}{\texorpdfstring {vrna\+\_\+subopt\+\_\+cb()}{vrna\_subopt\_cb()}}{table.15.123}{}}
\@writefile{toc}{\contentsline {subsubsection}{\numberline {15.16.2.3}subopt()}{215}{subsubsection.15.16.2.3}}
\gdef \LT@cxxv {\LT@entry 
    {3}{47.9442pt}\LT@entry 
    {3}{12.4pt}}
\gdef \LT@cxxvi {\LT@entry 
    {3}{51.82336pt}\LT@entry 
    {3}{12.4pt}}
\newlabel{group__subopt__wuchty_ga8634516e4740e0b6c9a46d2bae940340}{{15.16.2.3}{216}{\texorpdfstring {subopt()}{subopt()}}{table.15.124}{}}
\@writefile{toc}{\contentsline {subsubsection}{\numberline {15.16.2.4}subopt\discretionary {\unhbox \voidb@x \hbox {\relax \fontsize  {7}{8}\selectfont  $\DOTSB \leftarrow \joinrel  \rhook $}}{}{}\_\discretionary {\unhbox \voidb@x \hbox {\relax \fontsize  {7}{8}\selectfont  $\DOTSB \leftarrow \joinrel  \rhook $}}{}{}circ()}{216}{subsubsection.15.16.2.4}}
\@setckpt{group__subopt__wuchty}{
\setcounter{page}{217}
\setcounter{equation}{0}
\setcounter{enumi}{2}
\setcounter{enumii}{0}
\setcounter{enumiii}{0}
\setcounter{enumiv}{0}
\setcounter{footnote}{0}
\setcounter{mpfootnote}{0}
\setcounter{part}{0}
\setcounter{chapter}{15}
\setcounter{section}{16}
\setcounter{subsection}{2}
\setcounter{subsubsection}{4}
\setcounter{paragraph}{0}
\setcounter{subparagraph}{0}
\setcounter{figure}{0}
\setcounter{table}{125}
\setcounter{float@type}{4}
\setcounter{LT@tables}{126}
\setcounter{LT@chunks}{3}
\setcounter{NAT@ctr}{0}
\setcounter{lofdepth}{1}
\setcounter{lotdepth}{1}
\setcounter{parentequation}{0}
\setcounter{Item}{12}
\setcounter{Hfootnote}{0}
\setcounter{bookmark@seq@number}{370}
\setcounter{ContinuedFloat}{0}
\setcounter{section@level}{3}
}
