\relax 
\providecommand\hyper@newdestlabel[2]{}
\@writefile{toc}{\contentsline {section}{\numberline {15.13}Partition function and equilibrium properties}{197}{section.15.13}}
\newlabel{group__pf__fold}{{15.13}{197}{Partition function and equilibrium properties}{section.15.13}{}}
\citation{mccaskill:1990}
\@writefile{toc}{\contentsline {subsection}{\numberline {15.13.1}Detailed Description}{198}{subsection.15.13.1}}
\@writefile{brf}{\backcite{mccaskill:1990}{{198}{15.13.1}{subsection.15.13.1}}}
\gdef \LT@cvii {\LT@entry 
    {3}{37.31546pt}\LT@entry 
    {3}{203.60992pt}}
\gdef \LT@cviii {\LT@entry 
    {3}{21.79993pt}\LT@entry 
    {3}{146.83017pt}}
\@writefile{toc}{\contentsline {subsection}{\numberline {15.13.2}Function Documentation}{199}{subsection.15.13.2}}
\newlabel{group__pf__fold_gad3f0c240512e6d43e2e4d4c2076021f5}{{15.13.2}{199}{Function Documentation}{subsection.15.13.2}{}}
\@writefile{toc}{\contentsline {subsubsection}{\numberline {15.13.2.1}vrna\discretionary {\unhbox \voidb@x \hbox {\relax \fontsize  {7}{8}\selectfont  $\DOTSB \leftarrow \joinrel  \rhook $}}{}{}\_\discretionary {\unhbox \voidb@x \hbox {\relax \fontsize  {7}{8}\selectfont  $\DOTSB \leftarrow \joinrel  \rhook $}}{}{}mean\discretionary {\unhbox \voidb@x \hbox {\relax \fontsize  {7}{8}\selectfont  $\DOTSB \leftarrow \joinrel  \rhook $}}{}{}\_\discretionary {\unhbox \voidb@x \hbox {\relax \fontsize  {7}{8}\selectfont  $\DOTSB \leftarrow \joinrel  \rhook $}}{}{}bp\discretionary {\unhbox \voidb@x \hbox {\relax \fontsize  {7}{8}\selectfont  $\DOTSB \leftarrow \joinrel  \rhook $}}{}{}\_\discretionary {\unhbox \voidb@x \hbox {\relax \fontsize  {7}{8}\selectfont  $\DOTSB \leftarrow \joinrel  \rhook $}}{}{}distance\discretionary {\unhbox \voidb@x \hbox {\relax \fontsize  {7}{8}\selectfont  $\DOTSB \leftarrow \joinrel  \rhook $}}{}{}\_\discretionary {\unhbox \voidb@x \hbox {\relax \fontsize  {7}{8}\selectfont  $\DOTSB \leftarrow \joinrel  \rhook $}}{}{}pr()}{199}{subsubsection.15.13.2.1}}
\newlabel{group__pf__fold_gaa6b8983b559b9ef4b2e1b31113ea317b}{{15.13.2.1}{199}{\texorpdfstring {vrna\+\_\+mean\+\_\+bp\+\_\+distance\+\_\+pr()}{vrna\_mean\_bp\_distance\_pr()}}{table.15.106}{}}
\@writefile{toc}{\contentsline {subsubsection}{\numberline {15.13.2.2}vrna\discretionary {\unhbox \voidb@x \hbox {\relax \fontsize  {7}{8}\selectfont  $\DOTSB \leftarrow \joinrel  \rhook $}}{}{}\_\discretionary {\unhbox \voidb@x \hbox {\relax \fontsize  {7}{8}\selectfont  $\DOTSB \leftarrow \joinrel  \rhook $}}{}{}mean\discretionary {\unhbox \voidb@x \hbox {\relax \fontsize  {7}{8}\selectfont  $\DOTSB \leftarrow \joinrel  \rhook $}}{}{}\_\discretionary {\unhbox \voidb@x \hbox {\relax \fontsize  {7}{8}\selectfont  $\DOTSB \leftarrow \joinrel  \rhook $}}{}{}bp\discretionary {\unhbox \voidb@x \hbox {\relax \fontsize  {7}{8}\selectfont  $\DOTSB \leftarrow \joinrel  \rhook $}}{}{}\_\discretionary {\unhbox \voidb@x \hbox {\relax \fontsize  {7}{8}\selectfont  $\DOTSB \leftarrow \joinrel  \rhook $}}{}{}distance()}{199}{subsubsection.15.13.2.2}}
\newlabel{group__pf__fold_ga26e3cc2eb127a35625572e9275c24ee4}{{15.13.2.2}{199}{\texorpdfstring {vrna\+\_\+mean\+\_\+bp\+\_\+distance()}{vrna\_mean\_bp\_distance()}}{table.15.107}{}}
\gdef \LT@cix {\LT@entry 
    {3}{34.81357pt}\LT@entry 
    {3}{310.39279pt}}
\gdef \LT@cx {\LT@entry 
    {3}{48.79999pt}\LT@entry 
    {3}{47.5442pt}\LT@entry 
    {3}{358.89992pt}}
\@writefile{toc}{\contentsline {subsubsection}{\numberline {15.13.2.3}vrna\discretionary {\unhbox \voidb@x \hbox {\relax \fontsize  {7}{8}\selectfont  $\DOTSB \leftarrow \joinrel  \rhook $}}{}{}\_\discretionary {\unhbox \voidb@x \hbox {\relax \fontsize  {7}{8}\selectfont  $\DOTSB \leftarrow \joinrel  \rhook $}}{}{}stack\discretionary {\unhbox \voidb@x \hbox {\relax \fontsize  {7}{8}\selectfont  $\DOTSB \leftarrow \joinrel  \rhook $}}{}{}\_\discretionary {\unhbox \voidb@x \hbox {\relax \fontsize  {7}{8}\selectfont  $\DOTSB \leftarrow \joinrel  \rhook $}}{}{}prob()}{200}{subsubsection.15.13.2.3}}
\newlabel{group__pf__fold_ga29e256d688ad221b78d37f427e0e99bc}{{15.13.2.3}{200}{\texorpdfstring {vrna\+\_\+stack\+\_\+prob()}{vrna\_stack\_prob()}}{table.15.108}{}}
\@writefile{toc}{\contentsline {subsubsection}{\numberline {15.13.2.4}vrna\discretionary {\unhbox \voidb@x \hbox {\relax \fontsize  {7}{8}\selectfont  $\DOTSB \leftarrow \joinrel  \rhook $}}{}{}\_\discretionary {\unhbox \voidb@x \hbox {\relax \fontsize  {7}{8}\selectfont  $\DOTSB \leftarrow \joinrel  \rhook $}}{}{}pf()}{200}{subsubsection.15.13.2.4}}
\gdef \LT@cxi {\LT@entry 
    {3}{51.82336pt}\LT@entry 
    {3}{410.0387pt}}
\newlabel{group__pf__fold_gafe8f523e16575e6e61bf8ff909663b5f}{{15.13.2.4}{201}{\texorpdfstring {vrna\+\_\+pf()}{vrna\_pf()}}{table.15.109}{}}
\@writefile{toc}{\contentsline {subsubsection}{\numberline {15.13.2.5}vrna\discretionary {\unhbox \voidb@x \hbox {\relax \fontsize  {7}{8}\selectfont  $\DOTSB \leftarrow \joinrel  \rhook $}}{}{}\_\discretionary {\unhbox \voidb@x \hbox {\relax \fontsize  {7}{8}\selectfont  $\DOTSB \leftarrow \joinrel  \rhook $}}{}{}pf\discretionary {\unhbox \voidb@x \hbox {\relax \fontsize  {7}{8}\selectfont  $\DOTSB \leftarrow \joinrel  \rhook $}}{}{}\_\discretionary {\unhbox \voidb@x \hbox {\relax \fontsize  {7}{8}\selectfont  $\DOTSB \leftarrow \joinrel  \rhook $}}{}{}fold()}{201}{subsubsection.15.13.2.5}}
\newlabel{group__pf__fold_ga0175db86e506900c6b1a42fd41562e34}{{15.13.2.5}{201}{\texorpdfstring {vrna\+\_\+pf\+\_\+fold()}{vrna\_pf\_fold()}}{table.15.110}{}}
\@writefile{toc}{\contentsline {subsubsection}{\numberline {15.13.2.6}vrna\discretionary {\unhbox \voidb@x \hbox {\relax \fontsize  {7}{8}\selectfont  $\DOTSB \leftarrow \joinrel  \rhook $}}{}{}\_\discretionary {\unhbox \voidb@x \hbox {\relax \fontsize  {7}{8}\selectfont  $\DOTSB \leftarrow \joinrel  \rhook $}}{}{}pf\discretionary {\unhbox \voidb@x \hbox {\relax \fontsize  {7}{8}\selectfont  $\DOTSB \leftarrow \joinrel  \rhook $}}{}{}\_\discretionary {\unhbox \voidb@x \hbox {\relax \fontsize  {7}{8}\selectfont  $\DOTSB \leftarrow \joinrel  \rhook $}}{}{}circfold()}{201}{subsubsection.15.13.2.6}}
\citation{hofacker:2006}
\gdef \LT@cxii {\LT@entry 
    {3}{51.82336pt}\LT@entry 
    {3}{410.0387pt}}
\@writefile{brf}{\backcite{hofacker:2006}{{202}{15.13.2.6}{subsubsection.15.13.2.6}}}
\newlabel{group__pf__fold_gac4f95bee734b2563a3d6e9932117ebdf}{{15.13.2.6}{202}{\texorpdfstring {vrna\+\_\+pf\+\_\+circfold()}{vrna\_pf\_circfold()}}{table.15.111}{}}
\@writefile{toc}{\contentsline {subsubsection}{\numberline {15.13.2.7}pf\discretionary {\unhbox \voidb@x \hbox {\relax \fontsize  {7}{8}\selectfont  $\DOTSB \leftarrow \joinrel  \rhook $}}{}{}\_\discretionary {\unhbox \voidb@x \hbox {\relax \fontsize  {7}{8}\selectfont  $\DOTSB \leftarrow \joinrel  \rhook $}}{}{}fold\discretionary {\unhbox \voidb@x \hbox {\relax \fontsize  {7}{8}\selectfont  $\DOTSB \leftarrow \joinrel  \rhook $}}{}{}\_\discretionary {\unhbox \voidb@x \hbox {\relax \fontsize  {7}{8}\selectfont  $\DOTSB \leftarrow \joinrel  \rhook $}}{}{}par()}{202}{subsubsection.15.13.2.7}}
\gdef \LT@cxiii {\LT@entry 
    {3}{48.79999pt}\LT@entry 
    {3}{75.42589pt}\LT@entry 
    {3}{331.01823pt}}
\newlabel{group__pf__fold_gadc3db3d98742427e7001a7fd36ef28c2}{{15.13.2.7}{203}{\texorpdfstring {pf\+\_\+fold\+\_\+par()}{pf\_fold\_par()}}{table.15.112}{}}
\@writefile{toc}{\contentsline {subsubsection}{\numberline {15.13.2.8}pf\discretionary {\unhbox \voidb@x \hbox {\relax \fontsize  {7}{8}\selectfont  $\DOTSB \leftarrow \joinrel  \rhook $}}{}{}\_\discretionary {\unhbox \voidb@x \hbox {\relax \fontsize  {7}{8}\selectfont  $\DOTSB \leftarrow \joinrel  \rhook $}}{}{}fold()}{203}{subsubsection.15.13.2.8}}
\gdef \LT@cxiv {\LT@entry 
    {3}{51.82336pt}\LT@entry 
    {3}{403.42075pt}}
\newlabel{group__pf__fold_ga819ce5fca8984004ac81c4a3b04cb735}{{15.13.2.8}{204}{\texorpdfstring {pf\+\_\+fold()}{pf\_fold()}}{table.15.113}{}}
\@writefile{toc}{\contentsline {subsubsection}{\numberline {15.13.2.9}pf\discretionary {\unhbox \voidb@x \hbox {\relax \fontsize  {7}{8}\selectfont  $\DOTSB \leftarrow \joinrel  \rhook $}}{}{}\_\discretionary {\unhbox \voidb@x \hbox {\relax \fontsize  {7}{8}\selectfont  $\DOTSB \leftarrow \joinrel  \rhook $}}{}{}circ\discretionary {\unhbox \voidb@x \hbox {\relax \fontsize  {7}{8}\selectfont  $\DOTSB \leftarrow \joinrel  \rhook $}}{}{}\_\discretionary {\unhbox \voidb@x \hbox {\relax \fontsize  {7}{8}\selectfont  $\DOTSB \leftarrow \joinrel  \rhook $}}{}{}fold()}{204}{subsubsection.15.13.2.9}}
\gdef \LT@cxv {\LT@entry 
    {3}{48.79999pt}\LT@entry 
    {3}{51.42337pt}\LT@entry 
    {3}{355.02075pt}}
\newlabel{group__pf__fold_gae73db3f49a94f0f72e067ecd12681dbd}{{15.13.2.9}{205}{\texorpdfstring {pf\+\_\+circ\+\_\+fold()}{pf\_circ\_fold()}}{table.15.114}{}}
\@writefile{toc}{\contentsline {subsubsection}{\numberline {15.13.2.10}free\discretionary {\unhbox \voidb@x \hbox {\relax \fontsize  {7}{8}\selectfont  $\DOTSB \leftarrow \joinrel  \rhook $}}{}{}\_\discretionary {\unhbox \voidb@x \hbox {\relax \fontsize  {7}{8}\selectfont  $\DOTSB \leftarrow \joinrel  \rhook $}}{}{}pf\discretionary {\unhbox \voidb@x \hbox {\relax \fontsize  {7}{8}\selectfont  $\DOTSB \leftarrow \joinrel  \rhook $}}{}{}\_\discretionary {\unhbox \voidb@x \hbox {\relax \fontsize  {7}{8}\selectfont  $\DOTSB \leftarrow \joinrel  \rhook $}}{}{}arrays()}{205}{subsubsection.15.13.2.10}}
\newlabel{group__pf__fold_ga384e927890f9c034ff09fa66da102d28}{{15.13.2.10}{205}{\texorpdfstring {free\+\_\+pf\+\_\+arrays()}{free\_pf\_arrays()}}{subsubsection.15.13.2.10}{}}
\@writefile{toc}{\contentsline {subsubsection}{\numberline {15.13.2.11}update\discretionary {\unhbox \voidb@x \hbox {\relax \fontsize  {7}{8}\selectfont  $\DOTSB \leftarrow \joinrel  \rhook $}}{}{}\_\discretionary {\unhbox \voidb@x \hbox {\relax \fontsize  {7}{8}\selectfont  $\DOTSB \leftarrow \joinrel  \rhook $}}{}{}pf\discretionary {\unhbox \voidb@x \hbox {\relax \fontsize  {7}{8}\selectfont  $\DOTSB \leftarrow \joinrel  \rhook $}}{}{}\_\discretionary {\unhbox \voidb@x \hbox {\relax \fontsize  {7}{8}\selectfont  $\DOTSB \leftarrow \joinrel  \rhook $}}{}{}params()}{206}{subsubsection.15.13.2.11}}
\newlabel{group__pf__fold_gaafe2d1b21f5418b123b088aa395e827d}{{15.13.2.11}{206}{\texorpdfstring {update\+\_\+pf\+\_\+params()}{update\_pf\_params()}}{subsubsection.15.13.2.11}{}}
\@writefile{toc}{\contentsline {subsubsection}{\numberline {15.13.2.12}update\discretionary {\unhbox \voidb@x \hbox {\relax \fontsize  {7}{8}\selectfont  $\DOTSB \leftarrow \joinrel  \rhook $}}{}{}\_\discretionary {\unhbox \voidb@x \hbox {\relax \fontsize  {7}{8}\selectfont  $\DOTSB \leftarrow \joinrel  \rhook $}}{}{}pf\discretionary {\unhbox \voidb@x \hbox {\relax \fontsize  {7}{8}\selectfont  $\DOTSB \leftarrow \joinrel  \rhook $}}{}{}\_\discretionary {\unhbox \voidb@x \hbox {\relax \fontsize  {7}{8}\selectfont  $\DOTSB \leftarrow \joinrel  \rhook $}}{}{}params\discretionary {\unhbox \voidb@x \hbox {\relax \fontsize  {7}{8}\selectfont  $\DOTSB \leftarrow \joinrel  \rhook $}}{}{}\_\discretionary {\unhbox \voidb@x \hbox {\relax \fontsize  {7}{8}\selectfont  $\DOTSB \leftarrow \joinrel  \rhook $}}{}{}par()}{206}{subsubsection.15.13.2.12}}
\newlabel{group__pf__fold_gac5ac7ee281aae1c5cc5898a841178073}{{15.13.2.12}{206}{\texorpdfstring {update\+\_\+pf\+\_\+params\+\_\+par()}{update\_pf\_params\_par()}}{subsubsection.15.13.2.12}{}}
\@writefile{toc}{\contentsline {subsubsection}{\numberline {15.13.2.13}export\discretionary {\unhbox \voidb@x \hbox {\relax \fontsize  {7}{8}\selectfont  $\DOTSB \leftarrow \joinrel  \rhook $}}{}{}\_\discretionary {\unhbox \voidb@x \hbox {\relax \fontsize  {7}{8}\selectfont  $\DOTSB \leftarrow \joinrel  \rhook $}}{}{}bppm()}{206}{subsubsection.15.13.2.13}}
\newlabel{group__pf__fold_ga42faebdfce6f070c5f89adfc8427525c}{{15.13.2.13}{206}{\texorpdfstring {export\+\_\+bppm()}{export\_bppm()}}{subsubsection.15.13.2.13}{}}
\gdef \LT@cxvi {\LT@entry 
    {3}{30.79999pt}\LT@entry 
    {3}{44.42139pt}\LT@entry 
    {3}{284.5178pt}}
\@writefile{toc}{\contentsline {subsubsection}{\numberline {15.13.2.14}get\discretionary {\unhbox \voidb@x \hbox {\relax \fontsize  {7}{8}\selectfont  $\DOTSB \leftarrow \joinrel  \rhook $}}{}{}\_\discretionary {\unhbox \voidb@x \hbox {\relax \fontsize  {7}{8}\selectfont  $\DOTSB \leftarrow \joinrel  \rhook $}}{}{}pf\discretionary {\unhbox \voidb@x \hbox {\relax \fontsize  {7}{8}\selectfont  $\DOTSB \leftarrow \joinrel  \rhook $}}{}{}\_\discretionary {\unhbox \voidb@x \hbox {\relax \fontsize  {7}{8}\selectfont  $\DOTSB \leftarrow \joinrel  \rhook $}}{}{}arrays()}{207}{subsubsection.15.13.2.14}}
\newlabel{group__pf__fold_ga79cbc375af65f11609feb6b055269e7d}{{15.13.2.14}{207}{\texorpdfstring {get\+\_\+pf\+\_\+arrays()}{get\_pf\_arrays()}}{table.15.115}{}}
\@writefile{toc}{\contentsline {subsubsection}{\numberline {15.13.2.15}mean\discretionary {\unhbox \voidb@x \hbox {\relax \fontsize  {7}{8}\selectfont  $\DOTSB \leftarrow \joinrel  \rhook $}}{}{}\_\discretionary {\unhbox \voidb@x \hbox {\relax \fontsize  {7}{8}\selectfont  $\DOTSB \leftarrow \joinrel  \rhook $}}{}{}bp\discretionary {\unhbox \voidb@x \hbox {\relax \fontsize  {7}{8}\selectfont  $\DOTSB \leftarrow \joinrel  \rhook $}}{}{}\_\discretionary {\unhbox \voidb@x \hbox {\relax \fontsize  {7}{8}\selectfont  $\DOTSB \leftarrow \joinrel  \rhook $}}{}{}distance()}{207}{subsubsection.15.13.2.15}}
\gdef \LT@cxvii {\LT@entry 
    {3}{37.31546pt}\LT@entry 
    {3}{12.4pt}}
\gdef \LT@cxviii {\LT@entry 
    {3}{37.31546pt}\LT@entry 
    {3}{203.60992pt}}
\newlabel{group__pf__fold_gad5ba36cef8d01cf4244cc09b9bf1ce1d}{{15.13.2.15}{208}{\texorpdfstring {mean\+\_\+bp\+\_\+distance()}{mean\_bp\_distance()}}{table.15.116}{}}
\@writefile{toc}{\contentsline {subsubsection}{\numberline {15.13.2.16}mean\discretionary {\unhbox \voidb@x \hbox {\relax \fontsize  {7}{8}\selectfont  $\DOTSB \leftarrow \joinrel  \rhook $}}{}{}\_\discretionary {\unhbox \voidb@x \hbox {\relax \fontsize  {7}{8}\selectfont  $\DOTSB \leftarrow \joinrel  \rhook $}}{}{}bp\discretionary {\unhbox \voidb@x \hbox {\relax \fontsize  {7}{8}\selectfont  $\DOTSB \leftarrow \joinrel  \rhook $}}{}{}\_\discretionary {\unhbox \voidb@x \hbox {\relax \fontsize  {7}{8}\selectfont  $\DOTSB \leftarrow \joinrel  \rhook $}}{}{}distance\discretionary {\unhbox \voidb@x \hbox {\relax \fontsize  {7}{8}\selectfont  $\DOTSB \leftarrow \joinrel  \rhook $}}{}{}\_\discretionary {\unhbox \voidb@x \hbox {\relax \fontsize  {7}{8}\selectfont  $\DOTSB \leftarrow \joinrel  \rhook $}}{}{}pr()}{208}{subsubsection.15.13.2.16}}
\newlabel{group__struct__utils_gaa3bf26a0ee2e9f2225afbaee44a37264}{{15.13.2.16}{208}{\texorpdfstring {mean\+\_\+bp\+\_\+distance\+\_\+pr()}{mean\_bp\_distance\_pr()}}{table.15.117}{}}
\@writefile{toc}{\contentsline {subsubsection}{\numberline {15.13.2.17}vrna\discretionary {\unhbox \voidb@x \hbox {\relax \fontsize  {7}{8}\selectfont  $\DOTSB \leftarrow \joinrel  \rhook $}}{}{}\_\discretionary {\unhbox \voidb@x \hbox {\relax \fontsize  {7}{8}\selectfont  $\DOTSB \leftarrow \joinrel  \rhook $}}{}{}plist\discretionary {\unhbox \voidb@x \hbox {\relax \fontsize  {7}{8}\selectfont  $\DOTSB \leftarrow \joinrel  \rhook $}}{}{}\_\discretionary {\unhbox \voidb@x \hbox {\relax \fontsize  {7}{8}\selectfont  $\DOTSB \leftarrow \joinrel  \rhook $}}{}{}from\discretionary {\unhbox \voidb@x \hbox {\relax \fontsize  {7}{8}\selectfont  $\DOTSB \leftarrow \joinrel  \rhook $}}{}{}\_\discretionary {\unhbox \voidb@x \hbox {\relax \fontsize  {7}{8}\selectfont  $\DOTSB \leftarrow \joinrel  \rhook $}}{}{}probs()}{208}{subsubsection.15.13.2.17}}
\gdef \LT@cxix {\LT@entry 
    {3}{24.79999pt}\LT@entry 
    {3}{39.41748pt}\LT@entry 
    {3}{89.16856pt}}
\gdef \LT@cxx {\LT@entry 
    {3}{30.79999pt}\LT@entry 
    {3}{36.91547pt}\LT@entry 
    {3}{203.72646pt}}
\newlabel{group__struct__utils_gacfdacc119b749bccf939de445afea07b}{{15.13.2.17}{209}{\texorpdfstring {vrna\+\_\+plist\+\_\+from\+\_\+probs()}{vrna\_plist\_from\_probs()}}{table.15.118}{}}
\@writefile{toc}{\contentsline {subsubsection}{\numberline {15.13.2.18}assign\discretionary {\unhbox \voidb@x \hbox {\relax \fontsize  {7}{8}\selectfont  $\DOTSB \leftarrow \joinrel  \rhook $}}{}{}\_\discretionary {\unhbox \voidb@x \hbox {\relax \fontsize  {7}{8}\selectfont  $\DOTSB \leftarrow \joinrel  \rhook $}}{}{}plist\discretionary {\unhbox \voidb@x \hbox {\relax \fontsize  {7}{8}\selectfont  $\DOTSB \leftarrow \joinrel  \rhook $}}{}{}\_\discretionary {\unhbox \voidb@x \hbox {\relax \fontsize  {7}{8}\selectfont  $\DOTSB \leftarrow \joinrel  \rhook $}}{}{}from\discretionary {\unhbox \voidb@x \hbox {\relax \fontsize  {7}{8}\selectfont  $\DOTSB \leftarrow \joinrel  \rhook $}}{}{}\_\discretionary {\unhbox \voidb@x \hbox {\relax \fontsize  {7}{8}\selectfont  $\DOTSB \leftarrow \joinrel  \rhook $}}{}{}pr()}{209}{subsubsection.15.13.2.18}}
\@setckpt{group__pf__fold}{
\setcounter{page}{210}
\setcounter{equation}{0}
\setcounter{enumi}{2}
\setcounter{enumii}{0}
\setcounter{enumiii}{0}
\setcounter{enumiv}{0}
\setcounter{footnote}{0}
\setcounter{mpfootnote}{0}
\setcounter{part}{0}
\setcounter{chapter}{15}
\setcounter{section}{13}
\setcounter{subsection}{2}
\setcounter{subsubsection}{18}
\setcounter{paragraph}{0}
\setcounter{subparagraph}{0}
\setcounter{figure}{0}
\setcounter{table}{119}
\setcounter{float@type}{4}
\setcounter{LT@tables}{120}
\setcounter{LT@chunks}{3}
\setcounter{NAT@ctr}{0}
\setcounter{lofdepth}{1}
\setcounter{lotdepth}{1}
\setcounter{parentequation}{0}
\setcounter{Item}{12}
\setcounter{Hfootnote}{0}
\setcounter{bookmark@seq@number}{355}
\setcounter{ContinuedFloat}{0}
\setcounter{section@level}{3}
}
