\relax 
\providecommand\hyper@newdestlabel[2]{}
\gdef \LT@ccvii {\LT@entry 
    {3}{37.31546pt}\LT@entry 
    {3}{12.4pt}}
\@writefile{toc}{\contentsline {section}{\numberline {15.49}Partition functions for locally stable secondary structures}{330}{section.15.49}}
\newlabel{group__local__pf__fold}{{15.49}{330}{Partition functions for locally stable secondary structures}{section.15.49}{}}
\newlabel{group__local__pf__fold_ga14c2b82fdd5ab7a1951f1c2db4f5cf2c}{{15.49}{330}{Functions}{section*.189}{}}
\@writefile{toc}{\contentsline {subsection}{\numberline {15.49.1}Detailed Description}{330}{subsection.15.49.1}}
\@writefile{toc}{\contentsline {subsection}{\numberline {15.49.2}Function Documentation}{330}{subsection.15.49.2}}
\newlabel{group__local__pf__fold_ga5a019014d37fe6105131dfc2fc447880}{{15.49.2}{330}{Function Documentation}{subsection.15.49.2}{}}
\@writefile{toc}{\contentsline {subsubsection}{\numberline {15.49.2.1}update\discretionary {\unhbox \voidb@x \hbox {\relax \fontsize  {7}{8}\selectfont  $\DOTSB \leftarrow \joinrel  \rhook $}}{}{}\_\discretionary {\unhbox \voidb@x \hbox {\relax \fontsize  {7}{8}\selectfont  $\DOTSB \leftarrow \joinrel  \rhook $}}{}{}pf\discretionary {\unhbox \voidb@x \hbox {\relax \fontsize  {7}{8}\selectfont  $\DOTSB \leftarrow \joinrel  \rhook $}}{}{}\_\discretionary {\unhbox \voidb@x \hbox {\relax \fontsize  {7}{8}\selectfont  $\DOTSB \leftarrow \joinrel  \rhook $}}{}{}params\discretionary {\unhbox \voidb@x \hbox {\relax \fontsize  {7}{8}\selectfont  $\DOTSB \leftarrow \joinrel  \rhook $}}{}{}L\discretionary {\unhbox \voidb@x \hbox {\relax \fontsize  {7}{8}\selectfont  $\DOTSB \leftarrow \joinrel  \rhook $}}{}{}P()}{330}{subsubsection.15.49.2.1}}
\newlabel{group__local__pf__fold_ga7dcf599d07258801ea55e7d14a56908d}{{15.49.2.1}{330}{\texorpdfstring {update\+\_\+pf\+\_\+params\+L\+P()}{update\_pf\_paramsLP()}}{table.15.206}{}}
\gdef \LT@ccviii {\LT@entry 
    {3}{51.82336pt}\LT@entry 
    {3}{163.59691pt}}
\@writefile{toc}{\contentsline {subsubsection}{\numberline {15.49.2.2}pfl\discretionary {\unhbox \voidb@x \hbox {\relax \fontsize  {7}{8}\selectfont  $\DOTSB \leftarrow \joinrel  \rhook $}}{}{}\_\discretionary {\unhbox \voidb@x \hbox {\relax \fontsize  {7}{8}\selectfont  $\DOTSB \leftarrow \joinrel  \rhook $}}{}{}fold()}{331}{subsubsection.15.49.2.2}}
\newlabel{group__local__pf__fold_ga0bcb751860bbf34e3dfee8c2fbdb3ef3}{{15.49.2.2}{331}{\texorpdfstring {pfl\+\_\+fold()}{pfl\_fold()}}{table.15.207}{}}
\@writefile{toc}{\contentsline {subsubsection}{\numberline {15.49.2.3}putoutp\discretionary {\unhbox \voidb@x \hbox {\relax \fontsize  {7}{8}\selectfont  $\DOTSB \leftarrow \joinrel  \rhook $}}{}{}U\discretionary {\unhbox \voidb@x \hbox {\relax \fontsize  {7}{8}\selectfont  $\DOTSB \leftarrow \joinrel  \rhook $}}{}{}\_\discretionary {\unhbox \voidb@x \hbox {\relax \fontsize  {7}{8}\selectfont  $\DOTSB \leftarrow \joinrel  \rhook $}}{}{}prob()}{331}{subsubsection.15.49.2.3}}
\gdef \LT@ccix {\LT@entry 
    {3}{47.31438pt}\LT@entry 
    {3}{160.70789pt}}
\gdef \LT@ccx {\LT@entry 
    {3}{47.31438pt}\LT@entry 
    {3}{160.70789pt}}
\newlabel{group__local__pf__fold_ga9acb00ee10e96b1ca4ea394cd8bcec75}{{15.49.2.3}{332}{\texorpdfstring {putoutp\+U\+\_\+prob()}{putoutpU\_prob()}}{table.15.208}{}}
\@writefile{toc}{\contentsline {subsubsection}{\numberline {15.49.2.4}putoutp\discretionary {\unhbox \voidb@x \hbox {\relax \fontsize  {7}{8}\selectfont  $\DOTSB \leftarrow \joinrel  \rhook $}}{}{}U\discretionary {\unhbox \voidb@x \hbox {\relax \fontsize  {7}{8}\selectfont  $\DOTSB \leftarrow \joinrel  \rhook $}}{}{}\_\discretionary {\unhbox \voidb@x \hbox {\relax \fontsize  {7}{8}\selectfont  $\DOTSB \leftarrow \joinrel  \rhook $}}{}{}prob\discretionary {\unhbox \voidb@x \hbox {\relax \fontsize  {7}{8}\selectfont  $\DOTSB \leftarrow \joinrel  \rhook $}}{}{}\_\discretionary {\unhbox \voidb@x \hbox {\relax \fontsize  {7}{8}\selectfont  $\DOTSB \leftarrow \joinrel  \rhook $}}{}{}bin()}{332}{subsubsection.15.49.2.4}}
\@setckpt{group__local__pf__fold}{
\setcounter{page}{333}
\setcounter{equation}{0}
\setcounter{enumi}{2}
\setcounter{enumii}{0}
\setcounter{enumiii}{0}
\setcounter{enumiv}{0}
\setcounter{footnote}{0}
\setcounter{mpfootnote}{0}
\setcounter{part}{0}
\setcounter{chapter}{15}
\setcounter{section}{49}
\setcounter{subsection}{2}
\setcounter{subsubsection}{4}
\setcounter{paragraph}{0}
\setcounter{subparagraph}{0}
\setcounter{figure}{0}
\setcounter{table}{209}
\setcounter{float@type}{4}
\setcounter{LT@tables}{210}
\setcounter{LT@chunks}{3}
\setcounter{NAT@ctr}{0}
\setcounter{lofdepth}{1}
\setcounter{lotdepth}{1}
\setcounter{parentequation}{0}
\setcounter{Item}{12}
\setcounter{Hfootnote}{0}
\setcounter{bookmark@seq@number}{630}
\setcounter{ContinuedFloat}{0}
\setcounter{section@level}{3}
}
