\relax 
\providecommand\hyper@newdestlabel[2]{}
\@writefile{toc}{\contentsline {section}{\numberline {15.53}The Fold Compound}{342}{section.15.53}}
\newlabel{group__fold__compound}{{15.53}{342}{The Fold Compound}{section.15.53}{}}
\newlabel{group__fold__compound_gacea5b7ee6181c485f36e2afa0e9089e4}{{15.53}{342}{Macros}{section*.201}{}}
\newlabel{group__fold__compound_ga8f681fa12b8d4b348bf58415fd1fc82f}{{15.53}{342}{Macros}{section*.201}{}}
\newlabel{group__fold__compound_ga2b2a8009ccdccc3eb1571556261aee8e}{{15.53}{342}{Macros}{section*.201}{}}
\newlabel{group__fold__compound_ga1b0cef17fd40466cef5968eaeeff6166}{{15.53}{343}{Typedefs}{section*.202}{}}
\@writefile{toc}{\contentsline {subsection}{\numberline {15.53.1}Detailed Description}{343}{subsection.15.53.1}}
\@writefile{toc}{\contentsline {subsection}{\numberline {15.53.2}Data Structure Documentation}{343}{subsection.15.53.2}}
\newlabel{structvrna__fc__s}{{15.53.2}{343}{Data Structure Documentation}{subsection.15.53.2}{}}
\@writefile{toc}{\contentsline {subsubsection}{\numberline {15.53.2.1}struct vrna\discretionary {\unhbox \voidb@x \hbox {\relax \fontsize  {7}{8}\selectfont  $\DOTSB \leftarrow \joinrel  \rhook $}}{}{}\_\discretionary {\unhbox \voidb@x \hbox {\relax \fontsize  {7}{8}\selectfont  $\DOTSB \leftarrow \joinrel  \rhook $}}{}{}fc\discretionary {\unhbox \voidb@x \hbox {\relax \fontsize  {7}{8}\selectfont  $\DOTSB \leftarrow \joinrel  \rhook $}}{}{}\_\discretionary {\unhbox \voidb@x \hbox {\relax \fontsize  {7}{8}\selectfont  $\DOTSB \leftarrow \joinrel  \rhook $}}{}{}s}{343}{subsubsection.15.53.2.1}}
\newlabel{group__fold__compound_a95fbfed770b858e50c766505dc4bf998}{{15.53.2.1}{345}{Data Fields}{section*.206}{}}
\newlabel{group__fold__compound_ae1a7bbff0256577e2b22709bac11fdb4}{{15.53.2.1}{345}{Data Fields}{section*.206}{}}
\newlabel{group__fold__compound_aceaa904dbf50092d403ca99422e8f824}{{15.53.2.1}{345}{Data Fields}{section*.206}{}}
\newlabel{group__fold__compound_aca8be7bdc65bafe2172c6ee777f18568}{{15.53.2.1}{345}{Data Fields}{section*.206}{}}
\newlabel{group__fold__compound_afc38ed5a1028a2712d2365274bf49727}{{15.53.2.1}{345}{Data Fields}{section*.206}{}}
\newlabel{group__fold__compound_a19b8720c2c5321c1b97c830bd17566ea}{{15.53.2.1}{345}{Data Fields}{section*.206}{}}
\newlabel{group__fold__compound_a7052a5d24f6091b9c5f79edcc9456a12}{{15.53.2.1}{345}{Data Fields}{section*.206}{}}
\newlabel{group__fold__compound_afdead4cf55c882d3497e779573e17e03}{{15.53.2.1}{345}{Data Fields}{section*.206}{}}
\newlabel{group__fold__compound_a5037235dee512efd85ca543780bbca1a}{{15.53.2.1}{345}{Data Fields}{section*.206}{}}
\newlabel{group__fold__compound_ac25a84f2658de0d7a54cd710c16198b1}{{15.53.2.1}{345}{Data Fields}{section*.206}{}}
\newlabel{group__fold__compound_a4f70b6d32681fc8ca061236f21819ae7}{{15.53.2.1}{345}{Data Fields}{section*.206}{}}
\newlabel{group__fold__compound_a42f34f531718cead0550a1ed59785e6d}{{15.53.2.1}{345}{Data Fields}{section*.206}{}}
\newlabel{group__fold__compound_a426305721b16023f2f3247f7354d2c46}{{15.53.2.1}{345}{Data Fields}{section*.206}{}}
\newlabel{group__fold__compound_a38695774fd396c892f9a70d39978b231}{{15.53.2.1}{345}{Data Fields}{section*.206}{}}
\newlabel{group__fold__compound_aa279ba4bd0ff541d435d3a049687f3ac}{{15.53.2.1}{345}{Data Fields}{section*.206}{}}
\newlabel{group__fold__compound_a926ad253f5f0eed642bc227493d0278d}{{15.53.2.1}{346}{Data Fields}{section*.206}{}}
\newlabel{group__fold__compound_a62a8d4ab8dadffbf09da917adff6c71e}{{15.53.2.1}{346}{Data Fields}{section*.206}{}}
\newlabel{group__fold__compound_a19187f33433e84683730dedff8544f71}{{15.53.2.1}{346}{Data Fields}{section*.206}{}}
\newlabel{group__fold__compound_a5c53e55583ce096148075bc240fc2bce}{{15.53.2.1}{346}{Data Fields}{section*.206}{}}
\newlabel{group__fold__compound_a0af5a888bac2ae32107da32776144504}{{15.53.2.1}{346}{Data Fields}{section*.206}{}}
\newlabel{group__fold__compound_a54c0b979274b285a7e093ed54aa3252e}{{15.53.2.1}{346}{Data Fields}{section*.206}{}}
\newlabel{group__fold__compound_adacbf7cdfb47d3072683ab509de735f6}{{15.53.2.1}{346}{Data Fields}{section*.206}{}}
\newlabel{group__fold__compound_a2ecb8ff5e21190936a8a146be7a251ff}{{15.53.2.1}{346}{Data Fields}{section*.206}{}}
\@writefile{toc}{\contentsline {paragraph}{\numberline {15.53.2.1.1}Field Documentation}{346}{paragraph.15.53.2.1.1}}
\newlabel{group__fold__compound_ac5eab693deac9a1a40c2a95ac294707c}{{15.53.2.1.1}{346}{Field Documentation}{paragraph.15.53.2.1.1}{}}
\@writefile{toc}{\contentsline {subparagraph}{\numberline {15.53.2.1.1.1}type}{346}{subparagraph.15.53.2.1.1.1}}
\newlabel{group__fold__compound_a87a83f6795b569000efcbe65acc3dd81}{{15.53.2.1.1.1}{346}{\texorpdfstring {type}{type}}{subparagraph.15.53.2.1.1.1}{}}
\@writefile{toc}{\contentsline {subparagraph}{\numberline {15.53.2.1.1.2}stat\discretionary {\unhbox \voidb@x \hbox {\relax \fontsize  {7}{8}\selectfont  $\DOTSB \leftarrow \joinrel  \rhook $}}{}{}\_\discretionary {\unhbox \voidb@x \hbox {\relax \fontsize  {7}{8}\selectfont  $\DOTSB \leftarrow \joinrel  \rhook $}}{}{}cb}{346}{subparagraph.15.53.2.1.1.2}}
\newlabel{group__fold__compound_a20048e0c369e9f24b55423d600037c68}{{15.53.2.1.1.2}{346}{\texorpdfstring {stat\+\_\+cb}{stat\_cb}}{subparagraph.15.53.2.1.1.2}{}}
\@writefile{toc}{\contentsline {subparagraph}{\numberline {15.53.2.1.1.3}auxdata}{346}{subparagraph.15.53.2.1.1.3}}
\newlabel{group__fold__compound_a8e84dbabab016ecd74da6c38cb94e816}{{15.53.2.1.1.3}{346}{\texorpdfstring {auxdata}{auxdata}}{subparagraph.15.53.2.1.1.3}{}}
\@writefile{toc}{\contentsline {subparagraph}{\numberline {15.53.2.1.1.4}free\discretionary {\unhbox \voidb@x \hbox {\relax \fontsize  {7}{8}\selectfont  $\DOTSB \leftarrow \joinrel  \rhook $}}{}{}\_\discretionary {\unhbox \voidb@x \hbox {\relax \fontsize  {7}{8}\selectfont  $\DOTSB \leftarrow \joinrel  \rhook $}}{}{}auxdata}{347}{subparagraph.15.53.2.1.1.4}}
\newlabel{group__fold__compound_a87f6abcda89cfb7a486c97e1f5371525}{{15.53.2.1.1.4}{347}{\texorpdfstring {free\+\_\+auxdata}{free\_auxdata}}{subparagraph.15.53.2.1.1.4}{}}
\@writefile{toc}{\contentsline {subparagraph}{\numberline {15.53.2.1.1.5}sequence}{347}{subparagraph.15.53.2.1.1.5}}
\newlabel{group__fold__compound_a9934bdb695d35a3544285cbcc19f9763}{{15.53.2.1.1.5}{347}{\texorpdfstring {sequence}{sequence}}{subparagraph.15.53.2.1.1.5}{}}
\@writefile{toc}{\contentsline {subparagraph}{\numberline {15.53.2.1.1.6}sequence\discretionary {\unhbox \voidb@x \hbox {\relax \fontsize  {7}{8}\selectfont  $\DOTSB \leftarrow \joinrel  \rhook $}}{}{}\_\discretionary {\unhbox \voidb@x \hbox {\relax \fontsize  {7}{8}\selectfont  $\DOTSB \leftarrow \joinrel  \rhook $}}{}{}encoding}{347}{subparagraph.15.53.2.1.1.6}}
\newlabel{group__fold__compound_a3fbea559f1d1976b2d67c215cdeee0b2}{{15.53.2.1.1.6}{347}{\texorpdfstring {sequence\+\_\+encoding}{sequence\_encoding}}{subparagraph.15.53.2.1.1.6}{}}
\@writefile{toc}{\contentsline {subparagraph}{\numberline {15.53.2.1.1.7}ptype}{347}{subparagraph.15.53.2.1.1.7}}
\newlabel{group__fold__compound_a7fe1235ce3d41287695f1ae1e283e8fc}{{15.53.2.1.1.7}{347}{\texorpdfstring {ptype}{ptype}}{subparagraph.15.53.2.1.1.7}{}}
\@writefile{toc}{\contentsline {subparagraph}{\numberline {15.53.2.1.1.8}ptype\discretionary {\unhbox \voidb@x \hbox {\relax \fontsize  {7}{8}\selectfont  $\DOTSB \leftarrow \joinrel  \rhook $}}{}{}\_\discretionary {\unhbox \voidb@x \hbox {\relax \fontsize  {7}{8}\selectfont  $\DOTSB \leftarrow \joinrel  \rhook $}}{}{}pf\discretionary {\unhbox \voidb@x \hbox {\relax \fontsize  {7}{8}\selectfont  $\DOTSB \leftarrow \joinrel  \rhook $}}{}{}\_\discretionary {\unhbox \voidb@x \hbox {\relax \fontsize  {7}{8}\selectfont  $\DOTSB \leftarrow \joinrel  \rhook $}}{}{}compat}{348}{subparagraph.15.53.2.1.1.8}}
\newlabel{group__fold__compound_ac7089e90460ad3990a308808c8044c9f}{{15.53.2.1.1.8}{348}{\texorpdfstring {ptype\+\_\+pf\+\_\+compat}{ptype\_pf\_compat}}{subparagraph.15.53.2.1.1.8}{}}
\@writefile{toc}{\contentsline {subparagraph}{\numberline {15.53.2.1.1.9}sc}{348}{subparagraph.15.53.2.1.1.9}}
\newlabel{group__fold__compound_a965dbb42f2e13cace5aa3bbab4396530}{{15.53.2.1.1.9}{348}{\texorpdfstring {sc}{sc}}{subparagraph.15.53.2.1.1.9}{}}
\@writefile{toc}{\contentsline {subparagraph}{\numberline {15.53.2.1.1.10}sequences}{348}{subparagraph.15.53.2.1.1.10}}
\newlabel{group__fold__compound_a614702ab74478e786272be44f8cebfe3}{{15.53.2.1.1.10}{348}{\texorpdfstring {sequences}{sequences}}{subparagraph.15.53.2.1.1.10}{}}
\@writefile{toc}{\contentsline {subparagraph}{\numberline {15.53.2.1.1.11}n\discretionary {\unhbox \voidb@x \hbox {\relax \fontsize  {7}{8}\selectfont  $\DOTSB \leftarrow \joinrel  \rhook $}}{}{}\_\discretionary {\unhbox \voidb@x \hbox {\relax \fontsize  {7}{8}\selectfont  $\DOTSB \leftarrow \joinrel  \rhook $}}{}{}seq}{348}{subparagraph.15.53.2.1.1.11}}
\newlabel{group__fold__compound_ac472afde64d8b3c8b84e4809fda7d814}{{15.53.2.1.1.11}{348}{\texorpdfstring {n\+\_\+seq}{n\_seq}}{subparagraph.15.53.2.1.1.11}{}}
\@writefile{toc}{\contentsline {subparagraph}{\numberline {15.53.2.1.1.12}cons\discretionary {\unhbox \voidb@x \hbox {\relax \fontsize  {7}{8}\selectfont  $\DOTSB \leftarrow \joinrel  \rhook $}}{}{}\_\discretionary {\unhbox \voidb@x \hbox {\relax \fontsize  {7}{8}\selectfont  $\DOTSB \leftarrow \joinrel  \rhook $}}{}{}seq}{349}{subparagraph.15.53.2.1.1.12}}
\newlabel{group__fold__compound_aa3fab7ae38ebfed2028375221d295686}{{15.53.2.1.1.12}{349}{\texorpdfstring {cons\+\_\+seq}{cons\_seq}}{subparagraph.15.53.2.1.1.12}{}}
\@writefile{toc}{\contentsline {subparagraph}{\numberline {15.53.2.1.1.13}S\discretionary {\unhbox \voidb@x \hbox {\relax \fontsize  {7}{8}\selectfont  $\DOTSB \leftarrow \joinrel  \rhook $}}{}{}\_\discretionary {\unhbox \voidb@x \hbox {\relax \fontsize  {7}{8}\selectfont  $\DOTSB \leftarrow \joinrel  \rhook $}}{}{}cons}{349}{subparagraph.15.53.2.1.1.13}}
\newlabel{group__fold__compound_aebb37297f92c7bd22aac6343f8f61d61}{{15.53.2.1.1.13}{349}{\texorpdfstring {S\+\_\+cons}{S\_cons}}{subparagraph.15.53.2.1.1.13}{}}
\@writefile{toc}{\contentsline {subparagraph}{\numberline {15.53.2.1.1.14}S}{349}{subparagraph.15.53.2.1.1.14}}
\newlabel{group__fold__compound_a78d089b475e2230bd536b9a6ed8bb17c}{{15.53.2.1.1.14}{349}{\texorpdfstring {S}{S}}{subparagraph.15.53.2.1.1.14}{}}
\@writefile{toc}{\contentsline {subparagraph}{\numberline {15.53.2.1.1.15}S5}{349}{subparagraph.15.53.2.1.1.15}}
\newlabel{group__fold__compound_af6ab2a25b84d2308ee23f6b11b5fd52d}{{15.53.2.1.1.15}{349}{\texorpdfstring {S5}{S5}}{subparagraph.15.53.2.1.1.15}{}}
\@writefile{toc}{\contentsline {subparagraph}{\numberline {15.53.2.1.1.16}S3}{350}{subparagraph.15.53.2.1.1.16}}
\newlabel{group__fold__compound_a14dc7755af6019ddbd0cf94b209e89dd}{{15.53.2.1.1.16}{350}{\texorpdfstring {S3}{S3}}{subparagraph.15.53.2.1.1.16}{}}
\@writefile{toc}{\contentsline {subparagraph}{\numberline {15.53.2.1.1.17}pscore}{350}{subparagraph.15.53.2.1.1.17}}
\newlabel{group__fold__compound_abf5e82d14649b6179ae60ed7da6e4fc0}{{15.53.2.1.1.17}{350}{\texorpdfstring {pscore}{pscore}}{subparagraph.15.53.2.1.1.17}{}}
\@writefile{toc}{\contentsline {subparagraph}{\numberline {15.53.2.1.1.18}pscore\discretionary {\unhbox \voidb@x \hbox {\relax \fontsize  {7}{8}\selectfont  $\DOTSB \leftarrow \joinrel  \rhook $}}{}{}\_\discretionary {\unhbox \voidb@x \hbox {\relax \fontsize  {7}{8}\selectfont  $\DOTSB \leftarrow \joinrel  \rhook $}}{}{}pf\discretionary {\unhbox \voidb@x \hbox {\relax \fontsize  {7}{8}\selectfont  $\DOTSB \leftarrow \joinrel  \rhook $}}{}{}\_\discretionary {\unhbox \voidb@x \hbox {\relax \fontsize  {7}{8}\selectfont  $\DOTSB \leftarrow \joinrel  \rhook $}}{}{}compat}{350}{subparagraph.15.53.2.1.1.18}}
\newlabel{group__fold__compound_ac2b047fddabc51a76a96511174e47db1}{{15.53.2.1.1.18}{350}{\texorpdfstring {pscore\+\_\+pf\+\_\+compat}{pscore\_pf\_compat}}{subparagraph.15.53.2.1.1.18}{}}
\@writefile{toc}{\contentsline {subparagraph}{\numberline {15.53.2.1.1.19}scs}{350}{subparagraph.15.53.2.1.1.19}}
\@writefile{toc}{\contentsline {subsection}{\numberline {15.53.3}Macro Definition Documentation}{351}{subsection.15.53.3}}
\newlabel{group__fold__compound_ga1a5053dc8acbb0111e852988726f07d6}{{15.53.3}{351}{Macro Definition Documentation}{subsection.15.53.3}{}}
\@writefile{toc}{\contentsline {subsubsection}{\numberline {15.53.3.1}V\discretionary {\unhbox \voidb@x \hbox {\relax \fontsize  {7}{8}\selectfont  $\DOTSB \leftarrow \joinrel  \rhook $}}{}{}R\discretionary {\unhbox \voidb@x \hbox {\relax \fontsize  {7}{8}\selectfont  $\DOTSB \leftarrow \joinrel  \rhook $}}{}{}N\discretionary {\unhbox \voidb@x \hbox {\relax \fontsize  {7}{8}\selectfont  $\DOTSB \leftarrow \joinrel  \rhook $}}{}{}A\discretionary {\unhbox \voidb@x \hbox {\relax \fontsize  {7}{8}\selectfont  $\DOTSB \leftarrow \joinrel  \rhook $}}{}{}\_\discretionary {\unhbox \voidb@x \hbox {\relax \fontsize  {7}{8}\selectfont  $\DOTSB \leftarrow \joinrel  \rhook $}}{}{}\discretionary {\unhbox \voidb@x \hbox {\relax \fontsize  {7}{8}\selectfont  $\DOTSB \leftarrow \joinrel  \rhook $}}{}{}S\discretionary {\unhbox \voidb@x \hbox {\relax \fontsize  {7}{8}\selectfont  $\DOTSB \leftarrow \joinrel  \rhook $}}{}{}T\discretionary {\unhbox \voidb@x \hbox {\relax \fontsize  {7}{8}\selectfont  $\DOTSB \leftarrow \joinrel  \rhook $}}{}{}A\discretionary {\unhbox \voidb@x \hbox {\relax \fontsize  {7}{8}\selectfont  $\DOTSB \leftarrow \joinrel  \rhook $}}{}{}T\discretionary {\unhbox \voidb@x \hbox {\relax \fontsize  {7}{8}\selectfont  $\DOTSB \leftarrow \joinrel  \rhook $}}{}{}U\discretionary {\unhbox \voidb@x \hbox {\relax \fontsize  {7}{8}\selectfont  $\DOTSB \leftarrow \joinrel  \rhook $}}{}{}S\discretionary {\unhbox \voidb@x \hbox {\relax \fontsize  {7}{8}\selectfont  $\DOTSB \leftarrow \joinrel  \rhook $}}{}{}\_\discretionary {\unhbox \voidb@x \hbox {\relax \fontsize  {7}{8}\selectfont  $\DOTSB \leftarrow \joinrel  \rhook $}}{}{}\discretionary {\unhbox \voidb@x \hbox {\relax \fontsize  {7}{8}\selectfont  $\DOTSB \leftarrow \joinrel  \rhook $}}{}{}M\discretionary {\unhbox \voidb@x \hbox {\relax \fontsize  {7}{8}\selectfont  $\DOTSB \leftarrow \joinrel  \rhook $}}{}{}F\discretionary {\unhbox \voidb@x \hbox {\relax \fontsize  {7}{8}\selectfont  $\DOTSB \leftarrow \joinrel  \rhook $}}{}{}E\discretionary {\unhbox \voidb@x \hbox {\relax \fontsize  {7}{8}\selectfont  $\DOTSB \leftarrow \joinrel  \rhook $}}{}{}\_\discretionary {\unhbox \voidb@x \hbox {\relax \fontsize  {7}{8}\selectfont  $\DOTSB \leftarrow \joinrel  \rhook $}}{}{}\discretionary {\unhbox \voidb@x \hbox {\relax \fontsize  {7}{8}\selectfont  $\DOTSB \leftarrow \joinrel  \rhook $}}{}{}P\discretionary {\unhbox \voidb@x \hbox {\relax \fontsize  {7}{8}\selectfont  $\DOTSB \leftarrow \joinrel  \rhook $}}{}{}RE}{351}{subsubsection.15.53.3.1}}
\newlabel{group__fold__compound_ga47c900ca76e56e59e2e83a06e0bde641}{{15.53.3.1}{351}{\texorpdfstring {V\+R\+N\+A\+\_\+\+S\+T\+A\+T\+U\+S\+\_\+\+M\+F\+E\+\_\+\+P\+RE}{VRNA\_STATUS\_MFE\_PRE}}{subsubsection.15.53.3.1}{}}
\@writefile{toc}{\contentsline {subsubsection}{\numberline {15.53.3.2}V\discretionary {\unhbox \voidb@x \hbox {\relax \fontsize  {7}{8}\selectfont  $\DOTSB \leftarrow \joinrel  \rhook $}}{}{}R\discretionary {\unhbox \voidb@x \hbox {\relax \fontsize  {7}{8}\selectfont  $\DOTSB \leftarrow \joinrel  \rhook $}}{}{}N\discretionary {\unhbox \voidb@x \hbox {\relax \fontsize  {7}{8}\selectfont  $\DOTSB \leftarrow \joinrel  \rhook $}}{}{}A\discretionary {\unhbox \voidb@x \hbox {\relax \fontsize  {7}{8}\selectfont  $\DOTSB \leftarrow \joinrel  \rhook $}}{}{}\_\discretionary {\unhbox \voidb@x \hbox {\relax \fontsize  {7}{8}\selectfont  $\DOTSB \leftarrow \joinrel  \rhook $}}{}{}\discretionary {\unhbox \voidb@x \hbox {\relax \fontsize  {7}{8}\selectfont  $\DOTSB \leftarrow \joinrel  \rhook $}}{}{}S\discretionary {\unhbox \voidb@x \hbox {\relax \fontsize  {7}{8}\selectfont  $\DOTSB \leftarrow \joinrel  \rhook $}}{}{}T\discretionary {\unhbox \voidb@x \hbox {\relax \fontsize  {7}{8}\selectfont  $\DOTSB \leftarrow \joinrel  \rhook $}}{}{}A\discretionary {\unhbox \voidb@x \hbox {\relax \fontsize  {7}{8}\selectfont  $\DOTSB \leftarrow \joinrel  \rhook $}}{}{}T\discretionary {\unhbox \voidb@x \hbox {\relax \fontsize  {7}{8}\selectfont  $\DOTSB \leftarrow \joinrel  \rhook $}}{}{}U\discretionary {\unhbox \voidb@x \hbox {\relax \fontsize  {7}{8}\selectfont  $\DOTSB \leftarrow \joinrel  \rhook $}}{}{}S\discretionary {\unhbox \voidb@x \hbox {\relax \fontsize  {7}{8}\selectfont  $\DOTSB \leftarrow \joinrel  \rhook $}}{}{}\_\discretionary {\unhbox \voidb@x \hbox {\relax \fontsize  {7}{8}\selectfont  $\DOTSB \leftarrow \joinrel  \rhook $}}{}{}\discretionary {\unhbox \voidb@x \hbox {\relax \fontsize  {7}{8}\selectfont  $\DOTSB \leftarrow \joinrel  \rhook $}}{}{}M\discretionary {\unhbox \voidb@x \hbox {\relax \fontsize  {7}{8}\selectfont  $\DOTSB \leftarrow \joinrel  \rhook $}}{}{}F\discretionary {\unhbox \voidb@x \hbox {\relax \fontsize  {7}{8}\selectfont  $\DOTSB \leftarrow \joinrel  \rhook $}}{}{}E\discretionary {\unhbox \voidb@x \hbox {\relax \fontsize  {7}{8}\selectfont  $\DOTSB \leftarrow \joinrel  \rhook $}}{}{}\_\discretionary {\unhbox \voidb@x \hbox {\relax \fontsize  {7}{8}\selectfont  $\DOTSB \leftarrow \joinrel  \rhook $}}{}{}\discretionary {\unhbox \voidb@x \hbox {\relax \fontsize  {7}{8}\selectfont  $\DOTSB \leftarrow \joinrel  \rhook $}}{}{}P\discretionary {\unhbox \voidb@x \hbox {\relax \fontsize  {7}{8}\selectfont  $\DOTSB \leftarrow \joinrel  \rhook $}}{}{}O\discretionary {\unhbox \voidb@x \hbox {\relax \fontsize  {7}{8}\selectfont  $\DOTSB \leftarrow \joinrel  \rhook $}}{}{}ST}{351}{subsubsection.15.53.3.2}}
\newlabel{group__fold__compound_ga91795d35ebdb6f32be50459f24b3d114}{{15.53.3.2}{351}{\texorpdfstring {V\+R\+N\+A\+\_\+\+S\+T\+A\+T\+U\+S\+\_\+\+M\+F\+E\+\_\+\+P\+O\+ST}{VRNA\_STATUS\_MFE\_POST}}{subsubsection.15.53.3.2}{}}
\@writefile{toc}{\contentsline {subsubsection}{\numberline {15.53.3.3}V\discretionary {\unhbox \voidb@x \hbox {\relax \fontsize  {7}{8}\selectfont  $\DOTSB \leftarrow \joinrel  \rhook $}}{}{}R\discretionary {\unhbox \voidb@x \hbox {\relax \fontsize  {7}{8}\selectfont  $\DOTSB \leftarrow \joinrel  \rhook $}}{}{}N\discretionary {\unhbox \voidb@x \hbox {\relax \fontsize  {7}{8}\selectfont  $\DOTSB \leftarrow \joinrel  \rhook $}}{}{}A\discretionary {\unhbox \voidb@x \hbox {\relax \fontsize  {7}{8}\selectfont  $\DOTSB \leftarrow \joinrel  \rhook $}}{}{}\_\discretionary {\unhbox \voidb@x \hbox {\relax \fontsize  {7}{8}\selectfont  $\DOTSB \leftarrow \joinrel  \rhook $}}{}{}\discretionary {\unhbox \voidb@x \hbox {\relax \fontsize  {7}{8}\selectfont  $\DOTSB \leftarrow \joinrel  \rhook $}}{}{}S\discretionary {\unhbox \voidb@x \hbox {\relax \fontsize  {7}{8}\selectfont  $\DOTSB \leftarrow \joinrel  \rhook $}}{}{}T\discretionary {\unhbox \voidb@x \hbox {\relax \fontsize  {7}{8}\selectfont  $\DOTSB \leftarrow \joinrel  \rhook $}}{}{}A\discretionary {\unhbox \voidb@x \hbox {\relax \fontsize  {7}{8}\selectfont  $\DOTSB \leftarrow \joinrel  \rhook $}}{}{}T\discretionary {\unhbox \voidb@x \hbox {\relax \fontsize  {7}{8}\selectfont  $\DOTSB \leftarrow \joinrel  \rhook $}}{}{}U\discretionary {\unhbox \voidb@x \hbox {\relax \fontsize  {7}{8}\selectfont  $\DOTSB \leftarrow \joinrel  \rhook $}}{}{}S\discretionary {\unhbox \voidb@x \hbox {\relax \fontsize  {7}{8}\selectfont  $\DOTSB \leftarrow \joinrel  \rhook $}}{}{}\_\discretionary {\unhbox \voidb@x \hbox {\relax \fontsize  {7}{8}\selectfont  $\DOTSB \leftarrow \joinrel  \rhook $}}{}{}\discretionary {\unhbox \voidb@x \hbox {\relax \fontsize  {7}{8}\selectfont  $\DOTSB \leftarrow \joinrel  \rhook $}}{}{}P\discretionary {\unhbox \voidb@x \hbox {\relax \fontsize  {7}{8}\selectfont  $\DOTSB \leftarrow \joinrel  \rhook $}}{}{}F\discretionary {\unhbox \voidb@x \hbox {\relax \fontsize  {7}{8}\selectfont  $\DOTSB \leftarrow \joinrel  \rhook $}}{}{}\_\discretionary {\unhbox \voidb@x \hbox {\relax \fontsize  {7}{8}\selectfont  $\DOTSB \leftarrow \joinrel  \rhook $}}{}{}\discretionary {\unhbox \voidb@x \hbox {\relax \fontsize  {7}{8}\selectfont  $\DOTSB \leftarrow \joinrel  \rhook $}}{}{}P\discretionary {\unhbox \voidb@x \hbox {\relax \fontsize  {7}{8}\selectfont  $\DOTSB \leftarrow \joinrel  \rhook $}}{}{}RE}{351}{subsubsection.15.53.3.3}}
\newlabel{group__fold__compound_ga1c6fa243533fd026e50f7d595eaaa565}{{15.53.3.3}{351}{\texorpdfstring {V\+R\+N\+A\+\_\+\+S\+T\+A\+T\+U\+S\+\_\+\+P\+F\+\_\+\+P\+RE}{VRNA\_STATUS\_PF\_PRE}}{subsubsection.15.53.3.3}{}}
\@writefile{toc}{\contentsline {subsubsection}{\numberline {15.53.3.4}V\discretionary {\unhbox \voidb@x \hbox {\relax \fontsize  {7}{8}\selectfont  $\DOTSB \leftarrow \joinrel  \rhook $}}{}{}R\discretionary {\unhbox \voidb@x \hbox {\relax \fontsize  {7}{8}\selectfont  $\DOTSB \leftarrow \joinrel  \rhook $}}{}{}N\discretionary {\unhbox \voidb@x \hbox {\relax \fontsize  {7}{8}\selectfont  $\DOTSB \leftarrow \joinrel  \rhook $}}{}{}A\discretionary {\unhbox \voidb@x \hbox {\relax \fontsize  {7}{8}\selectfont  $\DOTSB \leftarrow \joinrel  \rhook $}}{}{}\_\discretionary {\unhbox \voidb@x \hbox {\relax \fontsize  {7}{8}\selectfont  $\DOTSB \leftarrow \joinrel  \rhook $}}{}{}\discretionary {\unhbox \voidb@x \hbox {\relax \fontsize  {7}{8}\selectfont  $\DOTSB \leftarrow \joinrel  \rhook $}}{}{}S\discretionary {\unhbox \voidb@x \hbox {\relax \fontsize  {7}{8}\selectfont  $\DOTSB \leftarrow \joinrel  \rhook $}}{}{}T\discretionary {\unhbox \voidb@x \hbox {\relax \fontsize  {7}{8}\selectfont  $\DOTSB \leftarrow \joinrel  \rhook $}}{}{}A\discretionary {\unhbox \voidb@x \hbox {\relax \fontsize  {7}{8}\selectfont  $\DOTSB \leftarrow \joinrel  \rhook $}}{}{}T\discretionary {\unhbox \voidb@x \hbox {\relax \fontsize  {7}{8}\selectfont  $\DOTSB \leftarrow \joinrel  \rhook $}}{}{}U\discretionary {\unhbox \voidb@x \hbox {\relax \fontsize  {7}{8}\selectfont  $\DOTSB \leftarrow \joinrel  \rhook $}}{}{}S\discretionary {\unhbox \voidb@x \hbox {\relax \fontsize  {7}{8}\selectfont  $\DOTSB \leftarrow \joinrel  \rhook $}}{}{}\_\discretionary {\unhbox \voidb@x \hbox {\relax \fontsize  {7}{8}\selectfont  $\DOTSB \leftarrow \joinrel  \rhook $}}{}{}\discretionary {\unhbox \voidb@x \hbox {\relax \fontsize  {7}{8}\selectfont  $\DOTSB \leftarrow \joinrel  \rhook $}}{}{}P\discretionary {\unhbox \voidb@x \hbox {\relax \fontsize  {7}{8}\selectfont  $\DOTSB \leftarrow \joinrel  \rhook $}}{}{}F\discretionary {\unhbox \voidb@x \hbox {\relax \fontsize  {7}{8}\selectfont  $\DOTSB \leftarrow \joinrel  \rhook $}}{}{}\_\discretionary {\unhbox \voidb@x \hbox {\relax \fontsize  {7}{8}\selectfont  $\DOTSB \leftarrow \joinrel  \rhook $}}{}{}\discretionary {\unhbox \voidb@x \hbox {\relax \fontsize  {7}{8}\selectfont  $\DOTSB \leftarrow \joinrel  \rhook $}}{}{}P\discretionary {\unhbox \voidb@x \hbox {\relax \fontsize  {7}{8}\selectfont  $\DOTSB \leftarrow \joinrel  \rhook $}}{}{}O\discretionary {\unhbox \voidb@x \hbox {\relax \fontsize  {7}{8}\selectfont  $\DOTSB \leftarrow \joinrel  \rhook $}}{}{}ST}{351}{subsubsection.15.53.3.4}}
\newlabel{group__fold__compound_gae63be9127fe7dcc1f9bb14f5bb1064ee}{{15.53.3.4}{351}{\texorpdfstring {V\+R\+N\+A\+\_\+\+S\+T\+A\+T\+U\+S\+\_\+\+P\+F\+\_\+\+P\+O\+ST}{VRNA\_STATUS\_PF\_POST}}{subsubsection.15.53.3.4}{}}
\@writefile{toc}{\contentsline {subsubsection}{\numberline {15.53.3.5}V\discretionary {\unhbox \voidb@x \hbox {\relax \fontsize  {7}{8}\selectfont  $\DOTSB \leftarrow \joinrel  \rhook $}}{}{}R\discretionary {\unhbox \voidb@x \hbox {\relax \fontsize  {7}{8}\selectfont  $\DOTSB \leftarrow \joinrel  \rhook $}}{}{}N\discretionary {\unhbox \voidb@x \hbox {\relax \fontsize  {7}{8}\selectfont  $\DOTSB \leftarrow \joinrel  \rhook $}}{}{}A\discretionary {\unhbox \voidb@x \hbox {\relax \fontsize  {7}{8}\selectfont  $\DOTSB \leftarrow \joinrel  \rhook $}}{}{}\_\discretionary {\unhbox \voidb@x \hbox {\relax \fontsize  {7}{8}\selectfont  $\DOTSB \leftarrow \joinrel  \rhook $}}{}{}\discretionary {\unhbox \voidb@x \hbox {\relax \fontsize  {7}{8}\selectfont  $\DOTSB \leftarrow \joinrel  \rhook $}}{}{}O\discretionary {\unhbox \voidb@x \hbox {\relax \fontsize  {7}{8}\selectfont  $\DOTSB \leftarrow \joinrel  \rhook $}}{}{}P\discretionary {\unhbox \voidb@x \hbox {\relax \fontsize  {7}{8}\selectfont  $\DOTSB \leftarrow \joinrel  \rhook $}}{}{}T\discretionary {\unhbox \voidb@x \hbox {\relax \fontsize  {7}{8}\selectfont  $\DOTSB \leftarrow \joinrel  \rhook $}}{}{}I\discretionary {\unhbox \voidb@x \hbox {\relax \fontsize  {7}{8}\selectfont  $\DOTSB \leftarrow \joinrel  \rhook $}}{}{}O\discretionary {\unhbox \voidb@x \hbox {\relax \fontsize  {7}{8}\selectfont  $\DOTSB \leftarrow \joinrel  \rhook $}}{}{}N\discretionary {\unhbox \voidb@x \hbox {\relax \fontsize  {7}{8}\selectfont  $\DOTSB \leftarrow \joinrel  \rhook $}}{}{}\_\discretionary {\unhbox \voidb@x \hbox {\relax \fontsize  {7}{8}\selectfont  $\DOTSB \leftarrow \joinrel  \rhook $}}{}{}\discretionary {\unhbox \voidb@x \hbox {\relax \fontsize  {7}{8}\selectfont  $\DOTSB \leftarrow \joinrel  \rhook $}}{}{}M\discretionary {\unhbox \voidb@x \hbox {\relax \fontsize  {7}{8}\selectfont  $\DOTSB \leftarrow \joinrel  \rhook $}}{}{}FE}{352}{subsubsection.15.53.3.5}}
\newlabel{group__fold__compound_gabfbadcddda3e74ce7f49035ef8f058f7}{{15.53.3.5}{352}{\texorpdfstring {V\+R\+N\+A\+\_\+\+O\+P\+T\+I\+O\+N\+\_\+\+M\+FE}{VRNA\_OPTION\_MFE}}{subsubsection.15.53.3.5}{}}
\@writefile{toc}{\contentsline {subsubsection}{\numberline {15.53.3.6}V\discretionary {\unhbox \voidb@x \hbox {\relax \fontsize  {7}{8}\selectfont  $\DOTSB \leftarrow \joinrel  \rhook $}}{}{}R\discretionary {\unhbox \voidb@x \hbox {\relax \fontsize  {7}{8}\selectfont  $\DOTSB \leftarrow \joinrel  \rhook $}}{}{}N\discretionary {\unhbox \voidb@x \hbox {\relax \fontsize  {7}{8}\selectfont  $\DOTSB \leftarrow \joinrel  \rhook $}}{}{}A\discretionary {\unhbox \voidb@x \hbox {\relax \fontsize  {7}{8}\selectfont  $\DOTSB \leftarrow \joinrel  \rhook $}}{}{}\_\discretionary {\unhbox \voidb@x \hbox {\relax \fontsize  {7}{8}\selectfont  $\DOTSB \leftarrow \joinrel  \rhook $}}{}{}\discretionary {\unhbox \voidb@x \hbox {\relax \fontsize  {7}{8}\selectfont  $\DOTSB \leftarrow \joinrel  \rhook $}}{}{}O\discretionary {\unhbox \voidb@x \hbox {\relax \fontsize  {7}{8}\selectfont  $\DOTSB \leftarrow \joinrel  \rhook $}}{}{}P\discretionary {\unhbox \voidb@x \hbox {\relax \fontsize  {7}{8}\selectfont  $\DOTSB \leftarrow \joinrel  \rhook $}}{}{}T\discretionary {\unhbox \voidb@x \hbox {\relax \fontsize  {7}{8}\selectfont  $\DOTSB \leftarrow \joinrel  \rhook $}}{}{}I\discretionary {\unhbox \voidb@x \hbox {\relax \fontsize  {7}{8}\selectfont  $\DOTSB \leftarrow \joinrel  \rhook $}}{}{}O\discretionary {\unhbox \voidb@x \hbox {\relax \fontsize  {7}{8}\selectfont  $\DOTSB \leftarrow \joinrel  \rhook $}}{}{}N\discretionary {\unhbox \voidb@x \hbox {\relax \fontsize  {7}{8}\selectfont  $\DOTSB \leftarrow \joinrel  \rhook $}}{}{}\_\discretionary {\unhbox \voidb@x \hbox {\relax \fontsize  {7}{8}\selectfont  $\DOTSB \leftarrow \joinrel  \rhook $}}{}{}\discretionary {\unhbox \voidb@x \hbox {\relax \fontsize  {7}{8}\selectfont  $\DOTSB \leftarrow \joinrel  \rhook $}}{}{}PF}{352}{subsubsection.15.53.3.6}}
\newlabel{group__fold__compound_ga61469c423131552c8483229f8b6c7e0e}{{15.53.3.6}{352}{\texorpdfstring {V\+R\+N\+A\+\_\+\+O\+P\+T\+I\+O\+N\+\_\+\+PF}{VRNA\_OPTION\_PF}}{subsubsection.15.53.3.6}{}}
\@writefile{toc}{\contentsline {subsubsection}{\numberline {15.53.3.7}V\discretionary {\unhbox \voidb@x \hbox {\relax \fontsize  {7}{8}\selectfont  $\DOTSB \leftarrow \joinrel  \rhook $}}{}{}R\discretionary {\unhbox \voidb@x \hbox {\relax \fontsize  {7}{8}\selectfont  $\DOTSB \leftarrow \joinrel  \rhook $}}{}{}N\discretionary {\unhbox \voidb@x \hbox {\relax \fontsize  {7}{8}\selectfont  $\DOTSB \leftarrow \joinrel  \rhook $}}{}{}A\discretionary {\unhbox \voidb@x \hbox {\relax \fontsize  {7}{8}\selectfont  $\DOTSB \leftarrow \joinrel  \rhook $}}{}{}\_\discretionary {\unhbox \voidb@x \hbox {\relax \fontsize  {7}{8}\selectfont  $\DOTSB \leftarrow \joinrel  \rhook $}}{}{}\discretionary {\unhbox \voidb@x \hbox {\relax \fontsize  {7}{8}\selectfont  $\DOTSB \leftarrow \joinrel  \rhook $}}{}{}O\discretionary {\unhbox \voidb@x \hbox {\relax \fontsize  {7}{8}\selectfont  $\DOTSB \leftarrow \joinrel  \rhook $}}{}{}P\discretionary {\unhbox \voidb@x \hbox {\relax \fontsize  {7}{8}\selectfont  $\DOTSB \leftarrow \joinrel  \rhook $}}{}{}T\discretionary {\unhbox \voidb@x \hbox {\relax \fontsize  {7}{8}\selectfont  $\DOTSB \leftarrow \joinrel  \rhook $}}{}{}I\discretionary {\unhbox \voidb@x \hbox {\relax \fontsize  {7}{8}\selectfont  $\DOTSB \leftarrow \joinrel  \rhook $}}{}{}O\discretionary {\unhbox \voidb@x \hbox {\relax \fontsize  {7}{8}\selectfont  $\DOTSB \leftarrow \joinrel  \rhook $}}{}{}N\discretionary {\unhbox \voidb@x \hbox {\relax \fontsize  {7}{8}\selectfont  $\DOTSB \leftarrow \joinrel  \rhook $}}{}{}\_\discretionary {\unhbox \voidb@x \hbox {\relax \fontsize  {7}{8}\selectfont  $\DOTSB \leftarrow \joinrel  \rhook $}}{}{}\discretionary {\unhbox \voidb@x \hbox {\relax \fontsize  {7}{8}\selectfont  $\DOTSB \leftarrow \joinrel  \rhook $}}{}{}E\discretionary {\unhbox \voidb@x \hbox {\relax \fontsize  {7}{8}\selectfont  $\DOTSB \leftarrow \joinrel  \rhook $}}{}{}V\discretionary {\unhbox \voidb@x \hbox {\relax \fontsize  {7}{8}\selectfont  $\DOTSB \leftarrow \joinrel  \rhook $}}{}{}A\discretionary {\unhbox \voidb@x \hbox {\relax \fontsize  {7}{8}\selectfont  $\DOTSB \leftarrow \joinrel  \rhook $}}{}{}L\discretionary {\unhbox \voidb@x \hbox {\relax \fontsize  {7}{8}\selectfont  $\DOTSB \leftarrow \joinrel  \rhook $}}{}{}\_\discretionary {\unhbox \voidb@x \hbox {\relax \fontsize  {7}{8}\selectfont  $\DOTSB \leftarrow \joinrel  \rhook $}}{}{}\discretionary {\unhbox \voidb@x \hbox {\relax \fontsize  {7}{8}\selectfont  $\DOTSB \leftarrow \joinrel  \rhook $}}{}{}O\discretionary {\unhbox \voidb@x \hbox {\relax \fontsize  {7}{8}\selectfont  $\DOTSB \leftarrow \joinrel  \rhook $}}{}{}N\discretionary {\unhbox \voidb@x \hbox {\relax \fontsize  {7}{8}\selectfont  $\DOTSB \leftarrow \joinrel  \rhook $}}{}{}LY}{352}{subsubsection.15.53.3.7}}
\@writefile{toc}{\contentsline {subsection}{\numberline {15.53.4}Typedef Documentation}{352}{subsection.15.53.4}}
\newlabel{group__fold__compound_ga3ae51bfd5fc3236652d1de4e3274b49b}{{15.53.4}{352}{Typedef Documentation}{subsection.15.53.4}{}}
\@writefile{toc}{\contentsline {subsubsection}{\numberline {15.53.4.1}vrna\discretionary {\unhbox \voidb@x \hbox {\relax \fontsize  {7}{8}\selectfont  $\DOTSB \leftarrow \joinrel  \rhook $}}{}{}\_\discretionary {\unhbox \voidb@x \hbox {\relax \fontsize  {7}{8}\selectfont  $\DOTSB \leftarrow \joinrel  \rhook $}}{}{}callback\discretionary {\unhbox \voidb@x \hbox {\relax \fontsize  {7}{8}\selectfont  $\DOTSB \leftarrow \joinrel  \rhook $}}{}{}\_\discretionary {\unhbox \voidb@x \hbox {\relax \fontsize  {7}{8}\selectfont  $\DOTSB \leftarrow \joinrel  \rhook $}}{}{}free\discretionary {\unhbox \voidb@x \hbox {\relax \fontsize  {7}{8}\selectfont  $\DOTSB \leftarrow \joinrel  \rhook $}}{}{}\_\discretionary {\unhbox \voidb@x \hbox {\relax \fontsize  {7}{8}\selectfont  $\DOTSB \leftarrow \joinrel  \rhook $}}{}{}auxdata}{352}{subsubsection.15.53.4.1}}
\gdef \LT@ccxv {\LT@entry 
    {3}{30.3136pt}\LT@entry 
    {3}{139.70197pt}}
\gdef \LT@ccxvi {\LT@entry 
    {3}{36.81152pt}\LT@entry 
    {3}{328.00574pt}}
\gdef \LT@ccxvii {\LT@entry 
    {3}{156.32956pt}\LT@entry 
    {3}{304.61536pt}}
\newlabel{group__fold__compound_ga4a4a0d838de6d18315bafc84f93f5cc0}{{15.53.4.1}{353}{\texorpdfstring {vrna\+\_\+callback\+\_\+free\+\_\+auxdata}{vrna\_callback\_free\_auxdata}}{table.15.214}{}}
\@writefile{toc}{\contentsline {subsubsection}{\numberline {15.53.4.2}vrna\discretionary {\unhbox \voidb@x \hbox {\relax \fontsize  {7}{8}\selectfont  $\DOTSB \leftarrow \joinrel  \rhook $}}{}{}\_\discretionary {\unhbox \voidb@x \hbox {\relax \fontsize  {7}{8}\selectfont  $\DOTSB \leftarrow \joinrel  \rhook $}}{}{}callback\discretionary {\unhbox \voidb@x \hbox {\relax \fontsize  {7}{8}\selectfont  $\DOTSB \leftarrow \joinrel  \rhook $}}{}{}\_\discretionary {\unhbox \voidb@x \hbox {\relax \fontsize  {7}{8}\selectfont  $\DOTSB \leftarrow \joinrel  \rhook $}}{}{}recursion\discretionary {\unhbox \voidb@x \hbox {\relax \fontsize  {7}{8}\selectfont  $\DOTSB \leftarrow \joinrel  \rhook $}}{}{}\_\discretionary {\unhbox \voidb@x \hbox {\relax \fontsize  {7}{8}\selectfont  $\DOTSB \leftarrow \joinrel  \rhook $}}{}{}status}{353}{subsubsection.15.53.4.2}}
\@writefile{toc}{\contentsline {subsection}{\numberline {15.53.5}Enumeration Type Documentation}{353}{subsection.15.53.5}}
\newlabel{group__fold__compound_ga01a4ff86fa71deaaa5d1abbd95a1447d}{{15.53.5}{353}{Enumeration Type Documentation}{subsection.15.53.5}{}}
\@writefile{toc}{\contentsline {subsubsection}{\numberline {15.53.5.1}vrna\discretionary {\unhbox \voidb@x \hbox {\relax \fontsize  {7}{8}\selectfont  $\DOTSB \leftarrow \joinrel  \rhook $}}{}{}\_\discretionary {\unhbox \voidb@x \hbox {\relax \fontsize  {7}{8}\selectfont  $\DOTSB \leftarrow \joinrel  \rhook $}}{}{}fc\discretionary {\unhbox \voidb@x \hbox {\relax \fontsize  {7}{8}\selectfont  $\DOTSB \leftarrow \joinrel  \rhook $}}{}{}\_\discretionary {\unhbox \voidb@x \hbox {\relax \fontsize  {7}{8}\selectfont  $\DOTSB \leftarrow \joinrel  \rhook $}}{}{}type\discretionary {\unhbox \voidb@x \hbox {\relax \fontsize  {7}{8}\selectfont  $\DOTSB \leftarrow \joinrel  \rhook $}}{}{}\_\discretionary {\unhbox \voidb@x \hbox {\relax \fontsize  {7}{8}\selectfont  $\DOTSB \leftarrow \joinrel  \rhook $}}{}{}e}{353}{subsubsection.15.53.5.1}}
\newlabel{group__fold__compound_gga01a4ff86fa71deaaa5d1abbd95a1447da7e264dd3cf2dc9b6448caabcb7763cd6}{{15.216}{353}{\texorpdfstring {vrna\+\_\+fc\+\_\+type\+\_\+e}{vrna\_fc\_type\_e}}{table.15.216}{}}
\newlabel{group__fold__compound_gga01a4ff86fa71deaaa5d1abbd95a1447dab821ce46ea3cf665be97df22a76f5023}{{15.216}{353}{\texorpdfstring {vrna\+\_\+fc\+\_\+type\+\_\+e}{vrna\_fc\_type\_e}}{table.15.216}{}}
\@writefile{toc}{\contentsline {subsection}{\numberline {15.53.6}Function Documentation}{353}{subsection.15.53.6}}
\newlabel{group__fold__compound_ga6601d994ba32b11511b36f68b08403be}{{15.53.6}{353}{Function Documentation}{subsection.15.53.6}{}}
\@writefile{toc}{\contentsline {subsubsection}{\numberline {15.53.6.1}vrna\discretionary {\unhbox \voidb@x \hbox {\relax \fontsize  {7}{8}\selectfont  $\DOTSB \leftarrow \joinrel  \rhook $}}{}{}\_\discretionary {\unhbox \voidb@x \hbox {\relax \fontsize  {7}{8}\selectfont  $\DOTSB \leftarrow \joinrel  \rhook $}}{}{}fold\discretionary {\unhbox \voidb@x \hbox {\relax \fontsize  {7}{8}\selectfont  $\DOTSB \leftarrow \joinrel  \rhook $}}{}{}\_\discretionary {\unhbox \voidb@x \hbox {\relax \fontsize  {7}{8}\selectfont  $\DOTSB \leftarrow \joinrel  \rhook $}}{}{}compound()}{353}{subsubsection.15.53.6.1}}
\gdef \LT@ccxviii {\LT@entry 
    {3}{51.82336pt}\LT@entry 
    {3}{336.4205pt}}
\newlabel{group__fold__compound_gad6bacc816af274922b13d947f708aa0c}{{15.53.6.1}{354}{\texorpdfstring {vrna\+\_\+fold\+\_\+compound()}{vrna\_fold\_compound()}}{table.15.217}{}}
\gdef \LT@ccxix {\LT@entry 
    {3}{56.32333pt}\LT@entry 
    {3}{204.83414pt}}
\@writefile{toc}{\contentsline {subsubsection}{\numberline {15.53.6.2}vrna\discretionary {\unhbox \voidb@x \hbox {\relax \fontsize  {7}{8}\selectfont  $\DOTSB \leftarrow \joinrel  \rhook $}}{}{}\_\discretionary {\unhbox \voidb@x \hbox {\relax \fontsize  {7}{8}\selectfont  $\DOTSB \leftarrow \joinrel  \rhook $}}{}{}fold\discretionary {\unhbox \voidb@x \hbox {\relax \fontsize  {7}{8}\selectfont  $\DOTSB \leftarrow \joinrel  \rhook $}}{}{}\_\discretionary {\unhbox \voidb@x \hbox {\relax \fontsize  {7}{8}\selectfont  $\DOTSB \leftarrow \joinrel  \rhook $}}{}{}compound\discretionary {\unhbox \voidb@x \hbox {\relax \fontsize  {7}{8}\selectfont  $\DOTSB \leftarrow \joinrel  \rhook $}}{}{}\_\discretionary {\unhbox \voidb@x \hbox {\relax \fontsize  {7}{8}\selectfont  $\DOTSB \leftarrow \joinrel  \rhook $}}{}{}comparative()}{355}{subsubsection.15.53.6.2}}
\gdef \LT@ccxx {\LT@entry 
    {3}{21.79993pt}\LT@entry 
    {3}{256.63698pt}}
\gdef \LT@ccxxi {\LT@entry 
    {3}{30.3136pt}\LT@entry 
    {3}{353.75356pt}}
\newlabel{group__fold__compound_gadded6039d63f5d6509836e20321534ad}{{15.53.6.2}{356}{\texorpdfstring {vrna\+\_\+fold\+\_\+compound\+\_\+comparative()}{vrna\_fold\_compound\_comparative()}}{table.15.218}{}}
\@writefile{toc}{\contentsline {subsubsection}{\numberline {15.53.6.3}vrna\discretionary {\unhbox \voidb@x \hbox {\relax \fontsize  {7}{8}\selectfont  $\DOTSB \leftarrow \joinrel  \rhook $}}{}{}\_\discretionary {\unhbox \voidb@x \hbox {\relax \fontsize  {7}{8}\selectfont  $\DOTSB \leftarrow \joinrel  \rhook $}}{}{}fold\discretionary {\unhbox \voidb@x \hbox {\relax \fontsize  {7}{8}\selectfont  $\DOTSB \leftarrow \joinrel  \rhook $}}{}{}\_\discretionary {\unhbox \voidb@x \hbox {\relax \fontsize  {7}{8}\selectfont  $\DOTSB \leftarrow \joinrel  \rhook $}}{}{}compound\discretionary {\unhbox \voidb@x \hbox {\relax \fontsize  {7}{8}\selectfont  $\DOTSB \leftarrow \joinrel  \rhook $}}{}{}\_\discretionary {\unhbox \voidb@x \hbox {\relax \fontsize  {7}{8}\selectfont  $\DOTSB \leftarrow \joinrel  \rhook $}}{}{}free()}{356}{subsubsection.15.53.6.3}}
\newlabel{group__fold__compound_ga6316a9426bea2f742375e8df6febd3f6}{{15.53.6.3}{356}{\texorpdfstring {vrna\+\_\+fold\+\_\+compound\+\_\+free()}{vrna\_fold\_compound\_free()}}{table.15.219}{}}
\@writefile{toc}{\contentsline {subsubsection}{\numberline {15.53.6.4}vrna\discretionary {\unhbox \voidb@x \hbox {\relax \fontsize  {7}{8}\selectfont  $\DOTSB \leftarrow \joinrel  \rhook $}}{}{}\_\discretionary {\unhbox \voidb@x \hbox {\relax \fontsize  {7}{8}\selectfont  $\DOTSB \leftarrow \joinrel  \rhook $}}{}{}fold\discretionary {\unhbox \voidb@x \hbox {\relax \fontsize  {7}{8}\selectfont  $\DOTSB \leftarrow \joinrel  \rhook $}}{}{}\_\discretionary {\unhbox \voidb@x \hbox {\relax \fontsize  {7}{8}\selectfont  $\DOTSB \leftarrow \joinrel  \rhook $}}{}{}compound\discretionary {\unhbox \voidb@x \hbox {\relax \fontsize  {7}{8}\selectfont  $\DOTSB \leftarrow \joinrel  \rhook $}}{}{}\_\discretionary {\unhbox \voidb@x \hbox {\relax \fontsize  {7}{8}\selectfont  $\DOTSB \leftarrow \joinrel  \rhook $}}{}{}add\discretionary {\unhbox \voidb@x \hbox {\relax \fontsize  {7}{8}\selectfont  $\DOTSB \leftarrow \joinrel  \rhook $}}{}{}\_\discretionary {\unhbox \voidb@x \hbox {\relax \fontsize  {7}{8}\selectfont  $\DOTSB \leftarrow \joinrel  \rhook $}}{}{}auxdata()}{356}{subsubsection.15.53.6.4}}
\gdef \LT@ccxxii {\LT@entry 
    {3}{21.79993pt}\LT@entry 
    {3}{264.08888pt}}
\newlabel{group__fold__compound_ga097ed6133055624667cbce8cfdebf82d}{{15.53.6.4}{357}{\texorpdfstring {vrna\+\_\+fold\+\_\+compound\+\_\+add\+\_\+auxdata()}{vrna\_fold\_compound\_add\_auxdata()}}{table.15.220}{}}
\@writefile{toc}{\contentsline {subsubsection}{\numberline {15.53.6.5}vrna\discretionary {\unhbox \voidb@x \hbox {\relax \fontsize  {7}{8}\selectfont  $\DOTSB \leftarrow \joinrel  \rhook $}}{}{}\_\discretionary {\unhbox \voidb@x \hbox {\relax \fontsize  {7}{8}\selectfont  $\DOTSB \leftarrow \joinrel  \rhook $}}{}{}fold\discretionary {\unhbox \voidb@x \hbox {\relax \fontsize  {7}{8}\selectfont  $\DOTSB \leftarrow \joinrel  \rhook $}}{}{}\_\discretionary {\unhbox \voidb@x \hbox {\relax \fontsize  {7}{8}\selectfont  $\DOTSB \leftarrow \joinrel  \rhook $}}{}{}compound\discretionary {\unhbox \voidb@x \hbox {\relax \fontsize  {7}{8}\selectfont  $\DOTSB \leftarrow \joinrel  \rhook $}}{}{}\_\discretionary {\unhbox \voidb@x \hbox {\relax \fontsize  {7}{8}\selectfont  $\DOTSB \leftarrow \joinrel  \rhook $}}{}{}add\discretionary {\unhbox \voidb@x \hbox {\relax \fontsize  {7}{8}\selectfont  $\DOTSB \leftarrow \joinrel  \rhook $}}{}{}\_\discretionary {\unhbox \voidb@x \hbox {\relax \fontsize  {7}{8}\selectfont  $\DOTSB \leftarrow \joinrel  \rhook $}}{}{}callback()}{357}{subsubsection.15.53.6.5}}
\@setckpt{group__fold__compound}{
\setcounter{page}{358}
\setcounter{equation}{0}
\setcounter{enumi}{2}
\setcounter{enumii}{0}
\setcounter{enumiii}{0}
\setcounter{enumiv}{0}
\setcounter{footnote}{0}
\setcounter{mpfootnote}{0}
\setcounter{part}{0}
\setcounter{chapter}{15}
\setcounter{section}{53}
\setcounter{subsection}{6}
\setcounter{subsubsection}{5}
\setcounter{paragraph}{0}
\setcounter{subparagraph}{0}
\setcounter{figure}{0}
\setcounter{table}{221}
\setcounter{float@type}{4}
\setcounter{LT@tables}{222}
\setcounter{LT@chunks}{3}
\setcounter{NAT@ctr}{0}
\setcounter{lofdepth}{1}
\setcounter{lotdepth}{1}
\setcounter{parentequation}{0}
\setcounter{Item}{12}
\setcounter{Hfootnote}{0}
\setcounter{bookmark@seq@number}{689}
\setcounter{ContinuedFloat}{0}
\setcounter{section@level}{3}
}
