\relax 
\providecommand\hyper@newdestlabel[2]{}
\@writefile{toc}{\contentsline {section}{\numberline {15.17}Structure sampling from the ensemble}{217}{section.15.17}}
\newlabel{group__subopt__stochbt}{{15.17}{217}{Structure sampling from the ensemble}{section.15.17}{}}
\@writefile{toc}{\contentsline {subsection}{\numberline {15.17.1}Detailed Description}{217}{subsection.15.17.1}}
\@writefile{toc}{\contentsline {subsection}{\numberline {15.17.2}Function Documentation}{217}{subsection.15.17.2}}
\newlabel{group__subopt__stochbt_ga5a3e11d3ce121b5b045cb57f86a8ed05}{{15.17.2}{217}{Function Documentation}{subsection.15.17.2}{}}
\@writefile{toc}{\contentsline {subsubsection}{\numberline {15.17.2.1}vrna\discretionary {\unhbox \voidb@x \hbox {\relax \fontsize  {7}{8}\selectfont  $\DOTSB \leftarrow \joinrel  \rhook $}}{}{}\_\discretionary {\unhbox \voidb@x \hbox {\relax \fontsize  {7}{8}\selectfont  $\DOTSB \leftarrow \joinrel  \rhook $}}{}{}pbacktrack5()}{217}{subsubsection.15.17.2.1}}
\gdef \LT@cxxvii {\LT@entry 
    {3}{37.31546pt}\LT@entry 
    {3}{266.1044pt}}
\gdef \LT@cxxviii {\LT@entry 
    {3}{21.79993pt}\LT@entry 
    {3}{146.83017pt}}
\newlabel{group__subopt__stochbt_ga0429de82e75af6c6e7508f4d273a192f}{{15.17.2.1}{218}{\texorpdfstring {vrna\+\_\+pbacktrack5()}{vrna\_pbacktrack5()}}{table.15.126}{}}
\@writefile{toc}{\contentsline {subsubsection}{\numberline {15.17.2.2}vrna\discretionary {\unhbox \voidb@x \hbox {\relax \fontsize  {7}{8}\selectfont  $\DOTSB \leftarrow \joinrel  \rhook $}}{}{}\_\discretionary {\unhbox \voidb@x \hbox {\relax \fontsize  {7}{8}\selectfont  $\DOTSB \leftarrow \joinrel  \rhook $}}{}{}pbacktrack()}{218}{subsubsection.15.17.2.2}}
\newlabel{group__subopt__stochbt_gac03ca6db186bb3bf0a2a326d7fb3ba03}{{15.17.2.2}{218}{\texorpdfstring {vrna\+\_\+pbacktrack()}{vrna\_pbacktrack()}}{table.15.127}{}}
\@writefile{toc}{\contentsline {subsubsection}{\numberline {15.17.2.3}pbacktrack()}{218}{subsubsection.15.17.2.3}}
\gdef \LT@cxxix {\LT@entry 
    {3}{51.82336pt}\LT@entry 
    {3}{90.93265pt}}
\gdef \LT@cxxx {\LT@entry 
    {3}{51.82336pt}\LT@entry 
    {3}{90.93265pt}}
\newlabel{group__subopt__stochbt_ga00474051204ac9ad576b3e45174d03ff}{{15.17.2.3}{219}{\texorpdfstring {pbacktrack()}{pbacktrack()}}{table.15.128}{}}
\@writefile{toc}{\contentsline {subsubsection}{\numberline {15.17.2.4}pbacktrack\discretionary {\unhbox \voidb@x \hbox {\relax \fontsize  {7}{8}\selectfont  $\DOTSB \leftarrow \joinrel  \rhook $}}{}{}\_\discretionary {\unhbox \voidb@x \hbox {\relax \fontsize  {7}{8}\selectfont  $\DOTSB \leftarrow \joinrel  \rhook $}}{}{}circ()}{219}{subsubsection.15.17.2.4}}
\@writefile{toc}{\contentsline {subsection}{\numberline {15.17.3}Variable Documentation}{219}{subsection.15.17.3}}
\newlabel{group__subopt__stochbt_gacd79b1a570e6ad9be24cb11fe8cae30a}{{15.17.3}{219}{Variable Documentation}{subsection.15.17.3}{}}
\@writefile{toc}{\contentsline {subsubsection}{\numberline {15.17.3.1}st\discretionary {\unhbox \voidb@x \hbox {\relax \fontsize  {7}{8}\selectfont  $\DOTSB \leftarrow \joinrel  \rhook $}}{}{}\_\discretionary {\unhbox \voidb@x \hbox {\relax \fontsize  {7}{8}\selectfont  $\DOTSB \leftarrow \joinrel  \rhook $}}{}{}back}{219}{subsubsection.15.17.3.1}}
\@setckpt{group__subopt__stochbt}{
\setcounter{page}{220}
\setcounter{equation}{0}
\setcounter{enumi}{2}
\setcounter{enumii}{0}
\setcounter{enumiii}{0}
\setcounter{enumiv}{0}
\setcounter{footnote}{0}
\setcounter{mpfootnote}{0}
\setcounter{part}{0}
\setcounter{chapter}{15}
\setcounter{section}{17}
\setcounter{subsection}{3}
\setcounter{subsubsection}{1}
\setcounter{paragraph}{0}
\setcounter{subparagraph}{0}
\setcounter{figure}{0}
\setcounter{table}{129}
\setcounter{float@type}{4}
\setcounter{LT@tables}{130}
\setcounter{LT@chunks}{3}
\setcounter{NAT@ctr}{0}
\setcounter{lofdepth}{1}
\setcounter{lotdepth}{1}
\setcounter{parentequation}{0}
\setcounter{Item}{12}
\setcounter{Hfootnote}{0}
\setcounter{bookmark@seq@number}{379}
\setcounter{ContinuedFloat}{0}
\setcounter{section@level}{3}
}
