\relax 
\providecommand\hyper@newdestlabel[2]{}
\@writefile{toc}{\contentsline {section}{\numberline {15.45}M\discretionary {\unhbox \voidb@x \hbox {\relax \fontsize  {7}{8}\selectfont  $\DOTSB \leftarrow \joinrel  \rhook $}}{}{}FE Structures of two hybridized Sequences}{311}{section.15.45}}
\newlabel{group__mfe__cofold}{{15.45}{311}{M\+FE Structures of two hybridized Sequences}{section.15.45}{}}
\@writefile{toc}{\contentsline {subsection}{\numberline {15.45.1}Detailed Description}{311}{subsection.15.45.1}}
\gdef \LT@cxcii {\LT@entry 
    {3}{51.82336pt}\LT@entry 
    {3}{417.70593pt}}
\@writefile{toc}{\contentsline {subsection}{\numberline {15.45.2}Function Documentation}{312}{subsection.15.45.2}}
\newlabel{group__mfe__cofold_ga9ef3a297201dbf838a8daff2b45c0c82}{{15.45.2}{312}{Function Documentation}{subsection.15.45.2}{}}
\@writefile{toc}{\contentsline {subsubsection}{\numberline {15.45.2.1}vrna\discretionary {\unhbox \voidb@x \hbox {\relax \fontsize  {7}{8}\selectfont  $\DOTSB \leftarrow \joinrel  \rhook $}}{}{}\_\discretionary {\unhbox \voidb@x \hbox {\relax \fontsize  {7}{8}\selectfont  $\DOTSB \leftarrow \joinrel  \rhook $}}{}{}cofold()}{312}{subsubsection.15.45.2.1}}
\newlabel{group__mfe__cofold_gabc8517f22cfe70595ee81fc837910d52}{{15.45.2.1}{312}{\texorpdfstring {vrna\+\_\+cofold()}{vrna\_cofold()}}{table.15.191}{}}
\@writefile{toc}{\contentsline {subsubsection}{\numberline {15.45.2.2}cofold()}{312}{subsubsection.15.45.2.2}}
\gdef \LT@cxciii {\LT@entry 
    {3}{51.82336pt}\LT@entry 
    {3}{234.25414pt}}
\newlabel{group__mfe__cofold_ga7612cfeeb1b793f1e4179b1eb53df1f3}{{15.45.2.2}{313}{\texorpdfstring {cofold()}{cofold()}}{table.15.192}{}}
\@writefile{toc}{\contentsline {subsubsection}{\numberline {15.45.2.3}cofold\discretionary {\unhbox \voidb@x \hbox {\relax \fontsize  {7}{8}\selectfont  $\DOTSB \leftarrow \joinrel  \rhook $}}{}{}\_\discretionary {\unhbox \voidb@x \hbox {\relax \fontsize  {7}{8}\selectfont  $\DOTSB \leftarrow \joinrel  \rhook $}}{}{}par()}{313}{subsubsection.15.45.2.3}}
\newlabel{group__mfe__cofold_gaafb33d7473eb9af9d1b168ca8761c41a}{{15.45.2.3}{313}{\texorpdfstring {cofold\+\_\+par()}{cofold\_par()}}{subsubsection.15.45.2.3}{}}
\@writefile{toc}{\contentsline {subsubsection}{\numberline {15.45.2.4}free\discretionary {\unhbox \voidb@x \hbox {\relax \fontsize  {7}{8}\selectfont  $\DOTSB \leftarrow \joinrel  \rhook $}}{}{}\_\discretionary {\unhbox \voidb@x \hbox {\relax \fontsize  {7}{8}\selectfont  $\DOTSB \leftarrow \joinrel  \rhook $}}{}{}co\discretionary {\unhbox \voidb@x \hbox {\relax \fontsize  {7}{8}\selectfont  $\DOTSB \leftarrow \joinrel  \rhook $}}{}{}\_\discretionary {\unhbox \voidb@x \hbox {\relax \fontsize  {7}{8}\selectfont  $\DOTSB \leftarrow \joinrel  \rhook $}}{}{}arrays()}{313}{subsubsection.15.45.2.4}}
\newlabel{group__mfe__cofold_ga4fcbf34e77b99bfbb2333d2ab0c41a57}{{15.45.2.4}{313}{\texorpdfstring {free\+\_\+co\+\_\+arrays()}{free\_co\_arrays()}}{subsubsection.15.45.2.4}{}}
\@writefile{toc}{\contentsline {subsubsection}{\numberline {15.45.2.5}update\discretionary {\unhbox \voidb@x \hbox {\relax \fontsize  {7}{8}\selectfont  $\DOTSB \leftarrow \joinrel  \rhook $}}{}{}\_\discretionary {\unhbox \voidb@x \hbox {\relax \fontsize  {7}{8}\selectfont  $\DOTSB \leftarrow \joinrel  \rhook $}}{}{}cofold\discretionary {\unhbox \voidb@x \hbox {\relax \fontsize  {7}{8}\selectfont  $\DOTSB \leftarrow \joinrel  \rhook $}}{}{}\_\discretionary {\unhbox \voidb@x \hbox {\relax \fontsize  {7}{8}\selectfont  $\DOTSB \leftarrow \joinrel  \rhook $}}{}{}params()}{314}{subsubsection.15.45.2.5}}
\newlabel{group__mfe__cofold_gaaadbd28b4e428710529ab4098fdacad3}{{15.45.2.5}{314}{\texorpdfstring {update\+\_\+cofold\+\_\+params()}{update\_cofold\_params()}}{subsubsection.15.45.2.5}{}}
\@writefile{toc}{\contentsline {subsubsection}{\numberline {15.45.2.6}update\discretionary {\unhbox \voidb@x \hbox {\relax \fontsize  {7}{8}\selectfont  $\DOTSB \leftarrow \joinrel  \rhook $}}{}{}\_\discretionary {\unhbox \voidb@x \hbox {\relax \fontsize  {7}{8}\selectfont  $\DOTSB \leftarrow \joinrel  \rhook $}}{}{}cofold\discretionary {\unhbox \voidb@x \hbox {\relax \fontsize  {7}{8}\selectfont  $\DOTSB \leftarrow \joinrel  \rhook $}}{}{}\_\discretionary {\unhbox \voidb@x \hbox {\relax \fontsize  {7}{8}\selectfont  $\DOTSB \leftarrow \joinrel  \rhook $}}{}{}params\discretionary {\unhbox \voidb@x \hbox {\relax \fontsize  {7}{8}\selectfont  $\DOTSB \leftarrow \joinrel  \rhook $}}{}{}\_\discretionary {\unhbox \voidb@x \hbox {\relax \fontsize  {7}{8}\selectfont  $\DOTSB \leftarrow \joinrel  \rhook $}}{}{}par()}{314}{subsubsection.15.45.2.6}}
\newlabel{group__mfe__cofold_ga5f5bf4df35d0554f6ace9579f8744c48}{{15.45.2.6}{314}{\texorpdfstring {update\+\_\+cofold\+\_\+params\+\_\+par()}{update\_cofold\_params\_par()}}{subsubsection.15.45.2.6}{}}
\@writefile{toc}{\contentsline {subsubsection}{\numberline {15.45.2.7}export\discretionary {\unhbox \voidb@x \hbox {\relax \fontsize  {7}{8}\selectfont  $\DOTSB \leftarrow \joinrel  \rhook $}}{}{}\_\discretionary {\unhbox \voidb@x \hbox {\relax \fontsize  {7}{8}\selectfont  $\DOTSB \leftarrow \joinrel  \rhook $}}{}{}cofold\discretionary {\unhbox \voidb@x \hbox {\relax \fontsize  {7}{8}\selectfont  $\DOTSB \leftarrow \joinrel  \rhook $}}{}{}\_\discretionary {\unhbox \voidb@x \hbox {\relax \fontsize  {7}{8}\selectfont  $\DOTSB \leftarrow \joinrel  \rhook $}}{}{}arrays\discretionary {\unhbox \voidb@x \hbox {\relax \fontsize  {7}{8}\selectfont  $\DOTSB \leftarrow \joinrel  \rhook $}}{}{}\_\discretionary {\unhbox \voidb@x \hbox {\relax \fontsize  {7}{8}\selectfont  $\DOTSB \leftarrow \joinrel  \rhook $}}{}{}gq()}{314}{subsubsection.15.45.2.7}}
\gdef \LT@cxciv {\LT@entry 
    {3}{44.82138pt}\LT@entry 
    {3}{410.42273pt}}
\gdef \LT@cxcv {\LT@entry 
    {3}{44.82138pt}\LT@entry 
    {3}{410.42273pt}}
\newlabel{group__mfe__cofold_ga5cb6b59983f1f74ccc00b9b9c4e84482}{{15.45.2.7}{315}{\texorpdfstring {export\+\_\+cofold\+\_\+arrays\+\_\+gq()}{export\_cofold\_arrays\_gq()}}{table.15.193}{}}
\@writefile{toc}{\contentsline {subsubsection}{\numberline {15.45.2.8}export\discretionary {\unhbox \voidb@x \hbox {\relax \fontsize  {7}{8}\selectfont  $\DOTSB \leftarrow \joinrel  \rhook $}}{}{}\_\discretionary {\unhbox \voidb@x \hbox {\relax \fontsize  {7}{8}\selectfont  $\DOTSB \leftarrow \joinrel  \rhook $}}{}{}cofold\discretionary {\unhbox \voidb@x \hbox {\relax \fontsize  {7}{8}\selectfont  $\DOTSB \leftarrow \joinrel  \rhook $}}{}{}\_\discretionary {\unhbox \voidb@x \hbox {\relax \fontsize  {7}{8}\selectfont  $\DOTSB \leftarrow \joinrel  \rhook $}}{}{}arrays()}{315}{subsubsection.15.45.2.8}}
\gdef \LT@cxcvi {\LT@entry 
    {3}{22.8078pt}\LT@entry 
    {3}{295.38046pt}}
\gdef \LT@cxcvii {\LT@entry 
    {3}{47.9442pt}\LT@entry 
    {3}{234.25414pt}}
\newlabel{group__mfe__cofold_ga4958b517c613e4d2afd5bce6c1060a79}{{15.45.2.8}{316}{\texorpdfstring {export\+\_\+cofold\+\_\+arrays()}{export\_cofold\_arrays()}}{table.15.194}{}}
\@writefile{toc}{\contentsline {subsubsection}{\numberline {15.45.2.9}get\discretionary {\unhbox \voidb@x \hbox {\relax \fontsize  {7}{8}\selectfont  $\DOTSB \leftarrow \joinrel  \rhook $}}{}{}\_\discretionary {\unhbox \voidb@x \hbox {\relax \fontsize  {7}{8}\selectfont  $\DOTSB \leftarrow \joinrel  \rhook $}}{}{}monomere\discretionary {\unhbox \voidb@x \hbox {\relax \fontsize  {7}{8}\selectfont  $\DOTSB \leftarrow \joinrel  \rhook $}}{}{}\_\discretionary {\unhbox \voidb@x \hbox {\relax \fontsize  {7}{8}\selectfont  $\DOTSB \leftarrow \joinrel  \rhook $}}{}{}mfes()}{316}{subsubsection.15.45.2.9}}
\newlabel{group__mfe__cofold_gafee0c32208aa2ac97338b6e3fbad7fa5}{{15.45.2.9}{316}{\texorpdfstring {get\+\_\+monomere\+\_\+mfes()}{get\_monomere\_mfes()}}{table.15.195}{}}
\@writefile{toc}{\contentsline {subsubsection}{\numberline {15.45.2.10}initialize\discretionary {\unhbox \voidb@x \hbox {\relax \fontsize  {7}{8}\selectfont  $\DOTSB \leftarrow \joinrel  \rhook $}}{}{}\_\discretionary {\unhbox \voidb@x \hbox {\relax \fontsize  {7}{8}\selectfont  $\DOTSB \leftarrow \joinrel  \rhook $}}{}{}cofold()}{316}{subsubsection.15.45.2.10}}
\newlabel{group__mfe__cofold_gaab22d10c1190f205f16a77cab9d5d3ee}{{15.45.2.10}{316}{\texorpdfstring {initialize\+\_\+cofold()}{initialize\_cofold()}}{subsubsection.15.45.2.10}{}}
\@writefile{toc}{\contentsline {subsubsection}{\numberline {15.45.2.11}vrna\discretionary {\unhbox \voidb@x \hbox {\relax \fontsize  {7}{8}\selectfont  $\DOTSB \leftarrow \joinrel  \rhook $}}{}{}\_\discretionary {\unhbox \voidb@x \hbox {\relax \fontsize  {7}{8}\selectfont  $\DOTSB \leftarrow \joinrel  \rhook $}}{}{}mfe\discretionary {\unhbox \voidb@x \hbox {\relax \fontsize  {7}{8}\selectfont  $\DOTSB \leftarrow \joinrel  \rhook $}}{}{}\_\discretionary {\unhbox \voidb@x \hbox {\relax \fontsize  {7}{8}\selectfont  $\DOTSB \leftarrow \joinrel  \rhook $}}{}{}dimer()}{316}{subsubsection.15.45.2.11}}
\@setckpt{group__mfe__cofold}{
\setcounter{page}{318}
\setcounter{equation}{0}
\setcounter{enumi}{2}
\setcounter{enumii}{0}
\setcounter{enumiii}{0}
\setcounter{enumiv}{0}
\setcounter{footnote}{0}
\setcounter{mpfootnote}{0}
\setcounter{part}{0}
\setcounter{chapter}{15}
\setcounter{section}{45}
\setcounter{subsection}{2}
\setcounter{subsubsection}{11}
\setcounter{paragraph}{0}
\setcounter{subparagraph}{0}
\setcounter{figure}{0}
\setcounter{table}{196}
\setcounter{float@type}{4}
\setcounter{LT@tables}{197}
\setcounter{LT@chunks}{3}
\setcounter{NAT@ctr}{0}
\setcounter{lofdepth}{1}
\setcounter{lotdepth}{1}
\setcounter{parentequation}{0}
\setcounter{Item}{12}
\setcounter{Hfootnote}{0}
\setcounter{bookmark@seq@number}{600}
\setcounter{ContinuedFloat}{0}
\setcounter{section@level}{3}
}
