\relax 
\providecommand\hyper@newdestlabel[2]{}
\citation{mathews:2004}
\citation{turner:2010}
\gdef \LT@ccxii {\LT@entry 
    {3}{37.8105pt}\LT@entry 
    {3}{223.41844pt}}
\@writefile{toc}{\contentsline {section}{\numberline {15.51}Reading/\discretionary {\unhbox \voidb@x \hbox {\relax \fontsize  {7}{8}\selectfont  $\DOTSB \leftarrow \joinrel  \rhook $}}{}{}Writing Energy Parameter Sets from/to File}{334}{section.15.51}}
\newlabel{group__energy__parameters__rw}{{15.51}{334}{Reading/\+Writing Energy Parameter Sets from/to File}{section.15.51}{}}
\@writefile{toc}{\contentsline {subsection}{\numberline {15.51.1}Detailed Description}{334}{subsection.15.51.1}}
\@writefile{brf}{\backcite{mathews:2004}{{334}{15.51.1}{subsection.15.51.1}}}
\@writefile{brf}{\backcite{turner:2010}{{334}{15.51.1}{subsection.15.51.1}}}
\@writefile{toc}{\contentsline {subsection}{\numberline {15.51.2}Function Documentation}{334}{subsection.15.51.2}}
\newlabel{group__energy__parameters__rw_ga165a142a3c68fb6655c69ef4ab7cd749}{{15.51.2}{334}{Function Documentation}{subsection.15.51.2}{}}
\@writefile{toc}{\contentsline {subsubsection}{\numberline {15.51.2.1}read\discretionary {\unhbox \voidb@x \hbox {\relax \fontsize  {7}{8}\selectfont  $\DOTSB \leftarrow \joinrel  \rhook $}}{}{}\_\discretionary {\unhbox \voidb@x \hbox {\relax \fontsize  {7}{8}\selectfont  $\DOTSB \leftarrow \joinrel  \rhook $}}{}{}parameter\discretionary {\unhbox \voidb@x \hbox {\relax \fontsize  {7}{8}\selectfont  $\DOTSB \leftarrow \joinrel  \rhook $}}{}{}\_\discretionary {\unhbox \voidb@x \hbox {\relax \fontsize  {7}{8}\selectfont  $\DOTSB \leftarrow \joinrel  \rhook $}}{}{}file()}{334}{subsubsection.15.51.2.1}}
\newlabel{group__energy__parameters__rw_ga8a43459be386a7489feeab68dc2c6c76}{{15.51.2.1}{334}{\texorpdfstring {read\+\_\+parameter\+\_\+file()}{read\_parameter\_file()}}{table.15.211}{}}
\gdef \LT@ccxiii {\LT@entry 
    {3}{37.8105pt}\LT@entry 
    {3}{339.79475pt}}
\@writefile{toc}{\contentsline {subsubsection}{\numberline {15.51.2.2}write\discretionary {\unhbox \voidb@x \hbox {\relax \fontsize  {7}{8}\selectfont  $\DOTSB \leftarrow \joinrel  \rhook $}}{}{}\_\discretionary {\unhbox \voidb@x \hbox {\relax \fontsize  {7}{8}\selectfont  $\DOTSB \leftarrow \joinrel  \rhook $}}{}{}parameter\discretionary {\unhbox \voidb@x \hbox {\relax \fontsize  {7}{8}\selectfont  $\DOTSB \leftarrow \joinrel  \rhook $}}{}{}\_\discretionary {\unhbox \voidb@x \hbox {\relax \fontsize  {7}{8}\selectfont  $\DOTSB \leftarrow \joinrel  \rhook $}}{}{}file()}{335}{subsubsection.15.51.2.2}}
\@setckpt{group__energy__parameters__rw}{
\setcounter{page}{336}
\setcounter{equation}{0}
\setcounter{enumi}{2}
\setcounter{enumii}{0}
\setcounter{enumiii}{0}
\setcounter{enumiv}{0}
\setcounter{footnote}{0}
\setcounter{mpfootnote}{0}
\setcounter{part}{0}
\setcounter{chapter}{15}
\setcounter{section}{51}
\setcounter{subsection}{2}
\setcounter{subsubsection}{2}
\setcounter{paragraph}{0}
\setcounter{subparagraph}{0}
\setcounter{figure}{0}
\setcounter{table}{212}
\setcounter{float@type}{4}
\setcounter{LT@tables}{213}
\setcounter{LT@chunks}{3}
\setcounter{NAT@ctr}{0}
\setcounter{lofdepth}{1}
\setcounter{lotdepth}{1}
\setcounter{parentequation}{0}
\setcounter{Item}{12}
\setcounter{Hfootnote}{0}
\setcounter{bookmark@seq@number}{639}
\setcounter{ContinuedFloat}{0}
\setcounter{section@level}{3}
}
