\relax 
\providecommand\hyper@newdestlabel[2]{}
\@writefile{toc}{\contentsline {section}{\numberline {15.26}Classified Dynamic Programming variants}{244}{section.15.26}}
\newlabel{group__class__fold}{{15.26}{244}{Classified Dynamic Programming variants}{section.15.26}{}}
\@writefile{toc}{\contentsline {subsection}{\numberline {15.26.1}Detailed Description}{244}{subsection.15.26.1}}
\@setckpt{group__class__fold}{
\setcounter{page}{245}
\setcounter{equation}{0}
\setcounter{enumi}{2}
\setcounter{enumii}{0}
\setcounter{enumiii}{0}
\setcounter{enumiv}{0}
\setcounter{footnote}{0}
\setcounter{mpfootnote}{0}
\setcounter{part}{0}
\setcounter{chapter}{15}
\setcounter{section}{26}
\setcounter{subsection}{1}
\setcounter{subsubsection}{0}
\setcounter{paragraph}{0}
\setcounter{subparagraph}{0}
\setcounter{figure}{0}
\setcounter{table}{149}
\setcounter{float@type}{4}
\setcounter{LT@tables}{150}
\setcounter{LT@chunks}{3}
\setcounter{NAT@ctr}{0}
\setcounter{lofdepth}{1}
\setcounter{lotdepth}{1}
\setcounter{parentequation}{0}
\setcounter{Item}{12}
\setcounter{Hfootnote}{0}
\setcounter{bookmark@seq@number}{431}
\setcounter{ContinuedFloat}{0}
\setcounter{section@level}{2}
}
