\relax 
\providecommand\hyper@newdestlabel[2]{}
\citation{zuker:1981}
\@writefile{toc}{\contentsline {section}{\numberline {15.44}M\discretionary {\unhbox \voidb@x \hbox {\relax \fontsize  {7}{8}\selectfont  $\DOTSB \leftarrow \joinrel  \rhook $}}{}{}FE Structures of single Nucleic Acid Sequences}{303}{section.15.44}}
\newlabel{group__mfe__fold__single}{{15.44}{303}{M\+FE Structures of single Nucleic Acid Sequences}{section.15.44}{}}
\@writefile{toc}{\contentsline {subsection}{\numberline {15.44.1}Detailed Description}{303}{subsection.15.44.1}}
\@writefile{brf}{\backcite{zuker:1981}{{303}{15.44.1}{subsection.15.44.1}}}
\gdef \LT@clxxxvii {\LT@entry 
    {3}{51.82336pt}\LT@entry 
    {3}{417.70593pt}}
\citation{hofacker:2006}
\@writefile{toc}{\contentsline {subsection}{\numberline {15.44.2}Function Documentation}{304}{subsection.15.44.2}}
\newlabel{group__mfe__fold__single_ga29a33b2895f4e67b0480271ff289afdc}{{15.44.2}{304}{Function Documentation}{subsection.15.44.2}{}}
\@writefile{toc}{\contentsline {subsubsection}{\numberline {15.44.2.1}vrna\discretionary {\unhbox \voidb@x \hbox {\relax \fontsize  {7}{8}\selectfont  $\DOTSB \leftarrow \joinrel  \rhook $}}{}{}\_\discretionary {\unhbox \voidb@x \hbox {\relax \fontsize  {7}{8}\selectfont  $\DOTSB \leftarrow \joinrel  \rhook $}}{}{}fold()}{304}{subsubsection.15.44.2.1}}
\newlabel{group__mfe__fold__single_gaf973483d8acbc8cc9aacfc8a9b7f0074}{{15.44.2.1}{304}{\texorpdfstring {vrna\+\_\+fold()}{vrna\_fold()}}{table.15.186}{}}
\@writefile{toc}{\contentsline {subsubsection}{\numberline {15.44.2.2}vrna\discretionary {\unhbox \voidb@x \hbox {\relax \fontsize  {7}{8}\selectfont  $\DOTSB \leftarrow \joinrel  \rhook $}}{}{}\_\discretionary {\unhbox \voidb@x \hbox {\relax \fontsize  {7}{8}\selectfont  $\DOTSB \leftarrow \joinrel  \rhook $}}{}{}circfold()}{304}{subsubsection.15.44.2.2}}
\@writefile{brf}{\backcite{hofacker:2006}{{304}{15.44.2.2}{subsubsection.15.44.2.2}}}
\gdef \LT@clxxxviii {\LT@entry 
    {3}{51.82336pt}\LT@entry 
    {3}{417.70593pt}}
\newlabel{group__mfe__fold__single_ga2bc41df5d71fee6fd8da9904ee65d8fb}{{15.44.2.2}{305}{\texorpdfstring {vrna\+\_\+circfold()}{vrna\_circfold()}}{table.15.187}{}}
\@writefile{toc}{\contentsline {subsubsection}{\numberline {15.44.2.3}fold\discretionary {\unhbox \voidb@x \hbox {\relax \fontsize  {7}{8}\selectfont  $\DOTSB \leftarrow \joinrel  \rhook $}}{}{}\_\discretionary {\unhbox \voidb@x \hbox {\relax \fontsize  {7}{8}\selectfont  $\DOTSB \leftarrow \joinrel  \rhook $}}{}{}par()}{305}{subsubsection.15.44.2.3}}
\gdef \LT@clxxxix {\LT@entry 
    {3}{70.73198pt}\LT@entry 
    {3}{384.51213pt}}
\gdef \LT@cxc {\LT@entry 
    {3}{51.82336pt}\LT@entry 
    {3}{417.70593pt}}
\newlabel{group__mfe__fold__single_gaadafcb0f140795ae62e5ca027e335a9b}{{15.44.2.3}{306}{\texorpdfstring {fold\+\_\+par()}{fold\_par()}}{table.15.188}{}}
\@writefile{toc}{\contentsline {subsubsection}{\numberline {15.44.2.4}fold()}{306}{subsubsection.15.44.2.4}}
\gdef \LT@cxci {\LT@entry 
    {3}{51.82336pt}\LT@entry 
    {3}{417.70593pt}}
\newlabel{group__mfe__fold__single_ga4ac63ab3e8d9a80ced28b8052d94e423}{{15.44.2.4}{307}{\texorpdfstring {fold()}{fold()}}{table.15.189}{}}
\@writefile{toc}{\contentsline {subsubsection}{\numberline {15.44.2.5}circfold()}{307}{subsubsection.15.44.2.5}}
\newlabel{group__mfe__fold__single_ga107fdfe5fd641868156bfd849f6866c7}{{15.44.2.5}{307}{\texorpdfstring {circfold()}{circfold()}}{table.15.190}{}}
\@writefile{toc}{\contentsline {subsubsection}{\numberline {15.44.2.6}free\discretionary {\unhbox \voidb@x \hbox {\relax \fontsize  {7}{8}\selectfont  $\DOTSB \leftarrow \joinrel  \rhook $}}{}{}\_\discretionary {\unhbox \voidb@x \hbox {\relax \fontsize  {7}{8}\selectfont  $\DOTSB \leftarrow \joinrel  \rhook $}}{}{}arrays()}{307}{subsubsection.15.44.2.6}}
\newlabel{group__mfe__fold__single_ga41bf8f6fa15b94471f7095cad9f0ccf3}{{15.44.2.6}{307}{\texorpdfstring {free\+\_\+arrays()}{free\_arrays()}}{subsubsection.15.44.2.6}{}}
\@writefile{toc}{\contentsline {subsubsection}{\numberline {15.44.2.7}update\discretionary {\unhbox \voidb@x \hbox {\relax \fontsize  {7}{8}\selectfont  $\DOTSB \leftarrow \joinrel  \rhook $}}{}{}\_\discretionary {\unhbox \voidb@x \hbox {\relax \fontsize  {7}{8}\selectfont  $\DOTSB \leftarrow \joinrel  \rhook $}}{}{}fold\discretionary {\unhbox \voidb@x \hbox {\relax \fontsize  {7}{8}\selectfont  $\DOTSB \leftarrow \joinrel  \rhook $}}{}{}\_\discretionary {\unhbox \voidb@x \hbox {\relax \fontsize  {7}{8}\selectfont  $\DOTSB \leftarrow \joinrel  \rhook $}}{}{}params()}{308}{subsubsection.15.44.2.7}}
\newlabel{group__mfe__fold__single_gae66dc422efb8f5d56717d92d6002a9f8}{{15.44.2.7}{308}{\texorpdfstring {update\+\_\+fold\+\_\+params()}{update\_fold\_params()}}{subsubsection.15.44.2.7}{}}
\@writefile{toc}{\contentsline {subsubsection}{\numberline {15.44.2.8}update\discretionary {\unhbox \voidb@x \hbox {\relax \fontsize  {7}{8}\selectfont  $\DOTSB \leftarrow \joinrel  \rhook $}}{}{}\_\discretionary {\unhbox \voidb@x \hbox {\relax \fontsize  {7}{8}\selectfont  $\DOTSB \leftarrow \joinrel  \rhook $}}{}{}fold\discretionary {\unhbox \voidb@x \hbox {\relax \fontsize  {7}{8}\selectfont  $\DOTSB \leftarrow \joinrel  \rhook $}}{}{}\_\discretionary {\unhbox \voidb@x \hbox {\relax \fontsize  {7}{8}\selectfont  $\DOTSB \leftarrow \joinrel  \rhook $}}{}{}params\discretionary {\unhbox \voidb@x \hbox {\relax \fontsize  {7}{8}\selectfont  $\DOTSB \leftarrow \joinrel  \rhook $}}{}{}\_\discretionary {\unhbox \voidb@x \hbox {\relax \fontsize  {7}{8}\selectfont  $\DOTSB \leftarrow \joinrel  \rhook $}}{}{}par()}{308}{subsubsection.15.44.2.8}}
\newlabel{group__mfe__fold__single_ga99641b8dbb40891da5490d3cc271e607}{{15.44.2.8}{308}{\texorpdfstring {update\+\_\+fold\+\_\+params\+\_\+par()}{update\_fold\_params\_par()}}{subsubsection.15.44.2.8}{}}
\@writefile{toc}{\contentsline {subsubsection}{\numberline {15.44.2.9}export\discretionary {\unhbox \voidb@x \hbox {\relax \fontsize  {7}{8}\selectfont  $\DOTSB \leftarrow \joinrel  \rhook $}}{}{}\_\discretionary {\unhbox \voidb@x \hbox {\relax \fontsize  {7}{8}\selectfont  $\DOTSB \leftarrow \joinrel  \rhook $}}{}{}fold\discretionary {\unhbox \voidb@x \hbox {\relax \fontsize  {7}{8}\selectfont  $\DOTSB \leftarrow \joinrel  \rhook $}}{}{}\_\discretionary {\unhbox \voidb@x \hbox {\relax \fontsize  {7}{8}\selectfont  $\DOTSB \leftarrow \joinrel  \rhook $}}{}{}arrays()}{308}{subsubsection.15.44.2.9}}
\newlabel{group__mfe__fold__single_ga6606ec0ec964ea506fdadb997a1a5328}{{15.44.2.9}{308}{\texorpdfstring {export\+\_\+fold\+\_\+arrays()}{export\_fold\_arrays()}}{subsubsection.15.44.2.9}{}}
\@writefile{toc}{\contentsline {subsubsection}{\numberline {15.44.2.10}export\discretionary {\unhbox \voidb@x \hbox {\relax \fontsize  {7}{8}\selectfont  $\DOTSB \leftarrow \joinrel  \rhook $}}{}{}\_\discretionary {\unhbox \voidb@x \hbox {\relax \fontsize  {7}{8}\selectfont  $\DOTSB \leftarrow \joinrel  \rhook $}}{}{}fold\discretionary {\unhbox \voidb@x \hbox {\relax \fontsize  {7}{8}\selectfont  $\DOTSB \leftarrow \joinrel  \rhook $}}{}{}\_\discretionary {\unhbox \voidb@x \hbox {\relax \fontsize  {7}{8}\selectfont  $\DOTSB \leftarrow \joinrel  \rhook $}}{}{}arrays\discretionary {\unhbox \voidb@x \hbox {\relax \fontsize  {7}{8}\selectfont  $\DOTSB \leftarrow \joinrel  \rhook $}}{}{}\_\discretionary {\unhbox \voidb@x \hbox {\relax \fontsize  {7}{8}\selectfont  $\DOTSB \leftarrow \joinrel  \rhook $}}{}{}par()}{308}{subsubsection.15.44.2.10}}
\newlabel{group__mfe__fold__single_ga04d5d639fd4473ca766436a9bae5665c}{{15.44.2.10}{308}{\texorpdfstring {export\+\_\+fold\+\_\+arrays\+\_\+par()}{export\_fold\_arrays\_par()}}{subsubsection.15.44.2.10}{}}
\@writefile{toc}{\contentsline {subsubsection}{\numberline {15.44.2.11}export\discretionary {\unhbox \voidb@x \hbox {\relax \fontsize  {7}{8}\selectfont  $\DOTSB \leftarrow \joinrel  \rhook $}}{}{}\_\discretionary {\unhbox \voidb@x \hbox {\relax \fontsize  {7}{8}\selectfont  $\DOTSB \leftarrow \joinrel  \rhook $}}{}{}circfold\discretionary {\unhbox \voidb@x \hbox {\relax \fontsize  {7}{8}\selectfont  $\DOTSB \leftarrow \joinrel  \rhook $}}{}{}\_\discretionary {\unhbox \voidb@x \hbox {\relax \fontsize  {7}{8}\selectfont  $\DOTSB \leftarrow \joinrel  \rhook $}}{}{}arrays()}{309}{subsubsection.15.44.2.11}}
\newlabel{group__mfe__fold__single_ga004bb901e7fd2f8d5ae68f9530318ce1}{{15.44.2.11}{309}{\texorpdfstring {export\+\_\+circfold\+\_\+arrays()}{export\_circfold\_arrays()}}{subsubsection.15.44.2.11}{}}
\@writefile{toc}{\contentsline {subsubsection}{\numberline {15.44.2.12}export\discretionary {\unhbox \voidb@x \hbox {\relax \fontsize  {7}{8}\selectfont  $\DOTSB \leftarrow \joinrel  \rhook $}}{}{}\_\discretionary {\unhbox \voidb@x \hbox {\relax \fontsize  {7}{8}\selectfont  $\DOTSB \leftarrow \joinrel  \rhook $}}{}{}circfold\discretionary {\unhbox \voidb@x \hbox {\relax \fontsize  {7}{8}\selectfont  $\DOTSB \leftarrow \joinrel  \rhook $}}{}{}\_\discretionary {\unhbox \voidb@x \hbox {\relax \fontsize  {7}{8}\selectfont  $\DOTSB \leftarrow \joinrel  \rhook $}}{}{}arrays\discretionary {\unhbox \voidb@x \hbox {\relax \fontsize  {7}{8}\selectfont  $\DOTSB \leftarrow \joinrel  \rhook $}}{}{}\_\discretionary {\unhbox \voidb@x \hbox {\relax \fontsize  {7}{8}\selectfont  $\DOTSB \leftarrow \joinrel  \rhook $}}{}{}par()}{309}{subsubsection.15.44.2.12}}
\newlabel{group__mfe__fold__single_ga2163034a25c6115d894b199e97e03f6c}{{15.44.2.12}{309}{\texorpdfstring {export\+\_\+circfold\+\_\+arrays\+\_\+par()}{export\_circfold\_arrays\_par()}}{subsubsection.15.44.2.12}{}}
\@writefile{toc}{\contentsline {subsubsection}{\numberline {15.44.2.13}Loop\discretionary {\unhbox \voidb@x \hbox {\relax \fontsize  {7}{8}\selectfont  $\DOTSB \leftarrow \joinrel  \rhook $}}{}{}Energy()}{309}{subsubsection.15.44.2.13}}
\newlabel{group__mfe__fold__single_gab327ce11972f5ac069d52c8dedfdb700}{{15.44.2.13}{309}{\texorpdfstring {Loop\+Energy()}{LoopEnergy()}}{subsubsection.15.44.2.13}{}}
\@writefile{toc}{\contentsline {subsubsection}{\numberline {15.44.2.14}Hairpin\discretionary {\unhbox \voidb@x \hbox {\relax \fontsize  {7}{8}\selectfont  $\DOTSB \leftarrow \joinrel  \rhook $}}{}{}E()}{310}{subsubsection.15.44.2.14}}
\newlabel{group__mfe__fold__single_gac3f0a28d9cb609d388b155445073fd20}{{15.44.2.14}{310}{\texorpdfstring {Hairpin\+E()}{HairpinE()}}{subsubsection.15.44.2.14}{}}
\@writefile{toc}{\contentsline {subsubsection}{\numberline {15.44.2.15}initialize\discretionary {\unhbox \voidb@x \hbox {\relax \fontsize  {7}{8}\selectfont  $\DOTSB \leftarrow \joinrel  \rhook $}}{}{}\_\discretionary {\unhbox \voidb@x \hbox {\relax \fontsize  {7}{8}\selectfont  $\DOTSB \leftarrow \joinrel  \rhook $}}{}{}fold()}{310}{subsubsection.15.44.2.15}}
\@setckpt{group__mfe__fold__single}{
\setcounter{page}{311}
\setcounter{equation}{0}
\setcounter{enumi}{2}
\setcounter{enumii}{0}
\setcounter{enumiii}{0}
\setcounter{enumiv}{0}
\setcounter{footnote}{0}
\setcounter{mpfootnote}{0}
\setcounter{part}{0}
\setcounter{chapter}{15}
\setcounter{section}{44}
\setcounter{subsection}{2}
\setcounter{subsubsection}{15}
\setcounter{paragraph}{0}
\setcounter{subparagraph}{0}
\setcounter{figure}{0}
\setcounter{table}{190}
\setcounter{float@type}{4}
\setcounter{LT@tables}{191}
\setcounter{LT@chunks}{3}
\setcounter{NAT@ctr}{0}
\setcounter{lofdepth}{1}
\setcounter{lotdepth}{1}
\setcounter{parentequation}{0}
\setcounter{Item}{12}
\setcounter{Hfootnote}{0}
\setcounter{bookmark@seq@number}{586}
\setcounter{ContinuedFloat}{0}
\setcounter{section@level}{3}
}
