\relax 
\providecommand\hyper@newdestlabel[2]{}
\@writefile{toc}{\contentsline {section}{\numberline {15.23}M\discretionary {\unhbox \voidb@x \hbox {\relax \fontsize  {7}{8}\selectfont  $\DOTSB \leftarrow \joinrel  \rhook $}}{}{}FE Consensus Structures for Sequence Alignment(s)}{234}{section.15.23}}
\newlabel{group__consensus__mfe__fold}{{15.23}{234}{M\+FE Consensus Structures for Sequence Alignment(s)}{section.15.23}{}}
\@writefile{toc}{\contentsline {subsection}{\numberline {15.23.1}Detailed Description}{234}{subsection.15.23.1}}
\@writefile{toc}{\contentsline {subsection}{\numberline {15.23.2}Function Documentation}{234}{subsection.15.23.2}}
\newlabel{group__consensus__mfe__fold_ga6c9d3bef3e92c6d423ffac9f981418c1}{{15.23.2}{234}{Function Documentation}{subsection.15.23.2}{}}
\@writefile{toc}{\contentsline {subsubsection}{\numberline {15.23.2.1}vrna\discretionary {\unhbox \voidb@x \hbox {\relax \fontsize  {7}{8}\selectfont  $\DOTSB \leftarrow \joinrel  \rhook $}}{}{}\_\discretionary {\unhbox \voidb@x \hbox {\relax \fontsize  {7}{8}\selectfont  $\DOTSB \leftarrow \joinrel  \rhook $}}{}{}alifold()}{234}{subsubsection.15.23.2.1}}
\gdef \LT@cxli {\LT@entry 
    {3}{56.32333pt}\LT@entry 
    {3}{398.92078pt}}
\citation{hofacker:2006}
\newlabel{group__consensus__mfe__fold_ga17a1be7490468c29c335ba9bffacba53}{{15.23.2.1}{235}{\texorpdfstring {vrna\+\_\+alifold()}{vrna\_alifold()}}{table.15.140}{}}
\@writefile{toc}{\contentsline {subsubsection}{\numberline {15.23.2.2}vrna\discretionary {\unhbox \voidb@x \hbox {\relax \fontsize  {7}{8}\selectfont  $\DOTSB \leftarrow \joinrel  \rhook $}}{}{}\_\discretionary {\unhbox \voidb@x \hbox {\relax \fontsize  {7}{8}\selectfont  $\DOTSB \leftarrow \joinrel  \rhook $}}{}{}circalifold()}{235}{subsubsection.15.23.2.2}}
\@writefile{brf}{\backcite{hofacker:2006}{{235}{15.23.2.2}{subsubsection.15.23.2.2}}}
\gdef \LT@cxlii {\LT@entry 
    {3}{56.32333pt}\LT@entry 
    {3}{398.92078pt}}
\gdef \LT@cxliii {\LT@entry 
    {3}{47.9442pt}\LT@entry 
    {3}{407.29991pt}}
\newlabel{group__consensus__mfe__fold_ga4cf00f0659e5f0480335d69e797f05b1}{{15.23.2.2}{236}{\texorpdfstring {vrna\+\_\+circalifold()}{vrna\_circalifold()}}{table.15.141}{}}
\@writefile{toc}{\contentsline {subsubsection}{\numberline {15.23.2.3}alifold()}{236}{subsubsection.15.23.2.3}}
\newlabel{group__consensus__mfe__fold_gadbd3b0b1c144cbfb4efe704b2b260f96}{{15.23.2.3}{236}{\texorpdfstring {alifold()}{alifold()}}{table.15.142}{}}
\@writefile{toc}{\contentsline {subsubsection}{\numberline {15.23.2.4}circalifold()}{236}{subsubsection.15.23.2.4}}
\gdef \LT@cxliv {\LT@entry 
    {3}{47.9442pt}\LT@entry 
    {3}{407.29991pt}}
\newlabel{group__consensus__mfe__fold_ga72095e4554b5d577250ea14c42acc49e}{{15.23.2.4}{237}{\texorpdfstring {circalifold()}{circalifold()}}{table.15.143}{}}
\@writefile{toc}{\contentsline {subsubsection}{\numberline {15.23.2.5}free\discretionary {\unhbox \voidb@x \hbox {\relax \fontsize  {7}{8}\selectfont  $\DOTSB \leftarrow \joinrel  \rhook $}}{}{}\_\discretionary {\unhbox \voidb@x \hbox {\relax \fontsize  {7}{8}\selectfont  $\DOTSB \leftarrow \joinrel  \rhook $}}{}{}alifold\discretionary {\unhbox \voidb@x \hbox {\relax \fontsize  {7}{8}\selectfont  $\DOTSB \leftarrow \joinrel  \rhook $}}{}{}\_\discretionary {\unhbox \voidb@x \hbox {\relax \fontsize  {7}{8}\selectfont  $\DOTSB \leftarrow \joinrel  \rhook $}}{}{}arrays()}{237}{subsubsection.15.23.2.5}}
\@setckpt{group__consensus__mfe__fold}{
\setcounter{page}{238}
\setcounter{equation}{0}
\setcounter{enumi}{2}
\setcounter{enumii}{0}
\setcounter{enumiii}{0}
\setcounter{enumiv}{0}
\setcounter{footnote}{0}
\setcounter{mpfootnote}{0}
\setcounter{part}{0}
\setcounter{chapter}{15}
\setcounter{section}{23}
\setcounter{subsection}{2}
\setcounter{subsubsection}{5}
\setcounter{paragraph}{0}
\setcounter{subparagraph}{0}
\setcounter{figure}{0}
\setcounter{table}{143}
\setcounter{float@type}{4}
\setcounter{LT@tables}{144}
\setcounter{LT@chunks}{3}
\setcounter{NAT@ctr}{0}
\setcounter{lofdepth}{1}
\setcounter{lotdepth}{1}
\setcounter{parentequation}{0}
\setcounter{Item}{12}
\setcounter{Hfootnote}{0}
\setcounter{bookmark@seq@number}{415}
\setcounter{ContinuedFloat}{0}
\setcounter{section@level}{3}
}
