\relax 
\providecommand\hyper@newdestlabel[2]{}
\@writefile{toc}{\contentsline {section}{\numberline {15.11}Soft constraints}{183}{section.15.11}}
\newlabel{group__soft__constraints}{{15.11}{183}{Soft constraints}{section.15.11}{}}
\newlabel{group__soft__constraints_ga75401ce219ef8dbcceb672db82d434c6}{{15.11}{183}{Typedefs}{section*.65}{}}
\@writefile{toc}{\contentsline {subsection}{\numberline {15.11.1}Detailed Description}{184}{subsection.15.11.1}}
\@writefile{toc}{\contentsline {subsection}{\numberline {15.11.2}Data Structure Documentation}{184}{subsection.15.11.2}}
\newlabel{structvrna__sc__s}{{15.11.2}{184}{Data Structure Documentation}{subsection.15.11.2}{}}
\@writefile{toc}{\contentsline {subsubsection}{\numberline {15.11.2.1}struct vrna\discretionary {\unhbox \voidb@x \hbox {\relax \fontsize  {7}{8}\selectfont  $\DOTSB \leftarrow \joinrel  \rhook $}}{}{}\_\discretionary {\unhbox \voidb@x \hbox {\relax \fontsize  {7}{8}\selectfont  $\DOTSB \leftarrow \joinrel  \rhook $}}{}{}sc\discretionary {\unhbox \voidb@x \hbox {\relax \fontsize  {7}{8}\selectfont  $\DOTSB \leftarrow \joinrel  \rhook $}}{}{}\_\discretionary {\unhbox \voidb@x \hbox {\relax \fontsize  {7}{8}\selectfont  $\DOTSB \leftarrow \joinrel  \rhook $}}{}{}s}{184}{subsubsection.15.11.2.1}}
\newlabel{group__soft__constraints_a57e4dbb924ab11f304e3762a3a9b07a1}{{15.11.2.1}{184}{Data Fields}{section*.67}{}}
\newlabel{group__soft__constraints_ad139b8e06632e00cbcf3909815d0d03d}{{15.11.2.1}{184}{Data Fields}{section*.67}{}}
\newlabel{group__soft__constraints_ad3b4972d3b6c23865587e4ac56a37375}{{15.11.2.1}{184}{Data Fields}{section*.67}{}}
\newlabel{group__soft__constraints_a62c22be478cd630541c91f73e6cb0d75}{{15.11.2.1}{184}{Data Fields}{section*.67}{}}
\newlabel{group__soft__constraints_ac20dded6068e81acd0f1139092f66a22}{{15.11.2.1}{184}{Data Fields}{section*.67}{}}
\newlabel{group__soft__constraints_a4a0058fe3d5ba3416f0aaab677610115}{{15.11.2.1}{184}{Data Fields}{section*.67}{}}
\newlabel{group__soft__constraints_a7574680143df97b9029146c2150bf06d}{{15.11.2.1}{184}{Data Fields}{section*.67}{}}
\@writefile{toc}{\contentsline {paragraph}{\numberline {15.11.2.1.1}Field Documentation}{185}{paragraph.15.11.2.1.1}}
\newlabel{group__soft__constraints_a32dc86090237888c75491bbd4861a04b}{{15.11.2.1.1}{185}{Field Documentation}{paragraph.15.11.2.1.1}{}}
\@writefile{toc}{\contentsline {subparagraph}{\numberline {15.11.2.1.1.1}f}{185}{subparagraph.15.11.2.1.1.1}}
\newlabel{group__soft__constraints_a2a2aca01782c2b980d7b7fd05b9be89c}{{15.11.2.1.1.1}{185}{\texorpdfstring {f}{f}}{subparagraph.15.11.2.1.1.1}{}}
\@writefile{toc}{\contentsline {subparagraph}{\numberline {15.11.2.1.1.2}bt}{185}{subparagraph.15.11.2.1.1.2}}
\newlabel{group__soft__constraints_a0de08a09f3ccf2f97974d23192668ab0}{{15.11.2.1.1.2}{185}{\texorpdfstring {bt}{bt}}{subparagraph.15.11.2.1.1.2}{}}
\@writefile{toc}{\contentsline {subparagraph}{\numberline {15.11.2.1.1.3}exp\discretionary {\unhbox \voidb@x \hbox {\relax \fontsize  {7}{8}\selectfont  $\DOTSB \leftarrow \joinrel  \rhook $}}{}{}\_\discretionary {\unhbox \voidb@x \hbox {\relax \fontsize  {7}{8}\selectfont  $\DOTSB \leftarrow \joinrel  \rhook $}}{}{}f}{185}{subparagraph.15.11.2.1.1.3}}
\@writefile{toc}{\contentsline {subsection}{\numberline {15.11.3}Typedef Documentation}{185}{subsection.15.11.3}}
\newlabel{group__soft__constraints_gaf38062858ac25fd5e240c2c3b0b0b780}{{15.11.3}{185}{Typedef Documentation}{subsection.15.11.3}{}}
\@writefile{toc}{\contentsline {subsubsection}{\numberline {15.11.3.1}vrna\discretionary {\unhbox \voidb@x \hbox {\relax \fontsize  {7}{8}\selectfont  $\DOTSB \leftarrow \joinrel  \rhook $}}{}{}\_\discretionary {\unhbox \voidb@x \hbox {\relax \fontsize  {7}{8}\selectfont  $\DOTSB \leftarrow \joinrel  \rhook $}}{}{}callback\discretionary {\unhbox \voidb@x \hbox {\relax \fontsize  {7}{8}\selectfont  $\DOTSB \leftarrow \joinrel  \rhook $}}{}{}\_\discretionary {\unhbox \voidb@x \hbox {\relax \fontsize  {7}{8}\selectfont  $\DOTSB \leftarrow \joinrel  \rhook $}}{}{}sc\discretionary {\unhbox \voidb@x \hbox {\relax \fontsize  {7}{8}\selectfont  $\DOTSB \leftarrow \joinrel  \rhook $}}{}{}\_\discretionary {\unhbox \voidb@x \hbox {\relax \fontsize  {7}{8}\selectfont  $\DOTSB \leftarrow \joinrel  \rhook $}}{}{}energy}{185}{subsubsection.15.11.3.1}}
\gdef \LT@xcii {\LT@entry 
    {3}{30.3136pt}\LT@entry 
    {3}{180.80421pt}}
\gdef \LT@xciii {\LT@entry 
    {3}{30.3136pt}\LT@entry 
    {3}{180.80421pt}}
\newlabel{group__soft__constraints_ga2eade8745c163a553763be4cfe2a679b}{{15.11.3.1}{186}{\texorpdfstring {vrna\+\_\+callback\+\_\+sc\+\_\+energy}{vrna\_callback\_sc\_energy}}{table.15.91}{}}
\@writefile{toc}{\contentsline {subsubsection}{\numberline {15.11.3.2}vrna\discretionary {\unhbox \voidb@x \hbox {\relax \fontsize  {7}{8}\selectfont  $\DOTSB \leftarrow \joinrel  \rhook $}}{}{}\_\discretionary {\unhbox \voidb@x \hbox {\relax \fontsize  {7}{8}\selectfont  $\DOTSB \leftarrow \joinrel  \rhook $}}{}{}callback\discretionary {\unhbox \voidb@x \hbox {\relax \fontsize  {7}{8}\selectfont  $\DOTSB \leftarrow \joinrel  \rhook $}}{}{}\_\discretionary {\unhbox \voidb@x \hbox {\relax \fontsize  {7}{8}\selectfont  $\DOTSB \leftarrow \joinrel  \rhook $}}{}{}sc\discretionary {\unhbox \voidb@x \hbox {\relax \fontsize  {7}{8}\selectfont  $\DOTSB \leftarrow \joinrel  \rhook $}}{}{}\_\discretionary {\unhbox \voidb@x \hbox {\relax \fontsize  {7}{8}\selectfont  $\DOTSB \leftarrow \joinrel  \rhook $}}{}{}exp\discretionary {\unhbox \voidb@x \hbox {\relax \fontsize  {7}{8}\selectfont  $\DOTSB \leftarrow \joinrel  \rhook $}}{}{}\_\discretionary {\unhbox \voidb@x \hbox {\relax \fontsize  {7}{8}\selectfont  $\DOTSB \leftarrow \joinrel  \rhook $}}{}{}energy}{186}{subsubsection.15.11.3.2}}
\newlabel{group__soft__constraints_gaa216f513c3b0bd6fe5807dd0c53a8e5a}{{15.11.3.2}{186}{\texorpdfstring {vrna\+\_\+callback\+\_\+sc\+\_\+exp\+\_\+energy}{vrna\_callback\_sc\_exp\_energy}}{table.15.92}{}}
\gdef \LT@xciv {\LT@entry 
    {3}{30.3136pt}\LT@entry 
    {3}{180.80421pt}}
\@writefile{toc}{\contentsline {subsubsection}{\numberline {15.11.3.3}vrna\discretionary {\unhbox \voidb@x \hbox {\relax \fontsize  {7}{8}\selectfont  $\DOTSB \leftarrow \joinrel  \rhook $}}{}{}\_\discretionary {\unhbox \voidb@x \hbox {\relax \fontsize  {7}{8}\selectfont  $\DOTSB \leftarrow \joinrel  \rhook $}}{}{}callback\discretionary {\unhbox \voidb@x \hbox {\relax \fontsize  {7}{8}\selectfont  $\DOTSB \leftarrow \joinrel  \rhook $}}{}{}\_\discretionary {\unhbox \voidb@x \hbox {\relax \fontsize  {7}{8}\selectfont  $\DOTSB \leftarrow \joinrel  \rhook $}}{}{}sc\discretionary {\unhbox \voidb@x \hbox {\relax \fontsize  {7}{8}\selectfont  $\DOTSB \leftarrow \joinrel  \rhook $}}{}{}\_\discretionary {\unhbox \voidb@x \hbox {\relax \fontsize  {7}{8}\selectfont  $\DOTSB \leftarrow \joinrel  \rhook $}}{}{}backtrack}{187}{subsubsection.15.11.3.3}}
\@writefile{toc}{\contentsline {subsection}{\numberline {15.11.4}Function Documentation}{187}{subsection.15.11.4}}
\newlabel{group__soft__constraints_ga9d977a1681356778cc66dceafbe5b032}{{15.11.4}{187}{Function Documentation}{subsection.15.11.4}{}}
\@writefile{toc}{\contentsline {subsubsection}{\numberline {15.11.4.1}vrna\discretionary {\unhbox \voidb@x \hbox {\relax \fontsize  {7}{8}\selectfont  $\DOTSB \leftarrow \joinrel  \rhook $}}{}{}\_\discretionary {\unhbox \voidb@x \hbox {\relax \fontsize  {7}{8}\selectfont  $\DOTSB \leftarrow \joinrel  \rhook $}}{}{}sc\discretionary {\unhbox \voidb@x \hbox {\relax \fontsize  {7}{8}\selectfont  $\DOTSB \leftarrow \joinrel  \rhook $}}{}{}\_\discretionary {\unhbox \voidb@x \hbox {\relax \fontsize  {7}{8}\selectfont  $\DOTSB \leftarrow \joinrel  \rhook $}}{}{}init()}{187}{subsubsection.15.11.4.1}}
\gdef \LT@xcv {\LT@entry 
    {3}{21.79993pt}\LT@entry 
    {3}{346.16693pt}}
\gdef \LT@xcvi {\LT@entry 
    {3}{56.2242pt}\LT@entry 
    {3}{279.38863pt}}
\newlabel{group__soft__constraints_ga8e4334b24bc91453fbcda490a4e331af}{{15.11.4.1}{188}{\texorpdfstring {vrna\+\_\+sc\+\_\+init()}{vrna\_sc\_init()}}{table.15.94}{}}
\@writefile{toc}{\contentsline {subsubsection}{\numberline {15.11.4.2}vrna\discretionary {\unhbox \voidb@x \hbox {\relax \fontsize  {7}{8}\selectfont  $\DOTSB \leftarrow \joinrel  \rhook $}}{}{}\_\discretionary {\unhbox \voidb@x \hbox {\relax \fontsize  {7}{8}\selectfont  $\DOTSB \leftarrow \joinrel  \rhook $}}{}{}sc\discretionary {\unhbox \voidb@x \hbox {\relax \fontsize  {7}{8}\selectfont  $\DOTSB \leftarrow \joinrel  \rhook $}}{}{}\_\discretionary {\unhbox \voidb@x \hbox {\relax \fontsize  {7}{8}\selectfont  $\DOTSB \leftarrow \joinrel  \rhook $}}{}{}set\discretionary {\unhbox \voidb@x \hbox {\relax \fontsize  {7}{8}\selectfont  $\DOTSB \leftarrow \joinrel  \rhook $}}{}{}\_\discretionary {\unhbox \voidb@x \hbox {\relax \fontsize  {7}{8}\selectfont  $\DOTSB \leftarrow \joinrel  \rhook $}}{}{}bp()}{188}{subsubsection.15.11.4.2}}
\newlabel{group__soft__constraints_gaf162aedac7422f2eb16ea030f47d2f4b}{{15.11.4.2}{188}{\texorpdfstring {vrna\+\_\+sc\+\_\+set\+\_\+bp()}{vrna\_sc\_set\_bp()}}{table.15.95}{}}
\@writefile{toc}{\contentsline {subsubsection}{\numberline {15.11.4.3}vrna\discretionary {\unhbox \voidb@x \hbox {\relax \fontsize  {7}{8}\selectfont  $\DOTSB \leftarrow \joinrel  \rhook $}}{}{}\_\discretionary {\unhbox \voidb@x \hbox {\relax \fontsize  {7}{8}\selectfont  $\DOTSB \leftarrow \joinrel  \rhook $}}{}{}sc\discretionary {\unhbox \voidb@x \hbox {\relax \fontsize  {7}{8}\selectfont  $\DOTSB \leftarrow \joinrel  \rhook $}}{}{}\_\discretionary {\unhbox \voidb@x \hbox {\relax \fontsize  {7}{8}\selectfont  $\DOTSB \leftarrow \joinrel  \rhook $}}{}{}add\discretionary {\unhbox \voidb@x \hbox {\relax \fontsize  {7}{8}\selectfont  $\DOTSB \leftarrow \joinrel  \rhook $}}{}{}\_\discretionary {\unhbox \voidb@x \hbox {\relax \fontsize  {7}{8}\selectfont  $\DOTSB \leftarrow \joinrel  \rhook $}}{}{}bp()}{188}{subsubsection.15.11.4.3}}
\gdef \LT@xcvii {\LT@entry 
    {3}{41.81543pt}\LT@entry 
    {3}{279.38863pt}}
\gdef \LT@xcviii {\LT@entry 
    {3}{56.2242pt}\LT@entry 
    {3}{279.38863pt}}
\newlabel{group__soft__constraints_ga99ed63f3ef9e7fe3997932030487a344}{{15.11.4.3}{189}{\texorpdfstring {vrna\+\_\+sc\+\_\+add\+\_\+bp()}{vrna\_sc\_add\_bp()}}{table.15.96}{}}
\@writefile{toc}{\contentsline {subsubsection}{\numberline {15.11.4.4}vrna\discretionary {\unhbox \voidb@x \hbox {\relax \fontsize  {7}{8}\selectfont  $\DOTSB \leftarrow \joinrel  \rhook $}}{}{}\_\discretionary {\unhbox \voidb@x \hbox {\relax \fontsize  {7}{8}\selectfont  $\DOTSB \leftarrow \joinrel  \rhook $}}{}{}sc\discretionary {\unhbox \voidb@x \hbox {\relax \fontsize  {7}{8}\selectfont  $\DOTSB \leftarrow \joinrel  \rhook $}}{}{}\_\discretionary {\unhbox \voidb@x \hbox {\relax \fontsize  {7}{8}\selectfont  $\DOTSB \leftarrow \joinrel  \rhook $}}{}{}set\discretionary {\unhbox \voidb@x \hbox {\relax \fontsize  {7}{8}\selectfont  $\DOTSB \leftarrow \joinrel  \rhook $}}{}{}\_\discretionary {\unhbox \voidb@x \hbox {\relax \fontsize  {7}{8}\selectfont  $\DOTSB \leftarrow \joinrel  \rhook $}}{}{}up()}{189}{subsubsection.15.11.4.4}}
\newlabel{group__soft__constraints_ga069915fe203a2c8e522dd37847177a09}{{15.11.4.4}{189}{\texorpdfstring {vrna\+\_\+sc\+\_\+set\+\_\+up()}{vrna\_sc\_set\_up()}}{table.15.97}{}}
\gdef \LT@xcix {\LT@entry 
    {3}{41.81543pt}\LT@entry 
    {3}{279.38863pt}}
\@writefile{toc}{\contentsline {subsubsection}{\numberline {15.11.4.5}vrna\discretionary {\unhbox \voidb@x \hbox {\relax \fontsize  {7}{8}\selectfont  $\DOTSB \leftarrow \joinrel  \rhook $}}{}{}\_\discretionary {\unhbox \voidb@x \hbox {\relax \fontsize  {7}{8}\selectfont  $\DOTSB \leftarrow \joinrel  \rhook $}}{}{}sc\discretionary {\unhbox \voidb@x \hbox {\relax \fontsize  {7}{8}\selectfont  $\DOTSB \leftarrow \joinrel  \rhook $}}{}{}\_\discretionary {\unhbox \voidb@x \hbox {\relax \fontsize  {7}{8}\selectfont  $\DOTSB \leftarrow \joinrel  \rhook $}}{}{}add\discretionary {\unhbox \voidb@x \hbox {\relax \fontsize  {7}{8}\selectfont  $\DOTSB \leftarrow \joinrel  \rhook $}}{}{}\_\discretionary {\unhbox \voidb@x \hbox {\relax \fontsize  {7}{8}\selectfont  $\DOTSB \leftarrow \joinrel  \rhook $}}{}{}up()}{190}{subsubsection.15.11.4.5}}
\newlabel{group__soft__constraints_ga73cdc07b9a199c614367bebef0f2c41a}{{15.11.4.5}{190}{\texorpdfstring {vrna\+\_\+sc\+\_\+add\+\_\+up()}{vrna\_sc\_add\_up()}}{table.15.98}{}}
\@writefile{toc}{\contentsline {subsubsection}{\numberline {15.11.4.6}vrna\discretionary {\unhbox \voidb@x \hbox {\relax \fontsize  {7}{8}\selectfont  $\DOTSB \leftarrow \joinrel  \rhook $}}{}{}\_\discretionary {\unhbox \voidb@x \hbox {\relax \fontsize  {7}{8}\selectfont  $\DOTSB \leftarrow \joinrel  \rhook $}}{}{}sc\discretionary {\unhbox \voidb@x \hbox {\relax \fontsize  {7}{8}\selectfont  $\DOTSB \leftarrow \joinrel  \rhook $}}{}{}\_\discretionary {\unhbox \voidb@x \hbox {\relax \fontsize  {7}{8}\selectfont  $\DOTSB \leftarrow \joinrel  \rhook $}}{}{}remove()}{190}{subsubsection.15.11.4.6}}
\gdef \LT@c {\LT@entry 
    {3}{21.79993pt}\LT@entry 
    {3}{263.19821pt}}
\gdef \LT@ci {\LT@entry 
    {3}{21.79993pt}\LT@entry 
    {3}{169.35645pt}}
\gdef \LT@cii {\LT@entry 
    {3}{50.82414pt}\LT@entry 
    {3}{329.5597pt}}
\newlabel{group__soft__constraints_ga6d55446448d69346fc313b993c4fb3e8}{{15.11.4.6}{191}{\texorpdfstring {vrna\+\_\+sc\+\_\+remove()}{vrna\_sc\_remove()}}{table.15.99}{}}
\@writefile{toc}{\contentsline {subsubsection}{\numberline {15.11.4.7}vrna\discretionary {\unhbox \voidb@x \hbox {\relax \fontsize  {7}{8}\selectfont  $\DOTSB \leftarrow \joinrel  \rhook $}}{}{}\_\discretionary {\unhbox \voidb@x \hbox {\relax \fontsize  {7}{8}\selectfont  $\DOTSB \leftarrow \joinrel  \rhook $}}{}{}sc\discretionary {\unhbox \voidb@x \hbox {\relax \fontsize  {7}{8}\selectfont  $\DOTSB \leftarrow \joinrel  \rhook $}}{}{}\_\discretionary {\unhbox \voidb@x \hbox {\relax \fontsize  {7}{8}\selectfont  $\DOTSB \leftarrow \joinrel  \rhook $}}{}{}free()}{191}{subsubsection.15.11.4.7}}
\newlabel{group__soft__constraints_ga15c6d52471ec97897e2bb7f964f5deb6}{{15.11.4.7}{191}{\texorpdfstring {vrna\+\_\+sc\+\_\+free()}{vrna\_sc\_free()}}{table.15.100}{}}
\@writefile{toc}{\contentsline {subsubsection}{\numberline {15.11.4.8}vrna\discretionary {\unhbox \voidb@x \hbox {\relax \fontsize  {7}{8}\selectfont  $\DOTSB \leftarrow \joinrel  \rhook $}}{}{}\_\discretionary {\unhbox \voidb@x \hbox {\relax \fontsize  {7}{8}\selectfont  $\DOTSB \leftarrow \joinrel  \rhook $}}{}{}sc\discretionary {\unhbox \voidb@x \hbox {\relax \fontsize  {7}{8}\selectfont  $\DOTSB \leftarrow \joinrel  \rhook $}}{}{}\_\discretionary {\unhbox \voidb@x \hbox {\relax \fontsize  {7}{8}\selectfont  $\DOTSB \leftarrow \joinrel  \rhook $}}{}{}add\discretionary {\unhbox \voidb@x \hbox {\relax \fontsize  {7}{8}\selectfont  $\DOTSB \leftarrow \joinrel  \rhook $}}{}{}\_\discretionary {\unhbox \voidb@x \hbox {\relax \fontsize  {7}{8}\selectfont  $\DOTSB \leftarrow \joinrel  \rhook $}}{}{}data()}{191}{subsubsection.15.11.4.8}}
\newlabel{group__soft__constraints_ga8c7d907ec0125cd61c04e0908010a4e9}{{15.11.4.8}{191}{\texorpdfstring {vrna\+\_\+sc\+\_\+add\+\_\+data()}{vrna\_sc\_add\_data()}}{table.15.101}{}}
\@writefile{toc}{\contentsline {subsubsection}{\numberline {15.11.4.9}vrna\discretionary {\unhbox \voidb@x \hbox {\relax \fontsize  {7}{8}\selectfont  $\DOTSB \leftarrow \joinrel  \rhook $}}{}{}\_\discretionary {\unhbox \voidb@x \hbox {\relax \fontsize  {7}{8}\selectfont  $\DOTSB \leftarrow \joinrel  \rhook $}}{}{}sc\discretionary {\unhbox \voidb@x \hbox {\relax \fontsize  {7}{8}\selectfont  $\DOTSB \leftarrow \joinrel  \rhook $}}{}{}\_\discretionary {\unhbox \voidb@x \hbox {\relax \fontsize  {7}{8}\selectfont  $\DOTSB \leftarrow \joinrel  \rhook $}}{}{}add\discretionary {\unhbox \voidb@x \hbox {\relax \fontsize  {7}{8}\selectfont  $\DOTSB \leftarrow \joinrel  \rhook $}}{}{}\_\discretionary {\unhbox \voidb@x \hbox {\relax \fontsize  {7}{8}\selectfont  $\DOTSB \leftarrow \joinrel  \rhook $}}{}{}f()}{191}{subsubsection.15.11.4.9}}
\gdef \LT@ciii {\LT@entry 
    {3}{21.79993pt}\LT@entry 
    {3}{307.83661pt}}
\gdef \LT@civ {\LT@entry 
    {3}{21.79993pt}\LT@entry 
    {3}{307.83661pt}}
\newlabel{group__soft__constraints_gabde7d07a79bb9a8f4721aee247b674ea}{{15.11.4.9}{192}{\texorpdfstring {vrna\+\_\+sc\+\_\+add\+\_\+f()}{vrna\_sc\_add\_f()}}{table.15.102}{}}
\@writefile{toc}{\contentsline {subsubsection}{\numberline {15.11.4.10}vrna\discretionary {\unhbox \voidb@x \hbox {\relax \fontsize  {7}{8}\selectfont  $\DOTSB \leftarrow \joinrel  \rhook $}}{}{}\_\discretionary {\unhbox \voidb@x \hbox {\relax \fontsize  {7}{8}\selectfont  $\DOTSB \leftarrow \joinrel  \rhook $}}{}{}sc\discretionary {\unhbox \voidb@x \hbox {\relax \fontsize  {7}{8}\selectfont  $\DOTSB \leftarrow \joinrel  \rhook $}}{}{}\_\discretionary {\unhbox \voidb@x \hbox {\relax \fontsize  {7}{8}\selectfont  $\DOTSB \leftarrow \joinrel  \rhook $}}{}{}add\discretionary {\unhbox \voidb@x \hbox {\relax \fontsize  {7}{8}\selectfont  $\DOTSB \leftarrow \joinrel  \rhook $}}{}{}\_\discretionary {\unhbox \voidb@x \hbox {\relax \fontsize  {7}{8}\selectfont  $\DOTSB \leftarrow \joinrel  \rhook $}}{}{}bt()}{192}{subsubsection.15.11.4.10}}
\newlabel{group__soft__constraints_ga87e382b5d0c9b7d9ce1b79c0473ff700}{{15.11.4.10}{192}{\texorpdfstring {vrna\+\_\+sc\+\_\+add\+\_\+bt()}{vrna\_sc\_add\_bt()}}{table.15.103}{}}
\gdef \LT@cv {\LT@entry 
    {3}{34.54362pt}\LT@entry 
    {3}{307.83661pt}}
\@writefile{toc}{\contentsline {subsubsection}{\numberline {15.11.4.11}vrna\discretionary {\unhbox \voidb@x \hbox {\relax \fontsize  {7}{8}\selectfont  $\DOTSB \leftarrow \joinrel  \rhook $}}{}{}\_\discretionary {\unhbox \voidb@x \hbox {\relax \fontsize  {7}{8}\selectfont  $\DOTSB \leftarrow \joinrel  \rhook $}}{}{}sc\discretionary {\unhbox \voidb@x \hbox {\relax \fontsize  {7}{8}\selectfont  $\DOTSB \leftarrow \joinrel  \rhook $}}{}{}\_\discretionary {\unhbox \voidb@x \hbox {\relax \fontsize  {7}{8}\selectfont  $\DOTSB \leftarrow \joinrel  \rhook $}}{}{}add\discretionary {\unhbox \voidb@x \hbox {\relax \fontsize  {7}{8}\selectfont  $\DOTSB \leftarrow \joinrel  \rhook $}}{}{}\_\discretionary {\unhbox \voidb@x \hbox {\relax \fontsize  {7}{8}\selectfont  $\DOTSB \leftarrow \joinrel  \rhook $}}{}{}exp\discretionary {\unhbox \voidb@x \hbox {\relax \fontsize  {7}{8}\selectfont  $\DOTSB \leftarrow \joinrel  \rhook $}}{}{}\_\discretionary {\unhbox \voidb@x \hbox {\relax \fontsize  {7}{8}\selectfont  $\DOTSB \leftarrow \joinrel  \rhook $}}{}{}f()}{193}{subsubsection.15.11.4.11}}
\@setckpt{group__soft__constraints}{
\setcounter{page}{194}
\setcounter{equation}{0}
\setcounter{enumi}{2}
\setcounter{enumii}{0}
\setcounter{enumiii}{0}
\setcounter{enumiv}{0}
\setcounter{footnote}{0}
\setcounter{mpfootnote}{0}
\setcounter{part}{0}
\setcounter{chapter}{15}
\setcounter{section}{11}
\setcounter{subsection}{4}
\setcounter{subsubsection}{11}
\setcounter{paragraph}{0}
\setcounter{subparagraph}{0}
\setcounter{figure}{0}
\setcounter{table}{104}
\setcounter{float@type}{4}
\setcounter{LT@tables}{105}
\setcounter{LT@chunks}{3}
\setcounter{NAT@ctr}{0}
\setcounter{lofdepth}{1}
\setcounter{lotdepth}{1}
\setcounter{parentequation}{0}
\setcounter{Item}{12}
\setcounter{Hfootnote}{0}
\setcounter{bookmark@seq@number}{330}
\setcounter{ContinuedFloat}{0}
\setcounter{section@level}{3}
}
