\relax 
\providecommand\hyper@newdestlabel[2]{}
\@writefile{toc}{\contentsline {section}{\numberline {15.3}The R\discretionary {\unhbox \voidb@x \hbox {\relax \fontsize  {7}{8}\selectfont  $\DOTSB \leftarrow \joinrel  \rhook $}}{}{}NA folding grammar}{98}{section.15.3}}
\newlabel{group__grammar}{{15.3}{98}{The R\+NA folding grammar}{section.15.3}{}}
\@writefile{toc}{\contentsline {subsection}{\numberline {15.3.1}Detailed Description}{99}{subsection.15.3.1}}
\@setckpt{group__grammar}{
\setcounter{page}{100}
\setcounter{equation}{0}
\setcounter{enumi}{10}
\setcounter{enumii}{0}
\setcounter{enumiii}{0}
\setcounter{enumiv}{0}
\setcounter{footnote}{0}
\setcounter{mpfootnote}{0}
\setcounter{part}{0}
\setcounter{chapter}{15}
\setcounter{section}{3}
\setcounter{subsection}{1}
\setcounter{subsubsection}{0}
\setcounter{paragraph}{0}
\setcounter{subparagraph}{0}
\setcounter{figure}{0}
\setcounter{table}{36}
\setcounter{float@type}{4}
\setcounter{LT@tables}{37}
\setcounter{LT@chunks}{3}
\setcounter{NAT@ctr}{0}
\setcounter{lofdepth}{1}
\setcounter{lotdepth}{1}
\setcounter{parentequation}{0}
\setcounter{Item}{10}
\setcounter{Hfootnote}{0}
\setcounter{bookmark@seq@number}{128}
\setcounter{ContinuedFloat}{0}
\setcounter{section@level}{2}
}
