\relax 
\providecommand\hyper@newdestlabel[2]{}
\@writefile{toc}{\contentsline {section}{\numberline {15.29}Calculate Partition Functions of a Distance Based Partitioning}{254}{section.15.29}}
\newlabel{group__kl__neighborhood__pf}{{15.29}{254}{Calculate Partition Functions of a Distance Based Partitioning}{section.15.29}{}}
\@writefile{toc}{\contentsline {subsection}{\numberline {15.29.1}Detailed Description}{254}{subsection.15.29.1}}
\@writefile{toc}{\contentsline {subsection}{\numberline {15.29.2}Data Structure Documentation}{254}{subsection.15.29.2}}
\newlabel{structvrna__sol__TwoD__pf__t}{{15.29.2}{254}{Data Structure Documentation}{subsection.15.29.2}{}}
\@writefile{toc}{\contentsline {subsubsection}{\numberline {15.29.2.1}struct vrna\discretionary {\unhbox \voidb@x \hbox {\relax \fontsize  {7}{8}\selectfont  $\DOTSB \leftarrow \joinrel  \rhook $}}{}{}\_\discretionary {\unhbox \voidb@x \hbox {\relax \fontsize  {7}{8}\selectfont  $\DOTSB \leftarrow \joinrel  \rhook $}}{}{}sol\discretionary {\unhbox \voidb@x \hbox {\relax \fontsize  {7}{8}\selectfont  $\DOTSB \leftarrow \joinrel  \rhook $}}{}{}\_\discretionary {\unhbox \voidb@x \hbox {\relax \fontsize  {7}{8}\selectfont  $\DOTSB \leftarrow \joinrel  \rhook $}}{}{}\discretionary {\unhbox \voidb@x \hbox {\relax \fontsize  {7}{8}\selectfont  $\DOTSB \leftarrow \joinrel  \rhook $}}{}{}Two\discretionary {\unhbox \voidb@x \hbox {\relax \fontsize  {7}{8}\selectfont  $\DOTSB \leftarrow \joinrel  \rhook $}}{}{}D\discretionary {\unhbox \voidb@x \hbox {\relax \fontsize  {7}{8}\selectfont  $\DOTSB \leftarrow \joinrel  \rhook $}}{}{}\_\discretionary {\unhbox \voidb@x \hbox {\relax \fontsize  {7}{8}\selectfont  $\DOTSB \leftarrow \joinrel  \rhook $}}{}{}pf\discretionary {\unhbox \voidb@x \hbox {\relax \fontsize  {7}{8}\selectfont  $\DOTSB \leftarrow \joinrel  \rhook $}}{}{}\_\discretionary {\unhbox \voidb@x \hbox {\relax \fontsize  {7}{8}\selectfont  $\DOTSB \leftarrow \joinrel  \rhook $}}{}{}t}{254}{subsubsection.15.29.2.1}}
\newlabel{group__kl__neighborhood__pf_ad1f23b46dc4ebd373abdeb0382d87b83}{{15.29.2.1}{255}{Data Fields}{section*.126}{}}
\newlabel{group__kl__neighborhood__pf_a01133c264eff2c988d144e07803d1b8b}{{15.29.2.1}{255}{Data Fields}{section*.126}{}}
\newlabel{group__kl__neighborhood__pf_a17ebbf425b8769ded74b5c7b85e58ee1}{{15.29.2.1}{255}{Data Fields}{section*.126}{}}
\@writefile{toc}{\contentsline {subsection}{\numberline {15.29.3}Typedef Documentation}{255}{subsection.15.29.3}}
\newlabel{group__kl__neighborhood__pf_ga5e449fbd695406aabd2bcabddc374621}{{15.29.3}{255}{Typedef Documentation}{subsection.15.29.3}{}}
\@writefile{toc}{\contentsline {subsubsection}{\numberline {15.29.3.1}vrna\discretionary {\unhbox \voidb@x \hbox {\relax \fontsize  {7}{8}\selectfont  $\DOTSB \leftarrow \joinrel  \rhook $}}{}{}\_\discretionary {\unhbox \voidb@x \hbox {\relax \fontsize  {7}{8}\selectfont  $\DOTSB \leftarrow \joinrel  \rhook $}}{}{}sol\discretionary {\unhbox \voidb@x \hbox {\relax \fontsize  {7}{8}\selectfont  $\DOTSB \leftarrow \joinrel  \rhook $}}{}{}\_\discretionary {\unhbox \voidb@x \hbox {\relax \fontsize  {7}{8}\selectfont  $\DOTSB \leftarrow \joinrel  \rhook $}}{}{}\discretionary {\unhbox \voidb@x \hbox {\relax \fontsize  {7}{8}\selectfont  $\DOTSB \leftarrow \joinrel  \rhook $}}{}{}Two\discretionary {\unhbox \voidb@x \hbox {\relax \fontsize  {7}{8}\selectfont  $\DOTSB \leftarrow \joinrel  \rhook $}}{}{}D\discretionary {\unhbox \voidb@x \hbox {\relax \fontsize  {7}{8}\selectfont  $\DOTSB \leftarrow \joinrel  \rhook $}}{}{}\_\discretionary {\unhbox \voidb@x \hbox {\relax \fontsize  {7}{8}\selectfont  $\DOTSB \leftarrow \joinrel  \rhook $}}{}{}pf\discretionary {\unhbox \voidb@x \hbox {\relax \fontsize  {7}{8}\selectfont  $\DOTSB \leftarrow \joinrel  \rhook $}}{}{}\_\discretionary {\unhbox \voidb@x \hbox {\relax \fontsize  {7}{8}\selectfont  $\DOTSB \leftarrow \joinrel  \rhook $}}{}{}t}{255}{subsubsection.15.29.3.1}}
\@writefile{toc}{\contentsline {subsection}{\numberline {15.29.4}Function Documentation}{255}{subsection.15.29.4}}
\newlabel{group__kl__neighborhood__pf_ga0bc3427689bd09da09b8b3094a27f836}{{15.29.4}{255}{Function Documentation}{subsection.15.29.4}{}}
\@writefile{toc}{\contentsline {subsubsection}{\numberline {15.29.4.1}vrna\discretionary {\unhbox \voidb@x \hbox {\relax \fontsize  {7}{8}\selectfont  $\DOTSB \leftarrow \joinrel  \rhook $}}{}{}\_\discretionary {\unhbox \voidb@x \hbox {\relax \fontsize  {7}{8}\selectfont  $\DOTSB \leftarrow \joinrel  \rhook $}}{}{}pf\discretionary {\unhbox \voidb@x \hbox {\relax \fontsize  {7}{8}\selectfont  $\DOTSB \leftarrow \joinrel  \rhook $}}{}{}\_\discretionary {\unhbox \voidb@x \hbox {\relax \fontsize  {7}{8}\selectfont  $\DOTSB \leftarrow \joinrel  \rhook $}}{}{}\discretionary {\unhbox \voidb@x \hbox {\relax \fontsize  {7}{8}\selectfont  $\DOTSB \leftarrow \joinrel  \rhook $}}{}{}Two\discretionary {\unhbox \voidb@x \hbox {\relax \fontsize  {7}{8}\selectfont  $\DOTSB \leftarrow \joinrel  \rhook $}}{}{}D()}{255}{subsubsection.15.29.4.1}}
\gdef \LT@clvii {\LT@entry 
    {3}{69.8141pt}\LT@entry 
    {3}{304.24574pt}}
\@setckpt{group__kl__neighborhood__pf}{
\setcounter{page}{257}
\setcounter{equation}{0}
\setcounter{enumi}{2}
\setcounter{enumii}{0}
\setcounter{enumiii}{0}
\setcounter{enumiv}{0}
\setcounter{footnote}{0}
\setcounter{mpfootnote}{0}
\setcounter{part}{0}
\setcounter{chapter}{15}
\setcounter{section}{29}
\setcounter{subsection}{4}
\setcounter{subsubsection}{1}
\setcounter{paragraph}{0}
\setcounter{subparagraph}{0}
\setcounter{figure}{0}
\setcounter{table}{156}
\setcounter{float@type}{4}
\setcounter{LT@tables}{157}
\setcounter{LT@chunks}{3}
\setcounter{NAT@ctr}{0}
\setcounter{lofdepth}{1}
\setcounter{lotdepth}{1}
\setcounter{parentequation}{0}
\setcounter{Item}{12}
\setcounter{Hfootnote}{0}
\setcounter{bookmark@seq@number}{456}
\setcounter{ContinuedFloat}{0}
\setcounter{section@level}{3}
}
