\relax 
\providecommand\hyper@newdestlabel[2]{}
\@writefile{toc}{\contentsline {section}{\numberline {15.47}Partition Function for two hybridized Sequences as a stepwise Process}{323}{section.15.47}}
\newlabel{group__up__cofold}{{15.47}{323}{Partition Function for two hybridized Sequences as a stepwise Process}{section.15.47}{}}
\newlabel{group__up__cofold_gadde308fd5f696dc271b1532aa96fd12f}{{15.47}{323}{Functions}{section*.185}{}}
\newlabel{group__up__cofold_gac20bd61824981d45ce0dc9934aa56df8}{{15.47}{323}{Functions}{section*.185}{}}
\@writefile{toc}{\contentsline {subsection}{\numberline {15.47.1}Detailed Description}{323}{subsection.15.47.1}}
\@writefile{toc}{\contentsline {subsection}{\numberline {15.47.2}Function Documentation}{323}{subsection.15.47.2}}
\newlabel{group__up__cofold_ga5b4ee40e190d2f633cd01cf0d2fe93cf}{{15.47.2}{323}{Function Documentation}{subsection.15.47.2}{}}
\@writefile{toc}{\contentsline {subsubsection}{\numberline {15.47.2.1}pf\discretionary {\unhbox \voidb@x \hbox {\relax \fontsize  {7}{8}\selectfont  $\DOTSB \leftarrow \joinrel  \rhook $}}{}{}\_\discretionary {\unhbox \voidb@x \hbox {\relax \fontsize  {7}{8}\selectfont  $\DOTSB \leftarrow \joinrel  \rhook $}}{}{}unstru()}{323}{subsubsection.15.47.2.1}}
\gdef \LT@cci {\LT@entry 
    {3}{51.82336pt}\LT@entry 
    {3}{12.4pt}}
\newlabel{group__up__cofold_ga1aa0aa02bc3a724f87360c03097afd00}{{15.47.2.1}{324}{\texorpdfstring {pf\+\_\+unstru()}{pf\_unstru()}}{table.15.200}{}}
\@writefile{toc}{\contentsline {subsubsection}{\numberline {15.47.2.2}pf\discretionary {\unhbox \voidb@x \hbox {\relax \fontsize  {7}{8}\selectfont  $\DOTSB \leftarrow \joinrel  \rhook $}}{}{}\_\discretionary {\unhbox \voidb@x \hbox {\relax \fontsize  {7}{8}\selectfont  $\DOTSB \leftarrow \joinrel  \rhook $}}{}{}interact()}{324}{subsubsection.15.47.2.2}}
\gdef \LT@ccii {\LT@entry 
    {3}{41.3026pt}\LT@entry 
    {3}{12.4pt}}
\@setckpt{group__up__cofold}{
\setcounter{page}{326}
\setcounter{equation}{0}
\setcounter{enumi}{2}
\setcounter{enumii}{0}
\setcounter{enumiii}{0}
\setcounter{enumiv}{0}
\setcounter{footnote}{0}
\setcounter{mpfootnote}{0}
\setcounter{part}{0}
\setcounter{chapter}{15}
\setcounter{section}{47}
\setcounter{subsection}{2}
\setcounter{subsubsection}{2}
\setcounter{paragraph}{0}
\setcounter{subparagraph}{0}
\setcounter{figure}{0}
\setcounter{table}{201}
\setcounter{float@type}{4}
\setcounter{LT@tables}{202}
\setcounter{LT@chunks}{3}
\setcounter{NAT@ctr}{0}
\setcounter{lofdepth}{1}
\setcounter{lotdepth}{1}
\setcounter{parentequation}{0}
\setcounter{Item}{12}
\setcounter{Hfootnote}{0}
\setcounter{bookmark@seq@number}{614}
\setcounter{ContinuedFloat}{0}
\setcounter{section@level}{3}
}
