\relax 
\providecommand\hyper@newdestlabel[2]{}
\@writefile{toc}{\contentsline {section}{\numberline {15.28}Calculating M\discretionary {\unhbox \voidb@x \hbox {\relax \fontsize  {7}{8}\selectfont  $\DOTSB \leftarrow \joinrel  \rhook $}}{}{}FE representatives of a Distance Based Partitioning}{246}{section.15.28}}
\newlabel{group__kl__neighborhood__mfe}{{15.28}{246}{Calculating M\+FE representatives of a Distance Based Partitioning}{section.15.28}{}}
\citation{lorenz:2009}
\@writefile{toc}{\contentsline {subsection}{\numberline {15.28.1}Detailed Description}{247}{subsection.15.28.1}}
\@writefile{brf}{\backcite{lorenz:2009}{{247}{15.28.1}{subsection.15.28.1}}}
\@writefile{toc}{\contentsline {subsection}{\numberline {15.28.2}Data Structure Documentation}{247}{subsection.15.28.2}}
\newlabel{structvrna__sol__TwoD__t}{{15.28.2}{247}{Data Structure Documentation}{subsection.15.28.2}{}}
\@writefile{toc}{\contentsline {subsubsection}{\numberline {15.28.2.1}struct vrna\discretionary {\unhbox \voidb@x \hbox {\relax \fontsize  {7}{8}\selectfont  $\DOTSB \leftarrow \joinrel  \rhook $}}{}{}\_\discretionary {\unhbox \voidb@x \hbox {\relax \fontsize  {7}{8}\selectfont  $\DOTSB \leftarrow \joinrel  \rhook $}}{}{}sol\discretionary {\unhbox \voidb@x \hbox {\relax \fontsize  {7}{8}\selectfont  $\DOTSB \leftarrow \joinrel  \rhook $}}{}{}\_\discretionary {\unhbox \voidb@x \hbox {\relax \fontsize  {7}{8}\selectfont  $\DOTSB \leftarrow \joinrel  \rhook $}}{}{}\discretionary {\unhbox \voidb@x \hbox {\relax \fontsize  {7}{8}\selectfont  $\DOTSB \leftarrow \joinrel  \rhook $}}{}{}Two\discretionary {\unhbox \voidb@x \hbox {\relax \fontsize  {7}{8}\selectfont  $\DOTSB \leftarrow \joinrel  \rhook $}}{}{}D\discretionary {\unhbox \voidb@x \hbox {\relax \fontsize  {7}{8}\selectfont  $\DOTSB \leftarrow \joinrel  \rhook $}}{}{}\_\discretionary {\unhbox \voidb@x \hbox {\relax \fontsize  {7}{8}\selectfont  $\DOTSB \leftarrow \joinrel  \rhook $}}{}{}t}{247}{subsubsection.15.28.2.1}}
\newlabel{group__kl__neighborhood__mfe_ac111e850bb3b3a11b6b5707912cfa1b8}{{15.28.2.1}{247}{Data Fields}{section*.119}{}}
\newlabel{group__kl__neighborhood__mfe_ab8e95cd920901175a2cc8de726ab1d36}{{15.28.2.1}{247}{Data Fields}{section*.119}{}}
\newlabel{group__kl__neighborhood__mfe_a7577863a6a84224dfee39b321c03cab1}{{15.28.2.1}{247}{Data Fields}{section*.119}{}}
\newlabel{group__kl__neighborhood__mfe_ac5942d2505a6cd7e4a8073a321d5d2d5}{{15.28.2.1}{247}{Data Fields}{section*.119}{}}
\newlabel{structTwoDfold__vars}{{15.28.2.1}{247}{Data Fields}{section*.119}{}}
\@writefile{toc}{\contentsline {subsubsection}{\numberline {15.28.2.2}struct Two\discretionary {\unhbox \voidb@x \hbox {\relax \fontsize  {7}{8}\selectfont  $\DOTSB \leftarrow \joinrel  \rhook $}}{}{}Dfold\discretionary {\unhbox \voidb@x \hbox {\relax \fontsize  {7}{8}\selectfont  $\DOTSB \leftarrow \joinrel  \rhook $}}{}{}\_\discretionary {\unhbox \voidb@x \hbox {\relax \fontsize  {7}{8}\selectfont  $\DOTSB \leftarrow \joinrel  \rhook $}}{}{}vars}{247}{subsubsection.15.28.2.2}}
\newlabel{group__kl__neighborhood__mfe_a70da9e83ad87c37013b4bf0b265dd307}{{15.28.2.2}{248}{Data Fields}{section*.121}{}}
\newlabel{group__kl__neighborhood__mfe_ade5c7e9337a458ae20bac75abdc52d64}{{15.28.2.2}{248}{Data Fields}{section*.121}{}}
\newlabel{group__kl__neighborhood__mfe_aedf60b8b26dae05ad266d3e098d18208}{{15.28.2.2}{248}{Data Fields}{section*.121}{}}
\newlabel{group__kl__neighborhood__mfe_a3596f3d4d320318c4b8428e2abc7ab56}{{15.28.2.2}{248}{Data Fields}{section*.121}{}}
\newlabel{group__kl__neighborhood__mfe_ab9ee459ffbfb5d2c138a033516056cdc}{{15.28.2.2}{248}{Data Fields}{section*.121}{}}
\newlabel{group__kl__neighborhood__mfe_a621ed2ab02116f3f8f5e7120dec429eb}{{15.28.2.2}{248}{Data Fields}{section*.121}{}}
\newlabel{group__kl__neighborhood__mfe_a03f198a4abdb3b784486d2ba5c533aa4}{{15.28.2.2}{248}{Data Fields}{section*.121}{}}
\newlabel{group__kl__neighborhood__mfe_aa11f5bcd8c4fe70a91c155c877c855d5}{{15.28.2.2}{248}{Data Fields}{section*.121}{}}
\newlabel{group__kl__neighborhood__mfe_a2eaa93316b6beb17531f0c078806036c}{{15.28.2.2}{248}{Data Fields}{section*.121}{}}
\newlabel{group__kl__neighborhood__mfe_a1a20cb06b58b75d1a3dbdbc8bc60d0a7}{{15.28.2.2}{248}{Data Fields}{section*.121}{}}
\newlabel{group__kl__neighborhood__mfe_a536525b98c1b633d4c5f2da4f8d78c18}{{15.28.2.2}{248}{Data Fields}{section*.121}{}}
\newlabel{group__kl__neighborhood__mfe_aa7abf73c3114cb5f0dc90e702fa9dd0f}{{15.28.2.2}{248}{Data Fields}{section*.121}{}}
\newlabel{group__kl__neighborhood__mfe_af1106e1a592e2dccc92b3452340549e0}{{15.28.2.2}{248}{Data Fields}{section*.121}{}}
\@writefile{toc}{\contentsline {subsection}{\numberline {15.28.3}Typedef Documentation}{249}{subsection.15.28.3}}
\newlabel{group__kl__neighborhood__mfe_ga6a81a58268d250309712549a3fa0aab2}{{15.28.3}{249}{Typedef Documentation}{subsection.15.28.3}{}}
\@writefile{toc}{\contentsline {subsubsection}{\numberline {15.28.3.1}vrna\discretionary {\unhbox \voidb@x \hbox {\relax \fontsize  {7}{8}\selectfont  $\DOTSB \leftarrow \joinrel  \rhook $}}{}{}\_\discretionary {\unhbox \voidb@x \hbox {\relax \fontsize  {7}{8}\selectfont  $\DOTSB \leftarrow \joinrel  \rhook $}}{}{}sol\discretionary {\unhbox \voidb@x \hbox {\relax \fontsize  {7}{8}\selectfont  $\DOTSB \leftarrow \joinrel  \rhook $}}{}{}\_\discretionary {\unhbox \voidb@x \hbox {\relax \fontsize  {7}{8}\selectfont  $\DOTSB \leftarrow \joinrel  \rhook $}}{}{}\discretionary {\unhbox \voidb@x \hbox {\relax \fontsize  {7}{8}\selectfont  $\DOTSB \leftarrow \joinrel  \rhook $}}{}{}Two\discretionary {\unhbox \voidb@x \hbox {\relax \fontsize  {7}{8}\selectfont  $\DOTSB \leftarrow \joinrel  \rhook $}}{}{}D\discretionary {\unhbox \voidb@x \hbox {\relax \fontsize  {7}{8}\selectfont  $\DOTSB \leftarrow \joinrel  \rhook $}}{}{}\_\discretionary {\unhbox \voidb@x \hbox {\relax \fontsize  {7}{8}\selectfont  $\DOTSB \leftarrow \joinrel  \rhook $}}{}{}t}{249}{subsubsection.15.28.3.1}}
\newlabel{group__kl__neighborhood__mfe_gaf4f514010a14f9d59d850742b3e96954}{{15.28.3.1}{249}{\texorpdfstring {vrna\+\_\+sol\+\_\+\+Two\+D\+\_\+t}{vrna\_sol\_TwoD\_t}}{subsubsection.15.28.3.1}{}}
\@writefile{toc}{\contentsline {subsubsection}{\numberline {15.28.3.2}Two\discretionary {\unhbox \voidb@x \hbox {\relax \fontsize  {7}{8}\selectfont  $\DOTSB \leftarrow \joinrel  \rhook $}}{}{}Dfold\discretionary {\unhbox \voidb@x \hbox {\relax \fontsize  {7}{8}\selectfont  $\DOTSB \leftarrow \joinrel  \rhook $}}{}{}\_\discretionary {\unhbox \voidb@x \hbox {\relax \fontsize  {7}{8}\selectfont  $\DOTSB \leftarrow \joinrel  \rhook $}}{}{}vars}{249}{subsubsection.15.28.3.2}}
\@writefile{toc}{\contentsline {subsection}{\numberline {15.28.4}Function Documentation}{249}{subsection.15.28.4}}
\newlabel{group__kl__neighborhood__mfe_ga243c288b463147352829df04de6a2f77}{{15.28.4}{249}{Function Documentation}{subsection.15.28.4}{}}
\@writefile{toc}{\contentsline {subsubsection}{\numberline {15.28.4.1}vrna\discretionary {\unhbox \voidb@x \hbox {\relax \fontsize  {7}{8}\selectfont  $\DOTSB \leftarrow \joinrel  \rhook $}}{}{}\_\discretionary {\unhbox \voidb@x \hbox {\relax \fontsize  {7}{8}\selectfont  $\DOTSB \leftarrow \joinrel  \rhook $}}{}{}mfe\discretionary {\unhbox \voidb@x \hbox {\relax \fontsize  {7}{8}\selectfont  $\DOTSB \leftarrow \joinrel  \rhook $}}{}{}\_\discretionary {\unhbox \voidb@x \hbox {\relax \fontsize  {7}{8}\selectfont  $\DOTSB \leftarrow \joinrel  \rhook $}}{}{}\discretionary {\unhbox \voidb@x \hbox {\relax \fontsize  {7}{8}\selectfont  $\DOTSB \leftarrow \joinrel  \rhook $}}{}{}Two\discretionary {\unhbox \voidb@x \hbox {\relax \fontsize  {7}{8}\selectfont  $\DOTSB \leftarrow \joinrel  \rhook $}}{}{}D()}{249}{subsubsection.15.28.4.1}}
\gdef \LT@cli {\LT@entry 
    {3}{51.3193pt}\LT@entry 
    {3}{261.33458pt}}
\gdef \LT@clii {\LT@entry 
    {3}{21.79993pt}\LT@entry 
    {3}{261.33458pt}}
\newlabel{group__kl__neighborhood__mfe_ga15a96fc96f4f4c2e01a11b3e17d1ef43}{{15.28.4.1}{250}{\texorpdfstring {vrna\+\_\+mfe\+\_\+\+Two\+D()}{vrna\_mfe\_TwoD()}}{table.15.150}{}}
\@writefile{toc}{\contentsline {subsubsection}{\numberline {15.28.4.2}vrna\discretionary {\unhbox \voidb@x \hbox {\relax \fontsize  {7}{8}\selectfont  $\DOTSB \leftarrow \joinrel  \rhook $}}{}{}\_\discretionary {\unhbox \voidb@x \hbox {\relax \fontsize  {7}{8}\selectfont  $\DOTSB \leftarrow \joinrel  \rhook $}}{}{}backtrack5\discretionary {\unhbox \voidb@x \hbox {\relax \fontsize  {7}{8}\selectfont  $\DOTSB \leftarrow \joinrel  \rhook $}}{}{}\_\discretionary {\unhbox \voidb@x \hbox {\relax \fontsize  {7}{8}\selectfont  $\DOTSB \leftarrow \joinrel  \rhook $}}{}{}\discretionary {\unhbox \voidb@x \hbox {\relax \fontsize  {7}{8}\selectfont  $\DOTSB \leftarrow \joinrel  \rhook $}}{}{}Two\discretionary {\unhbox \voidb@x \hbox {\relax \fontsize  {7}{8}\selectfont  $\DOTSB \leftarrow \joinrel  \rhook $}}{}{}D()}{250}{subsubsection.15.28.4.2}}
\newlabel{group__kl__neighborhood__mfe_gac9284f132cf0eaa0a2f43590eda05488}{{15.28.4.2}{250}{\texorpdfstring {vrna\+\_\+backtrack5\+\_\+\+Two\+D()}{vrna\_backtrack5\_TwoD()}}{table.15.151}{}}
\@writefile{toc}{\contentsline {subsubsection}{\numberline {15.28.4.3}get\discretionary {\unhbox \voidb@x \hbox {\relax \fontsize  {7}{8}\selectfont  $\DOTSB \leftarrow \joinrel  \rhook $}}{}{}\_\discretionary {\unhbox \voidb@x \hbox {\relax \fontsize  {7}{8}\selectfont  $\DOTSB \leftarrow \joinrel  \rhook $}}{}{}\discretionary {\unhbox \voidb@x \hbox {\relax \fontsize  {7}{8}\selectfont  $\DOTSB \leftarrow \joinrel  \rhook $}}{}{}Two\discretionary {\unhbox \voidb@x \hbox {\relax \fontsize  {7}{8}\selectfont  $\DOTSB \leftarrow \joinrel  \rhook $}}{}{}Dfold\discretionary {\unhbox \voidb@x \hbox {\relax \fontsize  {7}{8}\selectfont  $\DOTSB \leftarrow \joinrel  \rhook $}}{}{}\_\discretionary {\unhbox \voidb@x \hbox {\relax \fontsize  {7}{8}\selectfont  $\DOTSB \leftarrow \joinrel  \rhook $}}{}{}variables()}{250}{subsubsection.15.28.4.3}}
\gdef \LT@cliii {\LT@entry 
    {3}{52.9481pt}\LT@entry 
    {3}{370.1425pt}}
\gdef \LT@cliv {\LT@entry 
    {3}{66.54698pt}\LT@entry 
    {3}{192.68385pt}}
\newlabel{group__kl__neighborhood__mfe_ga05bf4f31d216b1b160fd2d3d68e9b487}{{15.28.4.3}{251}{\texorpdfstring {get\+\_\+\+Two\+Dfold\+\_\+variables()}{get\_TwoDfold\_variables()}}{table.15.152}{}}
\@writefile{toc}{\contentsline {subsubsection}{\numberline {15.28.4.4}destroy\discretionary {\unhbox \voidb@x \hbox {\relax \fontsize  {7}{8}\selectfont  $\DOTSB \leftarrow \joinrel  \rhook $}}{}{}\_\discretionary {\unhbox \voidb@x \hbox {\relax \fontsize  {7}{8}\selectfont  $\DOTSB \leftarrow \joinrel  \rhook $}}{}{}\discretionary {\unhbox \voidb@x \hbox {\relax \fontsize  {7}{8}\selectfont  $\DOTSB \leftarrow \joinrel  \rhook $}}{}{}Two\discretionary {\unhbox \voidb@x \hbox {\relax \fontsize  {7}{8}\selectfont  $\DOTSB \leftarrow \joinrel  \rhook $}}{}{}Dfold\discretionary {\unhbox \voidb@x \hbox {\relax \fontsize  {7}{8}\selectfont  $\DOTSB \leftarrow \joinrel  \rhook $}}{}{}\_\discretionary {\unhbox \voidb@x \hbox {\relax \fontsize  {7}{8}\selectfont  $\DOTSB \leftarrow \joinrel  \rhook $}}{}{}variables()}{251}{subsubsection.15.28.4.4}}
\newlabel{group__kl__neighborhood__mfe_ga7fc5e3e92fe97914ca4eccd33c01c2a7}{{15.28.4.4}{251}{\texorpdfstring {destroy\+\_\+\+Two\+Dfold\+\_\+variables()}{destroy\_TwoDfold\_variables()}}{table.15.153}{}}
\gdef \LT@clv {\LT@entry 
    {3}{51.3193pt}\LT@entry 
    {3}{248.33873pt}}
\@writefile{toc}{\contentsline {subsubsection}{\numberline {15.28.4.5}Two\discretionary {\unhbox \voidb@x \hbox {\relax \fontsize  {7}{8}\selectfont  $\DOTSB \leftarrow \joinrel  \rhook $}}{}{}Dfold\discretionary {\unhbox \voidb@x \hbox {\relax \fontsize  {7}{8}\selectfont  $\DOTSB \leftarrow \joinrel  \rhook $}}{}{}List()}{252}{subsubsection.15.28.4.5}}
\newlabel{group__kl__neighborhood__mfe_gaf4dc05bf8fc1ea53acd7aeb798ba80c2}{{15.28.4.5}{252}{\texorpdfstring {Two\+Dfold\+List()}{TwoDfoldList()}}{table.15.154}{}}
\@writefile{toc}{\contentsline {subsubsection}{\numberline {15.28.4.6}Two\discretionary {\unhbox \voidb@x \hbox {\relax \fontsize  {7}{8}\selectfont  $\DOTSB \leftarrow \joinrel  \rhook $}}{}{}Dfold\discretionary {\unhbox \voidb@x \hbox {\relax \fontsize  {7}{8}\selectfont  $\DOTSB \leftarrow \joinrel  \rhook $}}{}{}\_\discretionary {\unhbox \voidb@x \hbox {\relax \fontsize  {7}{8}\selectfont  $\DOTSB \leftarrow \joinrel  \rhook $}}{}{}backtrack\discretionary {\unhbox \voidb@x \hbox {\relax \fontsize  {7}{8}\selectfont  $\DOTSB \leftarrow \joinrel  \rhook $}}{}{}\_\discretionary {\unhbox \voidb@x \hbox {\relax \fontsize  {7}{8}\selectfont  $\DOTSB \leftarrow \joinrel  \rhook $}}{}{}f5()}{252}{subsubsection.15.28.4.6}}
\gdef \LT@clvi {\LT@entry 
    {3}{29.57576pt}\LT@entry 
    {3}{248.33873pt}}
\@setckpt{group__kl__neighborhood__mfe}{
\setcounter{page}{254}
\setcounter{equation}{0}
\setcounter{enumi}{2}
\setcounter{enumii}{0}
\setcounter{enumiii}{0}
\setcounter{enumiv}{0}
\setcounter{footnote}{0}
\setcounter{mpfootnote}{0}
\setcounter{part}{0}
\setcounter{chapter}{15}
\setcounter{section}{28}
\setcounter{subsection}{4}
\setcounter{subsubsection}{6}
\setcounter{paragraph}{0}
\setcounter{subparagraph}{0}
\setcounter{figure}{0}
\setcounter{table}{155}
\setcounter{float@type}{4}
\setcounter{LT@tables}{156}
\setcounter{LT@chunks}{3}
\setcounter{NAT@ctr}{0}
\setcounter{lofdepth}{1}
\setcounter{lotdepth}{1}
\setcounter{parentequation}{0}
\setcounter{Item}{12}
\setcounter{Hfootnote}{0}
\setcounter{bookmark@seq@number}{448}
\setcounter{ContinuedFloat}{0}
\setcounter{section@level}{3}
}
