\relax 
\providecommand\hyper@newdestlabel[2]{}
\@writefile{toc}{\contentsline {section}{\numberline {15.42}Data Structures and Preprocessor Macros}{284}{section.15.42}}
\newlabel{group__data__structures}{{15.42}{284}{Data Structures and Preprocessor Macros}{section.15.42}{}}
\newlabel{group__data__structures_gac8c5669d3fb813cacf506489689305ce}{{15.42}{285}{Typedefs}{section*.162}{}}
\newlabel{group__data__structures_ga8e4eb5e1bfc95776559575beb359af87}{{15.42}{285}{Typedefs}{section*.162}{}}
\newlabel{group__data__structures_gaa651bda42e7692f08cb603cd6834b0ee}{{15.42}{285}{Typedefs}{section*.162}{}}
\newlabel{group__data__structures_gae4fc91141cc69c6d8eaf1332cb991ecc}{{15.42}{285}{Typedefs}{section*.162}{}}
\newlabel{group__data__structures_gacc9cdae790dac75a7024e7069c0d4400}{{15.42}{285}{Typedefs}{section*.162}{}}
\newlabel{group__data__structures_ga31125aeace516926bf7f251f759b6126}{{15.42}{285}{Typedefs}{section*.162}{}}
\newlabel{group__data__structures_ga20881ac02e5932356c09b070efedb560}{{15.42}{285}{Typedefs}{section*.162}{}}
\newlabel{group__data__structures_ga5a052dbe39d3ca1b13932934b13f5263}{{15.42}{285}{Typedefs}{section*.162}{}}
\newlabel{group__data__structures_ga501763bd204b60f40e3ab68b40023023}{{15.42}{285}{Typedefs}{section*.162}{}}
\newlabel{group__data__structures_ga212e3afb0cc299acdfb1ec976435686e}{{15.42}{285}{Typedefs}{section*.162}{}}
\newlabel{group__data__structures_gaaf402058651c8218fa72788d591cda05}{{15.42}{285}{Typedefs}{section*.162}{}}
\newlabel{group__data__structures_gabd3b93f9aaa9f3acce2d148bae97d24e}{{15.42}{285}{Typedefs}{section*.162}{}}
\@writefile{toc}{\contentsline {subsection}{\numberline {15.42.1}Detailed Description}{286}{subsection.15.42.1}}
\@writefile{toc}{\contentsline {subsection}{\numberline {15.42.2}Data Structure Documentation}{286}{subsection.15.42.2}}
\newlabel{structvrna__basepair__s}{{15.42.2}{286}{Data Structure Documentation}{subsection.15.42.2}{}}
\@writefile{toc}{\contentsline {subsubsection}{\numberline {15.42.2.1}struct vrna\discretionary {\unhbox \voidb@x \hbox {\relax \fontsize  {7}{8}\selectfont  $\DOTSB \leftarrow \joinrel  \rhook $}}{}{}\_\discretionary {\unhbox \voidb@x \hbox {\relax \fontsize  {7}{8}\selectfont  $\DOTSB \leftarrow \joinrel  \rhook $}}{}{}basepair\discretionary {\unhbox \voidb@x \hbox {\relax \fontsize  {7}{8}\selectfont  $\DOTSB \leftarrow \joinrel  \rhook $}}{}{}\_\discretionary {\unhbox \voidb@x \hbox {\relax \fontsize  {7}{8}\selectfont  $\DOTSB \leftarrow \joinrel  \rhook $}}{}{}s}{286}{subsubsection.15.42.2.1}}
\newlabel{structvrna__plist__s}{{15.42.2.1}{286}{struct vrna\+\_\+basepair\+\_\+s}{subsubsection.15.42.2.1}{}}
\@writefile{toc}{\contentsline {subsubsection}{\numberline {15.42.2.2}struct vrna\discretionary {\unhbox \voidb@x \hbox {\relax \fontsize  {7}{8}\selectfont  $\DOTSB \leftarrow \joinrel  \rhook $}}{}{}\_\discretionary {\unhbox \voidb@x \hbox {\relax \fontsize  {7}{8}\selectfont  $\DOTSB \leftarrow \joinrel  \rhook $}}{}{}plist\discretionary {\unhbox \voidb@x \hbox {\relax \fontsize  {7}{8}\selectfont  $\DOTSB \leftarrow \joinrel  \rhook $}}{}{}\_\discretionary {\unhbox \voidb@x \hbox {\relax \fontsize  {7}{8}\selectfont  $\DOTSB \leftarrow \joinrel  \rhook $}}{}{}s}{286}{subsubsection.15.42.2.2}}
\newlabel{structvrna__cpair__s}{{15.42.2.2}{286}{struct vrna\+\_\+plist\+\_\+s}{subsubsection.15.42.2.2}{}}
\@writefile{toc}{\contentsline {subsubsection}{\numberline {15.42.2.3}struct vrna\discretionary {\unhbox \voidb@x \hbox {\relax \fontsize  {7}{8}\selectfont  $\DOTSB \leftarrow \joinrel  \rhook $}}{}{}\_\discretionary {\unhbox \voidb@x \hbox {\relax \fontsize  {7}{8}\selectfont  $\DOTSB \leftarrow \joinrel  \rhook $}}{}{}cpair\discretionary {\unhbox \voidb@x \hbox {\relax \fontsize  {7}{8}\selectfont  $\DOTSB \leftarrow \joinrel  \rhook $}}{}{}\_\discretionary {\unhbox \voidb@x \hbox {\relax \fontsize  {7}{8}\selectfont  $\DOTSB \leftarrow \joinrel  \rhook $}}{}{}s}{286}{subsubsection.15.42.2.3}}
\newlabel{structvrna__color__s}{{15.42.2.3}{286}{struct vrna\+\_\+cpair\+\_\+s}{subsubsection.15.42.2.3}{}}
\@writefile{toc}{\contentsline {subsubsection}{\numberline {15.42.2.4}struct vrna\discretionary {\unhbox \voidb@x \hbox {\relax \fontsize  {7}{8}\selectfont  $\DOTSB \leftarrow \joinrel  \rhook $}}{}{}\_\discretionary {\unhbox \voidb@x \hbox {\relax \fontsize  {7}{8}\selectfont  $\DOTSB \leftarrow \joinrel  \rhook $}}{}{}color\discretionary {\unhbox \voidb@x \hbox {\relax \fontsize  {7}{8}\selectfont  $\DOTSB \leftarrow \joinrel  \rhook $}}{}{}\_\discretionary {\unhbox \voidb@x \hbox {\relax \fontsize  {7}{8}\selectfont  $\DOTSB \leftarrow \joinrel  \rhook $}}{}{}s}{286}{subsubsection.15.42.2.4}}
\newlabel{structvrna__data__linear__s}{{15.42.2.4}{286}{struct vrna\+\_\+color\+\_\+s}{subsubsection.15.42.2.4}{}}
\@writefile{toc}{\contentsline {subsubsection}{\numberline {15.42.2.5}struct vrna\discretionary {\unhbox \voidb@x \hbox {\relax \fontsize  {7}{8}\selectfont  $\DOTSB \leftarrow \joinrel  \rhook $}}{}{}\_\discretionary {\unhbox \voidb@x \hbox {\relax \fontsize  {7}{8}\selectfont  $\DOTSB \leftarrow \joinrel  \rhook $}}{}{}data\discretionary {\unhbox \voidb@x \hbox {\relax \fontsize  {7}{8}\selectfont  $\DOTSB \leftarrow \joinrel  \rhook $}}{}{}\_\discretionary {\unhbox \voidb@x \hbox {\relax \fontsize  {7}{8}\selectfont  $\DOTSB \leftarrow \joinrel  \rhook $}}{}{}linear\discretionary {\unhbox \voidb@x \hbox {\relax \fontsize  {7}{8}\selectfont  $\DOTSB \leftarrow \joinrel  \rhook $}}{}{}\_\discretionary {\unhbox \voidb@x \hbox {\relax \fontsize  {7}{8}\selectfont  $\DOTSB \leftarrow \joinrel  \rhook $}}{}{}s}{286}{subsubsection.15.42.2.5}}
\newlabel{structvrna__sect__s}{{15.42.2.5}{286}{struct vrna\+\_\+data\+\_\+linear\+\_\+s}{figure.caption.164}{}}
\@writefile{toc}{\contentsline {subsubsection}{\numberline {15.42.2.6}struct vrna\discretionary {\unhbox \voidb@x \hbox {\relax \fontsize  {7}{8}\selectfont  $\DOTSB \leftarrow \joinrel  \rhook $}}{}{}\_\discretionary {\unhbox \voidb@x \hbox {\relax \fontsize  {7}{8}\selectfont  $\DOTSB \leftarrow \joinrel  \rhook $}}{}{}sect\discretionary {\unhbox \voidb@x \hbox {\relax \fontsize  {7}{8}\selectfont  $\DOTSB \leftarrow \joinrel  \rhook $}}{}{}\_\discretionary {\unhbox \voidb@x \hbox {\relax \fontsize  {7}{8}\selectfont  $\DOTSB \leftarrow \joinrel  \rhook $}}{}{}s}{287}{subsubsection.15.42.2.6}}
\newlabel{structvrna__bp__stack__s}{{15.42.2.6}{287}{struct vrna\+\_\+sect\+\_\+s}{subsubsection.15.42.2.6}{}}
\@writefile{toc}{\contentsline {subsubsection}{\numberline {15.42.2.7}struct vrna\discretionary {\unhbox \voidb@x \hbox {\relax \fontsize  {7}{8}\selectfont  $\DOTSB \leftarrow \joinrel  \rhook $}}{}{}\_\discretionary {\unhbox \voidb@x \hbox {\relax \fontsize  {7}{8}\selectfont  $\DOTSB \leftarrow \joinrel  \rhook $}}{}{}bp\discretionary {\unhbox \voidb@x \hbox {\relax \fontsize  {7}{8}\selectfont  $\DOTSB \leftarrow \joinrel  \rhook $}}{}{}\_\discretionary {\unhbox \voidb@x \hbox {\relax \fontsize  {7}{8}\selectfont  $\DOTSB \leftarrow \joinrel  \rhook $}}{}{}stack\discretionary {\unhbox \voidb@x \hbox {\relax \fontsize  {7}{8}\selectfont  $\DOTSB \leftarrow \joinrel  \rhook $}}{}{}\_\discretionary {\unhbox \voidb@x \hbox {\relax \fontsize  {7}{8}\selectfont  $\DOTSB \leftarrow \joinrel  \rhook $}}{}{}s}{287}{subsubsection.15.42.2.7}}
\newlabel{structpu__contrib}{{15.42.2.7}{287}{struct vrna\+\_\+bp\+\_\+stack\+\_\+s}{subsubsection.15.42.2.7}{}}
\@writefile{toc}{\contentsline {subsubsection}{\numberline {15.42.2.8}struct pu\discretionary {\unhbox \voidb@x \hbox {\relax \fontsize  {7}{8}\selectfont  $\DOTSB \leftarrow \joinrel  \rhook $}}{}{}\_\discretionary {\unhbox \voidb@x \hbox {\relax \fontsize  {7}{8}\selectfont  $\DOTSB \leftarrow \joinrel  \rhook $}}{}{}contrib}{287}{subsubsection.15.42.2.8}}
\newlabel{group__data__structures_ac9034ac9a84ed0647587659d6e9be1e8}{{15.42.2.8}{287}{Data Fields}{section*.165}{}}
\newlabel{group__data__structures_a8ca0da20536780589fb3e3472ca0581f}{{15.42.2.8}{287}{Data Fields}{section*.165}{}}
\newlabel{group__data__structures_a1222ebf74f426bbcd843dcc325da207b}{{15.42.2.8}{287}{Data Fields}{section*.165}{}}
\newlabel{group__data__structures_accb192ba6b4b91a1cb2f8080934fd428}{{15.42.2.8}{287}{Data Fields}{section*.165}{}}
\newlabel{group__data__structures_a33d5ada6e861db0c81aa3d5b2989262e}{{15.42.2.8}{287}{Data Fields}{section*.165}{}}
\newlabel{group__data__structures_a403c1c7f20beeeffba7632fac0cfcbff}{{15.42.2.8}{287}{Data Fields}{section*.165}{}}
\newlabel{structinteract}{{15.42.2.8}{287}{Data Fields}{section*.165}{}}
\@writefile{toc}{\contentsline {subsubsection}{\numberline {15.42.2.9}struct interact}{287}{subsubsection.15.42.2.9}}
\newlabel{group__data__structures_a1fc8b3860c083f164daa9712690a3a56}{{15.42.2.9}{287}{Data Fields}{section*.166}{}}
\newlabel{group__data__structures_a54f8183542fff4c32ab7ace49a16c02c}{{15.42.2.9}{287}{Data Fields}{section*.166}{}}
\newlabel{group__data__structures_ad58303190f9e085c3ab59890cbf61223}{{15.42.2.9}{287}{Data Fields}{section*.166}{}}
\newlabel{group__data__structures_a41793812abae560805414761fec398fe}{{15.42.2.9}{287}{Data Fields}{section*.166}{}}
\newlabel{group__data__structures_ab6d031a21388be8763b75ea74c937f17}{{15.42.2.9}{287}{Data Fields}{section*.166}{}}
\newlabel{group__data__structures_a61e457fbf943d57364be6ddf1b4e7b8a}{{15.42.2.9}{287}{Data Fields}{section*.166}{}}
\newlabel{group__data__structures_a7555cb6363d1479341eb72b9c087aa34}{{15.42.2.9}{287}{Data Fields}{section*.166}{}}
\newlabel{group__data__structures_a030ab45056342e12cb3955e4defd3904}{{15.42.2.9}{287}{Data Fields}{section*.166}{}}
\newlabel{group__data__structures_ac9fcb5dca54ec5faa76e02b6488b9524}{{15.42.2.9}{287}{Data Fields}{section*.166}{}}
\newlabel{structpu__out}{{15.42.2.9}{287}{Data Fields}{section*.166}{}}
\@writefile{toc}{\contentsline {subsubsection}{\numberline {15.42.2.10}struct pu\discretionary {\unhbox \voidb@x \hbox {\relax \fontsize  {7}{8}\selectfont  $\DOTSB \leftarrow \joinrel  \rhook $}}{}{}\_\discretionary {\unhbox \voidb@x \hbox {\relax \fontsize  {7}{8}\selectfont  $\DOTSB \leftarrow \joinrel  \rhook $}}{}{}out}{288}{subsubsection.15.42.2.10}}
\newlabel{group__data__structures_a314b8f43c3ee0bf6060afbeced5dbe6c}{{15.42.2.10}{288}{Data Fields}{section*.167}{}}
\newlabel{group__data__structures_a7697bc7a46cd1b8e37e337e708cb6023}{{15.42.2.10}{288}{Data Fields}{section*.167}{}}
\newlabel{group__data__structures_a638b0de1837cfd441871d005d3ab2938}{{15.42.2.10}{288}{Data Fields}{section*.167}{}}
\newlabel{group__data__structures_ac9e9e30b16e7d04c770460b8487fb09d}{{15.42.2.10}{288}{Data Fields}{section*.167}{}}
\newlabel{group__data__structures_a366edbc4170d5c177908e178ff340828}{{15.42.2.10}{288}{Data Fields}{section*.167}{}}
\newlabel{structconstrain}{{15.42.2.10}{288}{Data Fields}{section*.167}{}}
\@writefile{toc}{\contentsline {subsubsection}{\numberline {15.42.2.11}struct constrain}{288}{subsubsection.15.42.2.11}}
\newlabel{structduplexT}{{15.42.2.11}{288}{struct constrain}{subsubsection.15.42.2.11}{}}
\@writefile{toc}{\contentsline {subsubsection}{\numberline {15.42.2.12}struct duplexT}{288}{subsubsection.15.42.2.12}}
\newlabel{structnode}{{15.42.2.12}{288}{struct duplexT}{subsubsection.15.42.2.12}{}}
\@writefile{toc}{\contentsline {subsubsection}{\numberline {15.42.2.13}struct node}{288}{subsubsection.15.42.2.13}}
\newlabel{structsnoopT}{{15.42.2.13}{288}{struct node}{figure.caption.168}{}}
\@writefile{toc}{\contentsline {subsubsection}{\numberline {15.42.2.14}struct snoopT}{288}{subsubsection.15.42.2.14}}
\newlabel{structdupVar}{{15.42.2.14}{288}{struct snoopT}{subsubsection.15.42.2.14}{}}
\@writefile{toc}{\contentsline {subsubsection}{\numberline {15.42.2.15}struct dup\discretionary {\unhbox \voidb@x \hbox {\relax \fontsize  {7}{8}\selectfont  $\DOTSB \leftarrow \joinrel  \rhook $}}{}{}Var}{289}{subsubsection.15.42.2.15}}
\@writefile{toc}{\contentsline {subsection}{\numberline {15.42.3}Typedef Documentation}{289}{subsection.15.42.3}}
\newlabel{group__data__structures_ga4381025ffbd692e54189b2c679c79c99}{{15.42.3}{289}{Typedef Documentation}{subsection.15.42.3}{}}
\@writefile{toc}{\contentsline {subsubsection}{\numberline {15.42.3.1}P\discretionary {\unhbox \voidb@x \hbox {\relax \fontsize  {7}{8}\selectfont  $\DOTSB \leftarrow \joinrel  \rhook $}}{}{}A\discretionary {\unhbox \voidb@x \hbox {\relax \fontsize  {7}{8}\selectfont  $\DOTSB \leftarrow \joinrel  \rhook $}}{}{}IR}{289}{subsubsection.15.42.3.1}}
\newlabel{group__data__structures_gab1d8894b43aa84cbc50b862a73785fbc}{{15.42.3.1}{289}{\texorpdfstring {P\+A\+IR}{PAIR}}{subsubsection.15.42.3.1}{}}
\@writefile{toc}{\contentsline {subsubsection}{\numberline {15.42.3.2}plist}{289}{subsubsection.15.42.3.2}}
\newlabel{group__data__structures_ga8412f116a2eb07b59ade9e14ca7c5ef1}{{15.42.3.2}{289}{\texorpdfstring {plist}{plist}}{subsubsection.15.42.3.2}{}}
\@writefile{toc}{\contentsline {subsubsection}{\numberline {15.42.3.3}cpair}{289}{subsubsection.15.42.3.3}}
\newlabel{group__data__structures_gaaacedee1f05d3d45aa6764eca51a8876}{{15.42.3.3}{289}{\texorpdfstring {cpair}{cpair}}{subsubsection.15.42.3.3}{}}
\@writefile{toc}{\contentsline {subsubsection}{\numberline {15.42.3.4}sect}{289}{subsubsection.15.42.3.4}}
\newlabel{group__data__structures_gaaeed53a7508c6ce549a98223e94b25df}{{15.42.3.4}{289}{\texorpdfstring {sect}{sect}}{subsubsection.15.42.3.4}{}}
\@writefile{toc}{\contentsline {subsubsection}{\numberline {15.42.3.5}bondT}{290}{subsubsection.15.42.3.5}}
\@writefile{toc}{\contentsline {subsection}{\numberline {15.42.4}Function Documentation}{290}{subsection.15.42.4}}
\newlabel{group__data__structures_ga21744ae2d6a17309f9327d3547cef0cb}{{15.42.4}{290}{Function Documentation}{subsection.15.42.4}{}}
\@writefile{toc}{\contentsline {subsubsection}{\numberline {15.42.4.1}vrna\discretionary {\unhbox \voidb@x \hbox {\relax \fontsize  {7}{8}\selectfont  $\DOTSB \leftarrow \joinrel  \rhook $}}{}{}\_\discretionary {\unhbox \voidb@x \hbox {\relax \fontsize  {7}{8}\selectfont  $\DOTSB \leftarrow \joinrel  \rhook $}}{}{}\discretionary {\unhbox \voidb@x \hbox {\relax \fontsize  {7}{8}\selectfont  $\DOTSB \leftarrow \joinrel  \rhook $}}{}{}C11\discretionary {\unhbox \voidb@x \hbox {\relax \fontsize  {7}{8}\selectfont  $\DOTSB \leftarrow \joinrel  \rhook $}}{}{}\_\discretionary {\unhbox \voidb@x \hbox {\relax \fontsize  {7}{8}\selectfont  $\DOTSB \leftarrow \joinrel  \rhook $}}{}{}features()}{290}{subsubsection.15.42.4.1}}
\@setckpt{group__data__structures}{
\setcounter{page}{291}
\setcounter{equation}{0}
\setcounter{enumi}{2}
\setcounter{enumii}{0}
\setcounter{enumiii}{0}
\setcounter{enumiv}{0}
\setcounter{footnote}{0}
\setcounter{mpfootnote}{0}
\setcounter{part}{0}
\setcounter{chapter}{15}
\setcounter{section}{42}
\setcounter{subsection}{4}
\setcounter{subsubsection}{1}
\setcounter{paragraph}{0}
\setcounter{subparagraph}{0}
\setcounter{figure}{0}
\setcounter{table}{170}
\setcounter{float@type}{4}
\setcounter{LT@tables}{171}
\setcounter{LT@chunks}{3}
\setcounter{NAT@ctr}{0}
\setcounter{lofdepth}{1}
\setcounter{lotdepth}{1}
\setcounter{parentequation}{0}
\setcounter{Item}{12}
\setcounter{Hfootnote}{0}
\setcounter{bookmark@seq@number}{541}
\setcounter{ContinuedFloat}{0}
\setcounter{section@level}{3}
}
