\relax 
\providecommand\hyper@newdestlabel[2]{}
\@writefile{toc}{\contentsline {section}{\numberline {15.48}Local M\discretionary {\unhbox \voidb@x \hbox {\relax \fontsize  {7}{8}\selectfont  $\DOTSB \leftarrow \joinrel  \rhook $}}{}{}FE structure Prediction and Z-\/scores}{326}{section.15.48}}
\newlabel{group__local__mfe__fold}{{15.48}{326}{Local M\+FE structure Prediction and Z-\/scores}{section.15.48}{}}
\@writefile{toc}{\contentsline {subsection}{\numberline {15.48.1}Detailed Description}{326}{subsection.15.48.1}}
\@writefile{toc}{\contentsline {subsection}{\numberline {15.48.2}Function Documentation}{326}{subsection.15.48.2}}
\newlabel{group__local__mfe__fold_ga4918cce52bf69c1913cda503b2ac75d8}{{15.48.2}{326}{Function Documentation}{subsection.15.48.2}{}}
\@writefile{toc}{\contentsline {subsubsection}{\numberline {15.48.2.1}vrna\discretionary {\unhbox \voidb@x \hbox {\relax \fontsize  {7}{8}\selectfont  $\DOTSB \leftarrow \joinrel  \rhook $}}{}{}\_\discretionary {\unhbox \voidb@x \hbox {\relax \fontsize  {7}{8}\selectfont  $\DOTSB \leftarrow \joinrel  \rhook $}}{}{}\discretionary {\unhbox \voidb@x \hbox {\relax \fontsize  {7}{8}\selectfont  $\DOTSB \leftarrow \joinrel  \rhook $}}{}{}Lfold()}{326}{subsubsection.15.48.2.1}}
\gdef \LT@cciii {\LT@entry 
    {3}{63.54138pt}\LT@entry 
    {3}{370.32169pt}}
\gdef \LT@cciv {\LT@entry 
    {3}{63.54138pt}\LT@entry 
    {3}{370.32169pt}}
\newlabel{group__local__mfe__fold_ga27fddda5fc63eb49c861e38845fc34b4}{{15.48.2.1}{327}{\texorpdfstring {vrna\+\_\+\+Lfold()}{vrna\_Lfold()}}{table.15.202}{}}
\@writefile{toc}{\contentsline {subsubsection}{\numberline {15.48.2.2}vrna\discretionary {\unhbox \voidb@x \hbox {\relax \fontsize  {7}{8}\selectfont  $\DOTSB \leftarrow \joinrel  \rhook $}}{}{}\_\discretionary {\unhbox \voidb@x \hbox {\relax \fontsize  {7}{8}\selectfont  $\DOTSB \leftarrow \joinrel  \rhook $}}{}{}\discretionary {\unhbox \voidb@x \hbox {\relax \fontsize  {7}{8}\selectfont  $\DOTSB \leftarrow \joinrel  \rhook $}}{}{}Lfoldz()}{327}{subsubsection.15.48.2.2}}
\newlabel{group__local__mfe__fold_ga16e5a70e60835bb969eaecbe6482f1be}{{15.48.2.2}{328}{\texorpdfstring {vrna\+\_\+\+Lfoldz()}{vrna\_Lfoldz()}}{table.15.203}{}}
\@writefile{toc}{\contentsline {subsubsection}{\numberline {15.48.2.3}Lfold()}{328}{subsubsection.15.48.2.3}}
\newlabel{group__local__mfe__fold_gab6d79eecc180f586679f7b85cce5cbe9}{{15.48.2.3}{328}{\texorpdfstring {Lfold()}{Lfold()}}{subsubsection.15.48.2.3}{}}
\@writefile{toc}{\contentsline {subsubsection}{\numberline {15.48.2.4}Lfoldz()}{328}{subsubsection.15.48.2.4}}
\newlabel{group__local__mfe__fold_ga689df235a1915a1ad56e377383c044ce}{{15.48.2.4}{328}{\texorpdfstring {Lfoldz()}{Lfoldz()}}{subsubsection.15.48.2.4}{}}
\@writefile{toc}{\contentsline {subsubsection}{\numberline {15.48.2.5}vrna\discretionary {\unhbox \voidb@x \hbox {\relax \fontsize  {7}{8}\selectfont  $\DOTSB \leftarrow \joinrel  \rhook $}}{}{}\_\discretionary {\unhbox \voidb@x \hbox {\relax \fontsize  {7}{8}\selectfont  $\DOTSB \leftarrow \joinrel  \rhook $}}{}{}mfe\discretionary {\unhbox \voidb@x \hbox {\relax \fontsize  {7}{8}\selectfont  $\DOTSB \leftarrow \joinrel  \rhook $}}{}{}\_\discretionary {\unhbox \voidb@x \hbox {\relax \fontsize  {7}{8}\selectfont  $\DOTSB \leftarrow \joinrel  \rhook $}}{}{}window()}{328}{subsubsection.15.48.2.5}}
\gdef \LT@ccv {\LT@entry 
    {3}{24.30182pt}\LT@entry 
    {3}{306.59505pt}}
\gdef \LT@ccvi {\LT@entry 
    {3}{36.80263pt}\LT@entry 
    {3}{306.59505pt}}
\newlabel{group__local__mfe__fold_gaa4f67ae94efd08d800c17f9b53423fd6}{{15.48.2.5}{329}{\texorpdfstring {vrna\+\_\+mfe\+\_\+window()}{vrna\_mfe\_window()}}{table.15.204}{}}
\@writefile{toc}{\contentsline {subsubsection}{\numberline {15.48.2.6}vrna\discretionary {\unhbox \voidb@x \hbox {\relax \fontsize  {7}{8}\selectfont  $\DOTSB \leftarrow \joinrel  \rhook $}}{}{}\_\discretionary {\unhbox \voidb@x \hbox {\relax \fontsize  {7}{8}\selectfont  $\DOTSB \leftarrow \joinrel  \rhook $}}{}{}mfe\discretionary {\unhbox \voidb@x \hbox {\relax \fontsize  {7}{8}\selectfont  $\DOTSB \leftarrow \joinrel  \rhook $}}{}{}\_\discretionary {\unhbox \voidb@x \hbox {\relax \fontsize  {7}{8}\selectfont  $\DOTSB \leftarrow \joinrel  \rhook $}}{}{}window\discretionary {\unhbox \voidb@x \hbox {\relax \fontsize  {7}{8}\selectfont  $\DOTSB \leftarrow \joinrel  \rhook $}}{}{}\_\discretionary {\unhbox \voidb@x \hbox {\relax \fontsize  {7}{8}\selectfont  $\DOTSB \leftarrow \joinrel  \rhook $}}{}{}zscore()}{329}{subsubsection.15.48.2.6}}
\@setckpt{group__local__mfe__fold}{
\setcounter{page}{330}
\setcounter{equation}{0}
\setcounter{enumi}{2}
\setcounter{enumii}{0}
\setcounter{enumiii}{0}
\setcounter{enumiv}{0}
\setcounter{footnote}{0}
\setcounter{mpfootnote}{0}
\setcounter{part}{0}
\setcounter{chapter}{15}
\setcounter{section}{48}
\setcounter{subsection}{2}
\setcounter{subsubsection}{6}
\setcounter{paragraph}{0}
\setcounter{subparagraph}{0}
\setcounter{figure}{0}
\setcounter{table}{205}
\setcounter{float@type}{4}
\setcounter{LT@tables}{206}
\setcounter{LT@chunks}{3}
\setcounter{NAT@ctr}{0}
\setcounter{lofdepth}{1}
\setcounter{lotdepth}{1}
\setcounter{parentequation}{0}
\setcounter{Item}{12}
\setcounter{Hfootnote}{0}
\setcounter{bookmark@seq@number}{623}
\setcounter{ContinuedFloat}{0}
\setcounter{section@level}{3}
}
