\relax 
\providecommand\hyper@newdestlabel[2]{}
\@writefile{toc}{\contentsline {section}{\numberline {15.12}Minimum Free Energy (M\discretionary {\unhbox \voidb@x \hbox {\relax \fontsize  {7}{8}\selectfont  $\DOTSB \leftarrow \joinrel  \rhook $}}{}{}FE) algorithms}{194}{section.15.12}}
\newlabel{group__mfe__fold}{{15.12}{194}{Minimum Free Energy (M\+FE) algorithms}{section.15.12}{}}
\citation{zuker:1981}
\citation{hofacker:2006}
\@writefile{toc}{\contentsline {subsection}{\numberline {15.12.1}Detailed Description}{195}{subsection.15.12.1}}
\@writefile{brf}{\backcite{zuker:1981}{{195}{15.12.1}{subsection.15.12.1}}}
\@writefile{brf}{\backcite{hofacker:2006}{{195}{15.12.1}{subsection.15.12.1}}}
\@writefile{toc}{\contentsline {subsection}{\numberline {15.12.2}Function Documentation}{195}{subsection.15.12.2}}
\newlabel{group__mfe__fold_gabd3b147371ccf25c577f88bbbaf159fd}{{15.12.2}{195}{Function Documentation}{subsection.15.12.2}{}}
\@writefile{toc}{\contentsline {subsubsection}{\numberline {15.12.2.1}vrna\discretionary {\unhbox \voidb@x \hbox {\relax \fontsize  {7}{8}\selectfont  $\DOTSB \leftarrow \joinrel  \rhook $}}{}{}\_\discretionary {\unhbox \voidb@x \hbox {\relax \fontsize  {7}{8}\selectfont  $\DOTSB \leftarrow \joinrel  \rhook $}}{}{}mfe()}{195}{subsubsection.15.12.2.1}}
\gdef \LT@cvi {\LT@entry 
    {3}{47.9442pt}\LT@entry 
    {3}{407.29991pt}}
\@setckpt{group__mfe__fold}{
\setcounter{page}{197}
\setcounter{equation}{0}
\setcounter{enumi}{2}
\setcounter{enumii}{0}
\setcounter{enumiii}{0}
\setcounter{enumiv}{0}
\setcounter{footnote}{0}
\setcounter{mpfootnote}{0}
\setcounter{part}{0}
\setcounter{chapter}{15}
\setcounter{section}{12}
\setcounter{subsection}{2}
\setcounter{subsubsection}{1}
\setcounter{paragraph}{0}
\setcounter{subparagraph}{0}
\setcounter{figure}{0}
\setcounter{table}{105}
\setcounter{float@type}{4}
\setcounter{LT@tables}{106}
\setcounter{LT@chunks}{3}
\setcounter{NAT@ctr}{0}
\setcounter{lofdepth}{1}
\setcounter{lotdepth}{1}
\setcounter{parentequation}{0}
\setcounter{Item}{12}
\setcounter{Hfootnote}{0}
\setcounter{bookmark@seq@number}{334}
\setcounter{ContinuedFloat}{0}
\setcounter{section@level}{3}
}
