\relax 
\providecommand\hyper@newdestlabel[2]{}
\@writefile{toc}{\contentsline {section}{\numberline {15.55}Direct refolding paths between two secondary structures}{363}{section.15.55}}
\newlabel{group__direct__paths}{{15.55}{363}{Direct refolding paths between two secondary structures}{section.15.55}{}}
\newlabel{group__direct__paths_ga818d4f3d1cf8723d6905990b08d909fe}{{15.55}{363}{Typedefs}{section*.216}{}}
\@writefile{toc}{\contentsline {subsection}{\numberline {15.55.1}Detailed Description}{363}{subsection.15.55.1}}
\citation{flamm:2001}
\@writefile{toc}{\contentsline {subsection}{\numberline {15.55.2}Data Structure Documentation}{364}{subsection.15.55.2}}
\newlabel{structvrna__path__s}{{15.55.2}{364}{Data Structure Documentation}{subsection.15.55.2}{}}
\@writefile{toc}{\contentsline {subsubsection}{\numberline {15.55.2.1}struct vrna\discretionary {\unhbox \voidb@x \hbox {\relax \fontsize  {7}{8}\selectfont  $\DOTSB \leftarrow \joinrel  \rhook $}}{}{}\_\discretionary {\unhbox \voidb@x \hbox {\relax \fontsize  {7}{8}\selectfont  $\DOTSB \leftarrow \joinrel  \rhook $}}{}{}path\discretionary {\unhbox \voidb@x \hbox {\relax \fontsize  {7}{8}\selectfont  $\DOTSB \leftarrow \joinrel  \rhook $}}{}{}\_\discretionary {\unhbox \voidb@x \hbox {\relax \fontsize  {7}{8}\selectfont  $\DOTSB \leftarrow \joinrel  \rhook $}}{}{}s}{364}{subsubsection.15.55.2.1}}
\newlabel{group__direct__paths_ac25160bf31d28097358278f367e41227}{{15.55.2.1}{364}{Data Fields}{section*.218}{}}
\newlabel{group__direct__paths_a141b70a59cb81d10bc65bbb7a0f6db77}{{15.55.2.1}{364}{Data Fields}{section*.218}{}}
\@writefile{toc}{\contentsline {subsection}{\numberline {15.55.3}Typedef Documentation}{364}{subsection.15.55.3}}
\newlabel{group__direct__paths_gab6b8737d5377e70a7815d04aae7fd884}{{15.55.3}{364}{Typedef Documentation}{subsection.15.55.3}{}}
\@writefile{toc}{\contentsline {subsubsection}{\numberline {15.55.3.1}path\discretionary {\unhbox \voidb@x \hbox {\relax \fontsize  {7}{8}\selectfont  $\DOTSB \leftarrow \joinrel  \rhook $}}{}{}\_\discretionary {\unhbox \voidb@x \hbox {\relax \fontsize  {7}{8}\selectfont  $\DOTSB \leftarrow \joinrel  \rhook $}}{}{}t}{364}{subsubsection.15.55.3.1}}
\@writefile{toc}{\contentsline {subsection}{\numberline {15.55.4}Function Documentation}{364}{subsection.15.55.4}}
\newlabel{group__direct__paths_ga957922acc1bcaa97f52cbd0975f7dcd0}{{15.55.4}{364}{Function Documentation}{subsection.15.55.4}{}}
\@writefile{toc}{\contentsline {subsubsection}{\numberline {15.55.4.1}vrna\discretionary {\unhbox \voidb@x \hbox {\relax \fontsize  {7}{8}\selectfont  $\DOTSB \leftarrow \joinrel  \rhook $}}{}{}\_\discretionary {\unhbox \voidb@x \hbox {\relax \fontsize  {7}{8}\selectfont  $\DOTSB \leftarrow \joinrel  \rhook $}}{}{}path\discretionary {\unhbox \voidb@x \hbox {\relax \fontsize  {7}{8}\selectfont  $\DOTSB \leftarrow \joinrel  \rhook $}}{}{}\_\discretionary {\unhbox \voidb@x \hbox {\relax \fontsize  {7}{8}\selectfont  $\DOTSB \leftarrow \joinrel  \rhook $}}{}{}findpath\discretionary {\unhbox \voidb@x \hbox {\relax \fontsize  {7}{8}\selectfont  $\DOTSB \leftarrow \joinrel  \rhook $}}{}{}\_\discretionary {\unhbox \voidb@x \hbox {\relax \fontsize  {7}{8}\selectfont  $\DOTSB \leftarrow \joinrel  \rhook $}}{}{}saddle()}{364}{subsubsection.15.55.4.1}}
\@writefile{brf}{\backcite{flamm:2001}{{364}{15.55.4.1}{subsubsection.15.55.4.1}}}
\gdef \LT@ccxxvii {\LT@entry 
    {3}{37.44147pt}\LT@entry 
    {3}{357.78587pt}}
\citation{flamm:2001}
\gdef \LT@ccxxviii {\LT@entry 
    {3}{49.13249pt}\LT@entry 
    {3}{357.78587pt}}
\newlabel{group__direct__paths_ga5e1f97f58adc65016a8df88802dc16b5}{{15.55.4.1}{365}{\texorpdfstring {vrna\+\_\+path\+\_\+findpath\+\_\+saddle()}{vrna\_path\_findpath\_saddle()}}{table.15.226}{}}
\@writefile{toc}{\contentsline {subsubsection}{\numberline {15.55.4.2}vrna\discretionary {\unhbox \voidb@x \hbox {\relax \fontsize  {7}{8}\selectfont  $\DOTSB \leftarrow \joinrel  \rhook $}}{}{}\_\discretionary {\unhbox \voidb@x \hbox {\relax \fontsize  {7}{8}\selectfont  $\DOTSB \leftarrow \joinrel  \rhook $}}{}{}path\discretionary {\unhbox \voidb@x \hbox {\relax \fontsize  {7}{8}\selectfont  $\DOTSB \leftarrow \joinrel  \rhook $}}{}{}\_\discretionary {\unhbox \voidb@x \hbox {\relax \fontsize  {7}{8}\selectfont  $\DOTSB \leftarrow \joinrel  \rhook $}}{}{}findpath()}{365}{subsubsection.15.55.4.2}}
\@writefile{brf}{\backcite{flamm:2001}{{365}{15.55.4.2}{subsubsection.15.55.4.2}}}
\newlabel{group__direct__paths_gad0e14268e309af773ecd1fce6244ee50}{{15.55.4.2}{365}{\texorpdfstring {vrna\+\_\+path\+\_\+findpath()}{vrna\_path\_findpath()}}{table.15.227}{}}
\gdef \LT@ccxxix {\LT@entry 
    {3}{37.44147pt}\LT@entry 
    {3}{417.80264pt}}
\gdef \LT@ccxxx {\LT@entry 
    {3}{30.3136pt}\LT@entry 
    {3}{130.72026pt}}
\@writefile{toc}{\contentsline {subsubsection}{\numberline {15.55.4.3}find\discretionary {\unhbox \voidb@x \hbox {\relax \fontsize  {7}{8}\selectfont  $\DOTSB \leftarrow \joinrel  \rhook $}}{}{}\_\discretionary {\unhbox \voidb@x \hbox {\relax \fontsize  {7}{8}\selectfont  $\DOTSB \leftarrow \joinrel  \rhook $}}{}{}saddle()}{366}{subsubsection.15.55.4.3}}
\newlabel{group__direct__paths_ga9056421d716ae89f0ed3f107627f395b}{{15.55.4.3}{366}{\texorpdfstring {find\+\_\+saddle()}{find\_saddle()}}{table.15.228}{}}
\@writefile{toc}{\contentsline {subsubsection}{\numberline {15.55.4.4}free\discretionary {\unhbox \voidb@x \hbox {\relax \fontsize  {7}{8}\selectfont  $\DOTSB \leftarrow \joinrel  \rhook $}}{}{}\_\discretionary {\unhbox \voidb@x \hbox {\relax \fontsize  {7}{8}\selectfont  $\DOTSB \leftarrow \joinrel  \rhook $}}{}{}path()}{366}{subsubsection.15.55.4.4}}
\newlabel{group__direct__paths_ga0b22426253e190bd268f86b01b71220d}{{15.55.4.4}{366}{\texorpdfstring {free\+\_\+path()}{free\_path()}}{table.15.229}{}}
\@writefile{toc}{\contentsline {subsubsection}{\numberline {15.55.4.5}get\discretionary {\unhbox \voidb@x \hbox {\relax \fontsize  {7}{8}\selectfont  $\DOTSB \leftarrow \joinrel  \rhook $}}{}{}\_\discretionary {\unhbox \voidb@x \hbox {\relax \fontsize  {7}{8}\selectfont  $\DOTSB \leftarrow \joinrel  \rhook $}}{}{}path()}{366}{subsubsection.15.55.4.5}}
\gdef \LT@ccxxxi {\LT@entry 
    {3}{49.13249pt}\LT@entry 
    {3}{406.11162pt}}
\@setckpt{group__direct__paths}{
\setcounter{page}{368}
\setcounter{equation}{0}
\setcounter{enumi}{2}
\setcounter{enumii}{0}
\setcounter{enumiii}{0}
\setcounter{enumiv}{0}
\setcounter{footnote}{0}
\setcounter{mpfootnote}{0}
\setcounter{part}{0}
\setcounter{chapter}{15}
\setcounter{section}{55}
\setcounter{subsection}{4}
\setcounter{subsubsection}{5}
\setcounter{paragraph}{0}
\setcounter{subparagraph}{0}
\setcounter{figure}{0}
\setcounter{table}{230}
\setcounter{float@type}{4}
\setcounter{LT@tables}{231}
\setcounter{LT@chunks}{3}
\setcounter{NAT@ctr}{0}
\setcounter{lofdepth}{1}
\setcounter{lotdepth}{1}
\setcounter{parentequation}{0}
\setcounter{Item}{12}
\setcounter{Hfootnote}{0}
\setcounter{bookmark@seq@number}{712}
\setcounter{ContinuedFloat}{0}
\setcounter{section@level}{3}
}
