\relax 
\providecommand\hyper@newdestlabel[2]{}
\@writefile{toc}{\contentsline {section}{\numberline {15.56}Parsing, converting, and comparing sequences}{368}{section.15.56}}
\newlabel{group__string__utils}{{15.56}{368}{Parsing, converting, and comparing sequences}{section.15.56}{}}
\newlabel{group__string__utils_ga03943706e48069237cd57f2d35ca987e}{{15.56}{368}{Parsing, converting, and comparing sequences}{figure.caption.219}{}}
\newlabel{group__string__utils_ga6388870e639eee9c0a69446876f1f8cc}{{15.56}{368}{Parsing, converting, and comparing sequences}{figure.caption.219}{}}
\@writefile{toc}{\contentsline {subsection}{\numberline {15.56.1}Detailed Description}{369}{subsection.15.56.1}}
\@writefile{toc}{\contentsline {subsection}{\numberline {15.56.2}Macro Definition Documentation}{369}{subsection.15.56.2}}
\newlabel{group__string__utils_gafb228174279df9486a5cb56ac0bc79a3}{{15.56.2}{369}{Macro Definition Documentation}{subsection.15.56.2}{}}
\@writefile{toc}{\contentsline {subsubsection}{\numberline {15.56.2.1}F\discretionary {\unhbox \voidb@x \hbox {\relax \fontsize  {7}{8}\selectfont  $\DOTSB \leftarrow \joinrel  \rhook $}}{}{}I\discretionary {\unhbox \voidb@x \hbox {\relax \fontsize  {7}{8}\selectfont  $\DOTSB \leftarrow \joinrel  \rhook $}}{}{}L\discretionary {\unhbox \voidb@x \hbox {\relax \fontsize  {7}{8}\selectfont  $\DOTSB \leftarrow \joinrel  \rhook $}}{}{}E\discretionary {\unhbox \voidb@x \hbox {\relax \fontsize  {7}{8}\selectfont  $\DOTSB \leftarrow \joinrel  \rhook $}}{}{}N\discretionary {\unhbox \voidb@x \hbox {\relax \fontsize  {7}{8}\selectfont  $\DOTSB \leftarrow \joinrel  \rhook $}}{}{}A\discretionary {\unhbox \voidb@x \hbox {\relax \fontsize  {7}{8}\selectfont  $\DOTSB \leftarrow \joinrel  \rhook $}}{}{}M\discretionary {\unhbox \voidb@x \hbox {\relax \fontsize  {7}{8}\selectfont  $\DOTSB \leftarrow \joinrel  \rhook $}}{}{}E\discretionary {\unhbox \voidb@x \hbox {\relax \fontsize  {7}{8}\selectfont  $\DOTSB \leftarrow \joinrel  \rhook $}}{}{}\_\discretionary {\unhbox \voidb@x \hbox {\relax \fontsize  {7}{8}\selectfont  $\DOTSB \leftarrow \joinrel  \rhook $}}{}{}\discretionary {\unhbox \voidb@x \hbox {\relax \fontsize  {7}{8}\selectfont  $\DOTSB \leftarrow \joinrel  \rhook $}}{}{}M\discretionary {\unhbox \voidb@x \hbox {\relax \fontsize  {7}{8}\selectfont  $\DOTSB \leftarrow \joinrel  \rhook $}}{}{}A\discretionary {\unhbox \voidb@x \hbox {\relax \fontsize  {7}{8}\selectfont  $\DOTSB \leftarrow \joinrel  \rhook $}}{}{}X\discretionary {\unhbox \voidb@x \hbox {\relax \fontsize  {7}{8}\selectfont  $\DOTSB \leftarrow \joinrel  \rhook $}}{}{}\_\discretionary {\unhbox \voidb@x \hbox {\relax \fontsize  {7}{8}\selectfont  $\DOTSB \leftarrow \joinrel  \rhook $}}{}{}\discretionary {\unhbox \voidb@x \hbox {\relax \fontsize  {7}{8}\selectfont  $\DOTSB \leftarrow \joinrel  \rhook $}}{}{}L\discretionary {\unhbox \voidb@x \hbox {\relax \fontsize  {7}{8}\selectfont  $\DOTSB \leftarrow \joinrel  \rhook $}}{}{}E\discretionary {\unhbox \voidb@x \hbox {\relax \fontsize  {7}{8}\selectfont  $\DOTSB \leftarrow \joinrel  \rhook $}}{}{}N\discretionary {\unhbox \voidb@x \hbox {\relax \fontsize  {7}{8}\selectfont  $\DOTSB \leftarrow \joinrel  \rhook $}}{}{}G\discretionary {\unhbox \voidb@x \hbox {\relax \fontsize  {7}{8}\selectfont  $\DOTSB \leftarrow \joinrel  \rhook $}}{}{}TH}{369}{subsubsection.15.56.2.1}}
\newlabel{group__string__utils_ga33c3b1826b8e2739f09f111ec719ded5}{{15.56.2.1}{369}{\texorpdfstring {F\+I\+L\+E\+N\+A\+M\+E\+\_\+\+M\+A\+X\+\_\+\+L\+E\+N\+G\+TH}{FILENAME\_MAX\_LENGTH}}{subsubsection.15.56.2.1}{}}
\@writefile{toc}{\contentsline {subsubsection}{\numberline {15.56.2.2}F\discretionary {\unhbox \voidb@x \hbox {\relax \fontsize  {7}{8}\selectfont  $\DOTSB \leftarrow \joinrel  \rhook $}}{}{}I\discretionary {\unhbox \voidb@x \hbox {\relax \fontsize  {7}{8}\selectfont  $\DOTSB \leftarrow \joinrel  \rhook $}}{}{}L\discretionary {\unhbox \voidb@x \hbox {\relax \fontsize  {7}{8}\selectfont  $\DOTSB \leftarrow \joinrel  \rhook $}}{}{}E\discretionary {\unhbox \voidb@x \hbox {\relax \fontsize  {7}{8}\selectfont  $\DOTSB \leftarrow \joinrel  \rhook $}}{}{}N\discretionary {\unhbox \voidb@x \hbox {\relax \fontsize  {7}{8}\selectfont  $\DOTSB \leftarrow \joinrel  \rhook $}}{}{}A\discretionary {\unhbox \voidb@x \hbox {\relax \fontsize  {7}{8}\selectfont  $\DOTSB \leftarrow \joinrel  \rhook $}}{}{}M\discretionary {\unhbox \voidb@x \hbox {\relax \fontsize  {7}{8}\selectfont  $\DOTSB \leftarrow \joinrel  \rhook $}}{}{}E\discretionary {\unhbox \voidb@x \hbox {\relax \fontsize  {7}{8}\selectfont  $\DOTSB \leftarrow \joinrel  \rhook $}}{}{}\_\discretionary {\unhbox \voidb@x \hbox {\relax \fontsize  {7}{8}\selectfont  $\DOTSB \leftarrow \joinrel  \rhook $}}{}{}\discretionary {\unhbox \voidb@x \hbox {\relax \fontsize  {7}{8}\selectfont  $\DOTSB \leftarrow \joinrel  \rhook $}}{}{}I\discretionary {\unhbox \voidb@x \hbox {\relax \fontsize  {7}{8}\selectfont  $\DOTSB \leftarrow \joinrel  \rhook $}}{}{}D\discretionary {\unhbox \voidb@x \hbox {\relax \fontsize  {7}{8}\selectfont  $\DOTSB \leftarrow \joinrel  \rhook $}}{}{}\_\discretionary {\unhbox \voidb@x \hbox {\relax \fontsize  {7}{8}\selectfont  $\DOTSB \leftarrow \joinrel  \rhook $}}{}{}\discretionary {\unhbox \voidb@x \hbox {\relax \fontsize  {7}{8}\selectfont  $\DOTSB \leftarrow \joinrel  \rhook $}}{}{}L\discretionary {\unhbox \voidb@x \hbox {\relax \fontsize  {7}{8}\selectfont  $\DOTSB \leftarrow \joinrel  \rhook $}}{}{}E\discretionary {\unhbox \voidb@x \hbox {\relax \fontsize  {7}{8}\selectfont  $\DOTSB \leftarrow \joinrel  \rhook $}}{}{}N\discretionary {\unhbox \voidb@x \hbox {\relax \fontsize  {7}{8}\selectfont  $\DOTSB \leftarrow \joinrel  \rhook $}}{}{}G\discretionary {\unhbox \voidb@x \hbox {\relax \fontsize  {7}{8}\selectfont  $\DOTSB \leftarrow \joinrel  \rhook $}}{}{}TH}{369}{subsubsection.15.56.2.2}}
\@writefile{toc}{\contentsline {subsection}{\numberline {15.56.3}Function Documentation}{369}{subsection.15.56.3}}
\newlabel{group__string__utils_ga33cc0190a326ec368277caa777b8bf18}{{15.56.3}{369}{Function Documentation}{subsection.15.56.3}{}}
\@writefile{toc}{\contentsline {subsubsection}{\numberline {15.56.3.1}vrna\discretionary {\unhbox \voidb@x \hbox {\relax \fontsize  {7}{8}\selectfont  $\DOTSB \leftarrow \joinrel  \rhook $}}{}{}\_\discretionary {\unhbox \voidb@x \hbox {\relax \fontsize  {7}{8}\selectfont  $\DOTSB \leftarrow \joinrel  \rhook $}}{}{}strdup\discretionary {\unhbox \voidb@x \hbox {\relax \fontsize  {7}{8}\selectfont  $\DOTSB \leftarrow \joinrel  \rhook $}}{}{}\_\discretionary {\unhbox \voidb@x \hbox {\relax \fontsize  {7}{8}\selectfont  $\DOTSB \leftarrow \joinrel  \rhook $}}{}{}printf()}{369}{subsubsection.15.56.3.1}}
\gdef \LT@ccxxxii {\LT@entry 
    {3}{38.26047pt}\LT@entry 
    {3}{200.28871pt}}
\gdef \LT@ccxxxiii {\LT@entry 
    {3}{38.26047pt}\LT@entry 
    {3}{200.28871pt}}
\newlabel{group__string__utils_ga459fdee190ed81bb7773cbaf671748a9}{{15.56.3.1}{370}{\texorpdfstring {vrna\+\_\+strdup\+\_\+printf()}{vrna\_strdup\_printf()}}{table.15.231}{}}
\@writefile{toc}{\contentsline {subsubsection}{\numberline {15.56.3.2}vrna\discretionary {\unhbox \voidb@x \hbox {\relax \fontsize  {7}{8}\selectfont  $\DOTSB \leftarrow \joinrel  \rhook $}}{}{}\_\discretionary {\unhbox \voidb@x \hbox {\relax \fontsize  {7}{8}\selectfont  $\DOTSB \leftarrow \joinrel  \rhook $}}{}{}strdup\discretionary {\unhbox \voidb@x \hbox {\relax \fontsize  {7}{8}\selectfont  $\DOTSB \leftarrow \joinrel  \rhook $}}{}{}\_\discretionary {\unhbox \voidb@x \hbox {\relax \fontsize  {7}{8}\selectfont  $\DOTSB \leftarrow \joinrel  \rhook $}}{}{}vprintf()}{370}{subsubsection.15.56.3.2}}
\newlabel{group__string__utils_gac0771ec71316023067f2aae61a5aa0fb}{{15.56.3.2}{370}{\texorpdfstring {vrna\+\_\+strdup\+\_\+vprintf()}{vrna\_strdup\_vprintf()}}{table.15.232}{}}
\@writefile{toc}{\contentsline {subsubsection}{\numberline {15.56.3.3}vrna\discretionary {\unhbox \voidb@x \hbox {\relax \fontsize  {7}{8}\selectfont  $\DOTSB \leftarrow \joinrel  \rhook $}}{}{}\_\discretionary {\unhbox \voidb@x \hbox {\relax \fontsize  {7}{8}\selectfont  $\DOTSB \leftarrow \joinrel  \rhook $}}{}{}strcat\discretionary {\unhbox \voidb@x \hbox {\relax \fontsize  {7}{8}\selectfont  $\DOTSB \leftarrow \joinrel  \rhook $}}{}{}\_\discretionary {\unhbox \voidb@x \hbox {\relax \fontsize  {7}{8}\selectfont  $\DOTSB \leftarrow \joinrel  \rhook $}}{}{}printf()}{370}{subsubsection.15.56.3.3}}
\gdef \LT@ccxxxiv {\LT@entry 
    {3}{38.26047pt}\LT@entry 
    {3}{316.1394pt}}
\gdef \LT@ccxxxv {\LT@entry 
    {3}{38.26047pt}\LT@entry 
    {3}{316.1394pt}}
\newlabel{group__string__utils_ga122df216996ba62fd5056b7743e3131a}{{15.56.3.3}{371}{\texorpdfstring {vrna\+\_\+strcat\+\_\+printf()}{vrna\_strcat\_printf()}}{table.15.233}{}}
\@writefile{toc}{\contentsline {subsubsection}{\numberline {15.56.3.4}vrna\discretionary {\unhbox \voidb@x \hbox {\relax \fontsize  {7}{8}\selectfont  $\DOTSB \leftarrow \joinrel  \rhook $}}{}{}\_\discretionary {\unhbox \voidb@x \hbox {\relax \fontsize  {7}{8}\selectfont  $\DOTSB \leftarrow \joinrel  \rhook $}}{}{}strcat\discretionary {\unhbox \voidb@x \hbox {\relax \fontsize  {7}{8}\selectfont  $\DOTSB \leftarrow \joinrel  \rhook $}}{}{}\_\discretionary {\unhbox \voidb@x \hbox {\relax \fontsize  {7}{8}\selectfont  $\DOTSB \leftarrow \joinrel  \rhook $}}{}{}vprintf()}{371}{subsubsection.15.56.3.4}}
\newlabel{group__string__utils_ga4eeb3750dcf860b9f3158249f95dbd7f}{{15.56.3.4}{371}{\texorpdfstring {vrna\+\_\+strcat\+\_\+vprintf()}{vrna\_strcat\_vprintf()}}{table.15.234}{}}
\@writefile{toc}{\contentsline {subsubsection}{\numberline {15.56.3.5}vrna\discretionary {\unhbox \voidb@x \hbox {\relax \fontsize  {7}{8}\selectfont  $\DOTSB \leftarrow \joinrel  \rhook $}}{}{}\_\discretionary {\unhbox \voidb@x \hbox {\relax \fontsize  {7}{8}\selectfont  $\DOTSB \leftarrow \joinrel  \rhook $}}{}{}random\discretionary {\unhbox \voidb@x \hbox {\relax \fontsize  {7}{8}\selectfont  $\DOTSB \leftarrow \joinrel  \rhook $}}{}{}\_\discretionary {\unhbox \voidb@x \hbox {\relax \fontsize  {7}{8}\selectfont  $\DOTSB \leftarrow \joinrel  \rhook $}}{}{}string()}{371}{subsubsection.15.56.3.5}}
\gdef \LT@ccxxxvi {\LT@entry 
    {3}{45.80257pt}\LT@entry 
    {3}{121.46867pt}}
\gdef \LT@ccxxxvii {\LT@entry 
    {3}{22.30386pt}\LT@entry 
    {3}{100.94948pt}}
\newlabel{group__string__utils_ga301798b43b6f66687985c725efd14f32}{{15.56.3.5}{372}{\texorpdfstring {vrna\+\_\+random\+\_\+string()}{vrna\_random\_string()}}{table.15.235}{}}
\@writefile{toc}{\contentsline {subsubsection}{\numberline {15.56.3.6}vrna\discretionary {\unhbox \voidb@x \hbox {\relax \fontsize  {7}{8}\selectfont  $\DOTSB \leftarrow \joinrel  \rhook $}}{}{}\_\discretionary {\unhbox \voidb@x \hbox {\relax \fontsize  {7}{8}\selectfont  $\DOTSB \leftarrow \joinrel  \rhook $}}{}{}hamming\discretionary {\unhbox \voidb@x \hbox {\relax \fontsize  {7}{8}\selectfont  $\DOTSB \leftarrow \joinrel  \rhook $}}{}{}\_\discretionary {\unhbox \voidb@x \hbox {\relax \fontsize  {7}{8}\selectfont  $\DOTSB \leftarrow \joinrel  \rhook $}}{}{}distance()}{372}{subsubsection.15.56.3.6}}
\newlabel{group__string__utils_ga5d1c2271e79d9bcb52d4e68360763fb9}{{15.56.3.6}{372}{\texorpdfstring {vrna\+\_\+hamming\+\_\+distance()}{vrna\_hamming\_distance()}}{table.15.236}{}}
\@writefile{toc}{\contentsline {subsubsection}{\numberline {15.56.3.7}vrna\discretionary {\unhbox \voidb@x \hbox {\relax \fontsize  {7}{8}\selectfont  $\DOTSB \leftarrow \joinrel  \rhook $}}{}{}\_\discretionary {\unhbox \voidb@x \hbox {\relax \fontsize  {7}{8}\selectfont  $\DOTSB \leftarrow \joinrel  \rhook $}}{}{}hamming\discretionary {\unhbox \voidb@x \hbox {\relax \fontsize  {7}{8}\selectfont  $\DOTSB \leftarrow \joinrel  \rhook $}}{}{}\_\discretionary {\unhbox \voidb@x \hbox {\relax \fontsize  {7}{8}\selectfont  $\DOTSB \leftarrow \joinrel  \rhook $}}{}{}distance\discretionary {\unhbox \voidb@x \hbox {\relax \fontsize  {7}{8}\selectfont  $\DOTSB \leftarrow \joinrel  \rhook $}}{}{}\_\discretionary {\unhbox \voidb@x \hbox {\relax \fontsize  {7}{8}\selectfont  $\DOTSB \leftarrow \joinrel  \rhook $}}{}{}bound()}{372}{subsubsection.15.56.3.7}}
\gdef \LT@ccxxxviii {\LT@entry 
    {3}{22.30386pt}\LT@entry 
    {3}{287.61392pt}}
\gdef \LT@ccxxxix {\LT@entry 
    {3}{51.82336pt}\LT@entry 
    {3}{133.92455pt}}
\gdef \LT@ccxl {\LT@entry 
    {3}{51.82336pt}\LT@entry 
    {3}{133.92455pt}}
\newlabel{group__string__utils_gacfed92cba77064f6c743f9118d079bfc}{{15.56.3.7}{373}{\texorpdfstring {vrna\+\_\+hamming\+\_\+distance\+\_\+bound()}{vrna\_hamming\_distance\_bound()}}{table.15.237}{}}
\@writefile{toc}{\contentsline {subsubsection}{\numberline {15.56.3.8}vrna\discretionary {\unhbox \voidb@x \hbox {\relax \fontsize  {7}{8}\selectfont  $\DOTSB \leftarrow \joinrel  \rhook $}}{}{}\_\discretionary {\unhbox \voidb@x \hbox {\relax \fontsize  {7}{8}\selectfont  $\DOTSB \leftarrow \joinrel  \rhook $}}{}{}seq\discretionary {\unhbox \voidb@x \hbox {\relax \fontsize  {7}{8}\selectfont  $\DOTSB \leftarrow \joinrel  \rhook $}}{}{}\_\discretionary {\unhbox \voidb@x \hbox {\relax \fontsize  {7}{8}\selectfont  $\DOTSB \leftarrow \joinrel  \rhook $}}{}{}to\discretionary {\unhbox \voidb@x \hbox {\relax \fontsize  {7}{8}\selectfont  $\DOTSB \leftarrow \joinrel  \rhook $}}{}{}R\discretionary {\unhbox \voidb@x \hbox {\relax \fontsize  {7}{8}\selectfont  $\DOTSB \leftarrow \joinrel  \rhook $}}{}{}N\discretionary {\unhbox \voidb@x \hbox {\relax \fontsize  {7}{8}\selectfont  $\DOTSB \leftarrow \joinrel  \rhook $}}{}{}A()}{373}{subsubsection.15.56.3.8}}
\newlabel{group__string__utils_ga4f44dca03c9d708d68e64c0610bb9091}{{15.56.3.8}{373}{\texorpdfstring {vrna\+\_\+seq\+\_\+to\+R\+N\+A()}{vrna\_seq\_toRNA()}}{table.15.238}{}}
\@writefile{toc}{\contentsline {subsubsection}{\numberline {15.56.3.9}vrna\discretionary {\unhbox \voidb@x \hbox {\relax \fontsize  {7}{8}\selectfont  $\DOTSB \leftarrow \joinrel  \rhook $}}{}{}\_\discretionary {\unhbox \voidb@x \hbox {\relax \fontsize  {7}{8}\selectfont  $\DOTSB \leftarrow \joinrel  \rhook $}}{}{}seq\discretionary {\unhbox \voidb@x \hbox {\relax \fontsize  {7}{8}\selectfont  $\DOTSB \leftarrow \joinrel  \rhook $}}{}{}\_\discretionary {\unhbox \voidb@x \hbox {\relax \fontsize  {7}{8}\selectfont  $\DOTSB \leftarrow \joinrel  \rhook $}}{}{}toupper()}{373}{subsubsection.15.56.3.9}}
\newlabel{group__string__utils_ga74f05ece32ea73b59f84a7452afd5fae}{{15.56.3.9}{373}{\texorpdfstring {vrna\+\_\+seq\+\_\+toupper()}{vrna\_seq\_toupper()}}{table.15.239}{}}
\@writefile{toc}{\contentsline {subsubsection}{\numberline {15.56.3.10}vrna\discretionary {\unhbox \voidb@x \hbox {\relax \fontsize  {7}{8}\selectfont  $\DOTSB \leftarrow \joinrel  \rhook $}}{}{}\_\discretionary {\unhbox \voidb@x \hbox {\relax \fontsize  {7}{8}\selectfont  $\DOTSB \leftarrow \joinrel  \rhook $}}{}{}cut\discretionary {\unhbox \voidb@x \hbox {\relax \fontsize  {7}{8}\selectfont  $\DOTSB \leftarrow \joinrel  \rhook $}}{}{}\_\discretionary {\unhbox \voidb@x \hbox {\relax \fontsize  {7}{8}\selectfont  $\DOTSB \leftarrow \joinrel  \rhook $}}{}{}point\discretionary {\unhbox \voidb@x \hbox {\relax \fontsize  {7}{8}\selectfont  $\DOTSB \leftarrow \joinrel  \rhook $}}{}{}\_\discretionary {\unhbox \voidb@x \hbox {\relax \fontsize  {7}{8}\selectfont  $\DOTSB \leftarrow \joinrel  \rhook $}}{}{}insert()}{373}{subsubsection.15.56.3.10}}
\gdef \LT@ccxli {\LT@entry 
    {3}{34.93945pt}\LT@entry 
    {3}{98.4382pt}}
\gdef \LT@ccxlii {\LT@entry 
    {3}{34.93945pt}\LT@entry 
    {3}{98.4382pt}}
\newlabel{group__string__utils_ga1fbd821d4408cc5f1dd9d12c15e092cb}{{15.56.3.10}{375}{\texorpdfstring {vrna\+\_\+cut\+\_\+point\+\_\+insert()}{vrna\_cut\_point\_insert()}}{table.15.240}{}}
\@writefile{toc}{\contentsline {subsubsection}{\numberline {15.56.3.11}vrna\discretionary {\unhbox \voidb@x \hbox {\relax \fontsize  {7}{8}\selectfont  $\DOTSB \leftarrow \joinrel  \rhook $}}{}{}\_\discretionary {\unhbox \voidb@x \hbox {\relax \fontsize  {7}{8}\selectfont  $\DOTSB \leftarrow \joinrel  \rhook $}}{}{}cut\discretionary {\unhbox \voidb@x \hbox {\relax \fontsize  {7}{8}\selectfont  $\DOTSB \leftarrow \joinrel  \rhook $}}{}{}\_\discretionary {\unhbox \voidb@x \hbox {\relax \fontsize  {7}{8}\selectfont  $\DOTSB \leftarrow \joinrel  \rhook $}}{}{}point\discretionary {\unhbox \voidb@x \hbox {\relax \fontsize  {7}{8}\selectfont  $\DOTSB \leftarrow \joinrel  \rhook $}}{}{}\_\discretionary {\unhbox \voidb@x \hbox {\relax \fontsize  {7}{8}\selectfont  $\DOTSB \leftarrow \joinrel  \rhook $}}{}{}remove()}{375}{subsubsection.15.56.3.11}}
\@setckpt{group__string__utils}{
\setcounter{page}{376}
\setcounter{equation}{0}
\setcounter{enumi}{2}
\setcounter{enumii}{0}
\setcounter{enumiii}{0}
\setcounter{enumiv}{0}
\setcounter{footnote}{0}
\setcounter{mpfootnote}{0}
\setcounter{part}{0}
\setcounter{chapter}{15}
\setcounter{section}{56}
\setcounter{subsection}{3}
\setcounter{subsubsection}{11}
\setcounter{paragraph}{0}
\setcounter{subparagraph}{0}
\setcounter{figure}{0}
\setcounter{table}{241}
\setcounter{float@type}{4}
\setcounter{LT@tables}{242}
\setcounter{LT@chunks}{3}
\setcounter{NAT@ctr}{0}
\setcounter{lofdepth}{1}
\setcounter{lotdepth}{1}
\setcounter{parentequation}{0}
\setcounter{Item}{12}
\setcounter{Hfootnote}{0}
\setcounter{bookmark@seq@number}{729}
\setcounter{ContinuedFloat}{0}
\setcounter{section@level}{3}
}
