This is BibTeX, Version 0.99d (TeX Live 2016/Arch Linux)
Capacity: max_strings=35307, hash_size=35307, hash_prime=30011
The top-level auxiliary file: refman.aux
A level-1 auxiliary file: group__loops.aux
A level-1 auxiliary file: group__grammar.aux
A level-1 auxiliary file: group__model__details.aux
A level-1 auxiliary file: group__energy__parameters.aux
A level-1 auxiliary file: group__domains.aux
A level-1 auxiliary file: group__domains__up.aux
A level-1 auxiliary file: group__domains__struc.aux
A level-1 auxiliary file: group__constraints.aux
A level-1 auxiliary file: group__hard__constraints.aux
A level-1 auxiliary file: group__soft__constraints.aux
A level-1 auxiliary file: group__mfe__fold.aux
A level-1 auxiliary file: group__pf__fold.aux
A level-1 auxiliary file: group__subopt__and__representatives.aux
A level-1 auxiliary file: group__subopt__zuker.aux
A level-1 auxiliary file: group__subopt__wuchty.aux
A level-1 auxiliary file: group__subopt__stochbt.aux
A level-1 auxiliary file: group__mea__fold.aux
A level-1 auxiliary file: group__centroid__fold.aux
A level-1 auxiliary file: group__cofold.aux
A level-1 auxiliary file: group__local__fold.aux
A level-1 auxiliary file: group__consensus__fold.aux
A level-1 auxiliary file: group__consensus__mfe__fold.aux
A level-1 auxiliary file: group__consensus__pf__fold.aux
A level-1 auxiliary file: group__consensus__stochbt.aux
A level-1 auxiliary file: group__class__fold.aux
A level-1 auxiliary file: group__kl__neighborhood.aux
A level-1 auxiliary file: group__kl__neighborhood__mfe.aux
A level-1 auxiliary file: group__kl__neighborhood__pf.aux
A level-1 auxiliary file: group__kl__neighborhood__stochbt.aux
A level-1 auxiliary file: group__dos.aux
A level-1 auxiliary file: group__inverse__fold.aux
A level-1 auxiliary file: group__paths.aux
A level-1 auxiliary file: group__probing__data.aux
A level-1 auxiliary file: group__SHAPE__reactivities.aux
A level-1 auxiliary file: group__perturbation.aux
A level-1 auxiliary file: group__ligand__binding.aux
A level-1 auxiliary file: group__ligands__up.aux
A level-1 auxiliary file: group__constraints__ligand.aux
A level-1 auxiliary file: group__paired__modules.aux
A level-1 auxiliary file: group__gquads.aux
A level-1 auxiliary file: group__data__structures.aux
A level-1 auxiliary file: group__utils.aux
A level-1 auxiliary file: group__mfe__fold__single.aux
A level-1 auxiliary file: group__mfe__cofold.aux
A level-1 auxiliary file: group__pf__cofold.aux
A level-1 auxiliary file: group__up__cofold.aux
A level-1 auxiliary file: group__local__mfe__fold.aux
A level-1 auxiliary file: group__local__pf__fold.aux
A level-1 auxiliary file: group__local__consensus__fold.aux
A level-1 auxiliary file: group__energy__parameters__rw.aux
A level-1 auxiliary file: group__energy__parameters__convert.aux
A level-1 auxiliary file: group__fold__compound.aux
A level-1 auxiliary file: group__dp__matrices.aux
A level-1 auxiliary file: group__direct__paths.aux
A level-1 auxiliary file: group__string__utils.aux
A level-1 auxiliary file: group__struct__utils.aux
A level-1 auxiliary file: group__aln__utils.aux
A level-1 auxiliary file: group__file__utils.aux
A level-1 auxiliary file: group__plotting__utils.aux
A level-1 auxiliary file: group__units.aux
The style file: plain.bst
Database file #1: bibTmpFile_1.bib
You've used 23 entries,
            2118 wiz_defined-function locations,
            718 strings with 9975 characters,
and the built_in function-call counts, 8835 in all, are:
= -- 844
> -- 523
< -- 2
+ -- 207
- -- 181
* -- 768
:= -- 1521
add.period$ -- 70
call.type$ -- 23
change.case$ -- 157
chr.to.int$ -- 0
cite$ -- 23
duplicate$ -- 263
empty$ -- 606
format.name$ -- 181
if$ -- 1754
int.to.chr$ -- 0
int.to.str$ -- 23
missing$ -- 23
newline$ -- 118
num.names$ -- 48
pop$ -- 114
preamble$ -- 1
purify$ -- 134
quote$ -- 0
skip$ -- 174
stack$ -- 0
substring$ -- 584
swap$ -- 32
text.length$ -- 2
text.prefix$ -- 0
top$ -- 0
type$ -- 92
warning$ -- 0
while$ -- 84
width$ -- 25
write$ -- 258
