%!PS-Adobe-3.0 EPSF-3.0
%%Title: RNA Dot Plot
%%Creator: ViennaRNA-2.3.1
%%CreationDate: Wed Feb 22 14:25:48 2017
%%BoundingBox: 0 0 700 720
%%DocumentFonts: Helvetica
%%Pages: 1
%%EndComments

%Options: 
%This file contains the square roots of the base pair probabilities in the form
% i  j  sqrt(p(i,j)) ubox

%%BeginProlog
/DPdict 100 dict def
DPdict begin
/logscale false def
/lpmin 1e-05 log def

/DataVisible  [ true true true true] def
/DataTitles   [ false false false false ] def

/min { 2 copy gt { exch } if pop } bind def

/max { 2 copy lt { exch } if pop } bind def

/box { %size x y box - draws box centered on x,y
   2 index 0.5 mul sub            % x -= 0.5
   exch 2 index 0.5 mul sub exch  % y -= 0.5
   3 -1 roll dup rectfill
} bind def

/ubox {
   logscale {
      log dup add lpmin div 1 exch sub dup 0 lt { pop 0 } if
   } if
   3 1 roll
   exch len exch sub 1 add box
} bind def

/lbox {
   3 1 roll
   len exch sub 1 add box
} bind def

/drawseq {
% print sequence along all 4 sides
[ [0.7 -0.3 0 ]
  [0.7 0.7 len add 0]
  [-0.3 len sub -0.4 -90]
  [-0.3 len sub 0.7 len add -90]
] {
   gsave
    aload pop rotate translate
    0 1 len 1 sub {
     dup 0 moveto
     sequence exch 1 getinterval
     show
    } for
   grestore
  } forall
} bind def

/drawgrid{
  gsave
  0.5 dup translate  0.01 setlinewidth
  len log 0.9 sub cvi 10 exch exp  % grid spacing
  dup 1 gt {
     dup dup 20 div dup 2 array astore exch 40 div setdash
  } { [0.3 0.7] 0.1 setdash } ifelse
  0 exch len {
     dup dup
     0 moveto
     len lineto
     dup
     len exch sub 0 exch moveto
     len exch len exch sub lineto
     stroke
  } for
  [] 0 setdash
  0.04 setlinewidth
  currentdict /cutpoint known {
    cutpoint 1 sub
    dup dup -1 moveto len 1 add lineto
    len exch sub dup
    -1 exch moveto len 1 add exch lineto
    stroke
  } if
  %% draw diagonal
  0 len moveto len 0 lineto stroke
  grestore
} bind def

/drawTitle {
  currentdict /DPtitle known {
    % center title text
    /Helvetica findfont 10 scalefont setfont
    360 705 moveto DPtitle dup stringwidth pop 2 div neg 0 rmoveto show
  } if
} bind def

/prepareCoords {
  0 1 3 {
    % check whether we want to display current data
    dup DataVisible exch get
    {
      % check whether we've actually got some data
      DataSource exch get dup currentdict exch known {
        % data source s_j is present, so find length of array
        currentdict exch get length 
      } { pop 0 } ifelse
    } if
  } for
  exch dup 5 -1 roll add 4 -1 roll dup 5 1 roll 4 -1 roll add max
  len add 3 add 700 exch div dup scale
  exch 1 add exch 1 add translate
} bind def

/utri{ % i j prob utri
  gsave
  0.5 dup translate
  1 min 2 div
  0.85 mul 0.15 add 0.95  0.33
  3 1 roll % prepare hsb color
  sethsbcolor
  % now produce the coordinates for lines
  exch 1 sub dup len exch sub dup 4 -1 roll dup 3 1 roll dup len exch sub
  moveto lineto lineto closepath fill
  grestore
} bind def

/uUDmotif{ % i j uUDmotif
  gsave
  0.5 dup translate
  1 min 2 div
  0.85 mul 0.15 add 0.95 0.6
  3 1 roll % prepare hsb color
  sethsbcolor
  % now produce the coordinates for lines
  exch 1 sub dup len exch sub dup 4 -1 roll dup 3 1 roll dup len exch sub
  moveto lineto lineto closepath fill
  grestore
} bind def
/lUDmotif{ % i j lUDmotif
  gsave
  0.5 dup translate
  1 min 2 div
  0.85 mul 0.15 add 0.95 0.6
  3 1 roll % prepare hsb color
  sethsbcolor
  % now produce the coordinates for lines
  dup len exch sub dup 4 -1 roll 1 sub dup 3 1 roll dup len exch sub
  moveto lineto lineto closepath fill
  grestore
} bind def

/uHmotif{ % i j uHmotif
  gsave
  0.5 dup translate
  1 min 2 div
  0.85 mul 0.15 add 0.95  0.99
  3 1 roll % prepare hsb color
  sethsbcolor
  % now produce the coordinates for lines
  exch 1 sub dup len exch sub dup 4 -1 roll dup 3 1 roll dup len exch sub
  moveto lineto lineto closepath fill
  grestore
} bind def
/lHmotif{ % i j lHmotif
  gsave
  0.5 dup translate
  1 min 2 div
  0.85 mul 0.15 add 0.95  0.99
  3 1 roll % prepare hsb color
  sethsbcolor
  % now produce the coordinates for lines
  dup len exch sub dup 4 -1 roll 1 sub dup 3 1 roll dup len exch sub
  moveto lineto lineto closepath fill
  grestore
} bind def
/uImotif{ % i j k l uImotif
  gsave
  0.5 dup translate
  1 min 2 div
  0.85 mul 0.15 add 0.95  0.99
  3 1 roll % prepare hsb color
  sethsbcolor
  % now produce the coordinates for lines
  1 sub dup 5 1 roll exch len exch sub dup 5 1 roll 3 -1 roll dup
  5 1 roll exch 4 1 roll 3 1 roll exch 1 sub len exch sub dup 3 1 roll
  moveto lineto lineto lineto closepath fill
  grestore
} bind def
/lImotif{ % i j k l lImotif
  gsave
  0.5 dup translate
  1 min 2 div
  0.85 mul 0.15 add 0.95  0.99
  3 1 roll % prepare hsb color
  sethsbcolor
  % now produce the coordinates for lines
  4 -1 roll 1 sub dup 5 1 roll exch 1 sub len exch sub dup 3 -1 roll exch
  5 -1 roll len exch sub dup 6 -1 roll dup 3 1 roll 7 4 roll
  moveto lineto lineto lineto closepath fill
  grestore
} bind def
/drawDataSquareBottom { % x v n dataSquareBottom draw box
  len add 2 add exch lbox
} bind def

/drawDataSquareTop { % x v n dataSquareBottom draw box
  neg 1 sub exch lbox
} bind def

/drawDataSquareLeft { % y v n dataSquareBottom draw box
  neg 1 sub 3 1 roll lbox
} bind def

/drawDataSquareRight { % y v n dataSquareBottom draw box
  % use size x y box to draw box
  2 add len add 3 1 roll lbox
} bind def

/drawDataSquareBottomHSB { % x v h s b n dataSquareBottomHSB draw box
  % use size x y box to draw box
  len add 2 add 5 1 roll sethsbcolor lbox
} bind def

/drawDataSquareTopHSB { % x v h s b n dataSquareBottomHSB draw box
  % use size x y box to draw box
  neg 1 sub 5 1 roll sethsbcolor lbox
} bind def

/drawDataSquareLeftHSB { % x v h s b n dataSquareLeftHSB draw box
  % use size x y box to draw box
  neg 1 sub 6 1 roll sethsbcolor lbox
} bind def

/drawDataSquareRightHSB { % x v h s b n dataSquareLeftHSB draw box
  % use size x y box to draw box
  2 add len add 6 1 roll sethsbcolor lbox
} bind def

/drawDataTitleBottom {
  /Helvetica findfont 0.95 scalefont setfont
  0 -1.4 3 -1 roll sub moveto 
  dup stringwidth pop neg 0 rmoveto   
  show
} bind def

/drawDataTitleTop {
  /Helvetica findfont 0.95 scalefont setfont
  0 len 1.6 add 3 -1 roll add moveto 
  dup stringwidth pop neg 0 rmoveto   
  show
} bind def

/drawDataTitleLeft {
  /Helvetica findfont 0.95 scalefont setfont
  neg 1.4 sub len 1 add moveto 
  dup stringwidth pop 0 exch rmoveto -90 rotate
  show 90 rotate
} bind def

/drawDataTitleRight {
  /Helvetica findfont 0.95 scalefont setfont
  1.6 add len add len 1 add moveto 
  dup stringwidth pop 0 exch rmoveto -90 rotate
  show 90 rotate
} bind def

% do not modify the arrays below unless you know what you're doing!
/DataSource     [ /topData /leftData /bottomData /rightData ] def
/DataDrawBox    [ /drawDataSquareTop  /drawDataSquareLeft /drawDataSquareBottom /drawDataSquareRight] def
/DataDrawBoxHSB [ /drawDataSquareTopHSB /drawDataSquareLeftHSB /drawDataSquareBottomHSB /drawDataSquareRightHSB ] def
/DataDrawTitle  [ /drawDataTitleTop /drawDataTitleLeft /drawDataTitleBottom /drawDataTitleRight ] def

% this is the logic to parse the auxiliary linear data
% given in arrays topData, leftData, bottomData, and rightData
% See also the Boolean arrays DataVisible and DataTitles that
% are used to control which part of data will be visible
/drawData {
  0 1 3 {
    % check whether we want to display current data
    dup DataVisible exch get
    {
      % check whether we've actually got some data
      dup DataSource exch get dup currentdict exch known {
        % data source s_j is present, so we load the
        % corresponding data array a and loop over all data sets a[i]
        currentdict exch get dup length 1 sub 0 1 3 -1 roll {
          dup dup
          % now on stack: j a i i i

          % load data set, i.e. a[i]
          4 -1 roll         % j i i i a
          dup 3 -1 roll get dup % j i i a a[i] a[i]

          % 1. check whether we need to process data set title
          6 -1 roll dup 7 1 roll DataTitles exch get {
            % get current title drawing function key
            6 -1 roll dup 7 1 roll DataDrawTitle exch get
            % now on stack: ... j i i a a[i] a[i] title_draw_key

            % get current title and execute drawing function
            exch 0 get exch currentdict exch get 5 -1 roll exch exec
          } { % remove unused variables
              pop 3 -1 roll pop
          } ifelse
          % now on stack: ... j i a a[i]

          % 2. process actual data a[k] for 1 <= k < n
          dup length 1 sub 1 exch getinterval { 
            % on stack: j i a a[i][k]
            gsave
            dup length 2 eq { % print black box if two-valued
              % get box drawing function
              4 -1 roll dup 5 1 roll DataDrawBox exch get currentdict exch get exch
              aload pop 5 -1 roll dup 6 1 roll 4 -1 roll exec
            } {
              dup length 5 eq { % print box with hsb color
                % get box drawing function
                4 -1 roll dup 5 1 roll DataDrawBoxHSB exch get currentdict exch get exch
                % on stack: j i a f a[i]
                % load data array and prepare for drawing
                aload pop 8 -1 roll dup 9 1 roll 7 -1 roll exec
              } { pop } ifelse
            } ifelse
            grestore
          } forall
          exch pop 
          % left on stack: j a
        } for
        
      } if
    } if
  } for
} bind def

end
%EndProlog

DPdict begin

/DPtitle {
  (dot.ps)
} def

/sequence { (\
UCCAGCAGGAAAGCUCCAGCAGGAAAGCUCCAGCAGGAAAGCUCCAGCAGGAAAGC\
) } def

/len { sequence length } bind def

% BEGIN linear data array

/topData [
] def

/leftData [
] def

/bottomData [
] def

/rightData [
] def

% END linear data arrays

%Finally, prepare canvas

%draw title
drawTitle

%prepare coordinate system, draw grid and sequence
/Helvetica findfont 0.95 scalefont setfont

%prepare coordinate system
prepareCoords

%draw sequence arround grid
drawseq

%draw grid
drawgrid

%draw auxiliary linear data (if available)
drawData

%data (commands) starts here

%start of quadruplex data

%start of Hmotif data

%start of Imotif data
%start of base pair probability data
50 56 0.003786473 ubox
1 24 0.252938642 ubox
1 25 0.011626086 ubox
1 38 0.044094129 ubox
1 51 0.009706520 ubox
1 52 0.895201752 ubox
1 53 0.041150460 ubox
1 54 0.008878045 ubox
1 55 0.005031703 ubox
2 9 0.053811439 ubox
2 22 0.003432694 ubox
2 23 0.270642918 ubox
2 37 0.047180492 ubox
2 50 0.012146521 ubox
2 51 0.957862804 ubox
3 8 0.053749786 ubox
3 22 0.270264540 ubox
3 23 0.005676372 ubox
3 36 0.047114582 ubox
3 50 0.956522997 ubox
3 51 0.020098333 ubox
4 15 0.009652023 ubox
5 14 0.014217733 ubox
5 20 0.270788261 ubox
5 34 0.047314592 ubox
5 48 0.957316796 ubox
6 13 0.014223637 ubox
6 19 0.270787931 ubox
6 33 0.047314555 ubox
6 47 0.957317325 ubox
7 15 0.005316944 ubox
8 14 0.005501208 ubox
8 15 0.004826194 ubox
8 17 0.271099133 ubox
8 31 0.047613075 ubox
8 43 0.004392182 ubox
8 44 0.010311873 ubox
8 45 0.956149945 ubox
9 14 0.005023029 ubox
9 16 0.271490248 ubox
9 17 0.003530549 ubox
9 30 0.047636131 ubox
9 42 0.004517777 ubox
9 43 0.005677242 ubox
9 44 0.956621853 ubox
9 45 0.041266868 ubox
10 15 0.253913557 ubox
10 29 0.037684381 ubox
10 43 0.756989770 ubox
11 15 0.006104887 ubox
11 29 0.005694127 ubox
11 43 0.113649964 ubox
12 29 0.029578765 ubox
12 43 0.531434139 ubox
13 20 0.003778104 ubox
13 28 0.048277352 ubox
13 34 0.003987038 ubox
13 42 0.890595720 ubox
13 56 0.034304116 ubox
14 19 0.003769744 ubox
14 27 0.048273351 ubox
14 33 0.003992090 ubox
14 37 0.004516968 ubox
14 41 0.890595519 ubox
14 55 0.034534653 ubox
15 24 0.042156257 ubox
15 25 0.006158581 ubox
15 26 0.029006736 ubox
15 32 0.003915804 ubox
15 36 0.004392306 ubox
15 37 0.005678026 ubox
15 38 0.757073268 ubox
15 39 0.113666926 ubox
15 40 0.531398051 ubox
15 52 0.040948516 ubox
15 53 0.004608124 ubox
15 54 0.020640005 ubox
16 23 0.053079763 ubox
16 36 0.010312909 ubox
16 37 0.956728393 ubox
16 51 0.048404802 ubox
17 22 0.053065508 ubox
17 36 0.956256568 ubox
17 37 0.041271837 ubox
17 50 0.048364464 ubox
18 29 0.012067311 ubox
19 28 0.013326373 ubox
19 34 0.957378278 ubox
19 48 0.048627367 ubox
20 27 0.013320444 ubox
20 33 0.957377344 ubox
20 47 0.048627266 ubox
21 29 0.018307184 ubox
22 28 0.018596154 ubox
22 29 0.016911582 ubox
22 30 0.010603178 ubox
22 31 0.957440721 ubox
22 45 0.048865256 ubox
23 28 0.017494631 ubox
23 29 0.008964637 ubox
23 30 0.958823321 ubox
23 31 0.012467415 ubox
23 44 0.048888970 ubox
24 29 0.896747459 ubox
24 43 0.038675461 ubox
25 29 0.021546319 ubox
25 43 0.005846473 ubox
26 43 0.030648119 ubox
27 34 0.003294485 ubox
27 42 0.049616451 ubox
27 48 0.020680958 ubox
27 56 0.196397012 ubox
28 33 0.003287610 ubox
28 41 0.049611568 ubox
28 47 0.020701676 ubox
28 51 0.003390195 ubox
28 55 0.197715190 ubox
29 38 0.043298812 ubox
29 39 0.006329540 ubox
29 40 0.029810826 ubox
29 46 0.020296798 ubox
29 50 0.003277306 ubox
29 52 0.229719309 ubox
29 53 0.026353498 ubox
29 54 0.117984193 ubox
30 37 0.054569366 ubox
30 50 0.003239475 ubox
30 51 0.269608943 ubox
31 36 0.054554902 ubox
31 50 0.269380403 ubox
31 51 0.009759234 ubox
32 43 0.021089690 ubox
33 42 0.022125870 ubox
33 48 0.269942150 ubox
34 41 0.022110341 ubox
34 47 0.269941708 ubox
35 43 0.005378162 ubox
36 42 0.005625879 ubox
36 43 0.004828415 ubox
36 45 0.270259082 ubox
37 42 0.005043970 ubox
37 44 0.270648975 ubox
37 45 0.003519829 ubox
38 43 0.253126753 ubox
39 43 0.006086290 ubox
41 48 0.007705436 ubox
41 56 0.035097830 ubox
42 47 0.007688311 ubox
42 55 0.035334350 ubox
43 52 0.044160039 ubox
43 53 0.004752842 ubox
43 54 0.021234541 ubox
44 51 0.053318757 ubox
45 50 0.053289966 ubox
47 56 0.010085747 ubox
48 55 0.010166782 ubox
1 10 0.050291395 ubox
1 52 0.9500000 lbox
2 51 0.9500000 lbox
3 50 0.9500000 lbox
5 48 0.9500000 lbox
6 47 0.9500000 lbox
8 45 0.9500000 lbox
9 44 0.9500000 lbox
10 43 0.9500000 lbox
13 42 0.9500000 lbox
14 41 0.9500000 lbox
15 38 0.9500000 lbox
16 37 0.9500000 lbox
17 36 0.9500000 lbox
19 34 0.9500000 lbox
20 33 0.9500000 lbox
22 31 0.9500000 lbox
23 30 0.9500000 lbox
24 29 0.9500000 lbox
showpage
end
%%EOF
