# avg-time F1
# beam 100
0.08 54.79 Beam100
# Contrafold Viterbi
0.10 53.73 Contrafold-Viterbi
# Contrafold MEA
2.21 55.77 Contrafold-MEA
# Vienna
0.15 52.42 Vienna
# RNAStructure
185.29 51.23 RNAStructure